memory,mflops
23437.500,222535.420,
93750.000,416956.326,
210937.500,490765.011,
375000.000,563682.185,
585937.500,599758.728,
843750.000,622456.570,
1148437.500,634512.887,
1500000.000,641525.904,
1898437.500,649494.607,
2343750.000,656592.066,
