Loaded module: cuda/10.0
Loaded dependency [gcc/7.3.0]: binutils
Loaded module: gcc/7.3.0
Running for n = 10
/zhome/e7/a/97980/.lsbatch/1548342131.1866825.shell: line 28: ./matmult_f.nvcc: Permission denied
Running for n = 50
/zhome/e7/a/97980/.lsbatch/1548342131.1866825.shell: line 28: ./matmult_f.nvcc: Permission denied
Running for n = 100
/zhome/e7/a/97980/.lsbatch/1548342131.1866825.shell: line 28: ./matmult_f.nvcc: Permission denied
Running for n = 200
/zhome/e7/a/97980/.lsbatch/1548342131.1866825.shell: line 28: ./matmult_f.nvcc: Permission denied
Running for n = 300
/zhome/e7/a/97980/.lsbatch/1548342131.1866825.shell: line 28: ./matmult_f.nvcc: Permission denied
Running for n = 400
/zhome/e7/a/97980/.lsbatch/1548342131.1866825.shell: line 28: ./matmult_f.nvcc: Permission denied
Running for n = 500
/zhome/e7/a/97980/.lsbatch/1548342131.1866825.shell: line 28: ./matmult_f.nvcc: Permission denied
Running for n = 600
/zhome/e7/a/97980/.lsbatch/1548342131.1866825.shell: line 28: ./matmult_f.nvcc: Permission denied
Running for n = 700
/zhome/e7/a/97980/.lsbatch/1548342131.1866825.shell: line 28: ./matmult_f.nvcc: Permission denied
Running for n = 800
/zhome/e7/a/97980/.lsbatch/1548342131.1866825.shell: line 28: ./matmult_f.nvcc: Permission denied
Running for n = 900
/zhome/e7/a/97980/.lsbatch/1548342131.1866825.shell: line 28: ./matmult_f.nvcc: Permission denied
Running for n = 1000
/zhome/e7/a/97980/.lsbatch/1548342131.1866825.shell: line 28: ./matmult_f.nvcc: Permission denied

------------------------------------------------------------
Sender: LSF System <lsfadmin@n-62-20-14>
Subject: Job 1866825: <matgpu1> in cluster <dcc> Done

Job <matgpu1> was submitted from host <n-62-13-2> by user <s144257> in cluster <dcc> at Thu Jan 24 16:02:11 2019
Job was executed on host(s) <n-62-20-14>, in queue <hpcintrogpu>, as user <s144257> in cluster <dcc> at Thu Jan 24 16:02:12 2019
</zhome/e7/a/97980> was used as the home directory.
</zhome/e7/a/97980/02614-HPC/Assignments/assignment3> was used as the working directory.
Started at Thu Jan 24 16:02:12 2019
Terminated at Thu Jan 24 16:02:14 2019
Results reported at Thu Jan 24 16:02:14 2019

Your job looked like:

------------------------------------------------------------
# LSBATCH: User input
#!/bin/sh
#BSUB -W 10:00
#BSUB -J matgpu1
#BSUB -r 
#BSUB -R "rusage[mem=4GB]"
#BSUB -q hpcintrogpu
#BSUB -gpu "num=1:mode=exclusive_process:mps=yes"
#BSUB -o data/jobs/gpu1.txt

module load cuda/10.0
module load gcc/7.3.0

N="10 50 100 200 300 400 500 600 700 800 900 1000"

output1=data/gpu1_small.dat

# Make header and flush file contents
echo "memory,mflops">$output1


if [ ! -d data/jobs ]; then
  mkdir -p  data/jobs;
fi

for n in $N
do
    echo "Running for n = $n";
    MATMULT_COMPARE=0 ./matmult_f.nvcc gpu1 $n $n $n | awk '{ print $1","$2}'>>$output1
done

exit 0


------------------------------------------------------------

Successfully completed.

Resource usage summary:

    CPU time :                                   0.27 sec.
    Max Memory :                                 -
    Average Memory :                             -
    Total Requested Memory :                     4096.00 MB
    Delta Memory :                               -
    Max Swap :                                   -
    Max Processes :                              -
    Max Threads :                                -
    Run time :                                   2 sec.
    Turnaround time :                            3 sec.

The output (if any) is above this job summary.

Loaded module: cuda/10.0
Loaded dependency [gcc/7.3.0]: binutils
Loaded module: gcc/7.3.0
Running for n = 10
/zhome/e7/a/97980/.lsbatch/1548343254.1866959.shell: line 28: ./matmult_f.nvcc: Permission denied
Running for n = 50
/zhome/e7/a/97980/.lsbatch/1548343254.1866959.shell: line 28: ./matmult_f.nvcc: Permission denied
Running for n = 100
/zhome/e7/a/97980/.lsbatch/1548343254.1866959.shell: line 28: ./matmult_f.nvcc: Permission denied
Running for n = 200
/zhome/e7/a/97980/.lsbatch/1548343254.1866959.shell: line 28: ./matmult_f.nvcc: Permission denied
Running for n = 300
/zhome/e7/a/97980/.lsbatch/1548343254.1866959.shell: line 28: ./matmult_f.nvcc: Permission denied
Running for n = 400
/zhome/e7/a/97980/.lsbatch/1548343254.1866959.shell: line 28: ./matmult_f.nvcc: Permission denied
Running for n = 500
/zhome/e7/a/97980/.lsbatch/1548343254.1866959.shell: line 28: ./matmult_f.nvcc: Permission denied
Running for n = 600
/zhome/e7/a/97980/.lsbatch/1548343254.1866959.shell: line 28: ./matmult_f.nvcc: Permission denied
Running for n = 700
/zhome/e7/a/97980/.lsbatch/1548343254.1866959.shell: line 28: ./matmult_f.nvcc: Permission denied
Running for n = 800
/zhome/e7/a/97980/.lsbatch/1548343254.1866959.shell: line 28: ./matmult_f.nvcc: Permission denied
Running for n = 900
/zhome/e7/a/97980/.lsbatch/1548343254.1866959.shell: line 28: ./matmult_f.nvcc: Permission denied
Running for n = 1000
/zhome/e7/a/97980/.lsbatch/1548343254.1866959.shell: line 28: ./matmult_f.nvcc: Permission denied

------------------------------------------------------------
Sender: LSF System <lsfadmin@n-62-20-15>
Subject: Job 1866959: <matgpu1> in cluster <dcc> Done

Job <matgpu1> was submitted from host <n-62-13-2> by user <s144257> in cluster <dcc> at Thu Jan 24 16:20:54 2019
Job was executed on host(s) <n-62-20-15>, in queue <hpcintrogpu>, as user <s144257> in cluster <dcc> at Thu Jan 24 16:20:56 2019
</zhome/e7/a/97980> was used as the home directory.
</zhome/e7/a/97980/02614-HPC/Assignments/assignment3> was used as the working directory.
Started at Thu Jan 24 16:20:56 2019
Terminated at Thu Jan 24 16:20:57 2019
Results reported at Thu Jan 24 16:20:57 2019

Your job looked like:

------------------------------------------------------------
# LSBATCH: User input
#!/bin/sh
#BSUB -W 10:00
#BSUB -J matgpu1
#BSUB -r 
#BSUB -R "rusage[mem=4GB]"
#BSUB -q hpcintrogpu
#BSUB -gpu "num=1:mode=exclusive_process:mps=yes"
#BSUB -o data/jobs/gpu1.txt

module load cuda/10.0
module load gcc/7.3.0

N="10 50 100 200 300 400 500 600 700 800 900 1000"

output1=data/gpu1_small.dat

# Make header and flush file contents
echo "memory,mflops">$output1


if [ ! -d data/jobs ]; then
  mkdir -p  data/jobs;
fi

for n in $N
do
    echo "Running for n = $n";
    MATMULT_COMPARE=0 ./matmult_f.nvcc gpu1 $n $n $n | awk '{ print $1","$2}'>>$output1
done

exit 0


------------------------------------------------------------

Successfully completed.

Resource usage summary:

    CPU time :                                   0.28 sec.
    Max Memory :                                 -
    Average Memory :                             -
    Total Requested Memory :                     4096.00 MB
    Delta Memory :                               -
    Max Swap :                                   -
    Max Processes :                              -
    Max Threads :                                -
    Run time :                                   19 sec.
    Turnaround time :                            3 sec.

The output (if any) is above this job summary.

Loaded module: cuda/10.0
Loaded dependency [gcc/7.3.0]: binutils
Loaded module: gcc/7.3.0
Running for n = 10
Running for n = 50
Running for n = 100
Running for n = 200
Running for n = 300
Running for n = 400
Running for n = 500
Running for n = 600
Running for n = 700
Running for n = 800
Running for n = 900
Running for n = 1000

------------------------------------------------------------
Sender: LSF System <lsfadmin@n-62-20-15>
Subject: Job 1866965: <matgpu1> in cluster <dcc> Done

Job <matgpu1> was submitted from host <n-62-13-2> by user <s144257> in cluster <dcc> at Thu Jan 24 16:23:04 2019
Job was executed on host(s) <n-62-20-15>, in queue <hpcintrogpu>, as user <s144257> in cluster <dcc> at Thu Jan 24 16:23:10 2019
</zhome/e7/a/97980> was used as the home directory.
</zhome/e7/a/97980/02614-HPC/Assignments/assignment3> was used as the working directory.
Started at Thu Jan 24 16:23:10 2019
Terminated at Thu Jan 24 16:30:23 2019
Results reported at Thu Jan 24 16:30:23 2019

Your job looked like:

------------------------------------------------------------
# LSBATCH: User input
#!/bin/sh
#BSUB -W 10:00
#BSUB -J matgpu1
#BSUB -r 
#BSUB -R "rusage[mem=4GB]"
#BSUB -q hpcintrogpu
#BSUB -gpu "num=1:mode=exclusive_process:mps=yes"
#BSUB -o data/jobs/gpu1.txt

module load cuda/10.0
module load gcc/7.3.0

N="10 50 100 200 300 400 500 600 700 800 900 1000"

output1=data/gpu1_small.dat

# Make header and flush file contents
echo "memory,mflops">$output1


if [ ! -d data/jobs ]; then
  mkdir -p  data/jobs;
fi

for n in $N
do
    echo "Running for n = $n";
    MATMULT_COMPARE=0 ./matmult_f.nvcc gpu1 $n $n $n | awk '{ print $1","$2}'>>$output1
done

exit 0


------------------------------------------------------------

Successfully completed.

Resource usage summary:

    CPU time :                                   429.00 sec.
    Max Memory :                                 37 MB
    Average Memory :                             32.47 MB
    Total Requested Memory :                     4096.00 MB
    Delta Memory :                               4059.00 MB
    Max Swap :                                   -
    Max Processes :                              5
    Max Threads :                                8
    Run time :                                   433 sec.
    Turnaround time :                            439 sec.

The output (if any) is above this job summary.

Loaded module: cuda/10.0
Loaded dependency [gcc/7.3.0]: binutils
Loaded module: gcc/7.3.0
Running for n = 10
awk: cmd. line:1: { print $1","$2,"$3}
awk: cmd. line:1:                 ^ unterminated string
awk: cmd. line:1: { print $1","$2,"$3}
awk: cmd. line:1:                 ^ syntax error
Running for n = 50
awk: cmd. line:1: { print $1","$2,"$3}
awk: cmd. line:1:                 ^ unterminated string
awk: cmd. line:1: { print $1","$2,"$3}
awk: cmd. line:1:                 ^ syntax error
Running for n = 100
awk: cmd. line:1: { print $1","$2,"$3}
awk: cmd. line:1:                 ^ unterminated string
awk: cmd. line:1: { print $1","$2,"$3}
awk: cmd. line:1:                 ^ syntax error
Running for n = 200
awk: cmd. line:1: { print $1","$2,"$3}
awk: cmd. line:1:                 ^ unterminated string
awk: cmd. line:1: { print $1","$2,"$3}
awk: cmd. line:1:                 ^ syntax error
Running for n = 300
awk: cmd. line:1: { print $1","$2,"$3}
awk: cmd. line:1:                 ^ unterminated string
awk: cmd. line:1: { print $1","$2,"$3}
awk: cmd. line:1:                 ^ syntax error
Running for n = 400
awk: cmd. line:1: { print $1","$2,"$3}
awk: cmd. line:1:                 ^ unterminated string
awk: cmd. line:1: { print $1","$2,"$3}
awk: cmd. line:1:                 ^ syntax error
Running for n = 500
awk: cmd. line:1: { print $1","$2,"$3}
awk: cmd. line:1:                 ^ unterminated string
awk: cmd. line:1: { print $1","$2,"$3}
awk: cmd. line:1:                 ^ syntax error
Running for n = 600
awk: cmd. line:1: { print $1","$2,"$3}
awk: cmd. line:1:                 ^ unterminated string
awk: cmd. line:1: { print $1","$2,"$3}
awk: cmd. line:1:                 ^ syntax error
Running for n = 700
awk: cmd. line:1: { print $1","$2,"$3}
awk: cmd. line:1:                 ^ unterminated string
awk: cmd. line:1: { print $1","$2,"$3}
awk: cmd. line:1:                 ^ syntax error

------------------------------------------------------------
Sender: LSF System <lsfadmin@n-62-20-16>
Subject: Job 1867292: <matgpu1> in cluster <dcc> Exited

Job <matgpu1> was submitted from host <n-62-20-10> by user <s144257> in cluster <dcc> at Thu Jan 24 18:29:53 2019
Job was executed on host(s) <n-62-20-16>, in queue <hpcintrogpu>, as user <s144257> in cluster <dcc> at Thu Jan 24 18:29:54 2019
</zhome/e7/a/97980> was used as the home directory.
</zhome/e7/a/97980/02614-HPC/Assignments/assignment3> was used as the working directory.
Started at Thu Jan 24 18:29:54 2019
Terminated at Thu Jan 24 18:38:22 2019
Results reported at Thu Jan 24 18:38:22 2019

Your job looked like:

------------------------------------------------------------
# LSBATCH: User input
#!/bin/sh
#BSUB -W 10:00
#BSUB -J matgpu1
#BSUB -r 
#BSUB -R "rusage[mem=4GB]"
#BSUB -q hpcintrogpu
#BSUB -gpu "num=1:mode=exclusive_process:mps=yes"
#BSUB -o data/jobs/gpu1.txt

module load cuda/10.0
module load gcc/7.3.0

N="10 50 100 200 300 400 500 600 700 800 900 1000"

output1=data/gpu1_small.dat

# Make header and flush file contents
echo "memory,mflops">$output1


if [ ! -d data/jobs ]; then
  mkdir -p  data/jobs;
fi

for n in $N
do
    echo "Running for n = $n";
    MATMULT_COMPARE=0 ./matmult_f.nvcc gpu1 $n $n $n | awk '{ print $1","$2,"$3}'>>$output1
done

exit 0


------------------------------------------------------------

TERM_OWNER: job killed by owner.
Exited with exit code 130.

Resource usage summary:

    CPU time :                                   503.00 sec.
    Max Memory :                                 28 MB
    Average Memory :                             25.47 MB
    Total Requested Memory :                     4096.00 MB
    Delta Memory :                               4068.00 MB
    Max Swap :                                   -
    Max Processes :                              4
    Max Threads :                                7
    Run time :                                   522 sec.
    Turnaround time :                            509 sec.

The output (if any) is above this job summary.

Loaded module: cuda/10.0
Loaded dependency [gcc/7.3.0]: binutils
Loaded module: gcc/7.3.0
Running for n = 10
Running for n = 50
Running for n = 100
Running for n = 200
Running for n = 300
Running for n = 400
Running for n = 500
Running for n = 600
Running for n = 700
Running for n = 800
Loaded module: cuda/10.0
Loaded dependency [gcc/7.3.0]: binutils
Loaded module: gcc/7.3.0
Running for n = 1000

------------------------------------------------------------
Sender: LSF System <lsfadmin@n-62-20-16>
Subject: Job 1867307: <matgpu1> in cluster <dcc> Exited

Job <matgpu1> was submitted from host <n-62-20-10> by user <s144257> in cluster <dcc> at Thu Jan 24 18:40:21 2019
Job was executed on host(s) <n-62-20-16>, in queue <hpcintrogpu>, as user <s144257> in cluster <dcc> at Thu Jan 24 18:40:22 2019
</zhome/e7/a/97980> was used as the home directory.
</zhome/e7/a/97980/02614-HPC/Assignments/assignment3> was used as the working directory.
Started at Thu Jan 24 18:40:22 2019
Terminated at Thu Jan 24 19:03:24 2019
Results reported at Thu Jan 24 19:03:24 2019

Your job looked like:

------------------------------------------------------------
# LSBATCH: User input
#!/bin/sh
#BSUB -W 10:00
#BSUB -J matgpu1
#BSUB -r 
#BSUB -R "rusage[mem=4GB]"
#BSUB -q hpcintrogpu
#BSUB -gpu "num=1:mode=exclusive_process:mps=yes"
#BSUB -o data/jobs/gpu1.txt

module load cuda/10.0
module load gcc/7.3.0

N="10 50 100 200 300 400 500 600 700 800 900 1000"

output1=data/gpu1_small.dat

# Make header and flush file contents
echo "memory,mflops">$output1


if [ ! -d data/jobs ]; then
  mkdir -p  data/jobs;
fi

for n in $N
do
    echo "Running for n = $n";
    MATMULT_COMPARE=0 ./matmult_f.nvcc gpu1 $n $n $n | awk '{ print $1","$2","$3}'>>$output1
done

exit 0


------------------------------------------------------------

TERM_OWNER: job killed by owner.
Exited with exit code 130.

Resource usage summary:

    CPU time :                                   1376.00 sec.
    Max Memory :                                 30 MB
    Average Memory :                             27.77 MB
    Total Requested Memory :                     4096.00 MB
    Delta Memory :                               4066.00 MB
    Max Swap :                                   -
    Max Processes :                              5
    Max Threads :                                8
    Run time :                                   1411 sec.
    Turnaround time :                            1383 sec.

The output (if any) is above this job summary.


------------------------------------------------------------
Sender: LSF System <lsfadmin@n-62-20-14>
Subject: Job 1867335: <matgpu1> in cluster <dcc> Exited

Job <matgpu1> was submitted from host <n-62-20-10> by user <s144257> in cluster <dcc> at Thu Jan 24 18:51:41 2019
Job was executed on host(s) <n-62-20-14>, in queue <hpcintrogpu>, as user <s144257> in cluster <dcc> at Thu Jan 24 18:59:41 2019
</zhome/e7/a/97980> was used as the home directory.
</zhome/e7/a/97980/02614-HPC/Assignments/assignment3> was used as the working directory.
Started at Thu Jan 24 18:59:41 2019
Terminated at Thu Jan 24 19:03:26 2019
Results reported at Thu Jan 24 19:03:26 2019

Your job looked like:

------------------------------------------------------------
# LSBATCH: User input
#!/bin/sh
#BSUB -W 10:00
#BSUB -J matgpu1
#BSUB -r 
#BSUB -R "rusage[mem=4GB]"
#BSUB -q hpcintrogpu
#BSUB -gpu "num=1:mode=exclusive_process:mps=yes"
#BSUB -o data/jobs/gpu1.txt

module load cuda/10.0
module load gcc/7.3.0

N="1000 2000 3000 4000 5000 6000 7000 8000 9000 10000"

output1=data/gpu3_h.dat

# Make header and flush file contents
echo "memory,mflops">$output1


if [ ! -d data/jobs ]; then
  mkdir -p  data/jobs;
fi

for n in $N
do
    echo "Running for n = $n";
    MATMULT_COMPARE=0 ./matmult_f.nvcc gpu1 $n $n $n | awk '{ print $1","$2","$3}'>>$output1
done

exit 0


------------------------------------------------------------

TERM_OWNER: job killed by owner.
Exited with exit code 130.

Resource usage summary:

    CPU time :                                   223.17 sec.
    Max Memory :                                 39 MB
    Average Memory :                             39.00 MB
    Total Requested Memory :                     4096.00 MB
    Delta Memory :                               4057.00 MB
    Max Swap :                                   -
    Max Processes :                              5
    Max Threads :                                8
    Run time :                                   225 sec.
    Turnaround time :                            705 sec.

The output (if any) is above this job summary.

Loaded module: cuda/10.0
Loaded dependency [gcc/7.3.0]: binutils
Loaded module: gcc/7.3.0
Running for n = 1000
Running for n = 2000
Running for n = 3000
Running for n = 4000
Running for n = 5000
Running for n = 6000
Running for n = 7000
Running for n = 8000
Running for n = 9000
Running for n = 10000

------------------------------------------------------------
Sender: LSF System <lsfadmin@n-62-20-16>
Subject: Job 1867359: <mgpu3_h> in cluster <dcc> Done

Job <mgpu3_h> was submitted from host <n-62-20-10> by user <s144257> in cluster <dcc> at Thu Jan 24 19:07:26 2019
Job was executed on host(s) <n-62-20-16>, in queue <hpcintrogpu>, as user <s144257> in cluster <dcc> at Thu Jan 24 19:07:26 2019
</zhome/e7/a/97980> was used as the home directory.
</zhome/e7/a/97980/02614-HPC/Assignments/assignment3> was used as the working directory.
Started at Thu Jan 24 19:07:26 2019
Terminated at Thu Jan 24 19:08:43 2019
Results reported at Thu Jan 24 19:08:43 2019

Your job looked like:

------------------------------------------------------------
# LSBATCH: User input
#!/bin/sh
#BSUB -W 10:00
#BSUB -J mgpu3_h
#BSUB -r 
#BSUB -R "rusage[mem=4GB]"
#BSUB -q hpcintrogpu
#BSUB -gpu "num=1:mode=exclusive_process:mps=yes"
#BSUB -o data/jobs/gpu1.txt

module load cuda/10.0
module load gcc/7.3.0

N="1000 2000 3000 4000 5000 6000 7000 8000 9000 10000"

output1=data/gpu3_h.dat

# Make header and flush file contents
echo "memory,mflops">$output1


if [ ! -d data/jobs ]; then
  mkdir -p  data/jobs;
fi

for n in $N
do
    echo "Running for n = $n";
    MATMULT_COMPARE=0 ./matmult_f.nvcc gpu3 $n $n $n | awk '{ print $1","$2","$3}'>>$output1
done

exit 0


------------------------------------------------------------

Successfully completed.

Resource usage summary:

    CPU time :                                   75.49 sec.
    Max Memory :                                 1547 MB
    Average Memory :                             1136.60 MB
    Total Requested Memory :                     4096.00 MB
    Delta Memory :                               2549.00 MB
    Max Swap :                                   -
    Max Processes :                              5
    Max Threads :                                8
    Run time :                                   102 sec.
    Turnaround time :                            77 sec.

The output (if any) is above this job summary.

Loaded module: cuda/10.0
Loaded dependency [gcc/7.3.0]: binutils
Loaded module: gcc/7.3.0
Running for n = 1000
Running for n = 2000
Running for n = 3000
Running for n = 4000
Running for n = 5000
Running for n = 6000
Running for n = 7000
Running for n = 8000
Running for n = 9000
Running for n = 10000

------------------------------------------------------------
Sender: LSF System <lsfadmin@n-62-20-16>
Subject: Job 1867367: <mgpu3_v> in cluster <dcc> Done

Job <mgpu3_v> was submitted from host <n-62-20-10> by user <s144257> in cluster <dcc> at Thu Jan 24 19:10:45 2019
Job was executed on host(s) <n-62-20-16>, in queue <hpcintrogpu>, as user <s144257> in cluster <dcc> at Thu Jan 24 19:10:47 2019
</zhome/e7/a/97980> was used as the home directory.
</zhome/e7/a/97980/02614-HPC/Assignments/assignment3> was used as the working directory.
Started at Thu Jan 24 19:10:47 2019
Terminated at Thu Jan 24 19:11:53 2019
Results reported at Thu Jan 24 19:11:53 2019

Your job looked like:

------------------------------------------------------------
# LSBATCH: User input
#!/bin/sh
#BSUB -W 10:00
#BSUB -J mgpu3_v
#BSUB -r 
#BSUB -R "rusage[mem=4GB]"
#BSUB -q hpcintrogpu
#BSUB -gpu "num=1:mode=exclusive_process:mps=yes"
#BSUB -o data/jobs/gpu1.txt

module load cuda/10.0
module load gcc/7.3.0

N="1000 2000 3000 4000 5000 6000 7000 8000 9000 10000"

output1=data/gpu3_v.dat

# Make header and flush file contents
echo "memory,mflops">$output1


if [ ! -d data/jobs ]; then
  mkdir -p  data/jobs;
fi

for n in $N
do
    echo "Running for n = $n";
    MATMULT_COMPARE=0 ./matmult_f.nvcc gpu3 $n $n $n | awk '{ print $1","$2","$3}'>>$output1
done

exit 0


------------------------------------------------------------

Successfully completed.

Resource usage summary:

    CPU time :                                   64.16 sec.
    Max Memory :                                 1545 MB
    Average Memory :                             1032.25 MB
    Total Requested Memory :                     4096.00 MB
    Delta Memory :                               2551.00 MB
    Max Swap :                                   -
    Max Processes :                              5
    Max Threads :                                8
    Run time :                                   81 sec.
    Turnaround time :                            68 sec.

The output (if any) is above this job summary.

Loaded module: cuda/10.0
Loaded dependency [gcc/7.3.0]: binutils
Loaded module: gcc/7.3.0
Running for n = 1000
Running for n = 2000
Running for n = 3000
Running for n = 4000
Running for n = 5000
Running for n = 6000
Running for n = 7000
Running for n = 8000
Running for n = 9000
Running for n = 10000

------------------------------------------------------------
Sender: LSF System <lsfadmin@n-62-20-15>
Subject: Job 1867369: <mgpu4_v_4> in cluster <dcc> Done

Job <mgpu4_v_4> was submitted from host <n-62-20-10> by user <s144257> in cluster <dcc> at Thu Jan 24 19:11:59 2019
Job was executed on host(s) <n-62-20-15>, in queue <hpcintrogpu>, as user <s144257> in cluster <dcc> at Thu Jan 24 19:12:00 2019
</zhome/e7/a/97980> was used as the home directory.
</zhome/e7/a/97980/02614-HPC/Assignments/assignment3> was used as the working directory.
Started at Thu Jan 24 19:12:00 2019
Terminated at Thu Jan 24 19:13:07 2019
Results reported at Thu Jan 24 19:13:07 2019

Your job looked like:

------------------------------------------------------------
# LSBATCH: User input
#!/bin/sh
#BSUB -W 10:00
#BSUB -J mgpu4_v_4
#BSUB -r 
#BSUB -R "rusage[mem=4GB]"
#BSUB -q hpcintrogpu
#BSUB -gpu "num=1:mode=exclusive_process:mps=yes"
#BSUB -o data/jobs/gpu1.txt

module load cuda/10.0
module load gcc/7.3.0

N="1000 2000 3000 4000 5000 6000 7000 8000 9000 10000"

output1=data/gpu4_v_4.dat

# Make header and flush file contents
echo "memory,mflops">$output1


if [ ! -d data/jobs ]; then
  mkdir -p  data/jobs;
fi

for n in $N
do
    echo "Running for n = $n";
    MATMULT_COMPARE=0 ./matmult_f.nvcc gpu3 $n $n $n | awk '{ print $1","$2","$3}'>>$output1
done

exit 0


------------------------------------------------------------

Successfully completed.

Resource usage summary:

    CPU time :                                   64.27 sec.
    Max Memory :                                 1545 MB
    Average Memory :                             1135.00 MB
    Total Requested Memory :                     4096.00 MB
    Delta Memory :                               2551.00 MB
    Max Swap :                                   -
    Max Processes :                              5
    Max Threads :                                8
    Run time :                                   78 sec.
    Turnaround time :                            68 sec.

The output (if any) is above this job summary.

Loaded module: cuda/10.0
Loaded dependency [gcc/7.3.0]: binutils
Loaded module: gcc/7.3.0
Running for n = 1000
Running for n = 2000
Running for n = 3000
Running for n = 4000
Running for n = 5000
Running for n = 6000
Running for n = 7000
Running for n = 8000
Running for n = 9000
Running for n = 10000

------------------------------------------------------------
Sender: LSF System <lsfadmin@n-62-20-14>
Subject: Job 1867380: <mgpu4_h_4> in cluster <dcc> Done

Job <mgpu4_h_4> was submitted from host <n-62-20-10> by user <s144257> in cluster <dcc> at Thu Jan 24 19:18:06 2019
Job was executed on host(s) <n-62-20-14>, in queue <hpcintrogpu>, as user <s144257> in cluster <dcc> at Thu Jan 24 19:18:08 2019
</zhome/e7/a/97980> was used as the home directory.
</zhome/e7/a/97980/02614-HPC/Assignments/assignment3> was used as the working directory.
Started at Thu Jan 24 19:18:08 2019
Terminated at Thu Jan 24 19:19:26 2019
Results reported at Thu Jan 24 19:19:26 2019

Your job looked like:

------------------------------------------------------------
# LSBATCH: User input
#!/bin/sh
#BSUB -W 10:00
#BSUB -J mgpu4_h_4
#BSUB -r 
#BSUB -R "rusage[mem=4GB]"
#BSUB -q hpcintrogpu
#BSUB -gpu "num=1:mode=exclusive_process:mps=yes"
#BSUB -o data/jobs/gpu1.txt

module load cuda/10.0
module load gcc/7.3.0

N="1000 2000 3000 4000 5000 6000 7000 8000 9000 10000"

output1=data/gpu4_h_4.dat

# Make header and flush file contents
echo "memory,mflops">$output1


if [ ! -d data/jobs ]; then
  mkdir -p  data/jobs;
fi

for n in $N
do
    echo "Running for n = $n";
    MATMULT_COMPARE=0 ./matmult_f.nvcc gpu3 $n $n $n | awk '{ print $1","$2","$3}'>>$output1
done

exit 0


------------------------------------------------------------

Successfully completed.

Resource usage summary:

    CPU time :                                   75.59 sec.
    Max Memory :                                 1545 MB
    Average Memory :                             1135.40 MB
    Total Requested Memory :                     4096.00 MB
    Delta Memory :                               2551.00 MB
    Max Swap :                                   -
    Max Processes :                              5
    Max Threads :                                8
    Run time :                                   104 sec.
    Turnaround time :                            80 sec.

The output (if any) is above this job summary.

Loaded module: cuda/10.0
Loaded dependency [gcc/7.3.0]: binutils
Loaded module: gcc/7.3.0
Running for n = 10
Running for n = 50
Running for n = 100
Running for n = 200
Running for n = 300
Running for n = 400
Running for n = 500
Running for n = 600
Loaded module: cuda/10.0
Loaded dependency [gcc/7.3.0]: binutils
Loaded module: gcc/7.3.0
Running for n = 1000
Running for n = 2000
Running for n = 3000
Running for n = 4000
Running for n = 5000
Running for n = 6000
Running for n = 7000
Running for n = 8000
Running for n = 9000
Running for n = 10000

------------------------------------------------------------
Sender: LSF System <lsfadmin@n-62-20-15>
Subject: Job 1867424: <gpu4_h_4> in cluster <dcc> Done

Job <gpu4_h_4> was submitted from host <n-62-20-10> by user <s144257> in cluster <dcc> at Thu Jan 24 19:43:31 2019
Job was executed on host(s) <n-62-20-15>, in queue <hpcintrogpu>, as user <s144257> in cluster <dcc> at Thu Jan 24 19:43:31 2019
</zhome/e7/a/97980> was used as the home directory.
</zhome/e7/a/97980/02614-HPC/Assignments/assignment3> was used as the working directory.
Started at Thu Jan 24 19:43:31 2019
Terminated at Thu Jan 24 19:44:50 2019
Results reported at Thu Jan 24 19:44:50 2019

Your job looked like:

------------------------------------------------------------
# LSBATCH: User input
#!/bin/sh
#BSUB -W 10:00
#BSUB -J gpu4_h_4
#BSUB -r 
#BSUB -R "rusage[mem=4GB]"
#BSUB -q hpcintrogpu
#BSUB -gpu "num=1:mode=exclusive_process:mps=yes"
#BSUB -o data/jobs/gpu1.txt

module load cuda/10.0
module load gcc/7.3.0

N="1000 2000 3000 4000 5000 6000 7000 8000 9000 10000"

output1=data/gpu4_h_4.dat

# Make header and flush file contents
echo "memory,mflops">$output1


if [ ! -d data/jobs ]; then
  mkdir -p  data/jobs;
fi

for n in $N
do
    echo "Running for n = $n";
    MATMULT_COMPARE=0 ./matmult_f.nvcc gpu3 $n $n $n | awk '{ print $1","$2","$3}'>>$output1
done

exit 0


------------------------------------------------------------

Successfully completed.

Resource usage summary:

    CPU time :                                   75.52 sec.
    Max Memory :                                 1549 MB
    Average Memory :                             1137.40 MB
    Total Requested Memory :                     4096.00 MB
    Delta Memory :                               2547.00 MB
    Max Swap :                                   -
    Max Processes :                              5
    Max Threads :                                8
    Run time :                                   87 sec.
    Turnaround time :                            79 sec.

The output (if any) is above this job summary.

Running for n = 700
Running for n = 800
Running for n = 900
Running for n = 1000

------------------------------------------------------------
Sender: LSF System <lsfadmin@n-62-20-15>
Subject: Job 1867417: <matgpu1> in cluster <dcc> Done

Job <matgpu1> was submitted from host <n-62-20-10> by user <s144257> in cluster <dcc> at Thu Jan 24 19:39:26 2019
Job was executed on host(s) <n-62-20-15>, in queue <hpcintrogpu>, as user <s144257> in cluster <dcc> at Thu Jan 24 19:39:26 2019
</zhome/e7/a/97980> was used as the home directory.
</zhome/e7/a/97980/02614-HPC/Assignments/assignment3> was used as the working directory.
Started at Thu Jan 24 19:39:26 2019
Terminated at Thu Jan 24 19:46:24 2019
Results reported at Thu Jan 24 19:46:24 2019

Your job looked like:

------------------------------------------------------------
# LSBATCH: User input
#!/bin/sh
#BSUB -W 10:00
#BSUB -J matgpu1
#BSUB -r 
#BSUB -R "rusage[mem=4GB]"
#BSUB -q hpcintrogpu
#BSUB -gpu "num=1:mode=exclusive_process:mps=yes"
#BSUB -o data/jobs/gpu1.txt

module load cuda/10.0
module load gcc/7.3.0

N="10 50 100 200 300 400 500 600 700 800 900 1000"

output1=data/gpu1_small.dat

# Make header and flush file contents
echo "memory,mflops">$output1


if [ ! -d data/jobs ]; then
  mkdir -p  data/jobs;
fi

for n in $N
do
    echo "Running for n = $n";
    MFLOPS_MAX_IT=1 MATMULT_COMPARE=0 ./matmult_f.nvcc gpu1 $n $n $n | awk '{print $1","$2","$3}'>>$output1
done

exit 0


------------------------------------------------------------

Successfully completed.

Resource usage summary:

    CPU time :                                   414.00 sec.
    Max Memory :                                 27 MB
    Average Memory :                             24.86 MB
    Total Requested Memory :                     4096.00 MB
    Delta Memory :                               4069.00 MB
    Max Swap :                                   -
    Max Processes :                              5
    Max Threads :                                8
    Run time :                                   430 sec.
    Turnaround time :                            418 sec.

The output (if any) is above this job summary.

Loaded module: cuda/10.0
Loaded dependency [gcc/7.3.0]: binutils
Loaded module: gcc/7.3.0
Running for n = 10
Running for n = 50
Running for n = 100
Running for n = 200
Running for n = 300
Running for n = 400
Running for n = 500
Loaded module: cuda/10.0
Loaded dependency [gcc/7.3.0]: binutils
Loaded module: gcc/7.3.0
Running for n = 1000
Running for n = 2000
Running for n = 3000
Running for n = 4000
Running for n = 5000
Running for n = 6000
Running for n = 7000
Running for n = 8000
Running for n = 9000
Running for n = 10000

------------------------------------------------------------
Sender: LSF System <lsfadmin@n-62-20-14>
Subject: Job 1867433: <mgpu3_h> in cluster <dcc> Done

Job <mgpu3_h> was submitted from host <n-62-20-10> by user <s144257> in cluster <dcc> at Thu Jan 24 19:50:25 2019
Job was executed on host(s) <n-62-20-14>, in queue <hpcintrogpu>, as user <s144257> in cluster <dcc> at Thu Jan 24 19:50:26 2019
</zhome/e7/a/97980> was used as the home directory.
</zhome/e7/a/97980/02614-HPC/Assignments/assignment3> was used as the working directory.
Started at Thu Jan 24 19:50:26 2019
Terminated at Thu Jan 24 19:51:31 2019
Results reported at Thu Jan 24 19:51:31 2019

Your job looked like:

------------------------------------------------------------
# LSBATCH: User input
#!/bin/sh
#BSUB -W 10:00
#BSUB -J mgpu3_h
#BSUB -r 
#BSUB -R "rusage[mem=4GB]"
#BSUB -q hpcintrogpu
#BSUB -gpu "num=1:mode=exclusive_process:mps=yes"
#BSUB -o data/jobs/gpu1.txt

module load cuda/10.0
module load gcc/7.3.0

N="1000 2000 3000 4000 5000 6000 7000 8000 9000 10000"

output1=data/gpu3_h.dat

# Make header and flush file contents
echo "memory,mflops">$output1


if [ ! -d data/jobs ]; then
  mkdir -p  data/jobs;
fi

for n in $N
do
    echo "Running for n = $n";
    MFLOPS_MAX_IT=1 MATMULT_COMPARE=0 ./matmult_f.nvcc gpu3 $n $n $n | awk '{ print $1","$2","$3}'>>$output1
done

exit 0


------------------------------------------------------------

Successfully completed.

Resource usage summary:

    CPU time :                                   63.18 sec.
    Max Memory :                                 1545 MB
    Average Memory :                             1229.40 MB
    Total Requested Memory :                     4096.00 MB
    Delta Memory :                               2551.00 MB
    Max Swap :                                   -
    Max Processes :                              5
    Max Threads :                                8
    Run time :                                   66 sec.
    Turnaround time :                            66 sec.

The output (if any) is above this job summary.

Running for n = 600
Loaded module: cuda/10.0
Loaded dependency [gcc/7.3.0]: binutils
Loaded module: gcc/7.3.0
Running for n = 1000
Running for n = 2000
Running for n = 3000
Running for n = 4000
Running for n = 5000
Running for n = 6000
Running for n = 7000
Running for n = 8000
Running for n = 9000
Running for n = 10000

------------------------------------------------------------
Sender: LSF System <lsfadmin@n-62-20-15>
Subject: Job 1867441: <mgpu3_v> in cluster <dcc> Done

Job <mgpu3_v> was submitted from host <n-62-20-10> by user <s144257> in cluster <dcc> at Thu Jan 24 19:53:31 2019
Job was executed on host(s) <n-62-20-15>, in queue <hpcintrogpu>, as user <s144257> in cluster <dcc> at Thu Jan 24 19:53:31 2019
</zhome/e7/a/97980> was used as the home directory.
</zhome/e7/a/97980/02614-HPC/Assignments/assignment3> was used as the working directory.
Started at Thu Jan 24 19:53:31 2019
Terminated at Thu Jan 24 19:54:26 2019
Results reported at Thu Jan 24 19:54:26 2019

Your job looked like:

------------------------------------------------------------
# LSBATCH: User input
#!/bin/sh
#BSUB -W 10:00
#BSUB -J mgpu3_v
#BSUB -r 
#BSUB -R "rusage[mem=4GB]"
#BSUB -q hpcintrogpu
#BSUB -gpu "num=1:mode=exclusive_process:mps=yes"
#BSUB -o data/jobs/gpu1.txt

module load cuda/10.0
module load gcc/7.3.0

N="1000 2000 3000 4000 5000 6000 7000 8000 9000 10000"

output1=data/gpu3_v.dat

# Make header and flush file contents
echo "memory,mflops">$output1


if [ ! -d data/jobs ]; then
  mkdir -p  data/jobs;
fi

for n in $N
do
    echo "Running for n = $n";
    MFLOPS_MAX_IT=1 MATMULT_COMPARE=0 ./matmult_f.nvcc gpu3 $n $n $n | awk '{ print $1","$2","$3}'>>$output1
done

exit 0


------------------------------------------------------------

Successfully completed.

Resource usage summary:

    CPU time :                                   52.64 sec.
    Max Memory :                                 1255 MB
    Average Memory :                             1007.25 MB
    Total Requested Memory :                     4096.00 MB
    Delta Memory :                               2841.00 MB
    Max Swap :                                   -
    Max Processes :                              5
    Max Threads :                                8
    Run time :                                   72 sec.
    Turnaround time :                            55 sec.

The output (if any) is above this job summary.

Loaded module: cuda/10.0
Loaded dependency [gcc/7.3.0]: binutils
Loaded module: gcc/7.3.0
Running for n = 1000
Running for n = 2000
Running for n = 3000
Running for n = 4000
Running for n = 5000
Running for n = 6000
Running for n = 7000
Running for n = 8000
Running for n = 700
Running for n = 800
Running for n = 900
Running for n = 1000

------------------------------------------------------------
Sender: LSF System <lsfadmin@n-62-20-15>
Subject: Job 1867431: <matgpu1> in cluster <dcc> Done

Job <matgpu1> was submitted from host <n-62-20-10> by user <s144257> in cluster <dcc> at Thu Jan 24 19:48:26 2019
Job was executed on host(s) <n-62-20-15>, in queue <hpcintrogpu>, as user <s144257> in cluster <dcc> at Thu Jan 24 19:48:28 2019
</zhome/e7/a/97980> was used as the home directory.
</zhome/e7/a/97980/02614-HPC/Assignments/assignment3> was used as the working directory.
Started at Thu Jan 24 19:48:28 2019
Terminated at Thu Jan 24 19:55:25 2019
Results reported at Thu Jan 24 19:55:25 2019

Your job looked like:

------------------------------------------------------------
# LSBATCH: User input
#!/bin/sh
#BSUB -W 10:00
#BSUB -J matgpu1
#BSUB -r 
#BSUB -R "rusage[mem=4GB]"
#BSUB -q hpcintrogpu
#BSUB -gpu "num=1:mode=exclusive_process:mps=yes"
#BSUB -o data/jobs/gpu1.txt

module load cuda/10.0
module load gcc/7.3.0

N="10 50 100 200 300 400 500 600 700 800 900 1000"

output1=data/gpu1_small.dat

# Make header and flush file contents
echo "memory,mflops">$output1


if [ ! -d data/jobs ]; then
  mkdir -p  data/jobs;
fi

for n in $N
do
    echo "Running for n = $n";
    MFLOPS_MAX_IT=1 MATMULT_COMPARE=0 ./matmult_f.nvcc gpu1 $n $n $n | awk '{print $1","$2","$3}'>>$output1
done

exit 0


------------------------------------------------------------

Successfully completed.

Resource usage summary:

    CPU time :                                   414.00 sec.
    Max Memory :                                 25 MB
    Average Memory :                             23.93 MB
    Total Requested Memory :                     4096.00 MB
    Delta Memory :                               4071.00 MB
    Max Swap :                                   -
    Max Processes :                              5
    Max Threads :                                8
    Run time :                                   419 sec.
    Turnaround time :                            419 sec.

The output (if any) is above this job summary.

Running for n = 9000
Running for n = 10000

------------------------------------------------------------
Sender: LSF System <lsfadmin@n-62-20-15>
Subject: Job 1867443: <gpu4_v_4> in cluster <dcc> Done

Job <gpu4_v_4> was submitted from host <n-62-20-10> by user <s144257> in cluster <dcc> at Thu Jan 24 19:54:59 2019
Job was executed on host(s) <n-62-20-15>, in queue <hpcintrogpu>, as user <s144257> in cluster <dcc> at Thu Jan 24 19:55:00 2019
</zhome/e7/a/97980> was used as the home directory.
</zhome/e7/a/97980/02614-HPC/Assignments/assignment3> was used as the working directory.
Started at Thu Jan 24 19:55:00 2019
Terminated at Thu Jan 24 19:55:28 2019
Results reported at Thu Jan 24 19:55:28 2019

Your job looked like:

------------------------------------------------------------
# LSBATCH: User input
#!/bin/sh
#BSUB -W 10:00
#BSUB -J gpu4_v_4
#BSUB -r 
#BSUB -R "rusage[mem=4GB]"
#BSUB -q hpcintrogpu
#BSUB -gpu "num=1:mode=exclusive_process:mps=yes"
#BSUB -o data/jobs/gpu1.txt

module load cuda/10.0
module load gcc/7.3.0

N="1000 2000 3000 4000 5000 6000 7000 8000 9000 10000"

output1=data/gpu4_v_4.dat

# Make header and flush file contents
echo "memory,mflops">$output1


if [ ! -d data/jobs ]; then
  mkdir -p  data/jobs;
fi

for n in $N
do
    echo "Running for n = $n";
    MFLOPS_MAX_IT=1 MATMULT_COMPARE=0 ./matmult_f.nvcc gpu3 $n $n $n | awk '{ print $1","$2","$3}'>>$output1
done

exit 0


------------------------------------------------------------

Successfully completed.

Resource usage summary:

    CPU time :                                   25.09 sec.
    Max Memory :                                 996 MB
    Average Memory :                             752.00 MB
    Total Requested Memory :                     4096.00 MB
    Delta Memory :                               3100.00 MB
    Max Swap :                                   -
    Max Processes :                              5
    Max Threads :                                8
    Run time :                                   29 sec.
    Turnaround time :                            29 sec.

The output (if any) is above this job summary.

Loaded module: cuda/10.0
Loaded dependency [gcc/7.3.0]: binutils
Loaded module: gcc/7.3.0
Running for n = 900
Running for n = 1000

------------------------------------------------------------
Sender: LSF System <lsfadmin@n-62-20-15>
Subject: Job 1867447: <matgpu1> in cluster <dcc> Done

Job <matgpu1> was submitted from host <n-62-20-10> by user <s144257> in cluster <dcc> at Thu Jan 24 19:57:25 2019
Job was executed on host(s) <n-62-20-15>, in queue <hpcintrogpu>, as user <s144257> in cluster <dcc> at Thu Jan 24 19:57:27 2019
</zhome/e7/a/97980> was used as the home directory.
</zhome/e7/a/97980/02614-HPC/Assignments/assignment3> was used as the working directory.
Started at Thu Jan 24 19:57:27 2019
Terminated at Thu Jan 24 20:13:59 2019
Results reported at Thu Jan 24 20:13:59 2019

Your job looked like:

------------------------------------------------------------
# LSBATCH: User input
#!/bin/sh
#BSUB -W 10:00
#BSUB -J matgpu1
#BSUB -r 
#BSUB -R "rusage[mem=4GB]"
#BSUB -q hpcintrogpu
#BSUB -gpu "num=1:mode=exclusive_process:mps=yes"
#BSUB -o data/jobs/gpu1.txt

module load cuda/10.0
module load gcc/7.3.0

N=" 900 1000"

output1=data/gpu1_small.dat

# Make header and flush file contents
#echo "memory,mflops">$output1


if [ ! -d data/jobs ]; then
  mkdir -p  data/jobs;
fi

for n in $N
do
    echo "Running for n = $n";
    MFLOPS_MAX_IT=1 MATMULT_COMPARE=0 ./matmult_f.nvcc gpu1 $n $n $n | awk '{print $1","$2","$3}'>>$output1
done

exit 0


------------------------------------------------------------

Successfully completed.

Resource usage summary:

    CPU time :                                   988.00 sec.
    Max Memory :                                 34 MB
    Average Memory :                             34.00 MB
    Total Requested Memory :                     4096.00 MB
    Delta Memory :                               4062.00 MB
    Max Swap :                                   -
    Max Processes :                              5
    Max Threads :                                8
    Run time :                                   1019 sec.
    Turnaround time :                            994 sec.

The output (if any) is above this job summary.

Loaded module: cuda/10.0
Loaded dependency [gcc/7.3.0]: binutils
Loaded module: gcc/7.3.0
Loaded module: cuda/10.0
Loaded dependency [gcc/7.3.0]: binutils
Loaded module: gcc/7.3.0
Running for n = 1000
Running for n = 2000
Running for n = 3000
Running for n = 4000
Running for n = 5000
Running for n = 6000
Running for n = 7000
Running for n = 8000
Running for n = 9000
Running for n = 10000

------------------------------------------------------------
Sender: LSF System <lsfadmin@n-62-20-15>
Subject: Job 1867568: <mgpu3_h16> in cluster <dcc> Done

Job <mgpu3_h16> was submitted from host <n-62-20-10> by user <s144257> in cluster <dcc> at Thu Jan 24 20:41:21 2019
Job was executed on host(s) <n-62-20-15>, in queue <hpcintrogpu>, as user <s144257> in cluster <dcc> at Thu Jan 24 20:41:21 2019
</zhome/e7/a/97980> was used as the home directory.
</zhome/e7/a/97980/02614-HPC/Assignments/assignment3> was used as the working directory.
Started at Thu Jan 24 20:41:21 2019
Terminated at Thu Jan 24 20:42:18 2019
Results reported at Thu Jan 24 20:42:18 2019

Your job looked like:

------------------------------------------------------------
# LSBATCH: User input
#!/bin/sh
#BSUB -W 10:00
#BSUB -J mgpu3_h16
#BSUB -r 
#BSUB -R "rusage[mem=4GB]"
#BSUB -q hpcintrogpu
#BSUB -gpu "num=1:mode=exclusive_process:mps=yes"
#BSUB -o data/jobs/gpu1.txt

module load cuda/10.0
module load gcc/7.3.0

N="1000 2000 3000 4000 5000 6000 7000 8000 9000 10000"

output1=data/gpu3_h_16.dat

# Make header and flush file contents
echo "memory,mflops">$output1


if [ ! -d data/jobs ]; then
  mkdir -p  data/jobs;
fi

for n in $N
do
    echo "Running for n = $n";
    MFLOPS_MAX_IT=1 MATMULT_COMPARE=0 ./matmult_f.nvcc gpu3 $n $n $n | awk '{ print $1","$2","$3}'>>$output1
done

exit 0


------------------------------------------------------------

Successfully completed.

Resource usage summary:

    CPU time :                                   55.01 sec.
    Max Memory :                                 1255 MB
    Average Memory :                             924.67 MB
    Total Requested Memory :                     4096.00 MB
    Delta Memory :                               2841.00 MB
    Max Swap :                                   -
    Max Processes :                              5
    Max Threads :                                8
    Run time :                                   78 sec.
    Turnaround time :                            57 sec.

The output (if any) is above this job summary.

Loaded module: cuda/10.0
Loaded dependency [gcc/7.3.0]: binutils
Loaded module: gcc/7.3.0
Running for n = 1000
Running for n = 2000
Running for n = 3000
Running for n = 4000
Running for n = 5000
Running for n = 6000
Running for n = 7000
Running for n = 8000
Running for n = 9000
Running for n = 10000

------------------------------------------------------------
Sender: LSF System <lsfadmin@n-62-20-15>
Subject: Job 1867571: <mgpu3_v16> in cluster <dcc> Done

Job <mgpu3_v16> was submitted from host <n-62-20-10> by user <s144257> in cluster <dcc> at Thu Jan 24 20:43:09 2019
Job was executed on host(s) <n-62-20-15>, in queue <hpcintrogpu>, as user <s144257> in cluster <dcc> at Thu Jan 24 20:43:10 2019
</zhome/e7/a/97980> was used as the home directory.
</zhome/e7/a/97980/02614-HPC/Assignments/assignment3> was used as the working directory.
Started at Thu Jan 24 20:43:10 2019
Terminated at Thu Jan 24 20:44:02 2019
Results reported at Thu Jan 24 20:44:02 2019

Your job looked like:

------------------------------------------------------------
# LSBATCH: User input
#!/bin/sh
#BSUB -W 10:00
#BSUB -J mgpu3_v16
#BSUB -r 
#BSUB -R "rusage[mem=4GB]"
#BSUB -q hpcintrogpu
#BSUB -gpu "num=1:mode=exclusive_process:mps=yes"
#BSUB -o data/jobs/gpu1.txt

module load cuda/10.0
module load gcc/7.3.0

N="1000 2000 3000 4000 5000 6000 7000 8000 9000 10000"

output1=data/gpu3_v_16.dat

# Make header and flush file contents
echo "memory,mflops">$output1


if [ ! -d data/jobs ]; then
  mkdir -p  data/jobs;
fi

for n in $N
do
    echo "Running for n = $n";
    MFLOPS_MAX_IT=1 MATMULT_COMPARE=0 ./matmult_f.nvcc gpu3 $n $n $n | awk '{ print $1","$2","$3}'>>$output1
done

exit 0


------------------------------------------------------------

Successfully completed.

Resource usage summary:

    CPU time :                                   50.12 sec.
    Max Memory :                                 1257 MB
    Average Memory :                             1008.75 MB
    Total Requested Memory :                     4096.00 MB
    Delta Memory :                               2839.00 MB
    Max Swap :                                   -
    Max Processes :                              5
    Max Threads :                                8
    Run time :                                   69 sec.
    Turnaround time :                            53 sec.

The output (if any) is above this job summary.


------------------------------------------------------------
Sender: LSF System <lsfadmin@n-62-20-15>
Subject: Job 1867510: <matgpu1> in cluster <dcc> Done

Job <matgpu1> was submitted from host <n-62-20-10> by user <s144257> in cluster <dcc> at Thu Jan 24 20:17:58 2019
Job was executed on host(s) <n-62-20-15>, in queue <hpcintrogpu>, as user <s144257> in cluster <dcc> at Thu Jan 24 20:17:58 2019
</zhome/e7/a/97980> was used as the home directory.
</zhome/e7/a/97980/02614-HPC/Assignments/assignment3> was used as the working directory.
Started at Thu Jan 24 20:17:58 2019
Terminated at Thu Jan 24 20:44:46 2019
Results reported at Thu Jan 24 20:44:46 2019

Your job looked like:

------------------------------------------------------------
# LSBATCH: User input
#!/bin/sh
#BSUB -W 20:00
#BSUB -J matgpu1
#BSUB -r 
#BSUB -R "rusage[mem=4GB]"
#BSUB -q hpcintrogpu
#BSUB -gpu "num=1:mode=exclusive_process:mps=yes"
#BSUB -o data/jobs/gpu1.txt

module load cuda/10.0
module load gcc/7.3.0

N=" 1000"

output1=data/gpu1_small.dat

# Make header and flush file contents
#echo "memory,mflops">$output1


if [ ! -d data/jobs ]; then
  mkdir -p  data/jobs;
fi


MFLOPS_MAX_IT=1 MATMULT_COMPARE=0 ./matmult_f.nvcc gpu1 1000 1000 1000 | awk '{print $1","$2","$3}'>>$output1


exit 0


------------------------------------------------------------

Successfully completed.

Resource usage summary:

    CPU time :                                   1601.00 sec.
    Max Memory :                                 35 MB
    Average Memory :                             35.00 MB
    Total Requested Memory :                     4096.00 MB
    Delta Memory :                               4061.00 MB
    Max Swap :                                   -
    Max Processes :                              5
    Max Threads :                                8
    Run time :                                   1618 sec.
    Turnaround time :                            1608 sec.

The output (if any) is above this job summary.

Loaded module: cuda/10.0
Loaded dependency [gcc/7.3.0]: binutils
Loaded module: gcc/7.3.0
Running for n = 1000
Running for n = 2000
Running for n = 3000
Running for n = 4000
Running for n = 5000
Running for n = 6000
Running for n = 7000
Running for n = 8000
Running for n = 9000
Running for n = 10000

------------------------------------------------------------
Sender: LSF System <lsfadmin@n-62-20-15>
Subject: Job 1867595: <mgpu3_h8> in cluster <dcc> Done

Job <mgpu3_h8> was submitted from host <n-62-20-10> by user <s144257> in cluster <dcc> at Thu Jan 24 20:49:10 2019
Job was executed on host(s) <n-62-20-15>, in queue <hpcintrogpu>, as user <s144257> in cluster <dcc> at Thu Jan 24 20:49:11 2019
</zhome/e7/a/97980> was used as the home directory.
</zhome/e7/a/97980/02614-HPC/Assignments/assignment3> was used as the working directory.
Started at Thu Jan 24 20:49:11 2019
Terminated at Thu Jan 24 20:50:00 2019
Results reported at Thu Jan 24 20:50:00 2019

Your job looked like:

------------------------------------------------------------
# LSBATCH: User input
#!/bin/sh
#BSUB -W 10:00
#BSUB -J mgpu3_h8
#BSUB -r 
#BSUB -R "rusage[mem=4GB]"
#BSUB -q hpcintrogpu
#BSUB -gpu "num=1:mode=exclusive_process:mps=yes"
#BSUB -o data/jobs/gpu1.txt

module load cuda/10.0
module load gcc/7.3.0

N="1000 2000 3000 4000 5000 6000 7000 8000 9000 10000"

output1=data/gpu3_h_8.dat

# Make header and flush file contents
echo "memory,mflops">$output1


if [ ! -d data/jobs ]; then
  mkdir -p  data/jobs;
fi

for n in $N
do
    echo "Running for n = $n";
    MFLOPS_MAX_IT=1 MATMULT_COMPARE=0 ./matmult_f.nvcc gpu3 $n $n $n | awk '{ print $1","$2","$3}'>>$output1
done

exit 0


------------------------------------------------------------

Successfully completed.

Resource usage summary:

    CPU time :                                   46.35 sec.
    Max Memory :                                 1257 MB
    Average Memory :                             1008.25 MB
    Total Requested Memory :                     4096.00 MB
    Delta Memory :                               2839.00 MB
    Max Swap :                                   -
    Max Processes :                              5
    Max Threads :                                8
    Run time :                                   58 sec.
    Turnaround time :                            50 sec.

The output (if any) is above this job summary.

Loaded module: cuda/10.0
Loaded dependency [gcc/7.3.0]: binutils
Loaded module: gcc/7.3.0
Running for n = 1000
Running for n = 2000
Running for n = 3000
Running for n = 4000
Running for n = 5000
Running for n = 6000
Running for n = 7000
Running for n = 8000
Running for n = 9000
Running for n = 10000

------------------------------------------------------------
Sender: LSF System <lsfadmin@n-62-20-14>
Subject: Job 1867598: <mgpu3_h8> in cluster <dcc> Done

Job <mgpu3_h8> was submitted from host <n-62-20-10> by user <s144257> in cluster <dcc> at Thu Jan 24 20:51:48 2019
Job was executed on host(s) <n-62-20-14>, in queue <hpcintrogpu>, as user <s144257> in cluster <dcc> at Thu Jan 24 20:51:49 2019
</zhome/e7/a/97980> was used as the home directory.
</zhome/e7/a/97980/02614-HPC/Assignments/assignment3> was used as the working directory.
Started at Thu Jan 24 20:51:49 2019
Terminated at Thu Jan 24 20:52:59 2019
Results reported at Thu Jan 24 20:52:59 2019

Your job looked like:

------------------------------------------------------------
# LSBATCH: User input
#!/bin/sh
#BSUB -W 10:00
#BSUB -J mgpu3_h8
#BSUB -r 
#BSUB -R "rusage[mem=6GB]"
#BSUB -q hpcintrogpu
#BSUB -gpu "num=1:mode=exclusive_process:mps=yes"
#BSUB -o data/jobs/gpu1.txt

module load cuda/10.0
module load gcc/7.3.0

N="1000 2000 3000 4000 5000 6000 7000 8000 9000 10000"

output1=data/gpu3_h_8.dat

# Make header and flush file contents
echo "memory,mflops">$output1


if [ ! -d data/jobs ]; then
  mkdir -p  data/jobs;
fi

for n in $N
do
    echo "Running for n = $n";
    MFLOPS_MAX_IT=1 MATMULT_COMPARE=0 ./matmult_f.nvcc gpu3 $n $n $n | awk '{ print $1","$2","$3}'>>$output1
done

exit 0


------------------------------------------------------------

Successfully completed.

Resource usage summary:

    CPU time :                                   66.73 sec.
    Max Memory :                                 1545 MB
    Average Memory :                             1230.80 MB
    Total Requested Memory :                     6144.00 MB
    Delta Memory :                               4599.00 MB
    Max Swap :                                   -
    Max Processes :                              5
    Max Threads :                                8
    Run time :                                   74 sec.
    Turnaround time :                            71 sec.

The output (if any) is above this job summary.

Loaded module: cuda/10.0
Loaded dependency [gcc/7.3.0]: binutils
Loaded module: gcc/7.3.0
Running for n = 1000
Running for n = 2000
Running for n = 3000
Running for n = 4000
Running for n = 5000
Running for n = 6000
Running for n = 7000
Running for n = 8000
Running for n = 9000

------------------------------------------------------------
Sender: LSF System <lsfadmin@n-62-20-16>
Subject: Job 1867603: <mgpu3_v8> in cluster <dcc> Exited

Job <mgpu3_v8> was submitted from host <n-62-20-10> by user <s144257> in cluster <dcc> at Thu Jan 24 20:54:54 2019
Job was executed on host(s) <n-62-20-16>, in queue <hpcintrogpu>, as user <s144257> in cluster <dcc> at Thu Jan 24 20:54:54 2019
</zhome/e7/a/97980> was used as the home directory.
</zhome/e7/a/97980/02614-HPC/Assignments/assignment3> was used as the working directory.
Started at Thu Jan 24 20:54:54 2019
Terminated at Thu Jan 24 20:55:35 2019
Results reported at Thu Jan 24 20:55:35 2019

Your job looked like:

------------------------------------------------------------
# LSBATCH: User input
#!/bin/sh
#BSUB -W 10:00
#BSUB -J mgpu3_v8
#BSUB -r 
#BSUB -R "rusage[mem=6GB]"
#BSUB -q hpcintrogpu
#BSUB -gpu "num=1:mode=exclusive_process:mps=yes"
#BSUB -o data/jobs/gpu1.txt

module load cuda/10.0
module load gcc/7.3.0

N="1000 2000 3000 4000 5000 6000 7000 8000 9000 10000"

output1=data/gpu3_v_8.dat

# Make header and flush file contents
echo "memory,mflops">$output1


if [ ! -d data/jobs ]; then
  mkdir -p  data/jobs;
fi

for n in $N
do
    echo "Running for n = $n";
    MFLOPS_MAX_IT=1 MATMULT_COMPARE=0 ./matmult_f.nvcc gpu3 $n $n $n | awk '{ print $1","$2","$3}'>>$output1
done

exit 0


------------------------------------------------------------

TERM_OWNER: job killed by owner.
Exited with exit code 130.

Resource usage summary:

    CPU time :                                   39.00 sec.
    Max Memory :                                 1255 MB
    Average Memory :                             1007.25 MB
    Total Requested Memory :                     6144.00 MB
    Delta Memory :                               4889.00 MB
    Max Swap :                                   -
    Max Processes :                              5
    Max Threads :                                8
    Run time :                                   59 sec.
    Turnaround time :                            41 sec.

The output (if any) is above this job summary.

Loaded module: cuda/10.0
Loaded dependency [gcc/7.3.0]: binutils
Loaded module: gcc/7.3.0
Running for n = 1000
Running for n = 2000
Running for n = 3000
Running for n = 4000
Running for n = 5000
Running for n = 6000
Running for n = 7000
Running for n = 8000
Running for n = 9000
Running for n = 10000

------------------------------------------------------------
Sender: LSF System <lsfadmin@n-62-20-15>
Subject: Job 1867607: <mgpu3_v8> in cluster <dcc> Done

Job <mgpu3_v8> was submitted from host <n-62-20-10> by user <s144257> in cluster <dcc> at Thu Jan 24 20:55:58 2019
Job was executed on host(s) <n-62-20-15>, in queue <hpcintrogpu>, as user <s144257> in cluster <dcc> at Thu Jan 24 20:55:59 2019
</zhome/e7/a/97980> was used as the home directory.
</zhome/e7/a/97980/02614-HPC/Assignments/assignment3> was used as the working directory.
Started at Thu Jan 24 20:55:59 2019
Terminated at Thu Jan 24 20:57:11 2019
Results reported at Thu Jan 24 20:57:11 2019

Your job looked like:

------------------------------------------------------------
# LSBATCH: User input
#!/bin/sh
#BSUB -W 10:00
#BSUB -J mgpu3_v8
#BSUB -r 
#BSUB -R "rusage[mem=6GB]"
#BSUB -q hpcintrogpu
#BSUB -gpu "num=1:mode=exclusive_process:mps=yes"
#BSUB -o data/jobs/gpu1.txt

module load cuda/10.0
module load gcc/7.3.0

N="1000 2000 3000 4000 5000 6000 7000 8000 9000 10000"

output1=data/gpu3_v_8.dat

# Make header and flush file contents
echo "memory,mflops">$output1


if [ ! -d data/jobs ]; then
  mkdir -p  data/jobs;
fi

for n in $N
do
    echo "Running for n = $n";
    MFLOPS_MAX_IT=1 MATMULT_COMPARE=0 ./matmult_f.nvcc gpu3 $n $n $n | awk '{ print $1","$2","$3}'>>$output1
done

exit 0


------------------------------------------------------------

Successfully completed.

Resource usage summary:

    CPU time :                                   70.05 sec.
    Max Memory :                                 1545 MB
    Average Memory :                             1230.80 MB
    Total Requested Memory :                     6144.00 MB
    Delta Memory :                               4599.00 MB
    Max Swap :                                   -
    Max Processes :                              5
    Max Threads :                                8
    Run time :                                   81 sec.
    Turnaround time :                            73 sec.

The output (if any) is above this job summary.

Loaded module: cuda/10.0
Loaded dependency [gcc/7.3.0]: binutils
Loaded module: gcc/7.3.0
Running for n = 10
Running for n = 50
Running for n = 100
Running for n = 200
Running for n = 300
Running for n = 400
Running for n = 500
Running for n = 600
Running for n = 700
Running for n = 800
Running for n = 900
Running for n = 1000

------------------------------------------------------------
Sender: LSF System <lsfadmin@n-62-20-16>
Subject: Job 1867731: <matgpu1> in cluster <dcc> Done

Job <matgpu1> was submitted from host <n-62-20-10> by user <s144257> in cluster <dcc> at Thu Jan 24 21:55:01 2019
Job was executed on host(s) <n-62-20-16>, in queue <hpcintrogpu>, as user <s144257> in cluster <dcc> at Thu Jan 24 21:55:02 2019
</zhome/e7/a/97980> was used as the home directory.
</zhome/e7/a/97980/02614-HPC/Assignments/assignment3> was used as the working directory.
Started at Thu Jan 24 21:55:02 2019
Terminated at Thu Jan 24 21:58:25 2019
Results reported at Thu Jan 24 21:58:25 2019

Your job looked like:

------------------------------------------------------------
# LSBATCH: User input
#!/bin/sh
#BSUB -W 10:00
#BSUB -J matgpu1
#BSUB -r 
#BSUB -R "rusage[mem=6GB]"
#BSUB -q hpcintrogpu
#BSUB -gpu "num=1:mode=exclusive_process:mps=yes"
#BSUB -o data/jobs/gpu1.txt

module load cuda/10.0
module load gcc/7.3.0

N="10 50 100 200 300 400 500 600 700 800 900 1000"

output1=data/gpu1_small_new.dat

# Make header and flush file contents
echo "memory,mflops">$output1


if [ ! -d data/jobs ]; then
  mkdir -p  data/jobs;
fi

for n in $N
do
    echo "Running for n = $n";
    MFLOPS_MAX_IT=1 MATMULT_COMPARE=0 ./matmult_f.nvcc gpu1 $n $n $n | awk '{print $1","$2","$3}'>>$output1
done

exit 0


------------------------------------------------------------

Successfully completed.

Resource usage summary:

    CPU time :                                   199.64 sec.
    Max Memory :                                 23 MB
    Average Memory :                             22.33 MB
    Total Requested Memory :                     6144.00 MB
    Delta Memory :                               6121.00 MB
    Max Swap :                                   -
    Max Processes :                              5
    Max Threads :                                8
    Run time :                                   213 sec.
    Turnaround time :                            204 sec.

The output (if any) is above this job summary.

Loaded module: cuda/10.0
Loaded dependency [gcc/7.3.0]: binutils
Loaded module: gcc/7.3.0
Running for n = 600
CUDA error at allocate_gpu.cu:29 code=11(cudaErrorInvalidValue) "cudaFreeHost((*a)[0])" 
Running for n = 700
Running for n = 800
Running for n = 900
Running for n = 1000

------------------------------------------------------------
Sender: LSF System <lsfadmin@n-62-20-15>
Subject: Job 1868011: <matgpu1> in cluster <dcc> Done

Job <matgpu1> was submitted from host <n-62-20-6> by user <s144257> in cluster <dcc> at Fri Jan 25 08:34:48 2019
Job was executed on host(s) <n-62-20-15>, in queue <hpcintrogpu>, as user <s144257> in cluster <dcc> at Fri Jan 25 08:34:48 2019
</zhome/e7/a/97980> was used as the home directory.
</zhome/e7/a/97980/02614-HPC/Assignments/assignment3> was used as the working directory.
Started at Fri Jan 25 08:34:48 2019
Terminated at Fri Jan 25 14:33:26 2019
Results reported at Fri Jan 25 14:33:26 2019

Your job looked like:

------------------------------------------------------------
# LSBATCH: User input
#!/bin/sh
#BSUB -W 10:00
#BSUB -J matgpu1
#BSUB -r 
#BSUB -R "rusage[mem=6GB]"
#BSUB -q hpcintrogpu
#BSUB -gpu "num=1:mode=exclusive_process:mps=yes"
#BSUB -o data/jobs/gpu1.txt

module load cuda/10.0
module load gcc/7.3.0

N=" 600 700 800 900 1000"

output1=data/gpu1_small_new.dat

# Make header and flush file contents
#echo "memory,mflops">$output1


if [ ! -d data/jobs ]; then
  mkdir -p  data/jobs;
fi

for n in $N
do
    echo "Running for n = $n";
    MFLOPS_MAX_IT=1 MATMULT_COMPARE=0 ./matmult_f.nvcc gpu1 $n $n $n | awk '{print $1","$2","$3}'>>$output1
done

exit 0


------------------------------------------------------------

Successfully completed.

Resource usage summary:

    CPU time :                                   21459.00 sec.
    Max Memory :                                 29 MB
    Average Memory :                             28.99 MB
    Total Requested Memory :                     6144.00 MB
    Delta Memory :                               6115.00 MB
    Max Swap :                                   -
    Max Processes :                              5
    Max Threads :                                8
    Run time :                                   21540 sec.
    Turnaround time :                            21518 sec.

The output (if any) is above this job summary.

