Loaded module: cuda/10.0
Loaded dependency [gcc/7.3.0]: binutils
Loaded module: gcc/7.3.0
Running for n = 1000
Running for n = 2000
Running for n = 3000
Running for n = 4000
Running for n = 5000
Running for n = 6000
Running for n = 7000
Running for n = 8000
Running for n = 9000
Running for n = 10000

------------------------------------------------------------
Sender: LSF System <lsfadmin@n-62-20-15>
Subject: Job 1867596: <gpulib_8> in cluster <dcc> Done

Job <gpulib_8> was submitted from host <n-62-20-10> by user <s144257> in cluster <dcc> at Thu Jan 24 20:49:46 2019
Job was executed on host(s) <n-62-20-15>, in queue <hpcintrogpu>, as user <s144257> in cluster <dcc> at Thu Jan 24 20:49:46 2019
</zhome/e7/a/97980> was used as the home directory.
</zhome/e7/a/97980/02614-HPC/Assignments/assignment3> was used as the working directory.
Started at Thu Jan 24 20:49:46 2019
Terminated at Thu Jan 24 20:50:03 2019
Results reported at Thu Jan 24 20:50:03 2019

Your job looked like:

------------------------------------------------------------
# LSBATCH: User input
#!/bin/sh
#BSUB -W 00:10
#BSUB -J gpulib_8
#BSUB -r 
#BSUB -R "rusage[mem=4GB]"
#BSUB -q hpcintrogpu
#BSUB -gpu "num=1:mode=exclusive_process:mps=yes"
#BSUB -o data/jobs/gpulib_8.txt

module load cuda/10.0
module load gcc/7.3.0

# N="50 100 200 300 400 500 600 700 800 900 1000"
N="1000 2000 3000 4000 5000 6000 7000 8000 9000 10000"
output=data/gpulib_8.dat
# output=data/gpu2_32.dat

# Make header and flush file contents
echo "memory,mflops">$output

if [ ! -d data/jobs ]; then
  mkdir -p  data/jobs;
fi

for n in $N
do
    echo "Running for n = $n";
    MFLOPS_MAX_IT=1 MATMULT_COMPARE=0 ./matmult_f.nvcc gpulib $n $n $n | awk '{ print $1","$2 ","$3}'>>$output
done

exit 0
------------------------------------------------------------

Successfully completed.

Resource usage summary:

    CPU time :                                   15.00 sec.
    Max Memory :                                 1455 MB
    Average Memory :                             1089.33 MB
    Total Requested Memory :                     4096.00 MB
    Delta Memory :                               2641.00 MB
    Max Swap :                                   -
    Max Processes :                              5
    Max Threads :                                8
    Run time :                                   16 sec.
    Turnaround time :                            17 sec.

The output (if any) is above this job summary.

Loaded module: cuda/10.0
Loaded dependency [gcc/7.3.0]: binutils
Loaded module: gcc/7.3.0
Running for n = 1000
Running for n = 2000
Running for n = 3000
Running for n = 4000
Running for n = 5000
Running for n = 6000
Running for n = 7000
Running for n = 8000
Running for n = 9000
Running for n = 10000

------------------------------------------------------------
Sender: LSF System <lsfadmin@n-62-20-15>
Subject: Job 1867600: <gpulib_8> in cluster <dcc> Done

Job <gpulib_8> was submitted from host <n-62-20-10> by user <s144257> in cluster <dcc> at Thu Jan 24 20:52:19 2019
Job was executed on host(s) <n-62-20-15>, in queue <hpcintrogpu>, as user <s144257> in cluster <dcc> at Thu Jan 24 20:52:19 2019
</zhome/e7/a/97980> was used as the home directory.
</zhome/e7/a/97980/02614-HPC/Assignments/assignment3> was used as the working directory.
Started at Thu Jan 24 20:52:19 2019
Terminated at Thu Jan 24 20:52:28 2019
Results reported at Thu Jan 24 20:52:28 2019

Your job looked like:

------------------------------------------------------------
# LSBATCH: User input
#!/bin/sh
#BSUB -W 00:10
#BSUB -J gpulib_8
#BSUB -r 
#BSUB -R "rusage[mem=6GB]"
#BSUB -q hpcintrogpu
#BSUB -gpu "num=1:mode=exclusive_process:mps=yes"
#BSUB -o data/jobs/gpulib_8.txt

module load cuda/10.0
module load gcc/7.3.0

# N="50 100 200 300 400 500 600 700 800 900 1000"
N="1000 2000 3000 4000 5000 6000 7000 8000 9000 10000"
output=data/gpulib_8.dat
# output=data/gpu2_32.dat

# Make header and flush file contents
echo "memory,mflops">$output

if [ ! -d data/jobs ]; then
  mkdir -p  data/jobs;
fi

for n in $N
do
    echo "Running for n = $n";
    MFLOPS_MAX_IT=1 MATMULT_COMPARE=0 ./matmult_f.nvcc gpulib $n $n $n | awk '{ print $1","$2 ","$3}'>>$output
done

exit 0
------------------------------------------------------------

Successfully completed.

Resource usage summary:

    CPU time :                                   7.43 sec.
    Max Memory :                                 704 MB
    Average Memory :                             472.33 MB
    Total Requested Memory :                     6144.00 MB
    Delta Memory :                               5440.00 MB
    Max Swap :                                   -
    Max Processes :                              5
    Max Threads :                                8
    Run time :                                   16 sec.
    Turnaround time :                            9 sec.

The output (if any) is above this job summary.

Loaded module: cuda/10.0
Loaded dependency [gcc/7.3.0]: binutils
Loaded module: gcc/7.3.0
Running for n = 1000
Running for n = 2000
Running for n = 3000
Running for n = 4000
Running for n = 5000
Running for n = 6000
Running for n = 7000
Running for n = 8000
Running for n = 9000
Running for n = 10000

------------------------------------------------------------
Sender: LSF System <lsfadmin@n-62-20-16>
Subject: Job 1867612: <gpulib_8> in cluster <dcc> Done

Job <gpulib_8> was submitted from host <n-62-20-10> by user <s144257> in cluster <dcc> at Thu Jan 24 20:58:27 2019
Job was executed on host(s) <n-62-20-16>, in queue <hpcintrogpu>, as user <s144257> in cluster <dcc> at Thu Jan 24 20:58:29 2019
</zhome/e7/a/97980> was used as the home directory.
</zhome/e7/a/97980/02614-HPC/Assignments/assignment3> was used as the working directory.
Started at Thu Jan 24 20:58:29 2019
Terminated at Thu Jan 24 20:58:51 2019
Results reported at Thu Jan 24 20:58:51 2019

Your job looked like:

------------------------------------------------------------
# LSBATCH: User input
#!/bin/sh
#BSUB -W 00:10
#BSUB -J gpulib_8
#BSUB -r 
#BSUB -R "rusage[mem=5GB]"
#BSUB -q hpcintrogpu
#BSUB -gpu "num=1:mode=exclusive_process:mps=yes"
#BSUB -o data/jobs/gpulib_8.txt

module load cuda/10.0
module load gcc/7.3.0

# N="50 100 200 300 400 500 600 700 800 900 1000"
N="1000 2000 3000 4000 5000 6000 7000 8000 9000 10000"
output=data/gpulib_8.dat
# output=data/gpu2_32.dat

# Make header and flush file contents
echo "memory,mflops">$output

if [ ! -d data/jobs ]; then
  mkdir -p  data/jobs;
fi

for n in $N
do
    echo "Running for n = $n";
    MFLOPS_MAX_IT=1 MATMULT_COMPARE=0 ./matmult_f.nvcc gpulib $n $n $n | awk '{ print $1","$2 ","$3}'>>$output
done

exit 0
------------------------------------------------------------

Successfully completed.

Resource usage summary:

    CPU time :                                   19.22 sec.
    Max Memory :                                 140 MB
    Average Memory :                             140.00 MB
    Total Requested Memory :                     5120.00 MB
    Delta Memory :                               4980.00 MB
    Max Swap :                                   -
    Max Processes :                              5
    Max Threads :                                8
    Run time :                                   49 sec.
    Turnaround time :                            24 sec.

The output (if any) is above this job summary.

Loaded module: cuda/10.0
Loaded dependency [gcc/7.3.0]: binutils
Loaded module: gcc/7.3.0
Running for n = 1000
Running for n = 2000
Running for n = 3000
Running for n = 4000
Running for n = 5000
Running for n = 6000
Running for n = 7000
Running for n = 8000
Running for n = 9000
Running for n = 10000

------------------------------------------------------------
Sender: LSF System <lsfadmin@n-62-20-14>
Subject: Job 1867737: <gpulib_8> in cluster <dcc> Done

Job <gpulib_8> was submitted from host <n-62-20-10> by user <s144257> in cluster <dcc> at Thu Jan 24 21:56:31 2019
Job was executed on host(s) <n-62-20-14>, in queue <hpcintrogpu>, as user <s144257> in cluster <dcc> at Thu Jan 24 21:56:31 2019
</zhome/e7/a/97980> was used as the home directory.
</zhome/e7/a/97980/02614-HPC/Assignments/assignment3> was used as the working directory.
Started at Thu Jan 24 21:56:31 2019
Terminated at Thu Jan 24 21:56:54 2019
Results reported at Thu Jan 24 21:56:54 2019

Your job looked like:

------------------------------------------------------------
# LSBATCH: User input
#!/bin/sh
#BSUB -W 00:10
#BSUB -J gpulib_8
#BSUB -r 
#BSUB -R "rusage[mem=5GB]"
#BSUB -q hpcintrogpu
#BSUB -gpu "num=1:mode=exclusive_process:mps=yes"
#BSUB -o data/jobs/gpulib_8.txt

module load cuda/10.0
module load gcc/7.3.0

# N="50 100 200 300 400 500 600 700 800 900 1000"
N="1000 2000 3000 4000 5000 6000 7000 8000 9000 10000"
output=data/gpulib_16.dat
# output=data/gpu2_32.dat

# Make header and flush file contents
echo "memory,mflops">$output

if [ ! -d data/jobs ]; then
  mkdir -p  data/jobs;
fi

for n in $N
do
    echo "Running for n = $n";
    MFLOPS_MAX_IT=1 MATMULT_COMPARE=0 ./matmult_f.nvcc gpulib $n $n $n | awk '{ print $1","$2 ","$3}'>>$output
done

exit 0
------------------------------------------------------------

Successfully completed.

Resource usage summary:

    CPU time :                                   19.20 sec.
    Max Memory :                                 218 MB
    Average Memory :                             218.00 MB
    Total Requested Memory :                     5120.00 MB
    Delta Memory :                               4902.00 MB
    Max Swap :                                   -
    Max Processes :                              5
    Max Threads :                                8
    Run time :                                   24 sec.
    Turnaround time :                            23 sec.

The output (if any) is above this job summary.

Loaded module: cuda/10.0
Loaded dependency [gcc/7.3.0]: binutils
Loaded module: gcc/7.3.0
Running for n = 1000
Running for n = 2000
Running for n = 3000
Running for n = 4000
Running for n = 5000
Running for n = 6000
Running for n = 7000
Running for n = 8000
Running for n = 9000
Running for n = 10000

------------------------------------------------------------
Sender: LSF System <lsfadmin@n-62-20-16>
Subject: Job 1867740: <gpulib_8> in cluster <dcc> Done

Job <gpulib_8> was submitted from host <n-62-20-10> by user <s144257> in cluster <dcc> at Thu Jan 24 22:00:48 2019
Job was executed on host(s) <n-62-20-16>, in queue <hpcintrogpu>, as user <s144257> in cluster <dcc> at Thu Jan 24 22:00:50 2019
</zhome/e7/a/97980> was used as the home directory.
</zhome/e7/a/97980/02614-HPC/Assignments/assignment3> was used as the working directory.
Started at Thu Jan 24 22:00:50 2019
Terminated at Thu Jan 24 22:01:11 2019
Results reported at Thu Jan 24 22:01:11 2019

Your job looked like:

------------------------------------------------------------
# LSBATCH: User input
#!/bin/sh
#BSUB -W 00:10
#BSUB -J gpulib_8
#BSUB -r 
#BSUB -R "rusage[mem=5GB]"
#BSUB -q hpcintrogpu
#BSUB -gpu "num=1:mode=exclusive_process:mps=yes"
#BSUB -o data/jobs/gpulib_8.txt

module load cuda/10.0
module load gcc/7.3.0

# N="50 100 200 300 400 500 600 700 800 900 1000"
N="1000 2000 3000 4000 5000 6000 7000 8000 9000 10000"
output=data/gpulib_32.dat
# output=data/gpu2_32.dat

# Make header and flush file contents
echo "memory,mflops">$output

if [ ! -d data/jobs ]; then
  mkdir -p  data/jobs;
fi

for n in $N
do
    echo "Running for n = $n";
    MFLOPS_MAX_IT=1 MATMULT_COMPARE=0 ./matmult_f.nvcc gpulib $n $n $n | awk '{ print $1","$2 ","$3}'>>$output
done

exit 0
------------------------------------------------------------

Successfully completed.

Resource usage summary:

    CPU time :                                   19.08 sec.
    Max Memory :                                 266 MB
    Average Memory :                             266.00 MB
    Total Requested Memory :                     5120.00 MB
    Delta Memory :                               4854.00 MB
    Max Swap :                                   -
    Max Processes :                              5
    Max Threads :                                8
    Run time :                                   22 sec.
    Turnaround time :                            23 sec.

The output (if any) is above this job summary.

Loaded module: cuda/10.0
Loaded dependency [gcc/7.3.0]: binutils
Loaded module: gcc/7.3.0
Running for n = 1000
Running for n = 2000
Running for n = 3000
Running for n = 4000
Running for n = 5000
Running for n = 6000
Running for n = 7000
Running for n = 8000
Running for n = 9000
Running for n = 10000

------------------------------------------------------------
Sender: LSF System <lsfadmin@n-62-20-14>
Subject: Job 1867753: <gpulib_8> in cluster <dcc> Done

Job <gpulib_8> was submitted from host <n-62-20-10> by user <s144257> in cluster <dcc> at Thu Jan 24 22:05:31 2019
Job was executed on host(s) <n-62-20-14>, in queue <hpcintrogpu>, as user <s144257> in cluster <dcc> at Thu Jan 24 22:05:33 2019
</zhome/e7/a/97980> was used as the home directory.
</zhome/e7/a/97980/02614-HPC/Assignments/assignment3> was used as the working directory.
Started at Thu Jan 24 22:05:33 2019
Terminated at Thu Jan 24 22:05:55 2019
Results reported at Thu Jan 24 22:05:55 2019

Your job looked like:

------------------------------------------------------------
# LSBATCH: User input
#!/bin/sh
#BSUB -W 00:10
#BSUB -J gpulib_8
#BSUB -r 
#BSUB -R "rusage[mem=5GB]"
#BSUB -q hpcintrogpu
#BSUB -gpu "num=1:mode=exclusive_process:mps=yes"
#BSUB -o data/jobs/gpulib_8.txt

module load cuda/10.0
module load gcc/7.3.0

# N="50 100 200 300 400 500 600 700 800 900 1000"
N="1000 2000 3000 4000 5000 6000 7000 8000 9000 10000"
output=data/gpulib_32.dat
# output=data/gpu2_32.dat

# Make header and flush file contents
echo "memory,mflops">$output

if [ ! -d data/jobs ]; then
  mkdir -p  data/jobs;
fi

for n in $N
do
    echo "Running for n = $n";
    MFLOPS_MAX_IT=1 MATMULT_COMPARE=0 ./matmult_f.nvcc gpulib $n $n $n | awk '{ print $1","$2 ","$3}'>>$output
done

exit 0
------------------------------------------------------------

Successfully completed.

Resource usage summary:

    CPU time :                                   19.17 sec.
    Max Memory :                                 10 MB
    Average Memory :                             10.00 MB
    Total Requested Memory :                     5120.00 MB
    Delta Memory :                               5110.00 MB
    Max Swap :                                   -
    Max Processes :                              5
    Max Threads :                                6
    Run time :                                   34 sec.
    Turnaround time :                            24 sec.

The output (if any) is above this job summary.

Loaded module: cuda/10.0
Loaded dependency [gcc/7.3.0]: binutils
Loaded module: gcc/7.3.0
Running for n = 1000
Running for n = 2000
Running for n = 3000
Running for n = 4000
Running for n = 5000
Running for n = 6000
Running for n = 7000
Running for n = 8000
Running for n = 9000
Running for n = 10000

------------------------------------------------------------
Sender: LSF System <lsfadmin@n-62-20-14>
Subject: Job 1867756: <gpulib_8> in cluster <dcc> Done

Job <gpulib_8> was submitted from host <n-62-20-10> by user <s144257> in cluster <dcc> at Thu Jan 24 22:07:55 2019
Job was executed on host(s) <n-62-20-14>, in queue <hpcintrogpu>, as user <s144257> in cluster <dcc> at Thu Jan 24 22:07:57 2019
</zhome/e7/a/97980> was used as the home directory.
</zhome/e7/a/97980/02614-HPC/Assignments/assignment3> was used as the working directory.
Started at Thu Jan 24 22:07:57 2019
Terminated at Thu Jan 24 22:08:20 2019
Results reported at Thu Jan 24 22:08:20 2019

Your job looked like:

------------------------------------------------------------
# LSBATCH: User input
#!/bin/sh
#BSUB -W 00:10
#BSUB -J gpulib_8
#BSUB -r 
#BSUB -R "rusage[mem=5GB]"
#BSUB -q hpcintrogpu
#BSUB -gpu "num=1:mode=exclusive_process:mps=yes"
#BSUB -o data/jobs/gpulib_8.txt

module load cuda/10.0
module load gcc/7.3.0

# N="50 100 200 300 400 500 600 700 800 900 1000"
N="1000 2000 3000 4000 5000 6000 7000 8000 9000 10000"
output=data/gpulib_32.dat
# output=data/gpu2_32.dat

# Make header and flush file contents
echo "memory,mflops">$output

if [ ! -d data/jobs ]; then
  mkdir -p  data/jobs;
fi

for n in $N
do
    echo "Running for n = $n";
    MFLOPS_MAX_IT=1 MATMULT_COMPARE=0 ./matmult_f.nvcc gpulib $n $n $n | awk '{ print $1","$2 ","$3}'>>$output
done

exit 0
------------------------------------------------------------

Successfully completed.

Resource usage summary:

    CPU time :                                   19.21 sec.
    Max Memory :                                 150 MB
    Average Memory :                             150.00 MB
    Total Requested Memory :                     5120.00 MB
    Delta Memory :                               4970.00 MB
    Max Swap :                                   -
    Max Processes :                              5
    Max Threads :                                8
    Run time :                                   48 sec.
    Turnaround time :                            25 sec.

The output (if any) is above this job summary.

Loaded module: cuda/10.0
Loaded dependency [gcc/7.3.0]: binutils
Loaded module: gcc/7.3.0
Running for n = 1000
Running for n = 2000
Running for n = 3000
Running for n = 4000
Running for n = 5000
Running for n = 6000
Running for n = 7000
Running for n = 8000
Running for n = 9000
Running for n = 10000

------------------------------------------------------------
Sender: LSF System <lsfadmin@n-62-20-14>
Subject: Job 1867760: <gpulib_8> in cluster <dcc> Done

Job <gpulib_8> was submitted from host <n-62-20-10> by user <s144257> in cluster <dcc> at Thu Jan 24 22:09:36 2019
Job was executed on host(s) <n-62-20-14>, in queue <hpcintrogpu>, as user <s144257> in cluster <dcc> at Thu Jan 24 22:09:38 2019
</zhome/e7/a/97980> was used as the home directory.
</zhome/e7/a/97980/02614-HPC/Assignments/assignment3> was used as the working directory.
Started at Thu Jan 24 22:09:38 2019
Terminated at Thu Jan 24 22:10:01 2019
Results reported at Thu Jan 24 22:10:01 2019

Your job looked like:

------------------------------------------------------------
# LSBATCH: User input
#!/bin/sh
#BSUB -W 00:10
#BSUB -J gpulib_8
#BSUB -r 
#BSUB -R "rusage[mem=5GB]"
#BSUB -q hpcintrogpu
#BSUB -gpu "num=1:mode=exclusive_process:mps=yes"
#BSUB -o data/jobs/gpulib_8.txt

module load cuda/10.0
module load gcc/7.3.0

# N="50 100 200 300 400 500 600 700 800 900 1000"
N="1000 2000 3000 4000 5000 6000 7000 8000 9000 10000"
output=data/gpulib_32.dat
# output=data/gpu2_32.dat

# Make header and flush file contents
echo "memory,mflops">$output

if [ ! -d data/jobs ]; then
  mkdir -p  data/jobs;
fi

for n in $N
do
    echo "Running for n = $n";
    MFLOPS_MAX_IT=1 MATMULT_COMPARE=0 ./matmult_f.nvcc gpulib $n $n $n | awk '{ print $1","$2 ","$3}'>>$output
done

exit 0
------------------------------------------------------------

Successfully completed.

Resource usage summary:

    CPU time :                                   19.14 sec.
    Max Memory :                                 157 MB
    Average Memory :                             157.00 MB
    Total Requested Memory :                     5120.00 MB
    Delta Memory :                               4963.00 MB
    Max Swap :                                   -
    Max Processes :                              5
    Max Threads :                                8
    Run time :                                   39 sec.
    Turnaround time :                            25 sec.

The output (if any) is above this job summary.

Loaded module: cuda/10.0
Loaded dependency [gcc/7.3.0]: binutils
Loaded module: gcc/7.3.0
Running for n = 1000
Running for n = 2000
Running for n = 3000
Running for n = 4000
Running for n = 5000

------------------------------------------------------------
Sender: LSF System <lsfadmin@n-62-20-14>
Subject: Job 1867772: <gpulib_8> in cluster <dcc> Exited

Job <gpulib_8> was submitted from host <n-62-20-10> by user <s144257> in cluster <dcc> at Thu Jan 24 22:13:18 2019
Job was executed on host(s) <n-62-20-14>, in queue <hpcintrogpu>, as user <s144257> in cluster <dcc> at Thu Jan 24 22:13:18 2019
</zhome/e7/a/97980> was used as the home directory.
</zhome/e7/a/97980/02614-HPC/Assignments/assignment3> was used as the working directory.
Started at Thu Jan 24 22:13:18 2019
Terminated at Thu Jan 24 22:14:10 2019
Results reported at Thu Jan 24 22:14:10 2019

Your job looked like:

------------------------------------------------------------
# LSBATCH: User input
#!/bin/sh
#BSUB -W 00:10
#BSUB -J gpulib_8
#BSUB -r 
#BSUB -R "rusage[mem=5GB]"
#BSUB -q hpcintrogpu
#BSUB -gpu "num=1:mode=exclusive_process:mps=yes"
#BSUB -o data/jobs/gpulib_8.txt

module load cuda/10.0
module load gcc/7.3.0

# N="50 100 200 300 400 500 600 700 800 900 1000"
N="1000 2000 3000 4000 5000 6000 7000 8000 9000 10000"
output=data/gpulib_32.dat
# output=data/gpu2_32.dat

# Make header and flush file contents
echo "memory,mflops">$output

if [ ! -d data/jobs ]; then
  mkdir -p  data/jobs;
fi

for n in $N
do
    echo "Running for n = $n";
    MFLOPS_MAX_IT=1 MATMULT_COMPARE=0 ./matmult_f.nvcc gpulib $n $n $n | awk '{ print $1","$2 ","$3}' >>$output
done

exit 0
------------------------------------------------------------

TERM_OWNER: job killed by owner.
Exited with exit code 130.

Resource usage summary:

    CPU time :                                   47.82 sec.
    Max Memory :                                 605 MB
    Average Memory :                             192.00 MB
    Total Requested Memory :                     5120.00 MB
    Delta Memory :                               4515.00 MB
    Max Swap :                                   -
    Max Processes :                              5
    Max Threads :                                8
    Run time :                                   58 sec.
    Turnaround time :                            52 sec.

The output (if any) is above this job summary.

Loaded module: cuda/10.0
Loaded dependency [gcc/7.3.0]: binutils
Loaded module: gcc/7.3.0
Running for n = 1000
Running for n = 2000
Running for n = 3000
Running for n = 4000
Running for n = 5000
Running for n = 6000
Running for n = 7000
Running for n = 8000
Running for n = 9000
Running for n = 10000
User defined signal 2

------------------------------------------------------------
Sender: LSF System <lsfadmin@n-62-20-15>
Subject: Job 1867773: <gpulib_8> in cluster <dcc> Exited

Job <gpulib_8> was submitted from host <n-62-20-10> by user <s144257> in cluster <dcc> at Thu Jan 24 22:14:14 2019
Job was executed on host(s) <n-62-20-15>, in queue <hpcintrogpu>, as user <s144257> in cluster <dcc> at Thu Jan 24 22:14:14 2019
</zhome/e7/a/97980> was used as the home directory.
</zhome/e7/a/97980/02614-HPC/Assignments/assignment3> was used as the working directory.
Started at Thu Jan 24 22:14:14 2019
Terminated at Thu Jan 24 22:24:33 2019
Results reported at Thu Jan 24 22:24:33 2019

Your job looked like:

------------------------------------------------------------
# LSBATCH: User input
#!/bin/sh
#BSUB -W 00:10
#BSUB -J gpulib_8
#BSUB -r 
#BSUB -R "rusage[mem=5GB]"
#BSUB -q hpcintrogpu
#BSUB -gpu "num=1:mode=exclusive_process:mps=yes"
#BSUB -o data/jobs/gpulib_8.txt

module load cuda/10.0
module load gcc/7.3.0

# N="50 100 200 300 400 500 600 700 800 900 1000"
N="1000 2000 3000 4000 5000 6000 7000 8000 9000 10000"
output=data/gpulib_32.dat
# output=data/gpu2_32.dat

# Make header and flush file contents
echo "memory,mflops">$output

if [ ! -d data/jobs ]; then
  mkdir -p  data/jobs;
fi

for n in $N
do
    echo "Running for n = $n";
    MFLOPS_MAX_IT=1 MATMULT_COMPARE=0 ./matmult_f.nvcc gpulib $n $n $n | awk '{ print $1","$2 ","$3}' >>$output
done

exit 0
------------------------------------------------------------

TERM_RUNLIMIT: job killed after reaching LSF run time limit.
Exited with exit code 140.

Resource usage summary:

    CPU time :                                   610.00 sec.
    Max Memory :                                 1747 MB
    Average Memory :                             975.39 MB
    Total Requested Memory :                     5120.00 MB
    Delta Memory :                               3373.00 MB
    Max Swap :                                   -
    Max Processes :                              5
    Max Threads :                                8
    Run time :                                   626 sec.
    Turnaround time :                            619 sec.

The output (if any) is above this job summary.

Loaded module: cuda/10.0
Loaded dependency [gcc/7.3.0]: binutils
Loaded module: gcc/7.3.0
Running for n = 1000
Running for n = 2000
Running for n = 3000
Running for n = 4000
Running for n = 5000
Running for n = 6000
Running for n = 7000
Running for n = 8000
Running for n = 9000
Running for n = 10000
User defined signal 2

------------------------------------------------------------
Sender: LSF System <lsfadmin@n-62-20-16>
Subject: Job 1868010: <gpulib_32> in cluster <dcc> Exited

Job <gpulib_32> was submitted from host <n-62-20-6> by user <s144257> in cluster <dcc> at Fri Jan 25 08:33:26 2019
Job was executed on host(s) <n-62-20-16>, in queue <hpcintrogpu>, as user <s144257> in cluster <dcc> at Fri Jan 25 08:33:28 2019
</zhome/e7/a/97980> was used as the home directory.
</zhome/e7/a/97980/02614-HPC/Assignments/assignment3> was used as the working directory.
Started at Fri Jan 25 08:33:28 2019
Terminated at Fri Jan 25 08:43:34 2019
Results reported at Fri Jan 25 08:43:34 2019

Your job looked like:

------------------------------------------------------------
# LSBATCH: User input
#!/bin/sh
#BSUB -W 00:10
#BSUB -J gpulib_32
#BSUB -r 
#BSUB -R "rusage[mem=6GB]"
#BSUB -q hpcintrogpu
#BSUB -gpu "num=1:mode=exclusive_process:mps=yes"
#BSUB -o data/jobs/gpulib_8.txt

module load cuda/10.0
module load gcc/7.3.0

# N="50 100 200 300 400 500 600 700 800 900 1000"
N="1000 2000 3000 4000 5000 6000 7000 8000 9000 10000"
output=data/gpulib_32.dat
# output=data/gpu2_32.dat

# Make header and flush file contents
echo "memory,mflops">$output

if [ ! -d data/jobs ]; then
  mkdir -p  data/jobs;
fi

for n in $N
do
    echo "Running for n = $n";
    MFLOPS_MAX_IT=1 MATMULT_COMPARE=0 ./matmult_f.nvcc gpulib $n $n $n | awk '{ print $1","$2 ","$3}' >>$output
done

exit 0
------------------------------------------------------------

TERM_RUNLIMIT: job killed after reaching LSF run time limit.
Exited with exit code 140.

Resource usage summary:

    CPU time :                                   595.00 sec.
    Max Memory :                                 1745 MB
    Average Memory :                             943.59 MB
    Total Requested Memory :                     6144.00 MB
    Delta Memory :                               4399.00 MB
    Max Swap :                                   -
    Max Processes :                              5
    Max Threads :                                8
    Run time :                                   608 sec.
    Turnaround time :                            608 sec.

The output (if any) is above this job summary.

Loaded module: cuda/10.0
Loaded dependency [gcc/7.3.0]: binutils
Loaded module: gcc/7.3.0
Running for n = 10000

------------------------------------------------------------
Sender: LSF System <lsfadmin@n-62-20-14>
Subject: Job 1868023: <gpulib_32> in cluster <dcc> Done

Job <gpulib_32> was submitted from host <n-62-20-6> by user <s144257> in cluster <dcc> at Fri Jan 25 08:56:56 2019
Job was executed on host(s) <n-62-20-14>, in queue <hpcintrogpu>, as user <s144257> in cluster <dcc> at Fri Jan 25 08:56:58 2019
</zhome/e7/a/97980> was used as the home directory.
</zhome/e7/a/97980/02614-HPC/Assignments/assignment3> was used as the working directory.
Started at Fri Jan 25 08:56:58 2019
Terminated at Fri Jan 25 09:01:51 2019
Results reported at Fri Jan 25 09:01:51 2019

Your job looked like:

------------------------------------------------------------
# LSBATCH: User input
#!/bin/sh
#BSUB -W 00:10
#BSUB -J gpulib_32
#BSUB -r 
#BSUB -R "rusage[mem=6GB]"
#BSUB -q hpcintrogpu
#BSUB -gpu "num=1:mode=exclusive_process:mps=yes"
#BSUB -o data/jobs/gpulib_8.txt

module load cuda/10.0
module load gcc/7.3.0

# N="50 100 200 300 400 500 600 700 800 900 1000"
N="10000"
output=data/gpulib_32.dat
# output=data/gpu2_32.dat

# Make header and flush file contents
#echo "memory,mflops">$output

if [ ! -d data/jobs ]; then
  mkdir -p  data/jobs;
fi

for n in $N
do
    echo "Running for n = $n";
    MFLOPS_MAX_IT=1 MATMULT_COMPARE=0 ./matmult_f.nvcc gpulib $n $n $n | awk '{ print $1","$2 ","$3}' >>$output
done

exit 0
------------------------------------------------------------

Successfully completed.

Resource usage summary:

    CPU time :                                   290.14 sec.
    Max Memory :                                 1747 MB
    Average Memory :                             1746.25 MB
    Total Requested Memory :                     6144.00 MB
    Delta Memory :                               4397.00 MB
    Max Swap :                                   -
    Max Processes :                              5
    Max Threads :                                8
    Run time :                                   313 sec.
    Turnaround time :                            295 sec.

The output (if any) is above this job summary.

Loaded module: cuda/10.0
Loaded dependency [gcc/7.3.0]: binutils
Loaded module: gcc/7.3.0
Running for n = 10000

------------------------------------------------------------
Sender: LSF System <lsfadmin@n-62-20-14>
Subject: Job 1868034: <gpulib_16> in cluster <dcc> Done

Job <gpulib_16> was submitted from host <n-62-20-6> by user <s144257> in cluster <dcc> at Fri Jan 25 09:06:40 2019
Job was executed on host(s) <n-62-20-14>, in queue <hpcintrogpu>, as user <s144257> in cluster <dcc> at Fri Jan 25 09:06:41 2019
</zhome/e7/a/97980> was used as the home directory.
</zhome/e7/a/97980/02614-HPC/Assignments/assignment3> was used as the working directory.
Started at Fri Jan 25 09:06:41 2019
Terminated at Fri Jan 25 09:11:33 2019
Results reported at Fri Jan 25 09:11:33 2019

Your job looked like:

------------------------------------------------------------
# LSBATCH: User input
#!/bin/sh
#BSUB -W 00:20
#BSUB -J gpulib_16
#BSUB -r 
#BSUB -R "rusage[mem=6GB]"
#BSUB -q hpcintrogpu
#BSUB -gpu "num=1:mode=exclusive_process:mps=yes"
#BSUB -o data/jobs/gpulib_8.txt

module load cuda/10.0
module load gcc/7.3.0

# N="50 100 200 300 400 500 600 700 800 900 1000"
N="10000"
output=data/gpulib_16.dat
# output=data/gpu2_32.dat

# Make header and flush file contents
echo "memory,mflops">$output

if [ ! -d data/jobs ]; then
  mkdir -p  data/jobs;
fi

for n in $N
do
    echo "Running for n = $n";
    MFLOPS_MAX_IT=1 MATMULT_COMPARE=0 ./matmult_f.nvcc gpulib $n $n $n | awk '{ print $1","$2 ","$3}' >>$output
done

exit 0
------------------------------------------------------------

Successfully completed.

Resource usage summary:

    CPU time :                                   290.00 sec.
    Max Memory :                                 1747 MB
    Average Memory :                             1747.00 MB
    Total Requested Memory :                     6144.00 MB
    Delta Memory :                               4397.00 MB
    Max Swap :                                   -
    Max Processes :                              5
    Max Threads :                                8
    Run time :                                   295 sec.
    Turnaround time :                            293 sec.

The output (if any) is above this job summary.

Loaded module: cuda/10.0
Loaded dependency [gcc/7.3.0]: binutils
Loaded module: gcc/7.3.0
Running for n = 1000
Running for n = 2000
Running for n = 3000
Running for n = 4000
Running for n = 5000
Running for n = 6000
Running for n = 7000
Running for n = 8000
Running for n = 9000
Running for n = 10000

------------------------------------------------------------
Sender: LSF System <lsfadmin@n-62-20-16>
Subject: Job 1868063: <gpulib_16> in cluster <dcc> Done

Job <gpulib_16> was submitted from host <n-62-20-6> by user <s144257> in cluster <dcc> at Fri Jan 25 09:19:28 2019
Job was executed on host(s) <n-62-20-16>, in queue <hpcintrogpu>, as user <s144257> in cluster <dcc> at Fri Jan 25 09:19:29 2019
</zhome/e7/a/97980> was used as the home directory.
</zhome/e7/a/97980/02614-HPC/Assignments/assignment3> was used as the working directory.
Started at Fri Jan 25 09:19:29 2019
Terminated at Fri Jan 25 09:34:18 2019
Results reported at Fri Jan 25 09:34:18 2019

Your job looked like:

------------------------------------------------------------
# LSBATCH: User input
#!/bin/sh
#BSUB -W 00:20
#BSUB -J gpulib_16
#BSUB -r 
#BSUB -R "rusage[mem=6GB]"
#BSUB -q hpcintrogpu
#BSUB -gpu "num=1:mode=exclusive_process:mps=yes"
#BSUB -o data/jobs/gpulib_8.txt

module load cuda/10.0
module load gcc/7.3.0

# N="50 100 200 300 400 500 600 700 800 900 1000"
N="1000 2000 3000 4000 5000 6000 7000 8000 9000 10000"
output=data/gpulib_16.dat
# output=data/gpu2_32.dat

# Make header and flush file contents
echo "memory,mflops">$output

if [ ! -d data/jobs ]; then
  mkdir -p  data/jobs;
fi

for n in $N
do
    echo "Running for n = $n";
    MFLOPS_MAX_IT=1 MATMULT_COMPARE=0 ./matmult_f.nvcc gpulib $n $n $n | awk '{ print $1","$2 ","$3}' >>$output
done

exit 0
------------------------------------------------------------

Successfully completed.

Resource usage summary:

    CPU time :                                   882.00 sec.
    Max Memory :                                 1745 MB
    Average Memory :                             1343.39 MB
    Total Requested Memory :                     6144.00 MB
    Delta Memory :                               4399.00 MB
    Max Swap :                                   -
    Max Processes :                              5
    Max Threads :                                8
    Run time :                                   909 sec.
    Turnaround time :                            890 sec.

The output (if any) is above this job summary.

Loaded module: cuda/10.0
Loaded dependency [gcc/7.3.0]: binutils
Loaded module: gcc/7.3.0
Running for n = 1000
Running for n = 2000
Running for n = 3000
Running for n = 4000
Running for n = 5000
Running for n = 6000
Running for n = 7000
Running for n = 8000
Running for n = 9000
Running for n = 10000

------------------------------------------------------------
Sender: LSF System <lsfadmin@n-62-20-14>
Subject: Job 1868109: <gpulib_8> in cluster <dcc> Done

Job <gpulib_8> was submitted from host <n-62-20-6> by user <s144257> in cluster <dcc> at Fri Jan 25 09:39:35 2019
Job was executed on host(s) <n-62-20-14>, in queue <hpcintrogpu>, as user <s144257> in cluster <dcc> at Fri Jan 25 09:39:37 2019
</zhome/e7/a/97980> was used as the home directory.
</zhome/e7/a/97980/02614-HPC/Assignments/assignment3> was used as the working directory.
Started at Fri Jan 25 09:39:37 2019
Terminated at Fri Jan 25 09:54:25 2019
Results reported at Fri Jan 25 09:54:25 2019

Your job looked like:

------------------------------------------------------------
# LSBATCH: User input
#!/bin/sh
#BSUB -W 00:20
#BSUB -J gpulib_8
#BSUB -r 
#BSUB -R "rusage[mem=6GB]"
#BSUB -q hpcintrogpu
#BSUB -gpu "num=1:mode=exclusive_process:mps=yes"
#BSUB -o data/jobs/gpulib_8.txt

module load cuda/10.0
module load gcc/7.3.0

# N="50 100 200 300 400 500 600 700 800 900 1000"
N="1000 2000 3000 4000 5000 6000 7000 8000 9000 10000"
output=data/gpulib_8.dat
# output=data/gpu2_32.dat

# Make header and flush file contents
echo "memory,mflops">$output

if [ ! -d data/jobs ]; then
  mkdir -p  data/jobs;
fi

for n in $N
do
    echo "Running for n = $n";
    MFLOPS_MAX_IT=1 MATMULT_COMPARE=0 ./matmult_f.nvcc gpulib $n $n $n | awk '{ print $1","$2 ","$3}' >>$output
done

exit 0
------------------------------------------------------------

Successfully completed.

Resource usage summary:

    CPU time :                                   882.00 sec.
    Max Memory :                                 1745 MB
    Average Memory :                             1343.93 MB
    Total Requested Memory :                     6144.00 MB
    Delta Memory :                               4399.00 MB
    Max Swap :                                   -
    Max Processes :                              5
    Max Threads :                                8
    Run time :                                   891 sec.
    Turnaround time :                            890 sec.

The output (if any) is above this job summary.

Loaded module: cuda/10.0
Loaded dependency [gcc/7.3.0]: binutils
Loaded module: gcc/7.3.0
Running for n = 1000
Running for n = 2000
Running for n = 3000
Running for n = 4000
Running for n = 5000
Running for n = 6000
Running for n = 7000
Running for n = 8000
Running for n = 9000
Running for n = 10000
Running for n = 11000
Running for n = 12000
Running for n = 13000
Running for n = 14000
Running for n = 15000
Running for n = 16000
Running for n = 17000
CUDA error at allocate_gpu.cu:16 code=11(cudaErrorInvalidValue) "cudaMallocHost((void **) &inner, m*n*sizeof(double))" 
Running for n = 18000
CUDA error at allocate_gpu.cu:16 code=11(cudaErrorInvalidValue) "cudaMallocHost((void **) &inner, m*n*sizeof(double))" 
Running for n = 19000
CUDA error at allocate_gpu.cu:16 code=11(cudaErrorInvalidValue) "cudaMallocHost((void **) &inner, m*n*sizeof(double))" 
Running for n = 20000
CUDA error at allocate_gpu.cu:16 code=11(cudaErrorInvalidValue) "cudaMallocHost((void **) &inner, m*n*sizeof(double))" 

------------------------------------------------------------
Sender: LSF System <lsfadmin@n-62-20-15>
Subject: Job 1868461: <gpulib_8> in cluster <dcc> Done

Job <gpulib_8> was submitted from host <n-62-20-7> by user <s144257> in cluster <dcc> at Fri Jan 25 12:15:03 2019
Job was executed on host(s) <n-62-20-15>, in queue <hpcintrogpu>, as user <s144257> in cluster <dcc> at Fri Jan 25 12:15:05 2019
</zhome/e7/a/97980> was used as the home directory.
</zhome/e7/a/97980/02614-HPC/Assignments/assignment3> was used as the working directory.
Started at Fri Jan 25 12:15:05 2019
Terminated at Fri Jan 25 12:16:04 2019
Results reported at Fri Jan 25 12:16:04 2019

Your job looked like:

------------------------------------------------------------
# LSBATCH: User input
#!/bin/sh
#BSUB -W 00:20
#BSUB -J gpulib_8
#BSUB -r 
#BSUB -R "rusage[mem=6GB]"
#BSUB -q hpcintrogpu
#BSUB -gpu "num=1:mode=exclusive_process:mps=yes"
#BSUB -o data/jobs/gpulib_8.txt

module load cuda/10.0
module load gcc/7.3.0

# N="50 100 200 300 400 500 600 700 800 900 1000"
N="1000 2000 3000 4000 5000 6000 7000 8000 9000 10000 11000 12000 13000 14000 15000 16000 17000 18000 19000 20000"
output=data/gpulib_8.dat
# output=data/gpu2_32.dat

# Make header and flush file contents
echo "memory,mflops">$output

if [ ! -d data/jobs ]; then
  mkdir -p  data/jobs;
fi

for n in $N
do
    echo "Running for n = $n";
    MFLOPS_MAX_IT=1 MATMULT_COMPARE=0 ./matmult_f.nvcc gpulib $n $n $n | awk '{ print $1","$2 ","$3}' >>$output
done

exit 0
------------------------------------------------------------

Successfully completed.

Resource usage summary:

    CPU time :                                   54.70 sec.
    Max Memory :                                 219 MB
    Average Memory :                             167.50 MB
    Total Requested Memory :                     6144.00 MB
    Delta Memory :                               5925.00 MB
    Max Swap :                                   -
    Max Processes :                              5
    Max Threads :                                8
    Run time :                                   72 sec.
    Turnaround time :                            61 sec.

The output (if any) is above this job summary.

Loaded module: cuda/10.0
Loaded dependency [gcc/7.3.0]: binutils
Loaded module: gcc/7.3.0
Running for n = 1000
Running for n = 2000
Running for n = 3000
Running for n = 4000
Running for n = 5000
Running for n = 6000
Running for n = 7000
Running for n = 8000
Running for n = 9000
Running for n = 10000
Running for n = 11000
Running for n = 12000
Running for n = 13000
Running for n = 14000
Running for n = 15000
Running for n = 16000
Running for n = 17000
Running for n = 18000
Running for n = 19000
Running for n = 20000

------------------------------------------------------------
Sender: LSF System <lsfadmin@n-62-20-15>
Subject: Job 1868465: <gpulib_8> in cluster <dcc> Done

Job <gpulib_8> was submitted from host <n-62-20-7> by user <s144257> in cluster <dcc> at Fri Jan 25 12:17:18 2019
Job was executed on host(s) <n-62-20-15>, in queue <hpcintrogpu>, as user <s144257> in cluster <dcc> at Fri Jan 25 12:17:19 2019
</zhome/e7/a/97980> was used as the home directory.
</zhome/e7/a/97980/02614-HPC/Assignments/assignment3> was used as the working directory.
Started at Fri Jan 25 12:17:19 2019
Terminated at Fri Jan 25 12:18:34 2019
Results reported at Fri Jan 25 12:18:34 2019

Your job looked like:

------------------------------------------------------------
# LSBATCH: User input
#!/bin/sh
#BSUB -W 00:20
#BSUB -J gpulib_8
#BSUB -r 
#BSUB -R "rusage[mem=10GB]"
#BSUB -q hpcintrogpu
#BSUB -gpu "num=1:mode=exclusive_process:mps=yes"
#BSUB -o data/jobs/gpulib_8.txt

module load cuda/10.0
module load gcc/7.3.0

# N="50 100 200 300 400 500 600 700 800 900 1000"
N="1000 2000 3000 4000 5000 6000 7000 8000 9000 10000 11000 12000 13000 14000 15000 16000 17000 18000 19000 20000"
output=data/gpulib_8.dat
# output=data/gpu2_32.dat

# Make header and flush file contents
echo "memory,mflops">$output

if [ ! -d data/jobs ]; then
  mkdir -p  data/jobs;
fi

for n in $N
do
    echo "Running for n = $n";
    MFLOPS_MAX_IT=1 MATMULT_COMPARE=0 ./matmult_f.nvcc gpulib $n $n $n | awk '{ print $1","$2 ","$3}' >>$output
done

exit 0
------------------------------------------------------------

Successfully completed.

Resource usage summary:

    CPU time :                                   72.00 sec.
    Max Memory :                                 220 MB
    Average Memory :                             184.60 MB
    Total Requested Memory :                     10240.00 MB
    Delta Memory :                               10020.00 MB
    Max Swap :                                   -
    Max Processes :                              5
    Max Threads :                                8
    Run time :                                   86 sec.
    Turnaround time :                            76 sec.

The output (if any) is above this job summary.

Loaded module: cuda/10.0
Loaded dependency [gcc/7.3.0]: binutils
Loaded module: gcc/7.3.0
Running for n = 1000
Running for n = 2000
Running for n = 3000
Running for n = 4000
Running for n = 5000
Running for n = 6000
Running for n = 7000
Running for n = 8000
Running for n = 9000
Running for n = 10000
Running for n = 11000
Running for n = 12000
Running for n = 13000
Running for n = 14000
Running for n = 15000
Running for n = 16000
Running for n = 17000
Running for n = 18000
Running for n = 19000
Running for n = 20000

------------------------------------------------------------
Sender: LSF System <lsfadmin@n-62-20-15>
Subject: Job 1868476: <gpulib_16> in cluster <dcc> Done

Job <gpulib_16> was submitted from host <n-62-20-7> by user <s144257> in cluster <dcc> at Fri Jan 25 12:24:47 2019
Job was executed on host(s) <n-62-20-15>, in queue <hpcintrogpu>, as user <s144257> in cluster <dcc> at Fri Jan 25 12:24:51 2019
</zhome/e7/a/97980> was used as the home directory.
</zhome/e7/a/97980/02614-HPC/Assignments/assignment3> was used as the working directory.
Started at Fri Jan 25 12:24:51 2019
Terminated at Fri Jan 25 12:26:06 2019
Results reported at Fri Jan 25 12:26:06 2019

Your job looked like:

------------------------------------------------------------
# LSBATCH: User input
#!/bin/sh
#BSUB -W 00:20
#BSUB -J gpulib_16
#BSUB -r 
#BSUB -R "rusage[mem=10GB]"
#BSUB -q hpcintrogpu
#BSUB -gpu "num=1:mode=exclusive_process:mps=yes"
#BSUB -o data/jobs/gpulib_8.txt

module load cuda/10.0
module load gcc/7.3.0

# N="50 100 200 300 400 500 600 700 800 900 1000"
N="1000 2000 3000 4000 5000 6000 7000 8000 9000 10000 11000 12000 13000 14000 15000 16000 17000 18000 19000 20000"
output=data/gpulib_16.dat
# output=data/gpu2_32.dat

# Make header and flush file contents
echo "memory,mflops">$output

if [ ! -d data/jobs ]; then
  mkdir -p  data/jobs;
fi

for n in $N
do
    echo "Running for n = $n";
    MFLOPS_MAX_IT=1 MATMULT_COMPARE=0 ./matmult_f.nvcc gpulib $n $n $n | awk '{ print $1","$2 ","$3}' >>$output
done

exit 0
------------------------------------------------------------

Successfully completed.

Resource usage summary:

    CPU time :                                   72.45 sec.
    Max Memory :                                 222 MB
    Average Memory :                             204.20 MB
    Total Requested Memory :                     10240.00 MB
    Delta Memory :                               10018.00 MB
    Max Swap :                                   -
    Max Processes :                              5
    Max Threads :                                8
    Run time :                                   75 sec.
    Turnaround time :                            79 sec.

The output (if any) is above this job summary.

Loaded module: cuda/10.0
Loaded dependency [gcc/7.3.0]: binutils
Loaded module: gcc/7.3.0
Running for n = 1000
Running for n = 2000
Running for n = 3000
Running for n = 4000
Running for n = 5000
Running for n = 6000
Running for n = 7000
Running for n = 8000
Running for n = 9000
Running for n = 10000
Running for n = 11000
Running for n = 12000
Running for n = 13000
Running for n = 14000
Running for n = 15000
Running for n = 16000
Running for n = 17000
Running for n = 18000
Running for n = 19000
Running for n = 20000

------------------------------------------------------------
Sender: LSF System <lsfadmin@n-62-20-15>
Subject: Job 1868485: <gpulib_32> in cluster <dcc> Done

Job <gpulib_32> was submitted from host <n-62-20-7> by user <s144257> in cluster <dcc> at Fri Jan 25 12:27:18 2019
Job was executed on host(s) <n-62-20-15>, in queue <hpcintrogpu>, as user <s144257> in cluster <dcc> at Fri Jan 25 12:27:39 2019
</zhome/e7/a/97980> was used as the home directory.
</zhome/e7/a/97980/02614-HPC/Assignments/assignment3> was used as the working directory.
Started at Fri Jan 25 12:27:39 2019
Terminated at Fri Jan 25 12:28:55 2019
Results reported at Fri Jan 25 12:28:55 2019

Your job looked like:

------------------------------------------------------------
# LSBATCH: User input
#!/bin/sh
#BSUB -W 00:20
#BSUB -J gpulib_32
#BSUB -r 
#BSUB -R "rusage[mem=10GB]"
#BSUB -q hpcintrogpu
#BSUB -gpu "num=1:mode=exclusive_process:mps=yes"
#BSUB -o data/jobs/gpulib_8.txt

module load cuda/10.0
module load gcc/7.3.0

# N="50 100 200 300 400 500 600 700 800 900 1000"
N="1000 2000 3000 4000 5000 6000 7000 8000 9000 10000 11000 12000 13000 14000 15000 16000 17000 18000 19000 20000"
output=data/gpulib_32.dat
# output=data/gpu2_32.dat

# Make header and flush file contents
echo "memory,mflops">$output

if [ ! -d data/jobs ]; then
  mkdir -p  data/jobs;
fi

for n in $N
do
    echo "Running for n = $n";
    MFLOPS_MAX_IT=1 MATMULT_COMPARE=0 ./matmult_f.nvcc gpulib $n $n $n | awk '{ print $1","$2 ","$3}' >>$output
done

exit 0
------------------------------------------------------------

Successfully completed.

Resource usage summary:

    CPU time :                                   72.13 sec.
    Max Memory :                                 219 MB
    Average Memory :                             69.80 MB
    Total Requested Memory :                     10240.00 MB
    Delta Memory :                               10021.00 MB
    Max Swap :                                   -
    Max Processes :                              5
    Max Threads :                                8
    Run time :                                   75 sec.
    Turnaround time :                            97 sec.

The output (if any) is above this job summary.

