Loaded module: cuda/10.0
Loaded dependency [gcc/7.3.0]: binutils
Loaded module: gcc/7.3.0

------------------------------------------------------------
Sender: LSF System <lsfadmin@n-62-20-16>
Subject: Job 1867652: <poiss2> in cluster <dcc> Done

Job <poiss2> was submitted from host <n-62-20-13> by user <s144470> in cluster <dcc> at Thu Jan 24 21:18:15 2019
Job was executed on host(s) <n-62-20-16>, in queue <hpcintrogpu>, as user <s144470> in cluster <dcc> at Thu Jan 24 21:18:27 2019
</zhome/56/b/98193> was used as the home directory.
</zhome/56/b/98193/Desktop/02614-HPC/Assignments/assignment3> was used as the working directory.
Started at Thu Jan 24 21:18:27 2019
Terminated at Thu Jan 24 21:18:28 2019
Results reported at Thu Jan 24 21:18:28 2019

Your job looked like:

------------------------------------------------------------
# LSBATCH: User input
#!/bin/sh
#BSUB -W 00:10
#BSUB -J poiss2
#BSUB -r 
#BSUB -R "rusage[mem=3GB]"
#BSUB -q hpcintrogpu
#BSUB -gpu "num=1:mode=exclusive_process:mps=yes"
#BSUB -o data/jobs/poiss2.txt

module load cuda/10.0
module load gcc/7.3.0

L="1000 2000 3000 4000 5000 6000 7000 8000 9000 10000"
output1=data/poisson2.dat

# Make header and flush file contents
echo "memory,time">$output1

if [ ! -d data/jobs ]; then
  mkdir -p  data/jobs;
fi

for n in $S
do
    echo "Running for n = $n";
    ./poisson/poiss 2 $n 1000 | awk '{ print $1","$2}'>>$output1
done

exit 0


------------------------------------------------------------

Successfully completed.

Resource usage summary:

    CPU time :                                   0.25 sec.
    Max Memory :                                 -
    Average Memory :                             -
    Total Requested Memory :                     3072.00 MB
    Delta Memory :                               -
    Max Swap :                                   -
    Max Processes :                              -
    Max Threads :                                -
    Run time :                                   1 sec.
    Turnaround time :                            13 sec.

The output (if any) is above this job summary.

Loaded module: cuda/10.0
Loaded dependency [gcc/7.3.0]: binutils
Loaded module: gcc/7.3.0
Running for n = 1000
Running for n = 2000
Running for n = 3000
Running for n = 4000
Running for n = 5000
Running for n = 6000
Running for n = 7000
Running for n = 8000
Running for n = 9000
Running for n = 10000

------------------------------------------------------------
Sender: LSF System <lsfadmin@n-62-20-15>
Subject: Job 1867661: <poiss2> in cluster <dcc> Done

Job <poiss2> was submitted from host <n-62-20-13> by user <s144470> in cluster <dcc> at Thu Jan 24 21:21:39 2019
Job was executed on host(s) <n-62-20-15>, in queue <hpcintrogpu>, as user <s144470> in cluster <dcc> at Thu Jan 24 21:22:50 2019
</zhome/56/b/98193> was used as the home directory.
</zhome/56/b/98193/Desktop/02614-HPC/Assignments/assignment3> was used as the working directory.
Started at Thu Jan 24 21:22:50 2019
Terminated at Thu Jan 24 21:23:41 2019
Results reported at Thu Jan 24 21:23:41 2019

Your job looked like:

------------------------------------------------------------
# LSBATCH: User input
#!/bin/sh
#BSUB -W 00:10
#BSUB -J poiss2
#BSUB -r 
#BSUB -R "rusage[mem=3GB]"
#BSUB -q hpcintrogpu
#BSUB -gpu "num=1:mode=exclusive_process:mps=yes"
#BSUB -o data/jobs/poiss2.txt

module load cuda/10.0
module load gcc/7.3.0

L="1000 2000 3000 4000 5000 6000 7000 8000 9000 10000"
output1=data/poisson2.dat

# Make header and flush file contents
echo "memory,time">$output1

if [ ! -d data/jobs ]; then
  mkdir -p  data/jobs;
fi

for n in $L
do
    echo "Running for n = $n";
    ./poisson/poiss 2 $n 1000 | awk '{ print $1","$2}'>>$output1
done

exit 0


------------------------------------------------------------

Successfully completed.

Resource usage summary:

    CPU time :                                   47.72 sec.
    Max Memory :                                 19 MB
    Average Memory :                             16.67 MB
    Total Requested Memory :                     3072.00 MB
    Delta Memory :                               3053.00 MB
    Max Swap :                                   -
    Max Processes :                              5
    Max Threads :                                8
    Run time :                                   51 sec.
    Turnaround time :                            122 sec.

The output (if any) is above this job summary.

Loaded module: cuda/10.0
Loaded dependency [gcc/7.3.0]: binutils
Loaded module: gcc/7.3.0
Running for n = 1000
Running for n = 2000
Running for n = 3000
Running for n = 4000
Running for n = 5000
Running for n = 6000
Running for n = 7000
Running for n = 8000
Running for n = 9000
Running for n = 10000

------------------------------------------------------------
Sender: LSF System <lsfadmin@n-62-20-16>
Subject: Job 1867722: <poiss2> in cluster <dcc> Done

Job <poiss2> was submitted from host <n-62-20-13> by user <s144470> in cluster <dcc> at Thu Jan 24 21:46:16 2019
Job was executed on host(s) <n-62-20-16>, in queue <hpcintrogpu>, as user <s144470> in cluster <dcc> at Thu Jan 24 21:46:18 2019
</zhome/56/b/98193> was used as the home directory.
</zhome/56/b/98193/Desktop/02614-HPC/Assignments/assignment3> was used as the working directory.
Started at Thu Jan 24 21:46:18 2019
Terminated at Thu Jan 24 21:47:07 2019
Results reported at Thu Jan 24 21:47:07 2019

Your job looked like:

------------------------------------------------------------
# LSBATCH: User input
#!/bin/sh
#BSUB -W 00:10
#BSUB -J poiss2
#BSUB -r 
#BSUB -R "rusage[mem=3GB]"
#BSUB -q hpcintrogpu
#BSUB -gpu "num=1:mode=exclusive_process:mps=yes"
#BSUB -o data/jobs/poiss2.txt

module load cuda/10.0
module load gcc/7.3.0

L="1000 2000 3000 4000 5000 6000 7000 8000 9000 10000"
output1=data/poisson2.dat

# Make header and flush file contents
echo "memory,time">$output1

if [ ! -d data/jobs ]; then
  mkdir -p  data/jobs;
fi

for n in $L
do
    echo "Running for n = $n";
    ./poisson/poiss 2 $n 1000 | awk '{ print $1","$2}'>>$output1
done

exit 0


------------------------------------------------------------

Successfully completed.

Resource usage summary:

    CPU time :                                   47.62 sec.
    Max Memory :                                 19 MB
    Average Memory :                             19.00 MB
    Total Requested Memory :                     3072.00 MB
    Delta Memory :                               3053.00 MB
    Max Swap :                                   -
    Max Processes :                              5
    Max Threads :                                8
    Run time :                                   53 sec.
    Turnaround time :                            51 sec.

The output (if any) is above this job summary.

Loaded module: cuda/10.0
Loaded dependency [gcc/7.3.0]: binutils
Loaded module: gcc/7.3.0
Running for n = 1000
Running for n = 2000
Running for n = 3000
Running for n = 4000
Running for n = 5000
Running for n = 6000
Running for n = 7000
Running for n = 8000
Running for n = 9000
Running for n = 10000

------------------------------------------------------------
<<<<<<< HEAD
Sender: LSF System <lsfadmin@n-62-20-14>
Subject: Job 1868088: <poiss2> in cluster <dcc> Done

Job <poiss2> was submitted from host <n-62-20-6> by user <s144257> in cluster <dcc> at Fri Jan 25 09:31:42 2019
Job was executed on host(s) <n-62-20-14>, in queue <hpcintrogpu>, as user <s144257> in cluster <dcc> at Fri Jan 25 09:31:44 2019
</zhome/e7/a/97980> was used as the home directory.
</zhome/e7/a/97980/02614-HPC/Assignments/assignment3> was used as the working directory.
Started at Fri Jan 25 09:31:44 2019
Terminated at Fri Jan 25 09:32:35 2019
Results reported at Fri Jan 25 09:32:35 2019
=======
Sender: LSF System <lsfadmin@n-62-20-15>
Subject: Job 1868463: <poiss3> in cluster <dcc> Done

Job <poiss3> was submitted from host <n-62-20-6> by user <s144470> in cluster <dcc> at Fri Jan 25 12:16:19 2019
Job was executed on host(s) <n-62-20-15>, in queue <hpcintrogpu>, as user <s144470> in cluster <dcc> at Fri Jan 25 12:16:20 2019
</zhome/56/b/98193> was used as the home directory.
</zhome/56/b/98193/Desktop/02614-HPC/Assignments/assignment3> was used as the working directory.
Started at Fri Jan 25 12:16:20 2019
Terminated at Fri Jan 25 12:17:04 2019
Results reported at Fri Jan 25 12:17:04 2019
>>>>>>> 5c18b7299addc4641b0bf76741893d3184f6d094

Your job looked like:

------------------------------------------------------------
# LSBATCH: User input
#!/bin/sh
#BSUB -W 00:10
<<<<<<< HEAD
#BSUB -J poiss2
#BSUB -r 
#BSUB -R "rusage[mem=3GB]"
=======
#BSUB -J poiss3
#BSUB -r 
#BSUB -R "rusage[mem=5GB]"
>>>>>>> 5c18b7299addc4641b0bf76741893d3184f6d094
#BSUB -q hpcintrogpu
#BSUB -gpu "num=1:mode=exclusive_process:mps=yes"
#BSUB -o data/jobs/poiss2.txt

module load cuda/10.0
module load gcc/7.3.0

L="1000 2000 3000 4000 5000 6000 7000 8000 9000 10000"
<<<<<<< HEAD
output1=data/poisson2_16.dat
=======
output1=data/poisson2.dat
>>>>>>> 5c18b7299addc4641b0bf76741893d3184f6d094

# Make header and flush file contents
echo "memory,time">$output1

if [ ! -d data/jobs ]; then
  mkdir -p  data/jobs;
fi

for n in $L
do
    echo "Running for n = $n";
<<<<<<< HEAD
    ./poisson/poiss 2 $n 1000 | awk '{ print $1","$2}'>>$output1
=======
    ./poisson/poiss 3 $n 1000 | awk '{ print $1","$2}'>>$output1
>>>>>>> 5c18b7299addc4641b0bf76741893d3184f6d094
done

exit 0


------------------------------------------------------------

Successfully completed.

Resource usage summary:

<<<<<<< HEAD
    CPU time :                                   48.00 sec.
    Max Memory :                                 20 MB
    Average Memory :                             19.75 MB
    Total Requested Memory :                     3072.00 MB
    Delta Memory :                               3052.00 MB
    Max Swap :                                   -
    Max Processes :                              5
    Max Threads :                                8
    Run time :                                   67 sec.
    Turnaround time :                            53 sec.
=======
    CPU time :                                   41.59 sec.
    Max Memory :                                 20 MB
    Average Memory :                             18.00 MB
    Total Requested Memory :                     5120.00 MB
    Delta Memory :                               5100.00 MB
    Max Swap :                                   -
    Max Processes :                              5
    Max Threads :                                8
    Run time :                                   59 sec.
    Turnaround time :                            45 sec.
>>>>>>> 5c18b7299addc4641b0bf76741893d3184f6d094

The output (if any) is above this job summary.

Loaded module: cuda/10.0
Loaded dependency [gcc/7.3.0]: binutils
Loaded module: gcc/7.3.0
Running for n = 1000
Running for n = 2000
Running for n = 3000
Running for n = 4000
Running for n = 5000
Running for n = 6000
Running for n = 7000
Running for n = 8000
Running for n = 9000
Running for n = 10000

------------------------------------------------------------
<<<<<<< HEAD
Sender: LSF System <lsfadmin@n-62-20-14>
Subject: Job 1868101: <poiss2> in cluster <dcc> Done

Job <poiss2> was submitted from host <n-62-20-6> by user <s144257> in cluster <dcc> at Fri Jan 25 09:35:15 2019
Job was executed on host(s) <n-62-20-14>, in queue <hpcintrogpu>, as user <s144257> in cluster <dcc> at Fri Jan 25 09:35:15 2019
</zhome/e7/a/97980> was used as the home directory.
</zhome/e7/a/97980/02614-HPC/Assignments/assignment3> was used as the working directory.
Started at Fri Jan 25 09:35:15 2019
Terminated at Fri Jan 25 09:36:11 2019
Results reported at Fri Jan 25 09:36:11 2019
=======
Sender: LSF System <lsfadmin@n-62-20-15>
Subject: Job 1868473: <poiss3> in cluster <dcc> Done

Job <poiss3> was submitted from host <n-62-20-6> by user <s144470> in cluster <dcc> at Fri Jan 25 12:22:40 2019
Job was executed on host(s) <n-62-20-15>, in queue <hpcintrogpu>, as user <s144470> in cluster <dcc> at Fri Jan 25 12:23:16 2019
</zhome/56/b/98193> was used as the home directory.
</zhome/56/b/98193/Desktop/02614-HPC/Assignments/assignment3> was used as the working directory.
Started at Fri Jan 25 12:23:16 2019
Terminated at Fri Jan 25 12:23:59 2019
Results reported at Fri Jan 25 12:23:59 2019
>>>>>>> 5c18b7299addc4641b0bf76741893d3184f6d094

Your job looked like:

------------------------------------------------------------
# LSBATCH: User input
#!/bin/sh
#BSUB -W 00:10
<<<<<<< HEAD
#BSUB -J poiss2
#BSUB -r 
#BSUB -R "rusage[mem=3GB]"
=======
#BSUB -J poiss3
#BSUB -r 
#BSUB -R "rusage[mem=5GB]"
>>>>>>> 5c18b7299addc4641b0bf76741893d3184f6d094
#BSUB -q hpcintrogpu
#BSUB -gpu "num=1:mode=exclusive_process:mps=yes"
#BSUB -o data/jobs/poiss2.txt

module load cuda/10.0
module load gcc/7.3.0

L="1000 2000 3000 4000 5000 6000 7000 8000 9000 10000"
<<<<<<< HEAD
output1=data/poisson2_8.dat
=======
output1=data/poisson3.dat
>>>>>>> 5c18b7299addc4641b0bf76741893d3184f6d094

# Make header and flush file contents
echo "memory,time">$output1

if [ ! -d data/jobs ]; then
  mkdir -p  data/jobs;
fi

for n in $L
do
    echo "Running for n = $n";
<<<<<<< HEAD
    ./poisson/poiss 2 $n 1000 | awk '{ print $1","$2}'>>$output1
=======
    ./poisson/poiss 3 $n 1000 | awk '{ print $1","$2}'>>$output1
>>>>>>> 5c18b7299addc4641b0bf76741893d3184f6d094
done

exit 0


------------------------------------------------------------

Successfully completed.

Resource usage summary:

<<<<<<< HEAD
    CPU time :                                   54.00 sec.
    Max Memory :                                 19 MB
    Average Memory :                             19.00 MB
    Total Requested Memory :                     3072.00 MB
    Delta Memory :                               3053.00 MB
    Max Swap :                                   -
    Max Processes :                              5
    Max Threads :                                8
    Run time :                                   56 sec.
    Turnaround time :                            56 sec.
=======
    CPU time :                                   41.66 sec.
    Max Memory :                                 20 MB
    Average Memory :                             19.75 MB
    Total Requested Memory :                     5120.00 MB
    Delta Memory :                               5100.00 MB
    Max Swap :                                   -
    Max Processes :                              5
    Max Threads :                                8
    Run time :                                   43 sec.
    Turnaround time :                            79 sec.
>>>>>>> 5c18b7299addc4641b0bf76741893d3184f6d094

The output (if any) is above this job summary.

Loaded module: cuda/10.0
Loaded dependency [gcc/7.3.0]: binutils
Loaded module: gcc/7.3.0
Running for n = 1000
Running for n = 2000
Running for n = 3000
Running for n = 4000
Running for n = 5000
Running for n = 6000
Running for n = 7000
Running for n = 8000
Running for n = 9000
Running for n = 10000

------------------------------------------------------------
<<<<<<< HEAD
Sender: LSF System <lsfadmin@n-62-20-14>
Subject: Job 1868105: <poiss2> in cluster <dcc> Done

Job <poiss2> was submitted from host <n-62-20-6> by user <s144257> in cluster <dcc> at Fri Jan 25 09:37:39 2019
Job was executed on host(s) <n-62-20-14>, in queue <hpcintrogpu>, as user <s144257> in cluster <dcc> at Fri Jan 25 09:37:41 2019
</zhome/e7/a/97980> was used as the home directory.
</zhome/e7/a/97980/02614-HPC/Assignments/assignment3> was used as the working directory.
Started at Fri Jan 25 09:37:41 2019
Terminated at Fri Jan 25 09:38:32 2019
Results reported at Fri Jan 25 09:38:32 2019
=======
Sender: LSF System <lsfadmin@n-62-20-15>
Subject: Job 1868474: <poiss2> in cluster <dcc> Done

Job <poiss2> was submitted from host <n-62-20-6> by user <s144470> in cluster <dcc> at Fri Jan 25 12:22:42 2019
Job was executed on host(s) <n-62-20-15>, in queue <hpcintrogpu>, as user <s144470> in cluster <dcc> at Fri Jan 25 12:24:00 2019
</zhome/56/b/98193> was used as the home directory.
</zhome/56/b/98193/Desktop/02614-HPC/Assignments/assignment3> was used as the working directory.
Started at Fri Jan 25 12:24:00 2019
Terminated at Fri Jan 25 12:24:50 2019
Results reported at Fri Jan 25 12:24:50 2019
>>>>>>> 5c18b7299addc4641b0bf76741893d3184f6d094

Your job looked like:

------------------------------------------------------------
# LSBATCH: User input
#!/bin/sh
#BSUB -W 00:10
#BSUB -J poiss2
#BSUB -r 
#BSUB -R "rusage[mem=3GB]"
#BSUB -q hpcintrogpu
#BSUB -gpu "num=1:mode=exclusive_process:mps=yes"
#BSUB -o data/jobs/poiss2.txt

module load cuda/10.0
module load gcc/7.3.0

L="1000 2000 3000 4000 5000 6000 7000 8000 9000 10000"
<<<<<<< HEAD
output1=data/poisson2_16.dat
=======
output1=data/poisson2.dat
>>>>>>> 5c18b7299addc4641b0bf76741893d3184f6d094

# Make header and flush file contents
echo "memory,time">$output1

if [ ! -d data/jobs ]; then
  mkdir -p  data/jobs;
fi

for n in $L
do
    echo "Running for n = $n";
    ./poisson/poiss 2 $n 1000 | awk '{ print $1","$2}'>>$output1
done

exit 0


------------------------------------------------------------

Successfully completed.

Resource usage summary:

<<<<<<< HEAD
    CPU time :                                   48.18 sec.
=======
    CPU time :                                   47.50 sec.
>>>>>>> 5c18b7299addc4641b0bf76741893d3184f6d094
    Max Memory :                                 19 MB
    Average Memory :                             19.00 MB
    Total Requested Memory :                     3072.00 MB
    Delta Memory :                               3053.00 MB
    Max Swap :                                   -
    Max Processes :                              5
    Max Threads :                                8
<<<<<<< HEAD
    Run time :                                   59 sec.
    Turnaround time :                            53 sec.
=======
    Run time :                                   49 sec.
    Turnaround time :                            128 sec.
>>>>>>> 5c18b7299addc4641b0bf76741893d3184f6d094

The output (if any) is above this job summary.

Loaded module: cuda/10.0
Loaded dependency [gcc/7.3.0]: binutils
Loaded module: gcc/7.3.0
Running for n = 1000
Running for n = 2000
Running for n = 3000
Running for n = 4000
Running for n = 5000
Running for n = 6000
Running for n = 7000
Running for n = 8000
Running for n = 9000
Running for n = 10000

------------------------------------------------------------
Sender: LSF System <lsfadmin@n-62-20-16>
<<<<<<< HEAD
Subject: Job 1868111: <poiss2> in cluster <dcc> Done

Job <poiss2> was submitted from host <n-62-20-6> by user <s144257> in cluster <dcc> at Fri Jan 25 09:40:02 2019
Job was executed on host(s) <n-62-20-16>, in queue <hpcintrogpu>, as user <s144257> in cluster <dcc> at Fri Jan 25 09:40:24 2019
</zhome/e7/a/97980> was used as the home directory.
</zhome/e7/a/97980/02614-HPC/Assignments/assignment3> was used as the working directory.
Started at Fri Jan 25 09:40:24 2019
Terminated at Fri Jan 25 09:41:20 2019
Results reported at Fri Jan 25 09:41:20 2019
=======
Subject: Job 1868521: <poiss3> in cluster <dcc> Done

Job <poiss3> was submitted from host <n-62-20-6> by user <s144470> in cluster <dcc> at Fri Jan 25 12:45:42 2019
Job was executed on host(s) <n-62-20-16>, in queue <hpcintrogpu>, as user <s144470> in cluster <dcc> at Fri Jan 25 12:49:23 2019
</zhome/56/b/98193> was used as the home directory.
</zhome/56/b/98193/Desktop/02614-HPC/Assignments/assignment3> was used as the working directory.
Started at Fri Jan 25 12:49:23 2019
Terminated at Fri Jan 25 12:50:06 2019
Results reported at Fri Jan 25 12:50:06 2019
>>>>>>> 5c18b7299addc4641b0bf76741893d3184f6d094

Your job looked like:

------------------------------------------------------------
# LSBATCH: User input
#!/bin/sh
#BSUB -W 00:10
<<<<<<< HEAD
#BSUB -J poiss2
#BSUB -r 
#BSUB -R "rusage[mem=3GB]"
=======
#BSUB -J poiss3
#BSUB -r 
#BSUB -R "rusage[mem=5GB]"
>>>>>>> 5c18b7299addc4641b0bf76741893d3184f6d094
#BSUB -q hpcintrogpu
#BSUB -gpu "num=1:mode=exclusive_process:mps=yes"
#BSUB -o data/jobs/poiss2.txt

module load cuda/10.0
module load gcc/7.3.0

L="1000 2000 3000 4000 5000 6000 7000 8000 9000 10000"
<<<<<<< HEAD
output1=data/poisson2_8.dat
=======
output1=data/poisson3.dat
>>>>>>> 5c18b7299addc4641b0bf76741893d3184f6d094

# Make header and flush file contents
echo "memory,time">$output1

if [ ! -d data/jobs ]; then
  mkdir -p  data/jobs;
fi

for n in $L
do
    echo "Running for n = $n";
<<<<<<< HEAD
    ./poisson/poiss 2 $n 1000 | awk '{ print $1","$2}'>>$output1
=======
    ./poisson/poiss 3 $n 1000 | awk '{ print $1","$2}'>>$output1
>>>>>>> 5c18b7299addc4641b0bf76741893d3184f6d094
done

exit 0


------------------------------------------------------------

Successfully completed.

Resource usage summary:

<<<<<<< HEAD
    CPU time :                                   53.68 sec.
    Max Memory :                                 21 MB
    Average Memory :                             19.50 MB
    Total Requested Memory :                     3072.00 MB
    Delta Memory :                               3051.00 MB
    Max Swap :                                   -
    Max Processes :                              5
    Max Threads :                                8
    Run time :                                   57 sec.
    Turnaround time :                            78 sec.
=======
    CPU time :                                   41.78 sec.
    Max Memory :                                 20 MB
    Average Memory :                             18.25 MB
    Total Requested Memory :                     5120.00 MB
    Delta Memory :                               5100.00 MB
    Max Swap :                                   -
    Max Processes :                              5
    Max Threads :                                8
    Run time :                                   43 sec.
    Turnaround time :                            264 sec.
>>>>>>> 5c18b7299addc4641b0bf76741893d3184f6d094

The output (if any) is above this job summary.

Loaded module: cuda/10.0
Loaded dependency [gcc/7.3.0]: binutils
Loaded module: gcc/7.3.0
Running for n = 1000
Running for n = 2000
Running for n = 3000
Running for n = 4000
Running for n = 5000
Running for n = 6000
Running for n = 7000
Running for n = 8000
Running for n = 9000
Running for n = 10000

------------------------------------------------------------
Sender: LSF System <lsfadmin@n-62-20-16>
<<<<<<< HEAD
Subject: Job 1868119: <poiss2_32> in cluster <dcc> Done

Job <poiss2_32> was submitted from host <n-62-20-6> by user <s144257> in cluster <dcc> at Fri Jan 25 09:42:34 2019
Job was executed on host(s) <n-62-20-16>, in queue <hpcintrogpu>, as user <s144257> in cluster <dcc> at Fri Jan 25 09:42:35 2019
</zhome/e7/a/97980> was used as the home directory.
</zhome/e7/a/97980/02614-HPC/Assignments/assignment3> was used as the working directory.
Started at Fri Jan 25 09:42:35 2019
Terminated at Fri Jan 25 09:43:25 2019
Results reported at Fri Jan 25 09:43:25 2019
=======
Subject: Job 1868558: <poiss3> in cluster <dcc> Done

Job <poiss3> was submitted from host <n-62-20-6> by user <s144470> in cluster <dcc> at Fri Jan 25 13:00:09 2019
Job was executed on host(s) <n-62-20-16>, in queue <hpcintrogpu>, as user <s144470> in cluster <dcc> at Fri Jan 25 13:02:29 2019
</zhome/56/b/98193> was used as the home directory.
</zhome/56/b/98193/Desktop/02614-HPC/Assignments/assignment3> was used as the working directory.
Started at Fri Jan 25 13:02:29 2019
Terminated at Fri Jan 25 13:03:03 2019
Results reported at Fri Jan 25 13:03:03 2019
>>>>>>> 5c18b7299addc4641b0bf76741893d3184f6d094

Your job looked like:

------------------------------------------------------------
# LSBATCH: User input
#!/bin/sh
#BSUB -W 00:10
<<<<<<< HEAD
#BSUB -J poiss2_32
#BSUB -r 
#BSUB -R "rusage[mem=3GB]"
#BSUB -q hpcintrogpu
#BSUB -gpu "num=1:mode=exclusive_process:mps=yes"
=======
#BSUB -J poiss3
#BSUB -r 
#BSUB -R "rusage[mem=5GB]"
#BSUB -q hpcintrogpu
#BSUB -gpu "num=2:mode=exclusive_process:mps=yes"
>>>>>>> 5c18b7299addc4641b0bf76741893d3184f6d094
#BSUB -o data/jobs/poiss2.txt

module load cuda/10.0
module load gcc/7.3.0

L="1000 2000 3000 4000 5000 6000 7000 8000 9000 10000"
<<<<<<< HEAD
output1=data/poisson2_32.dat
=======
output1=data/poisson3.dat
>>>>>>> 5c18b7299addc4641b0bf76741893d3184f6d094

# Make header and flush file contents
echo "memory,time">$output1

if [ ! -d data/jobs ]; then
  mkdir -p  data/jobs;
fi

for n in $L
do
    echo "Running for n = $n";
<<<<<<< HEAD
    ./poisson/poiss 2 $n 1000 | awk '{ print $1","$2}'>>$output1
=======
    ./poisson/poiss 3 $n 1000 | awk '{ print $1","$2}'>>$output1
>>>>>>> 5c18b7299addc4641b0bf76741893d3184f6d094
done

exit 0


------------------------------------------------------------

Successfully completed.

Resource usage summary:

<<<<<<< HEAD
    CPU time :                                   47.47 sec.
    Max Memory :                                 19 MB
    Average Memory :                             17.50 MB
    Total Requested Memory :                     3072.00 MB
    Delta Memory :                               3053.00 MB
    Max Swap :                                   -
    Max Processes :                              5
    Max Threads :                                8
    Run time :                                   73 sec.
    Turnaround time :                            51 sec.
=======
    CPU time :                                   31.00 sec.
    Max Memory :                                 27 MB
    Average Memory :                             27.00 MB
    Total Requested Memory :                     5120.00 MB
    Delta Memory :                               5093.00 MB
    Max Swap :                                   -
    Max Processes :                              5
    Max Threads :                                9
    Run time :                                   33 sec.
    Turnaround time :                            174 sec.
>>>>>>> 5c18b7299addc4641b0bf76741893d3184f6d094

The output (if any) is above this job summary.

Loaded module: cuda/10.0
Loaded dependency [gcc/7.3.0]: binutils
Loaded module: gcc/7.3.0
Running for n = 1000
Running for n = 2000
Running for n = 3000
Running for n = 4000
Running for n = 5000
Running for n = 6000
Running for n = 7000
Running for n = 8000
Running for n = 9000
Running for n = 10000

------------------------------------------------------------
Sender: LSF System <lsfadmin@n-62-20-16>
Subject: Job 1868748: <poiss2> in cluster <dcc> Done

Job <poiss2> was submitted from host <n-62-20-6> by user <s144470> in cluster <dcc> at Fri Jan 25 14:07:34 2019
Job was executed on host(s) <n-62-20-16>, in queue <hpcintrogpu>, as user <s144470> in cluster <dcc> at Fri Jan 25 14:08:43 2019
</zhome/56/b/98193> was used as the home directory.
</zhome/56/b/98193/Desktop/02614-HPC/Assignments/assignment3> was used as the working directory.
Started at Fri Jan 25 14:08:43 2019
Terminated at Fri Jan 25 14:09:34 2019
Results reported at Fri Jan 25 14:09:34 2019

Your job looked like:

------------------------------------------------------------
# LSBATCH: User input
#!/bin/sh
#BSUB -W 00:10
#BSUB -J poiss2
#BSUB -r 
#BSUB -R "rusage[mem=3GB]"
#BSUB -q hpcintrogpu
#BSUB -gpu "num=1:mode=exclusive_process:mps=yes"
#BSUB -o data/jobs/poiss2.txt

module load cuda/10.0
module load gcc/7.3.0

L="1000 2000 3000 4000 5000 6000 7000 8000 9000 10000"
# output1=data/poisson2_32.dat
output1=data/poisson2_16.dat

# Make header and flush file contents
echo "memory,time">$output1

if [ ! -d data/jobs ]; then
  mkdir -p  data/jobs;
fi

for n in $L
do
    echo "Running for n = $n";
    ./poisson/poiss 2 $n 1000 | awk '{ print $1","$2}'>>$output1
done

exit 0


------------------------------------------------------------

Successfully completed.

Resource usage summary:

    CPU time :                                   48.00 sec.
    Max Memory :                                 19 MB
    Average Memory :                             19.00 MB
    Total Requested Memory :                     3072.00 MB
    Delta Memory :                               3053.00 MB
    Max Swap :                                   -
    Max Processes :                              5
    Max Threads :                                8
    Run time :                                   50 sec.
    Turnaround time :                            120 sec.

The output (if any) is above this job summary.

Loaded module: cuda/10.0
Loaded dependency [gcc/7.3.0]: binutils
Loaded module: gcc/7.3.0
Running for n = 1000
Running for n = 2000
Running for n = 3000
Running for n = 4000
Running for n = 5000
Running for n = 6000
Running for n = 7000
Running for n = 8000
Running for n = 9000
Running for n = 10000

------------------------------------------------------------
Sender: LSF System <lsfadmin@n-62-20-16>
Subject: Job 1868747: <poiss3> in cluster <dcc> Done

Job <poiss3> was submitted from host <n-62-20-6> by user <s144470> in cluster <dcc> at Fri Jan 25 14:07:31 2019
Job was executed on host(s) <n-62-20-16>, in queue <hpcintrogpu>, as user <s144470> in cluster <dcc> at Fri Jan 25 14:28:56 2019
</zhome/56/b/98193> was used as the home directory.
</zhome/56/b/98193/Desktop/02614-HPC/Assignments/assignment3> was used as the working directory.
Started at Fri Jan 25 14:28:56 2019
Terminated at Fri Jan 25 14:29:28 2019
Results reported at Fri Jan 25 14:29:28 2019

Your job looked like:

------------------------------------------------------------
# LSBATCH: User input
#!/bin/sh
#BSUB -W 00:10
#BSUB -J poiss3
#BSUB -r 
#BSUB -R "rusage[mem=5GB]"
#BSUB -q hpcintrogpu
#BSUB -gpu "num=2:mode=exclusive_process:mps=yes"
#BSUB -o data/jobs/poiss2.txt

module load cuda/10.0
module load gcc/7.3.0

L="1000 2000 3000 4000 5000 6000 7000 8000 9000 10000"
# output1=data/poisson3_32.dat
output1=data/poisson3_16.dat

# Make header and flush file contents
echo "memory,time">$output1

if [ ! -d data/jobs ]; then
  mkdir -p  data/jobs;
fi

for n in $L
do
    echo "Running for n = $n";
    ./poisson/poiss 3 $n 1000 | awk '{ print $1","$2}'>>$output1
done

exit 0


------------------------------------------------------------

Successfully completed.

Resource usage summary:

    CPU time :                                   30.00 sec.
    Max Memory :                                 29 MB
    Average Memory :                             29.00 MB
    Total Requested Memory :                     5120.00 MB
    Delta Memory :                               5091.00 MB
    Max Swap :                                   -
    Max Processes :                              5
    Max Threads :                                9
    Run time :                                   31 sec.
    Turnaround time :                            1317 sec.

The output (if any) is above this job summary.

Loaded module: cuda/10.0
Loaded dependency [gcc/7.3.0]: binutils
Loaded module: gcc/7.3.0
Running for n = 1000
Running for n = 2000
Running for n = 3000
Running for n = 4000
Running for n = 5000
Running for n = 6000
Running for n = 7000
Running for n = 8000
Running for n = 9000
Running for n = 10000

------------------------------------------------------------
Sender: LSF System <lsfadmin@n-62-20-15>
Subject: Job 1868826: <poiss2_32> in cluster <dcc> Done

Job <poiss2_32> was submitted from host <n-62-20-6> by user <s144470> in cluster <dcc> at Fri Jan 25 14:57:26 2019
Job was executed on host(s) <n-62-20-15>, in queue <hpcintrogpu>, as user <s144470> in cluster <dcc> at Fri Jan 25 14:57:43 2019
</zhome/56/b/98193> was used as the home directory.
</zhome/56/b/98193/Desktop/02614-HPC/Assignments/assignment3> was used as the working directory.
Started at Fri Jan 25 14:57:43 2019
Terminated at Fri Jan 25 14:58:32 2019
Results reported at Fri Jan 25 14:58:32 2019

Your job looked like:

------------------------------------------------------------
# LSBATCH: User input
#!/bin/sh
#BSUB -W 00:10
#BSUB -J poiss2_32
#BSUB -r 
#BSUB -R "rusage[mem=3GB]"
#BSUB -q hpcintrogpu
#BSUB -gpu "num=1:mode=exclusive_process:mps=yes"
#BSUB -o data/jobs/poiss2.txt

module load cuda/10.0
module load gcc/7.3.0

L="1000 2000 3000 4000 5000 6000 7000 8000 9000 10000"
# output1=data/poisson2_32.dat
# output1=data/poisson2_16.dat
output1=data/poisson2_8.dat

# Make header and flush file contents
echo "memory,time">$output1

if [ ! -d data/jobs ]; then
  mkdir -p  data/jobs;
fi

for n in $L
do
    echo "Running for n = $n";
    ./poisson/poiss 2 $n 1000 | awk '{ print $1","$2}'>>$output1
done

exit 0


------------------------------------------------------------

Successfully completed.

Resource usage summary:

    CPU time :                                   47.58 sec.
    Max Memory :                                 20 MB
    Average Memory :                             19.67 MB
    Total Requested Memory :                     3072.00 MB
    Delta Memory :                               3052.00 MB
    Max Swap :                                   -
    Max Processes :                              5
    Max Threads :                                8
    Run time :                                   49 sec.
    Turnaround time :                            66 sec.

The output (if any) is above this job summary.

Loaded module: cuda/10.0
Loaded dependency [gcc/7.3.0]: binutils
Loaded module: gcc/7.3.0
Running for n = 1000
Running for n = 2000
Running for n = 3000
Running for n = 4000
Running for n = 5000
Running for n = 6000
Running for n = 7000
Running for n = 8000
Running for n = 9000
Running for n = 10000

------------------------------------------------------------
Sender: LSF System <lsfadmin@n-62-20-16>
Subject: Job 1868828: <poiss3> in cluster <dcc> Done

Job <poiss3> was submitted from host <n-62-20-6> by user <s144470> in cluster <dcc> at Fri Jan 25 14:57:29 2019
Job was executed on host(s) <n-62-20-16>, in queue <hpcintrogpu>, as user <s144470> in cluster <dcc> at Fri Jan 25 15:01:37 2019
</zhome/56/b/98193> was used as the home directory.
</zhome/56/b/98193/Desktop/02614-HPC/Assignments/assignment3> was used as the working directory.
Started at Fri Jan 25 15:01:37 2019
Terminated at Fri Jan 25 15:02:09 2019
Results reported at Fri Jan 25 15:02:09 2019

Your job looked like:

------------------------------------------------------------
# LSBATCH: User input
#!/bin/sh
#BSUB -W 00:10
#BSUB -J poiss3
#BSUB -r 
#BSUB -R "rusage[mem=5GB]"
#BSUB -q hpcintrogpu
#BSUB -gpu "num=2:mode=exclusive_process:mps=yes"
#BSUB -o data/jobs/poiss2.txt

module load cuda/10.0
module load gcc/7.3.0

L="1000 2000 3000 4000 5000 6000 7000 8000 9000 10000"
# output1=data/poisson3_32.dat
# output1=data/poisson3_16.dat
output1=data/poisson3_8.dat

# Make header and flush file contents
echo "memory,time">$output1

if [ ! -d data/jobs ]; then
  mkdir -p  data/jobs;
fi

for n in $L
do
    echo "Running for n = $n";
    ./poisson/poiss 3 $n 1000 | awk '{ print $1","$2}'>>$output1
done

exit 0


------------------------------------------------------------

Successfully completed.

Resource usage summary:

    CPU time :                                   29.57 sec.
    Max Memory :                                 64 MB
    Average Memory :                             64.00 MB
    Total Requested Memory :                     5120.00 MB
    Delta Memory :                               5056.00 MB
    Max Swap :                                   -
    Max Processes :                              5
    Max Threads :                                9
    Run time :                                   32 sec.
    Turnaround time :                            280 sec.

The output (if any) is above this job summary.

Loaded module: cuda/10.0
Loaded dependency [gcc/7.3.0]: binutils
Loaded module: gcc/7.3.0
Running for n = 1000
Running for n = 2000
Running for n = 3000
Running for n = 4000
Running for n = 5000
Loaded module: cuda/10.0
Loaded dependency [gcc/7.3.0]: binutils
Loaded module: gcc/7.3.0
Running for n = 1000
Running for n = 2000
Running for n = 3000
Running for n = 4000
Running for n = 7000
Running for n = 5000
Running for n = 6000
Running for n = 8000
Running for n = 7000
Running for n = 9000
Running for n = 8000
Running for n = 10000

------------------------------------------------------------
Sender: LSF System <lsfadmin@n-62-20-16>
Subject: Job 1868843: <poiss3> in cluster <dcc> Done

Job <poiss3> was submitted from host <n-62-20-6> by user <s144470> in cluster <dcc> at Fri Jan 25 15:03:47 2019
Job was executed on host(s) <n-62-20-16>, in queue <hpcintrogpu>, as user <s144470> in cluster <dcc> at Fri Jan 25 15:03:49 2019
</zhome/56/b/98193> was used as the home directory.
</zhome/56/b/98193/Desktop/02614-HPC/Assignments/assignment3> was used as the working directory.
Started at Fri Jan 25 15:03:49 2019
Terminated at Fri Jan 25 15:04:21 2019
Results reported at Fri Jan 25 15:04:21 2019

Your job looked like:

------------------------------------------------------------
# LSBATCH: User input
#!/bin/sh
#BSUB -W 00:10
#BSUB -J poiss3
#BSUB -r 
#BSUB -R "rusage[mem=5GB]"
#BSUB -q hpcintrogpu
#BSUB -gpu "num=2:mode=exclusive_process:mps=yes"
#BSUB -o data/jobs/poiss2.txt

module load cuda/10.0
module load gcc/7.3.0

L="1000 2000 3000 4000 5000 6000 7000 8000 9000 10000"
# output1=data/poisson3_32.dat
# output1=data/poisson3_16.dat
output1=data/poisson3_8.dat

# Make header and flush file contents
echo "memory,time">$output1

if [ ! -d data/jobs ]; then
  mkdir -p  data/jobs;
fi

for n in $L
do
    echo "Running for n = $n";
    ./poisson/poiss 3 $n 1000 | awk '{ print $1","$2}'>>$output1
done

exit 0


------------------------------------------------------------

Successfully completed.

Resource usage summary:

    CPU time :                                   30.45 sec.
    Max Memory :                                 33 MB
    Average Memory :                             33.00 MB
    Total Requested Memory :                     5120.00 MB
    Delta Memory :                               5087.00 MB
    Max Swap :                                   -
    Max Processes :                              5
    Max Threads :                                9
    Run time :                                   32 sec.
    Turnaround time :                            34 sec.

The output (if any) is above this job summary.

Running for n = 9000
Running for n = 10000

------------------------------------------------------------
Sender: LSF System <lsfadmin@n-62-20-14>
Subject: Job 1868845: <poiss2_32> in cluster <dcc> Done

Job <poiss2_32> was submitted from host <n-62-20-6> by user <s144470> in cluster <dcc> at Fri Jan 25 15:03:54 2019
Job was executed on host(s) <n-62-20-14>, in queue <hpcintrogpu>, as user <s144470> in cluster <dcc> at Fri Jan 25 15:03:54 2019
</zhome/56/b/98193> was used as the home directory.
</zhome/56/b/98193/Desktop/02614-HPC/Assignments/assignment3> was used as the working directory.
Started at Fri Jan 25 15:03:54 2019
Terminated at Fri Jan 25 15:04:50 2019
Results reported at Fri Jan 25 15:04:50 2019

Your job looked like:

------------------------------------------------------------
# LSBATCH: User input
#!/bin/sh
#BSUB -W 00:10
#BSUB -J poiss2_32
#BSUB -r 
#BSUB -R "rusage[mem=3GB]"
#BSUB -q hpcintrogpu
#BSUB -gpu "num=1:mode=exclusive_process:mps=yes"
#BSUB -o data/jobs/poiss2.txt

module load cuda/10.0
module load gcc/7.3.0

L="1000 2000 3000 4000 5000 6000 7000 8000 9000 10000"
# output1=data/poisson2_32.dat
# output1=data/poisson2_16.dat
output1=data/poisson2_8.dat

# Make header and flush file contents
echo "memory,time">$output1

if [ ! -d data/jobs ]; then
  mkdir -p  data/jobs;
fi

for n in $L
do
    echo "Running for n = $n";
    ./poisson/poiss 2 $n 1000 | awk '{ print $1","$2}'>>$output1
done

exit 0


------------------------------------------------------------

Successfully completed.

Resource usage summary:

    CPU time :                                   53.46 sec.
    Max Memory :                                 19 MB
    Average Memory :                             19.00 MB
    Total Requested Memory :                     3072.00 MB
    Delta Memory :                               3053.00 MB
    Max Swap :                                   -
    Max Processes :                              5
    Max Threads :                                8
    Run time :                                   57 sec.
    Turnaround time :                            56 sec.

The output (if any) is above this job summary.

Loaded module: cuda/10.0
Loaded dependency [gcc/7.3.0]: binutils
Loaded module: gcc/7.3.0
Running for n = 1000
Running for n = 2000
Running for n = 3000
Running for n = 4000
Running for n = 5000
Running for n = 6000
Running for n = 7000
Running for n = 8000
Running for n = 9000
Running for n = 10000

------------------------------------------------------------
Sender: LSF System <lsfadmin@n-62-20-15>
Subject: Job 1869084: <poiss2> in cluster <dcc> Done

Job <poiss2> was submitted from host <n-62-20-6> by user <s144470> in cluster <dcc> at Fri Jan 25 16:56:52 2019
Job was executed on host(s) <n-62-20-15>, in queue <hpcintrogpu>, as user <s144470> in cluster <dcc> at Fri Jan 25 16:57:01 2019
</zhome/56/b/98193> was used as the home directory.
</zhome/56/b/98193/Desktop/02614-HPC/Assignments/assignment3> was used as the working directory.
Started at Fri Jan 25 16:57:01 2019
Terminated at Fri Jan 25 16:58:35 2019
Results reported at Fri Jan 25 16:58:35 2019

Your job looked like:

------------------------------------------------------------
# LSBATCH: User input
#!/bin/sh
#BSUB -W 00:10
#BSUB -J poiss2
#BSUB -r 
#BSUB -R "rusage[mem=3GB]"
#BSUB -q hpcintrogpu
#BSUB -gpu "num=1:mode=exclusive_process:mps=yes"
#BSUB -o data/jobs/poiss2.txt

module load cuda/10.0
module load gcc/7.3.0

L="1000 2000 3000 4000 5000 6000 7000 8000 9000 10000"
# output1=data/poisson2_32.dat
# output1=data/poisson2_16.dat
output1=data/poisson2_8.dat

# Make header and flush file contents
echo "memory,time">$output1

if [ ! -d data/jobs ]; then
  mkdir -p  data/jobs;
fi

for n in $L
do
    echo "Running for n = $n";
    ./poisson/poiss 2 $n 1000 | awk '{ print $1","$2}'>>$output1
done

exit 0


------------------------------------------------------------

Successfully completed.

Resource usage summary:

    CPU time :                                   91.70 sec.
    Max Memory :                                 20 MB
    Average Memory :                             20.00 MB
    Total Requested Memory :                     3072.00 MB
    Delta Memory :                               3052.00 MB
    Max Swap :                                   -
    Max Processes :                              5
    Max Threads :                                8
    Run time :                                   94 sec.
    Turnaround time :                            103 sec.

The output (if any) is above this job summary.

Loaded module: cuda/10.0
Loaded dependency [gcc/7.3.0]: binutils
Loaded module: gcc/7.3.0
Running for n = 1000
Running for n = 2000
Running for n = 3000
Running for n = 4000
Running for n = 5000
Running for n = 6000
Running for n = 7000
Running for n = 8000
Running for n = 9000
Running for n = 10000

------------------------------------------------------------
Sender: LSF System <lsfadmin@n-62-20-16>
Subject: Job 1869105: <poiss2> in cluster <dcc> Done

Job <poiss2> was submitted from host <n-62-20-6> by user <s144470> in cluster <dcc> at Fri Jan 25 17:13:38 2019
Job was executed on host(s) <n-62-20-16>, in queue <hpcintrogpu>, as user <s144470> in cluster <dcc> at Fri Jan 25 17:18:32 2019
</zhome/56/b/98193> was used as the home directory.
</zhome/56/b/98193/Desktop/02614-HPC/Assignments/assignment3> was used as the working directory.
Started at Fri Jan 25 17:18:32 2019
Terminated at Fri Jan 25 17:18:58 2019
Results reported at Fri Jan 25 17:18:58 2019

Your job looked like:

------------------------------------------------------------
# LSBATCH: User input
#!/bin/sh
#BSUB -W 00:10
#BSUB -J poiss2
#BSUB -r 
#BSUB -R "rusage[mem=3GB]"
#BSUB -q hpcintrogpu
#BSUB -gpu "num=1:mode=exclusive_process:mps=yes"
#BSUB -o data/jobs/poiss2.txt

module load cuda/10.0
module load gcc/7.3.0

L="1000 2000 3000 4000 5000 6000 7000 8000 9000 10000"
# output1=data/poisson2_32.dat
# output1=data/poisson2_16.dat
output1=data/poisson2_8.dat

# Make header and flush file contents
echo "memory,time">$output1

if [ ! -d data/jobs ]; then
  mkdir -p  data/jobs;
fi

for n in $L
do
    echo "Running for n = $n";
    ./poisson/poiss 2 $n 1000 | awk '{ print $1","$2}'>>$output1
done

exit 0


------------------------------------------------------------

Successfully completed.

Resource usage summary:

    CPU time :                                   24.80 sec.
    Max Memory :                                 19 MB
    Average Memory :                             19.00 MB
    Total Requested Memory :                     3072.00 MB
    Delta Memory :                               3053.00 MB
    Max Swap :                                   -
    Max Processes :                              5
    Max Threads :                                8
    Run time :                                   26 sec.
    Turnaround time :                            320 sec.

The output (if any) is above this job summary.

Loaded module: cuda/10.0
Loaded dependency [gcc/7.3.0]: binutils
Loaded module: gcc/7.3.0
Running for n = 1000
Running for n = 2000
Running for n = 3000
Running for n = 4000
Running for n = 5000
Running for n = 6000
Running for n = 7000
Running for n = 8000
Running for n = 9000
Running for n = 10000

------------------------------------------------------------
Sender: LSF System <lsfadmin@n-62-20-14>
Subject: Job 1869118: <poiss2> in cluster <dcc> Done

Job <poiss2> was submitted from host <n-62-20-6> by user <s144470> in cluster <dcc> at Fri Jan 25 17:22:01 2019
Job was executed on host(s) <n-62-20-14>, in queue <hpcintrogpu>, as user <s144470> in cluster <dcc> at Fri Jan 25 17:22:02 2019
</zhome/56/b/98193> was used as the home directory.
</zhome/56/b/98193/Desktop/02614-HPC/Assignments/assignment3> was used as the working directory.
Started at Fri Jan 25 17:22:02 2019
Terminated at Fri Jan 25 17:22:30 2019
Results reported at Fri Jan 25 17:22:30 2019

Your job looked like:

------------------------------------------------------------
# LSBATCH: User input
#!/bin/sh
#BSUB -W 00:10
#BSUB -J poiss2
#BSUB -r 
#BSUB -R "rusage[mem=3GB]"
#BSUB -q hpcintrogpu
#BSUB -gpu "num=1:mode=exclusive_process:mps=yes"
#BSUB -o data/jobs/poiss2.txt

module load cuda/10.0
module load gcc/7.3.0

L="1000 2000 3000 4000 5000 6000 7000 8000 9000 10000"
# output1=data/poisson2_32.dat
# output1=data/poisson2_16.dat
output1=data/poisson2_8.dat

# Make header and flush file contents
echo "memory,time">$output1

if [ ! -d data/jobs ]; then
  mkdir -p  data/jobs;
fi

for n in $L
do
    echo "Running for n = $n";
    ./poisson/poiss 2 $n 1000 | awk '{ print $1","$2}'>>$output1
done

exit 0


------------------------------------------------------------

Successfully completed.

Resource usage summary:

    CPU time :                                   24.00 sec.
    Max Memory :                                 22 MB
    Average Memory :                             22.00 MB
    Total Requested Memory :                     3072.00 MB
    Delta Memory :                               3050.00 MB
    Max Swap :                                   -
    Max Processes :                              5
    Max Threads :                                8
    Run time :                                   32 sec.
    Turnaround time :                            29 sec.

The output (if any) is above this job summary.

Loaded module: cuda/10.0
Loaded dependency [gcc/7.3.0]: binutils
Loaded module: gcc/7.3.0
Running for n = 1000
Running for n = 2000
Running for n = 3000
Running for n = 4000
Running for n = 5000
Running for n = 6000
Running for n = 7000
Running for n = 8000
Running for n = 9000
Running for n = 10000

------------------------------------------------------------
Sender: LSF System <lsfadmin@n-62-20-16>
Subject: Job 1869119: <poiss2> in cluster <dcc> Done

Job <poiss2> was submitted from host <n-62-20-6> by user <s144470> in cluster <dcc> at Fri Jan 25 17:23:56 2019
Job was executed on host(s) <n-62-20-16>, in queue <hpcintrogpu>, as user <s144470> in cluster <dcc> at Fri Jan 25 17:23:58 2019
</zhome/56/b/98193> was used as the home directory.
</zhome/56/b/98193/Desktop/02614-HPC/Assignments/assignment3> was used as the working directory.
Started at Fri Jan 25 17:23:58 2019
Terminated at Fri Jan 25 17:24:25 2019
Results reported at Fri Jan 25 17:24:25 2019

Your job looked like:

------------------------------------------------------------
# LSBATCH: User input
#!/bin/sh
#BSUB -W 00:10
#BSUB -J poiss2
#BSUB -r 
#BSUB -R "rusage[mem=3GB]"
#BSUB -q hpcintrogpu
#BSUB -gpu "num=1:mode=exclusive_process:mps=yes"
#BSUB -o data/jobs/poiss2.txt

module load cuda/10.0
module load gcc/7.3.0

L="1000 2000 3000 4000 5000 6000 7000 8000 9000 10000"
# output1=data/poisson2_32.dat
# output1=data/poisson2_16.dat
output1=data/poisson2_8.dat

# Make header and flush file contents
echo "memory,time">$output1

if [ ! -d data/jobs ]; then
  mkdir -p  data/jobs;
fi

for n in $L
do
    echo "Running for n = $n";
    ./poisson/poiss 2 $n 1000 | awk '{ print $1","$2}'>>$output1
done

exit 0


------------------------------------------------------------

Successfully completed.

Resource usage summary:

    CPU time :                                   25.00 sec.
    Max Memory :                                 19 MB
    Average Memory :                             19.00 MB
    Total Requested Memory :                     3072.00 MB
    Delta Memory :                               3053.00 MB
    Max Swap :                                   -
    Max Processes :                              5
    Max Threads :                                8
    Run time :                                   41 sec.
    Turnaround time :                            29 sec.

The output (if any) is above this job summary.

Loaded module: cuda/10.0
Loaded dependency [gcc/7.3.0]: binutils
Loaded module: gcc/7.3.0
Running for n = 1000
Running for n = 2000
Running for n = 3000
Running for n = 4000
Running for n = 5000
Running for n = 6000
Running for n = 7000
Running for n = 8000
Running for n = 9000
Running for n = 10000

------------------------------------------------------------
Sender: LSF System <lsfadmin@n-62-20-16>
Subject: Job 1869121: <poiss2> in cluster <dcc> Done

Job <poiss2> was submitted from host <n-62-20-6> by user <s144470> in cluster <dcc> at Fri Jan 25 17:24:53 2019
Job was executed on host(s) <n-62-20-16>, in queue <hpcintrogpu>, as user <s144470> in cluster <dcc> at Fri Jan 25 17:25:20 2019
</zhome/56/b/98193> was used as the home directory.
</zhome/56/b/98193/Desktop/02614-HPC/Assignments/assignment3> was used as the working directory.
Started at Fri Jan 25 17:25:20 2019
Terminated at Fri Jan 25 17:25:47 2019
Results reported at Fri Jan 25 17:25:47 2019

Your job looked like:

------------------------------------------------------------
# LSBATCH: User input
#!/bin/sh
#BSUB -W 00:10
#BSUB -J poiss2
#BSUB -r 
#BSUB -R "rusage[mem=3GB]"
#BSUB -q hpcintrogpu
#BSUB -gpu "num=1:mode=exclusive_process:mps=yes"
#BSUB -o data/jobs/poiss2.txt

module load cuda/10.0
module load gcc/7.3.0

L="1000 2000 3000 4000 5000 6000 7000 8000 9000 10000"
output1=data/poisson2_32.dat
# output1=data/poisson2_16.dat
# output1=data/poisson2_8.dat

# Make header and flush file contents
echo "memory,time">$output1

if [ ! -d data/jobs ]; then
  mkdir -p  data/jobs;
fi

for n in $L
do
    echo "Running for n = $n";
    ./poisson/poiss 2 $n 1000 | awk '{ print $1","$2}'>>$output1
done

exit 0


------------------------------------------------------------

Successfully completed.

Resource usage summary:

    CPU time :                                   24.00 sec.
    Max Memory :                                 19 MB
    Average Memory :                             19.00 MB
    Total Requested Memory :                     3072.00 MB
    Delta Memory :                               3053.00 MB
    Max Swap :                                   -
    Max Processes :                              5
    Max Threads :                                8
    Run time :                                   27 sec.
    Turnaround time :                            54 sec.

The output (if any) is above this job summary.

Loaded module: cuda/10.0
Loaded dependency [gcc/7.3.0]: binutils
Loaded module: gcc/7.3.0
Running for n = 1000
Running for n = 2000
Running for n = 3000
Running for n = 4000
Running for n = 5000
Running for n = 6000
Running for n = 7000
Running for n = 8000
Running for n = 9000
Running for n = 10000

------------------------------------------------------------
Sender: LSF System <lsfadmin@n-62-20-16>
Subject: Job 1869127: <poiss3> in cluster <dcc> Done

Job <poiss3> was submitted from host <n-62-20-6> by user <s144470> in cluster <dcc> at Fri Jan 25 17:28:36 2019
Job was executed on host(s) <n-62-20-16>, in queue <hpcintrogpu>, as user <s144470> in cluster <dcc> at Fri Jan 25 17:28:38 2019
</zhome/56/b/98193> was used as the home directory.
</zhome/56/b/98193/Desktop/02614-HPC/Assignments/assignment3> was used as the working directory.
Started at Fri Jan 25 17:28:38 2019
Terminated at Fri Jan 25 17:29:02 2019
Results reported at Fri Jan 25 17:29:02 2019

Your job looked like:

------------------------------------------------------------
# LSBATCH: User input
#!/bin/sh
#BSUB -W 00:10
#BSUB -J poiss3
#BSUB -r 
#BSUB -R "rusage[mem=5GB]"
#BSUB -q hpcintrogpu
#BSUB -gpu "num=2:mode=exclusive_process:mps=yes"
#BSUB -o data/jobs/poiss2.txt

module load cuda/10.0
module load gcc/7.3.0

L="1000 2000 3000 4000 5000 6000 7000 8000 9000 10000"
output1=data/poisson3_32.dat
# output1=data/poisson3_16.dat
# output1=data/poisson3_8.dat

# Make header and flush file contents
echo "memory,time">$output1

if [ ! -d data/jobs ]; then
  mkdir -p  data/jobs;
fi

for n in $L
do
    echo "Running for n = $n";
    ./poisson/poiss 3 $n 1000 | awk '{ print $1","$2}'>>$output1
done

exit 0


------------------------------------------------------------

Successfully completed.

Resource usage summary:

    CPU time :                                   22.16 sec.
    Max Memory :                                 33 MB
    Average Memory :                             33.00 MB
    Total Requested Memory :                     5120.00 MB
    Delta Memory :                               5087.00 MB
    Max Swap :                                   -
    Max Processes :                              5
    Max Threads :                                9
    Run time :                                   38 sec.
    Turnaround time :                            26 sec.

The output (if any) is above this job summary.

Loaded module: cuda/10.0
Loaded dependency [gcc/7.3.0]: binutils
Loaded module: gcc/7.3.0
Running for n = 1000
Running for n = 2000
Running for n = 3000
Running for n = 4000
Running for n = 5000
Running for n = 6000
Running for n = 7000
Running for n = 8000
Running for n = 9000
Running for n = 10000

------------------------------------------------------------
Sender: LSF System <lsfadmin@n-62-20-16>
Subject: Job 1869139: <poiss3> in cluster <dcc> Done

Job <poiss3> was submitted from host <n-62-20-6> by user <s144470> in cluster <dcc> at Fri Jan 25 17:33:47 2019
Job was executed on host(s) <n-62-20-16>, in queue <hpcintrogpu>, as user <s144470> in cluster <dcc> at Fri Jan 25 17:33:48 2019
</zhome/56/b/98193> was used as the home directory.
</zhome/56/b/98193/Desktop/02614-HPC/Assignments/assignment3> was used as the working directory.
Started at Fri Jan 25 17:33:48 2019
Terminated at Fri Jan 25 17:34:12 2019
Results reported at Fri Jan 25 17:34:12 2019

Your job looked like:

------------------------------------------------------------
# LSBATCH: User input
#!/bin/sh
#BSUB -W 00:10
#BSUB -J poiss3
#BSUB -r 
#BSUB -R "rusage[mem=5GB]"
#BSUB -q hpcintrogpu
#BSUB -gpu "num=2:mode=exclusive_process:mps=yes"
#BSUB -o data/jobs/poiss2.txt

module load cuda/10.0
module load gcc/7.3.0

L="1000 2000 3000 4000 5000 6000 7000 8000 9000 10000"
# output1=data/poisson3_32.dat
output1=data/poisson3_16.dat
# output1=data/poisson3_8.dat

# Make header and flush file contents
echo "memory,time">$output1

if [ ! -d data/jobs ]; then
  mkdir -p  data/jobs;
fi

for n in $L
do
    echo "Running for n = $n";
    ./poisson/poiss 3 $n 1000 | awk '{ print $1","$2}'>>$output1
done

exit 0


------------------------------------------------------------

Successfully completed.

Resource usage summary:

    CPU time :                                   22.44 sec.
    Max Memory :                                 66 MB
    Average Memory :                             66.00 MB
    Total Requested Memory :                     5120.00 MB
    Delta Memory :                               5054.00 MB
    Max Swap :                                   -
    Max Processes :                              5
    Max Threads :                                9
    Run time :                                   40 sec.
    Turnaround time :                            25 sec.

The output (if any) is above this job summary.

Loaded module: cuda/10.0
Loaded dependency [gcc/7.3.0]: binutils
Loaded module: gcc/7.3.0
Running for n = 1000
Running for n = 2000
Running for n = 3000
Running for n = 4000
Running for n = 5000
Running for n = 6000
Running for n = 7000
Running for n = 8000
Running for n = 9000
Running for n = 10000

------------------------------------------------------------
Sender: LSF System <lsfadmin@n-62-20-16>
Subject: Job 1869144: <poiss3> in cluster <dcc> Done

Job <poiss3> was submitted from host <n-62-20-6> by user <s144470> in cluster <dcc> at Fri Jan 25 17:34:57 2019
Job was executed on host(s) <n-62-20-16>, in queue <hpcintrogpu>, as user <s144470> in cluster <dcc> at Fri Jan 25 17:40:36 2019
</zhome/56/b/98193> was used as the home directory.
</zhome/56/b/98193/Desktop/02614-HPC/Assignments/assignment3> was used as the working directory.
Started at Fri Jan 25 17:40:36 2019
Terminated at Fri Jan 25 17:41:02 2019
Results reported at Fri Jan 25 17:41:02 2019

Your job looked like:

------------------------------------------------------------
# LSBATCH: User input
#!/bin/sh
#BSUB -W 00:10
#BSUB -J poiss3
#BSUB -r 
#BSUB -R "rusage[mem=5GB]"
#BSUB -q hpcintrogpu
#BSUB -gpu "num=2:mode=exclusive_process:mps=yes"
#BSUB -o data/jobs/poiss2.txt

module load cuda/10.0
module load gcc/7.3.0

L="1000 2000 3000 4000 5000 6000 7000 8000 9000 10000"
# output1=data/poisson3_32.dat
# output1=data/poisson3_16.dat
output1=data/poisson3_8.dat

# Make header and flush file contents
echo "memory,time">$output1

if [ ! -d data/jobs ]; then
  mkdir -p  data/jobs;
fi

for n in $L
do
    echo "Running for n = $n";
    ./poisson/poiss 3 $n 1000 | awk '{ print $1","$2}'>>$output1
done

exit 0


------------------------------------------------------------

Successfully completed.

Resource usage summary:

    CPU time :                                   23.00 sec.
    Max Memory :                                 31 MB
    Average Memory :                             31.00 MB
    Total Requested Memory :                     5120.00 MB
    Delta Memory :                               5089.00 MB
    Max Swap :                                   -
    Max Processes :                              5
    Max Threads :                                9
    Run time :                                   25 sec.
    Turnaround time :                            365 sec.

The output (if any) is above this job summary.

