%!PS-Adobe-3.0 EPSF-3.0
%%Title: gflops-gpu.eps
%%Creator: matplotlib version 2.2.3, http://matplotlib.org/
%%CreationDate: Tue Jan 22 17:09:56 2019
%%Orientation: portrait
%%BoundingBox: -234 36 846 756
%%EndComments
%%BeginProlog
/mpldict 8 dict def
mpldict begin
/m { moveto } bind def
/l { lineto } bind def
/r { rlineto } bind def
/c { curveto } bind def
/cl { closepath } bind def
/box {
m
1 index 0 r
0 exch r
neg 0 r
cl
} bind def
/clipbox {
box
clip
newpath
} bind def
%!PS-Adobe-3.0 Resource-Font
%%Title: DejaVu Sans
%%Copyright: Copyright (c) 2003 by Bitstream, Inc. All Rights Reserved. Copyright (c) 2006 by Tavmjong Bah. All Rights Reserved. DejaVu changes are in public domain 
%%Creator: Converted from TrueType to type 3 by PPR
25 dict begin
/_d{bind def}bind def
/_m{moveto}_d
/_l{lineto}_d
/_cl{closepath eofill}_d
/_c{curveto}_d
/_sc{7 -1 roll{setcachedevice}{pop pop pop pop pop pop}ifelse}_d
/_e{exec}_d
/FontName /DejaVuSans def
/PaintType 0 def
/FontMatrix[.001 0 0 .001 0 0]def
/FontBBox[-1021 -463 1793 1232]def
/FontType 3 def
/Encoding [ /hyphen /slash /zero /one /two /five /seven /F /G /L /N /O /P /c /d /e /g /i /l /o /p /r /s /u /w ] def
/FontInfo 10 dict dup begin
/FamilyName (DejaVu Sans) def
/FullName (DejaVu Sans) def
/Notice (Copyright (c) 2003 by Bitstream, Inc. All Rights Reserved. Copyright (c) 2006 by Tavmjong Bah. All Rights Reserved. DejaVu changes are in public domain ) def
/Weight (Book) def
/Version (Version 2.35) def
/ItalicAngle 0.0 def
/isFixedPitch false def
/UnderlinePosition -130 def
/UnderlineThickness 90 def
end readonly def
/CharStrings 26 dict dup begin
/.notdef 0 def
/hyphen{361 0 49 234 312 314 _sc
49 314 _m
312 314 _l
312 234 _l
49 234 _l
49 314 _l
_cl}_d
/slash{337 0 0 -92 337 729 _sc
254 729 _m
337 729 _l
83 -92 _l
0 -92 _l
254 729 _l
_cl}_d
/zero{636 0 66 -13 570 742 _sc
318 664 _m
267 664 229 639 203 589 _c
177 539 165 464 165 364 _c
165 264 177 189 203 139 _c
229 89 267 64 318 64 _c
369 64 407 89 433 139 _c
458 189 471 264 471 364 _c
471 464 458 539 433 589 _c
407 639 369 664 318 664 _c
318 742 _m
399 742 461 709 505 645 _c
548 580 570 486 570 364 _c
570 241 548 147 505 83 _c
461 19 399 -13 318 -13 _c
236 -13 173 19 130 83 _c
87 147 66 241 66 364 _c
66 486 87 580 130 645 _c
173 709 236 742 318 742 _c
_cl}_d
/one{636 0 110 0 544 729 _sc
124 83 _m
285 83 _l
285 639 _l
110 604 _l
110 694 _l
284 729 _l
383 729 _l
383 83 _l
544 83 _l
544 0 _l
124 0 _l
124 83 _l
_cl}_d
/two{{636 0 73 0 536 742 _sc
192 83 _m
536 83 _l
536 0 _l
73 0 _l
73 83 _l
110 121 161 173 226 239 _c
290 304 331 346 348 365 _c
380 400 402 430 414 455 _c
426 479 433 504 433 528 _c
433 566 419 598 392 622 _c
365 646 330 659 286 659 _c
255 659 222 653 188 643 _c
154 632 117 616 78 594 _c
78 694 _l
118 710 155 722 189 730 _c
223 738 255 742 284 742 _c
}_e{359 742 419 723 464 685 _c
509 647 532 597 532 534 _c
532 504 526 475 515 449 _c
504 422 484 390 454 354 _c
446 344 420 317 376 272 _c
332 227 271 164 192 83 _c
_cl}_e}_d
/five{{636 0 77 -13 549 729 _sc
108 729 _m
495 729 _l
495 646 _l
198 646 _l
198 467 _l
212 472 227 476 241 478 _c
255 480 270 482 284 482 _c
365 482 429 459 477 415 _c
525 370 549 310 549 234 _c
549 155 524 94 475 51 _c
426 8 357 -13 269 -13 _c
238 -13 207 -10 175 -6 _c
143 -1 111 6 77 17 _c
77 116 _l
106 100 136 88 168 80 _c
199 72 232 69 267 69 _c
}_e{323 69 368 83 401 113 _c
433 143 450 183 450 234 _c
450 284 433 324 401 354 _c
368 384 323 399 267 399 _c
241 399 214 396 188 390 _c
162 384 135 375 108 363 _c
108 729 _l
_cl}_e}_d
/seven{636 0 82 0 551 729 _sc
82 729 _m
551 729 _l
551 687 _l
286 0 _l
183 0 _l
432 646 _l
82 646 _l
82 729 _l
_cl}_d
/F{575 0 98 0 517 729 _sc
98 729 _m
517 729 _l
517 646 _l
197 646 _l
197 431 _l
486 431 _l
486 348 _l
197 348 _l
197 0 _l
98 0 _l
98 729 _l
_cl}_d
/G{{775 0 56 -13 693 742 _sc
595 104 _m
595 300 _l
434 300 _l
434 381 _l
693 381 _l
693 68 _l
655 40 613 20 567 7 _c
521 -6 472 -13 420 -13 _c
306 -13 216 20 152 86 _c
88 152 56 245 56 364 _c
56 482 88 575 152 642 _c
216 708 306 742 420 742 _c
467 742 512 736 555 724 _c
598 712 638 695 674 673 _c
674 568 _l
637 598 598 621 557 637 _c
516 653 473 661 428 661 _c
}_e{338 661 271 636 227 586 _c
182 536 160 462 160 364 _c
160 265 182 191 227 141 _c
271 91 338 67 428 67 _c
462 67 493 70 521 76 _c
549 82 573 91 595 104 _c
_cl}_e}_d
/L{557 0 98 0 552 729 _sc
98 729 _m
197 729 _l
197 83 _l
552 83 _l
552 0 _l
98 0 _l
98 729 _l
_cl}_d
/N{748 0 98 0 650 729 _sc
98 729 _m
231 729 _l
554 119 _l
554 729 _l
650 729 _l
650 0 _l
517 0 _l
194 610 _l
194 0 _l
98 0 _l
98 729 _l
_cl}_d
/O{787 0 56 -13 731 742 _sc
394 662 _m
322 662 265 635 223 582 _c
181 528 160 456 160 364 _c
160 272 181 199 223 146 _c
265 92 322 66 394 66 _c
465 66 522 92 564 146 _c
606 199 627 272 627 364 _c
627 456 606 528 564 582 _c
522 635 465 662 394 662 _c
394 742 _m
496 742 577 707 639 639 _c
700 571 731 479 731 364 _c
731 248 700 157 639 89 _c
577 21 496 -13 394 -13 _c
291 -13 209 21 148 89 _c
86 157 56 248 56 364 _c
56 479 86 571 148 639 _c
209 707 291 742 394 742 _c
_cl}_d
/P{603 0 98 0 569 729 _sc
197 648 _m
197 374 _l
321 374 _l
367 374 402 385 427 409 _c
452 433 465 467 465 511 _c
465 555 452 588 427 612 _c
402 636 367 648 321 648 _c
197 648 _l
98 729 _m
321 729 _l
402 729 464 710 506 673 _c
548 636 569 582 569 511 _c
569 439 548 384 506 348 _c
464 311 402 293 321 293 _c
197 293 _l
197 0 _l
98 0 _l
98 729 _l
_cl}_d
/c{{550 0 55 -13 488 560 _sc
488 526 _m
488 442 _l
462 456 437 466 411 473 _c
385 480 360 484 334 484 _c
276 484 230 465 198 428 _c
166 391 150 339 150 273 _c
150 206 166 154 198 117 _c
230 80 276 62 334 62 _c
360 62 385 65 411 72 _c
437 79 462 90 488 104 _c
488 21 _l
462 9 436 0 410 -5 _c
383 -10 354 -13 324 -13 _c
242 -13 176 12 128 64 _c
}_e{79 115 55 185 55 273 _c
55 362 79 432 128 483 _c
177 534 244 560 330 560 _c
358 560 385 557 411 551 _c
437 545 463 537 488 526 _c
_cl}_e}_d
/d{{635 0 55 -13 544 760 _sc
454 464 _m
454 760 _l
544 760 _l
544 0 _l
454 0 _l
454 82 _l
435 49 411 25 382 10 _c
353 -5 319 -13 279 -13 _c
213 -13 159 13 117 65 _c
75 117 55 187 55 273 _c
55 359 75 428 117 481 _c
159 533 213 560 279 560 _c
319 560 353 552 382 536 _c
411 520 435 496 454 464 _c
148 273 _m
148 207 161 155 188 117 _c
215 79 253 61 301 61 _c
}_e{348 61 385 79 413 117 _c
440 155 454 207 454 273 _c
454 339 440 390 413 428 _c
385 466 348 485 301 485 _c
253 485 215 466 188 428 _c
161 390 148 339 148 273 _c
_cl}_e}_d
/e{{615 0 55 -13 562 560 _sc
562 296 _m
562 252 _l
149 252 _l
153 190 171 142 205 110 _c
238 78 284 62 344 62 _c
378 62 412 66 444 74 _c
476 82 509 95 541 113 _c
541 28 _l
509 14 476 3 442 -3 _c
408 -9 373 -13 339 -13 _c
251 -13 182 12 131 62 _c
80 112 55 181 55 268 _c
55 357 79 428 127 481 _c
175 533 241 560 323 560 _c
397 560 455 536 498 489 _c
}_e{540 441 562 377 562 296 _c
472 322 _m
471 371 457 410 431 440 _c
404 469 368 484 324 484 _c
274 484 234 469 204 441 _c
174 413 156 373 152 322 _c
472 322 _l
_cl}_e}_d
/g{{635 0 55 -207 544 560 _sc
454 280 _m
454 344 440 395 414 431 _c
387 467 349 485 301 485 _c
253 485 215 467 188 431 _c
161 395 148 344 148 280 _c
148 215 161 165 188 129 _c
215 93 253 75 301 75 _c
349 75 387 93 414 129 _c
440 165 454 215 454 280 _c
544 68 _m
544 -24 523 -93 482 -139 _c
440 -184 377 -207 292 -207 _c
260 -207 231 -204 203 -200 _c
175 -195 147 -188 121 -178 _c
}_e{121 -91 _l
147 -105 173 -115 199 -122 _c
225 -129 251 -133 278 -133 _c
336 -133 380 -117 410 -87 _c
439 -56 454 -10 454 52 _c
454 96 _l
435 64 411 40 382 24 _c
353 8 319 0 279 0 _c
211 0 157 25 116 76 _c
75 127 55 195 55 280 _c
55 364 75 432 116 483 _c
157 534 211 560 279 560 _c
319 560 353 552 382 536 _c
411 520 435 496 454 464 _c
454 547 _l
544 547 _l
}_e{544 68 _l
_cl}_e}_d
/i{278 0 94 0 184 760 _sc
94 547 _m
184 547 _l
184 0 _l
94 0 _l
94 547 _l
94 760 _m
184 760 _l
184 646 _l
94 646 _l
94 760 _l
_cl}_d
/l{278 0 94 0 184 760 _sc
94 760 _m
184 760 _l
184 0 _l
94 0 _l
94 760 _l
_cl}_d
/o{612 0 55 -13 557 560 _sc
306 484 _m
258 484 220 465 192 427 _c
164 389 150 338 150 273 _c
150 207 163 156 191 118 _c
219 80 257 62 306 62 _c
354 62 392 80 420 118 _c
448 156 462 207 462 273 _c
462 337 448 389 420 427 _c
392 465 354 484 306 484 _c
306 560 _m
384 560 445 534 490 484 _c
534 433 557 363 557 273 _c
557 183 534 113 490 63 _c
445 12 384 -13 306 -13 _c
227 -13 165 12 121 63 _c
77 113 55 183 55 273 _c
55 363 77 433 121 484 _c
165 534 227 560 306 560 _c
_cl}_d
/p{{635 0 91 -207 580 560 _sc
181 82 _m
181 -207 _l
91 -207 _l
91 547 _l
181 547 _l
181 464 _l
199 496 223 520 252 536 _c
281 552 316 560 356 560 _c
422 560 476 533 518 481 _c
559 428 580 359 580 273 _c
580 187 559 117 518 65 _c
476 13 422 -13 356 -13 _c
316 -13 281 -5 252 10 _c
223 25 199 49 181 82 _c
487 273 _m
487 339 473 390 446 428 _c
418 466 381 485 334 485 _c
}_e{286 485 249 466 222 428 _c
194 390 181 339 181 273 _c
181 207 194 155 222 117 _c
249 79 286 61 334 61 _c
381 61 418 79 446 117 _c
473 155 487 207 487 273 _c
_cl}_e}_d
/r{411 0 91 0 411 560 _sc
411 463 _m
401 469 390 473 378 476 _c
366 478 353 480 339 480 _c
288 480 249 463 222 430 _c
194 397 181 350 181 288 _c
181 0 _l
91 0 _l
91 547 _l
181 547 _l
181 462 _l
199 495 224 520 254 536 _c
284 552 321 560 365 560 _c
371 560 378 559 386 559 _c
393 558 401 557 411 555 _c
411 463 _l
_cl}_d
/s{{521 0 54 -13 472 560 _sc
443 531 _m
443 446 _l
417 458 391 468 364 475 _c
336 481 308 485 279 485 _c
234 485 200 478 178 464 _c
156 450 145 430 145 403 _c
145 382 153 366 169 354 _c
185 342 217 330 265 320 _c
296 313 _l
360 299 405 279 432 255 _c
458 230 472 195 472 151 _c
472 100 452 60 412 31 _c
372 1 316 -13 246 -13 _c
216 -13 186 -10 154 -5 _c
}_e{122 0 89 8 54 20 _c
54 113 _l
87 95 120 82 152 74 _c
184 65 216 61 248 61 _c
290 61 323 68 346 82 _c
368 96 380 117 380 144 _c
380 168 371 187 355 200 _c
339 213 303 226 247 238 _c
216 245 _l
160 257 119 275 95 299 _c
70 323 58 356 58 399 _c
58 450 76 490 112 518 _c
148 546 200 560 268 560 _c
301 560 332 557 362 552 _c
391 547 418 540 443 531 _c
}_e{_cl}_e}_d
/u{634 0 85 -13 543 560 _sc
85 216 _m
85 547 _l
175 547 _l
175 219 _l
175 167 185 129 205 103 _c
225 77 255 64 296 64 _c
344 64 383 79 411 110 _c
439 141 453 183 453 237 _c
453 547 _l
543 547 _l
543 0 _l
453 0 _l
453 84 _l
431 50 405 26 377 10 _c
348 -5 315 -13 277 -13 _c
214 -13 166 6 134 45 _c
101 83 85 140 85 216 _c
311 560 _m
311 560 _l
_cl}_d
/w{818 0 42 0 776 547 _sc
42 547 _m
132 547 _l
244 120 _l
356 547 _l
462 547 _l
574 120 _l
686 547 _l
776 547 _l
633 0 _l
527 0 _l
409 448 _l
291 0 _l
185 0 _l
42 547 _l
_cl}_d
end readonly def

/BuildGlyph
 {exch begin
 CharStrings exch
 2 copy known not{pop /.notdef}if
 true 3 1 roll get exec
 end}_d

/BuildChar {
 1 index /Encoding get exch get
 1 index /BuildGlyph get exec
}_d

FontName currentdict end definefont pop
end
%%EndProlog
mpldict begin
-234 36 translate
1080 720 0 0 clipbox
gsave
0 0 m
1080 0 l
1080 720 l
0 720 l
cl
1.000 setgray
fill
grestore
gsave
135 90 m
972 90 l
972 633.6 l
135 633.6 l
cl
1.000 setgray
fill
grestore
0.800 setlinewidth
1 setlinejoin
0 setlinecap
[] 0 setdash
0.000 setgray
gsave
/o {
gsave
newpath
translate
0.8 setlinewidth
1 setlinejoin
0 setlinecap
0 0 m
0 -3.5 l

gsave
0.000 setgray
fill
grestore
stroke
grestore
} bind def
165.36 90 o
grestore
/DejaVuSans findfont
22.000 scalefont
setfont
gsave
158.359504 66.281250 translate
0.000000 rotate
0.000000 0.000000 m /zero glyphshow
grestore
gsave
/o {
gsave
newpath
translate
0.8 setlinewidth
1 setlinejoin
0 setlinecap
0 0 m
0 -3.5 l

gsave
0.000 setgray
fill
grestore
stroke
grestore
} bind def
261.434 90 o
grestore
gsave
233.433884 66.281250 translate
0.000000 rotate
0.000000 0.000000 m /two glyphshow
13.997070 0.000000 m /five glyphshow
27.994141 0.000000 m /zero glyphshow
41.991211 0.000000 m /zero glyphshow
grestore
gsave
/o {
gsave
newpath
translate
0.8 setlinewidth
1 setlinejoin
0 setlinecap
0 0 m
0 -3.5 l

gsave
0.000 setgray
fill
grestore
stroke
grestore
} bind def
357.508 90 o
grestore
gsave
329.508264 66.281250 translate
0.000000 rotate
0.000000 0.000000 m /five glyphshow
13.997070 0.000000 m /zero glyphshow
27.994141 0.000000 m /zero glyphshow
41.991211 0.000000 m /zero glyphshow
grestore
gsave
/o {
gsave
newpath
translate
0.8 setlinewidth
1 setlinejoin
0 setlinecap
0 0 m
0 -3.5 l

gsave
0.000 setgray
fill
grestore
stroke
grestore
} bind def
453.583 90 o
grestore
gsave
425.582645 66.281250 translate
0.000000 rotate
0.000000 0.000000 m /seven glyphshow
13.997070 0.000000 m /five glyphshow
27.994141 0.000000 m /zero glyphshow
41.991211 0.000000 m /zero glyphshow
grestore
gsave
/o {
gsave
newpath
translate
0.8 setlinewidth
1 setlinejoin
0 setlinecap
0 0 m
0 -3.5 l

gsave
0.000 setgray
fill
grestore
stroke
grestore
} bind def
549.657 90 o
grestore
gsave
514.657025 66.281250 translate
0.000000 rotate
0.000000 0.000000 m /one glyphshow
13.997070 0.000000 m /zero glyphshow
27.994141 0.000000 m /zero glyphshow
41.991211 0.000000 m /zero glyphshow
55.988281 0.000000 m /zero glyphshow
grestore
gsave
/o {
gsave
newpath
translate
0.8 setlinewidth
1 setlinejoin
0 setlinecap
0 0 m
0 -3.5 l

gsave
0.000 setgray
fill
grestore
stroke
grestore
} bind def
645.731 90 o
grestore
gsave
610.731405 66.281250 translate
0.000000 rotate
0.000000 0.000000 m /one glyphshow
13.997070 0.000000 m /two glyphshow
27.994141 0.000000 m /five glyphshow
41.991211 0.000000 m /zero glyphshow
55.988281 0.000000 m /zero glyphshow
grestore
gsave
/o {
gsave
newpath
translate
0.8 setlinewidth
1 setlinejoin
0 setlinecap
0 0 m
0 -3.5 l

gsave
0.000 setgray
fill
grestore
stroke
grestore
} bind def
741.806 90 o
grestore
gsave
706.805785 66.281250 translate
0.000000 rotate
0.000000 0.000000 m /one glyphshow
13.997070 0.000000 m /five glyphshow
27.994141 0.000000 m /zero glyphshow
41.991211 0.000000 m /zero glyphshow
55.988281 0.000000 m /zero glyphshow
grestore
gsave
/o {
gsave
newpath
translate
0.8 setlinewidth
1 setlinejoin
0 setlinecap
0 0 m
0 -3.5 l

gsave
0.000 setgray
fill
grestore
stroke
grestore
} bind def
837.88 90 o
grestore
gsave
802.880165 66.281250 translate
0.000000 rotate
0.000000 0.000000 m /one glyphshow
13.997070 0.000000 m /seven glyphshow
27.994141 0.000000 m /five glyphshow
41.991211 0.000000 m /zero glyphshow
55.988281 0.000000 m /zero glyphshow
grestore
gsave
/o {
gsave
newpath
translate
0.8 setlinewidth
1 setlinejoin
0 setlinecap
0 0 m
0 -3.5 l

gsave
0.000 setgray
fill
grestore
stroke
grestore
} bind def
933.955 90 o
grestore
gsave
898.954545 66.281250 translate
0.000000 rotate
0.000000 0.000000 m /two glyphshow
13.997070 0.000000 m /zero glyphshow
27.994141 0.000000 m /zero glyphshow
41.991211 0.000000 m /zero glyphshow
55.988281 0.000000 m /zero glyphshow
grestore
gsave
545.273438 40.984375 translate
0.000000 rotate
0.000000 0.000000 m /N glyphshow
grestore
gsave
/o {
gsave
newpath
translate
0.8 setlinewidth
1 setlinejoin
0 setlinecap
0 0 m
-3.5 0 l

gsave
0.000 setgray
fill
grestore
stroke
grestore
} bind def
135 111.545 o
grestore
gsave
114.000000 103.185147 translate
0.000000 rotate
0.000000 0.000000 m /zero glyphshow
grestore
gsave
/o {
gsave
newpath
translate
0.8 setlinewidth
1 setlinejoin
0 setlinecap
0 0 m
-3.5 0 l

gsave
0.000 setgray
fill
grestore
stroke
grestore
} bind def
135 172.234 o
grestore
gsave
100.000000 163.874640 translate
0.000000 rotate
0.000000 0.000000 m /two glyphshow
13.997070 0.000000 m /five glyphshow
grestore
gsave
/o {
gsave
newpath
translate
0.8 setlinewidth
1 setlinejoin
0 setlinecap
0 0 m
-3.5 0 l

gsave
0.000 setgray
fill
grestore
stroke
grestore
} bind def
135 232.924 o
grestore
gsave
100.000000 224.564133 translate
0.000000 rotate
0.000000 0.000000 m /five glyphshow
13.997070 0.000000 m /zero glyphshow
grestore
gsave
/o {
gsave
newpath
translate
0.8 setlinewidth
1 setlinejoin
0 setlinecap
0 0 m
-3.5 0 l

gsave
0.000 setgray
fill
grestore
stroke
grestore
} bind def
135 293.613 o
grestore
gsave
100.000000 285.253625 translate
0.000000 rotate
0.000000 0.000000 m /seven glyphshow
13.997070 0.000000 m /five glyphshow
grestore
gsave
/o {
gsave
newpath
translate
0.8 setlinewidth
1 setlinejoin
0 setlinecap
0 0 m
-3.5 0 l

gsave
0.000 setgray
fill
grestore
stroke
grestore
} bind def
135 354.302 o
grestore
gsave
86.000000 345.943118 translate
0.000000 rotate
0.000000 0.000000 m /one glyphshow
13.997070 0.000000 m /zero glyphshow
27.994141 0.000000 m /zero glyphshow
grestore
gsave
/o {
gsave
newpath
translate
0.8 setlinewidth
1 setlinejoin
0 setlinecap
0 0 m
-3.5 0 l

gsave
0.000 setgray
fill
grestore
stroke
grestore
} bind def
135 414.992 o
grestore
gsave
86.000000 406.632611 translate
0.000000 rotate
0.000000 0.000000 m /one glyphshow
13.997070 0.000000 m /two glyphshow
27.994141 0.000000 m /five glyphshow
grestore
gsave
/o {
gsave
newpath
translate
0.8 setlinewidth
1 setlinejoin
0 setlinecap
0 0 m
-3.5 0 l

gsave
0.000 setgray
fill
grestore
stroke
grestore
} bind def
135 475.681 o
grestore
gsave
86.000000 467.322103 translate
0.000000 rotate
0.000000 0.000000 m /one glyphshow
13.997070 0.000000 m /five glyphshow
27.994141 0.000000 m /zero glyphshow
grestore
gsave
/o {
gsave
newpath
translate
0.8 setlinewidth
1 setlinejoin
0 setlinecap
0 0 m
-3.5 0 l

gsave
0.000 setgray
fill
grestore
stroke
grestore
} bind def
135 536.371 o
grestore
gsave
86.000000 528.011596 translate
0.000000 rotate
0.000000 0.000000 m /one glyphshow
13.997070 0.000000 m /seven glyphshow
27.994141 0.000000 m /five glyphshow
grestore
gsave
/o {
gsave
newpath
translate
0.8 setlinewidth
1 setlinejoin
0 setlinecap
0 0 m
-3.5 0 l

gsave
0.000 setgray
fill
grestore
stroke
grestore
} bind def
135 597.06 o
grestore
gsave
86.000000 588.701089 translate
0.000000 rotate
0.000000 0.000000 m /two glyphshow
13.997070 0.000000 m /zero glyphshow
27.994141 0.000000 m /zero glyphshow
grestore
gsave
77.421875 310.354688 translate
90.000000 rotate
0.000000 0.000000 m /G glyphshow
17.047852 0.000000 m /F glyphshow
29.702148 0.000000 m /L glyphshow
41.958984 0.000000 m /O glyphshow
59.275391 0.000000 m /P glyphshow
72.541992 0.000000 m /s glyphshow
84.003906 0.000000 m /slash glyphshow
91.416016 0.000000 m /s glyphshow
grestore
1.500 setlinewidth
2 setlinecap
0.122 0.467 0.706 setrgbcolor
gsave
837 543.6 135 90 clipbox
173.045455 116.410582 m
180.731405 128.044879 l
188.417355 144.431697 l
196.103306 166.168027 l
203.789256 188.373123 l
223.004132 251.849404 l
242.219008 319.34855 l
319.078512 526.984588 l
395.938017 574.565636 l
472.797521 594.329558 l
549.657025 554.772122 l
741.805785 608.890909 l
933.954545 602.081912 l
stroke
grestore
1.000 0.498 0.055 setrgbcolor
gsave
837 543.6 135 90 clipbox
173.045455 114.709091 m
180.731405 117.078287 l
188.417355 119.120149 l
196.103306 120.544701 l
203.789256 119.980653 l
223.004132 124.277348 l
242.219008 128.636213 l
319.078512 140.96004 l
395.938017 151.212024 l
472.797521 162.325606 l
549.657025 168.821518 l
741.805785 190.593557 l
933.954545 189.681346 l
stroke
grestore
0.173 0.627 0.173 setrgbcolor
gsave
837 543.6 135 90 clipbox
173.045455 118.757177 m
180.731405 126.674558 l
188.417355 136.755666 l
196.103306 140.284153 l
203.789256 143.213416 l
223.004132 149.759773 l
242.219008 170.383495 l
319.078512 216.170537 l
395.938017 239.378199 l
472.797521 267.991523 l
549.657025 287.4846 l
741.805785 297.435224 l
933.954545 301.087154 l
stroke
grestore
0.839 0.153 0.157 setrgbcolor
gsave
837 543.6 135 90 clipbox
173.045455 129.961259 m
180.731405 158.693679 l
188.417355 188.580973 l
196.103306 221.365291 l
203.789256 245.044632 l
223.004132 329.861208 l
242.219008 375.37102 l
319.078512 397.906777 l
395.938017 436.731884 l
472.797521 436.73436 l
549.657025 436.625508 l
741.805785 435.778792 l
933.954545 433.092093 l
stroke
grestore
0.800 setlinewidth
0 setlinejoin
[] 0 setdash
0.000 setgray
gsave
135 90 m
135 633.6 l
stroke
grestore
gsave
972 90 m
972 633.6 l
stroke
grestore
gsave
135 90 m
972 90 l
stroke
grestore
gsave
135 633.6 m
972 633.6 l
stroke
grestore
1.000 setlinewidth
0 setlinecap
0.800 setgray
gsave
426.620312 293.90625 m
680.379688 293.90625 l
683.313021 293.90625 684.779688 295.372917 684.779688 298.30625 c
684.779688 425.29375 l
684.779688 428.227083 683.313021 429.69375 680.379688 429.69375 c
426.620312 429.69375 l
423.686979 429.69375 422.220312 428.227083 422.220312 425.29375 c
422.220312 298.30625 l
422.220312 295.372917 423.686979 293.90625 426.620312 293.90625 c
cl
gsave
1.000 setgray
fill
grestore
stroke
grestore
1.500 setlinewidth
1 setlinejoin
2 setlinecap
[] 0 setdash
0.122 0.467 0.706 setrgbcolor
gsave
431.020312 411.875 m
475.020312 411.875 l
stroke
grestore
0.000 setgray
gsave
492.620313 404.175000 translate
0.000000 rotate
0.000000 0.000000 m /g glyphshow
13.964844 0.000000 m /r glyphshow
23.009766 0.000000 m /i glyphshow
29.122070 0.000000 m /d glyphshow
43.086914 0.000000 m /hyphen glyphshow
51.025391 0.000000 m /w glyphshow
69.018555 0.000000 m /i glyphshow
75.130859 0.000000 m /s glyphshow
86.592773 0.000000 m /e glyphshow
100.127930 0.000000 m /hyphen glyphshow
108.066406 0.000000 m /two glyphshow
122.063477 0.000000 m /hyphen glyphshow
130.001953 0.000000 m /g glyphshow
143.966797 0.000000 m /p glyphshow
157.931641 0.000000 m /u glyphshow
171.875000 0.000000 m /s glyphshow
grestore
1.000 0.498 0.055 setrgbcolor
gsave
431.020312 379.578125 m
475.020312 379.578125 l
stroke
grestore
0.000 setgray
gsave
492.620313 371.878125 translate
0.000000 rotate
0.000000 0.000000 m /c glyphshow
12.095703 0.000000 m /o glyphshow
25.555664 0.000000 m /l glyphshow
31.667969 0.000000 m /hyphen glyphshow
39.606445 0.000000 m /w glyphshow
57.599609 0.000000 m /i glyphshow
63.711914 0.000000 m /s glyphshow
75.173828 0.000000 m /e glyphshow
grestore
0.173 0.627 0.173 setrgbcolor
gsave
431.020312 347.28125 m
475.020312 347.28125 l
stroke
grestore
0.000 setgray
gsave
492.620313 339.581250 translate
0.000000 rotate
0.000000 0.000000 m /r glyphshow
9.044922 0.000000 m /o glyphshow
22.504883 0.000000 m /w glyphshow
40.498047 0.000000 m /hyphen glyphshow
48.436523 0.000000 m /w glyphshow
66.429688 0.000000 m /i glyphshow
72.541992 0.000000 m /s glyphshow
84.003906 0.000000 m /e glyphshow
grestore
0.839 0.153 0.157 setrgbcolor
gsave
431.020312 314.984375 m
475.020312 314.984375 l
stroke
grestore
0.000 setgray
gsave
492.620313 307.284375 translate
0.000000 rotate
0.000000 0.000000 m /g glyphshow
13.964844 0.000000 m /r glyphshow
23.009766 0.000000 m /i glyphshow
29.122070 0.000000 m /d glyphshow
43.086914 0.000000 m /hyphen glyphshow
51.025391 0.000000 m /w glyphshow
69.018555 0.000000 m /i glyphshow
75.130859 0.000000 m /s glyphshow
86.592773 0.000000 m /e glyphshow
grestore

end
showpage
