%!PS-Adobe-3.0 EPSF-3.0
%%Creator: (MATLAB, The Mathworks, Inc. Version 9.4.0.813654 \(R2018a\). Operating System: Linux)
%%Title: ./new_plot.eps
%%CreationDate: 2019-01-11T12:11:44
%%Pages: (atend)
%%BoundingBox:    77    32   823   559
%%LanguageLevel: 3
%%EndComments
%%BeginProlog
%%BeginResource: procset (Apache XML Graphics Std ProcSet) 1.2 0
%%Version: 1.2 0
%%Copyright: (Copyright 2001-2003,2010 The Apache Software Foundation. License terms: http://www.apache.org/licenses/LICENSE-2.0)
/bd{bind def}bind def
/ld{load def}bd
/GR/grestore ld
/GS/gsave ld
/RM/rmoveto ld
/C/curveto ld
/t/show ld
/L/lineto ld
/ML/setmiterlimit ld
/CT/concat ld
/f/fill ld
/N/newpath ld
/S/stroke ld
/CC/setcmykcolor ld
/A/ashow ld
/cp/closepath ld
/RC/setrgbcolor ld
/LJ/setlinejoin ld
/GC/setgray ld
/LW/setlinewidth ld
/M/moveto ld
/re {4 2 roll M
1 index 0 rlineto
0 exch rlineto
neg 0 rlineto
cp } bd
/_ctm matrix def
/_tm matrix def
/BT { _ctm currentmatrix pop matrix _tm copy pop 0 0 moveto } bd
/ET { _ctm setmatrix } bd
/iTm { _ctm setmatrix _tm concat } bd
/Tm { _tm astore pop iTm 0 0 moveto } bd
/ux 0.0 def
/uy 0.0 def
/F {
  /Tp exch def
  /Tf exch def
  Tf findfont Tp scalefont setfont
  /cf Tf def  /cs Tp def
} bd
/ULS {currentpoint /uy exch def /ux exch def} bd
/ULE {
  /Tcx currentpoint pop def
  gsave
  newpath
  cf findfont cs scalefont dup
  /FontMatrix get 0 get /Ts exch def /FontInfo get dup
  /UnderlinePosition get Ts mul /To exch def
  /UnderlineThickness get Ts mul /Tt exch def
  ux uy To add moveto  Tcx uy To add lineto
  Tt setlinewidth stroke
  grestore
} bd
/OLE {
  /Tcx currentpoint pop def
  gsave
  newpath
  cf findfont cs scalefont dup
  /FontMatrix get 0 get /Ts exch def /FontInfo get dup
  /UnderlinePosition get Ts mul /To exch def
  /UnderlineThickness get Ts mul /Tt exch def
  ux uy To add cs add moveto Tcx uy To add cs add lineto
  Tt setlinewidth stroke
  grestore
} bd
/SOE {
  /Tcx currentpoint pop def
  gsave
  newpath
  cf findfont cs scalefont dup
  /FontMatrix get 0 get /Ts exch def /FontInfo get dup
  /UnderlinePosition get Ts mul /To exch def
  /UnderlineThickness get Ts mul /Tt exch def
  ux uy To add cs 10 mul 26 idiv add moveto Tcx uy To add cs 10 mul 26 idiv add lineto
  Tt setlinewidth stroke
  grestore
} bd
/QT {
/Y22 exch store
/X22 exch store
/Y21 exch store
/X21 exch store
currentpoint
/Y21 load 2 mul add 3 div exch
/X21 load 2 mul add 3 div exch
/X21 load 2 mul /X22 load add 3 div
/Y21 load 2 mul /Y22 load add 3 div
/X22 load /Y22 load curveto
} bd
/SSPD {
dup length /d exch dict def
{
/v exch def
/k exch def
currentpagedevice k known {
/cpdv currentpagedevice k get def
v cpdv ne {
/upd false def
/nullv v type /nulltype eq def
/nullcpdv cpdv type /nulltype eq def
nullv nullcpdv or
{
/upd true def
} {
/sametype v type cpdv type eq def
sametype {
v type /arraytype eq {
/vlen v length def
/cpdvlen cpdv length def
vlen cpdvlen eq {
0 1 vlen 1 sub {
/i exch def
/obj v i get def
/cpdobj cpdv i get def
obj cpdobj ne {
/upd true def
exit
} if
} for
} {
/upd true def
} ifelse
} {
v type /dicttype eq {
v {
/dv exch def
/dk exch def
/cpddv cpdv dk get def
dv cpddv ne {
/upd true def
exit
} if
} forall
} {
/upd true def
} ifelse
} ifelse
} if
} ifelse
upd true eq {
d k v put
} if
} if
} if
} forall
d length 0 gt {
d setpagedevice
} if
} bd
/RE { % /NewFontName [NewEncodingArray] /FontName RE -
  findfont dup length dict begin
  {
    1 index /FID ne
    {def} {pop pop} ifelse
  } forall
  /Encoding exch def
  /FontName 1 index def
  currentdict definefont pop
  end
} bind def
%%EndResource
%%BeginResource: procset (Apache XML Graphics EPS ProcSet) 1.0 0
%%Version: 1.0 0
%%Copyright: (Copyright 2002-2003 The Apache Software Foundation. License terms: http://www.apache.org/licenses/LICENSE-2.0)
/BeginEPSF { %def
/b4_Inc_state save def         % Save state for cleanup
/dict_count countdictstack def % Count objects on dict stack
/op_count count 1 sub def      % Count objects on operand stack
userdict begin                 % Push userdict on dict stack
/showpage { } def              % Redefine showpage, { } = null proc
0 setgray 0 setlinecap         % Prepare graphics state
1 setlinewidth 0 setlinejoin
10 setmiterlimit [ ] 0 setdash newpath
/languagelevel where           % If level not equal to 1 then
{pop languagelevel             % set strokeadjust and
1 ne                           % overprint to their defaults.
{false setstrokeadjust false setoverprint
} if
} if
} bd
/EndEPSF { %def
count op_count sub {pop} repeat            % Clean up stacks
countdictstack dict_count sub {end} repeat
b4_Inc_state restore
} bd
%%EndResource
%FOPBeginFontDict
%%IncludeResource: font Courier-Oblique
%%IncludeResource: font Courier-BoldOblique
%%IncludeResource: font Courier-Bold
%%IncludeResource: font ZapfDingbats
%%IncludeResource: font Symbol
%%IncludeResource: font Helvetica
%%IncludeResource: font Helvetica-Oblique
%%IncludeResource: font Helvetica-Bold
%%IncludeResource: font Helvetica-BoldOblique
%%IncludeResource: font Times-Roman
%%IncludeResource: font Times-Italic
%%IncludeResource: font Times-Bold
%%IncludeResource: font Times-BoldItalic
%%IncludeResource: font Courier
%FOPEndFontDict
%%BeginResource: encoding WinAnsiEncoding
/WinAnsiEncoding [
/.notdef /.notdef /.notdef /.notdef /.notdef
/.notdef /.notdef /.notdef /.notdef /.notdef
/.notdef /.notdef /.notdef /.notdef /.notdef
/.notdef /.notdef /.notdef /.notdef /.notdef
/.notdef /.notdef /.notdef /.notdef /.notdef
/.notdef /.notdef /.notdef /.notdef /.notdef
/.notdef /.notdef /space /exclam /quotedbl
/numbersign /dollar /percent /ampersand /quotesingle
/parenleft /parenright /asterisk /plus /comma
/hyphen /period /slash /zero /one
/two /three /four /five /six
/seven /eight /nine /colon /semicolon
/less /equal /greater /question /at
/A /B /C /D /E
/F /G /H /I /J
/K /L /M /N /O
/P /Q /R /S /T
/U /V /W /X /Y
/Z /bracketleft /backslash /bracketright /asciicircum
/underscore /quoteleft /a /b /c
/d /e /f /g /h
/i /j /k /l /m
/n /o /p /q /r
/s /t /u /v /w
/x /y /z /braceleft /bar
/braceright /asciitilde /bullet /Euro /bullet
/quotesinglbase /florin /quotedblbase /ellipsis /dagger
/daggerdbl /circumflex /perthousand /Scaron /guilsinglleft
/OE /bullet /Zcaron /bullet /bullet
/quoteleft /quoteright /quotedblleft /quotedblright /bullet
/endash /emdash /asciitilde /trademark /scaron
/guilsinglright /oe /bullet /zcaron /Ydieresis
/space /exclamdown /cent /sterling /currency
/yen /brokenbar /section /dieresis /copyright
/ordfeminine /guillemotleft /logicalnot /sfthyphen /registered
/macron /degree /plusminus /twosuperior /threesuperior
/acute /mu /paragraph /middot /cedilla
/onesuperior /ordmasculine /guillemotright /onequarter /onehalf
/threequarters /questiondown /Agrave /Aacute /Acircumflex
/Atilde /Adieresis /Aring /AE /Ccedilla
/Egrave /Eacute /Ecircumflex /Edieresis /Igrave
/Iacute /Icircumflex /Idieresis /Eth /Ntilde
/Ograve /Oacute /Ocircumflex /Otilde /Odieresis
/multiply /Oslash /Ugrave /Uacute /Ucircumflex
/Udieresis /Yacute /Thorn /germandbls /agrave
/aacute /acircumflex /atilde /adieresis /aring
/ae /ccedilla /egrave /eacute /ecircumflex
/edieresis /igrave /iacute /icircumflex /idieresis
/eth /ntilde /ograve /oacute /ocircumflex
/otilde /odieresis /divide /oslash /ugrave
/uacute /ucircumflex /udieresis /yacute /thorn
/ydieresis
] def
%%EndResource
%FOPBeginFontReencode
/Courier-Oblique findfont
dup length dict begin
  {1 index /FID ne {def} {pop pop} ifelse} forall
  /Encoding WinAnsiEncoding def
  currentdict
end
/Courier-Oblique exch definefont pop
/Courier-BoldOblique findfont
dup length dict begin
  {1 index /FID ne {def} {pop pop} ifelse} forall
  /Encoding WinAnsiEncoding def
  currentdict
end
/Courier-BoldOblique exch definefont pop
/Courier-Bold findfont
dup length dict begin
  {1 index /FID ne {def} {pop pop} ifelse} forall
  /Encoding WinAnsiEncoding def
  currentdict
end
/Courier-Bold exch definefont pop
/Helvetica findfont
dup length dict begin
  {1 index /FID ne {def} {pop pop} ifelse} forall
  /Encoding WinAnsiEncoding def
  currentdict
end
/Helvetica exch definefont pop
/Helvetica-Oblique findfont
dup length dict begin
  {1 index /FID ne {def} {pop pop} ifelse} forall
  /Encoding WinAnsiEncoding def
  currentdict
end
/Helvetica-Oblique exch definefont pop
/Helvetica-Bold findfont
dup length dict begin
  {1 index /FID ne {def} {pop pop} ifelse} forall
  /Encoding WinAnsiEncoding def
  currentdict
end
/Helvetica-Bold exch definefont pop
/Helvetica-BoldOblique findfont
dup length dict begin
  {1 index /FID ne {def} {pop pop} ifelse} forall
  /Encoding WinAnsiEncoding def
  currentdict
end
/Helvetica-BoldOblique exch definefont pop
/Times-Roman findfont
dup length dict begin
  {1 index /FID ne {def} {pop pop} ifelse} forall
  /Encoding WinAnsiEncoding def
  currentdict
end
/Times-Roman exch definefont pop
/Times-Italic findfont
dup length dict begin
  {1 index /FID ne {def} {pop pop} ifelse} forall
  /Encoding WinAnsiEncoding def
  currentdict
end
/Times-Italic exch definefont pop
/Times-Bold findfont
dup length dict begin
  {1 index /FID ne {def} {pop pop} ifelse} forall
  /Encoding WinAnsiEncoding def
  currentdict
end
/Times-Bold exch definefont pop
/Times-BoldItalic findfont
dup length dict begin
  {1 index /FID ne {def} {pop pop} ifelse} forall
  /Encoding WinAnsiEncoding def
  currentdict
end
/Times-BoldItalic exch definefont pop
/Courier findfont
dup length dict begin
  {1 index /FID ne {def} {pop pop} ifelse} forall
  /Encoding WinAnsiEncoding def
  currentdict
end
/Courier exch definefont pop
%FOPEndFontReencode
%%EndProlog
%%Page: 1 1
%%PageBoundingBox: 0 0 900 600
%%BeginPageSetup
[1 0 0 -1 0 600] CT
%%EndPageSetup
GS
[0.75 0 0 0.75 0 0] CT
1 GC
N
0 0 1200 800 re
f
GR
GS
[0.75 0 0 0.75 0 0] CT
1 GC
N
0 0 1200 800 re
f
GR
GS
[0.75 0 0 0.75 0 0] CT
1 GC
N
156 712 M
1086 712 L
1086 60 L
156 60 L
cp
f
GR
GS
[0.75 0 0 0.75 0 0] CT
0.775 GC
[1 3] 0 setdash
2 LJ
0.667 LW
N
225.989 712 M
225.989 60 L
S
GR
GS
[0.75 0 0 0.75 0 0] CT
0.775 GC
[1 3] 0 setdash
2 LJ
0.667 LW
N
266.931 712 M
266.931 60 L
S
GR
GS
[0.75 0 0 0.75 0 0] CT
0.775 GC
[1 3] 0 setdash
2 LJ
0.667 LW
N
295.979 712 M
295.979 60 L
S
GR
GS
[0.75 0 0 0.75 0 0] CT
0.775 GC
[1 3] 0 setdash
2 LJ
0.667 LW
N
318.511 712 M
318.511 60 L
S
GR
GS
[0.75 0 0 0.75 0 0] CT
0.775 GC
[1 3] 0 setdash
2 LJ
0.667 LW
N
336.92 712 M
336.92 60 L
S
GR
GS
[0.75 0 0 0.75 0 0] CT
0.775 GC
[1 3] 0 setdash
2 LJ
0.667 LW
N
352.485 712 M
352.485 60 L
S
GR
GS
[0.75 0 0 0.75 0 0] CT
0.775 GC
[1 3] 0 setdash
2 LJ
0.667 LW
N
365.968 712 M
365.968 60 L
S
GR
GS
[0.75 0 0 0.75 0 0] CT
0.775 GC
[1 3] 0 setdash
2 LJ
0.667 LW
N
377.861 712 M
377.861 60 L
S
GR
GS
[0.75 0 0 0.75 0 0] CT
0.775 GC
[1 3] 0 setdash
2 LJ
0.667 LW
N
458.489 712 M
458.489 60 L
S
GR
GS
[0.75 0 0 0.75 0 0] CT
0.775 GC
[1 3] 0 setdash
2 LJ
0.667 LW
N
499.431 712 M
499.431 60 L
S
GR
GS
[0.75 0 0 0.75 0 0] CT
0.775 GC
[1 3] 0 setdash
2 LJ
0.667 LW
N
528.479 712 M
528.479 60 L
S
GR
GS
[0.75 0 0 0.75 0 0] CT
0.775 GC
[1 3] 0 setdash
2 LJ
0.667 LW
N
551.01 712 M
551.01 60 L
S
GR
GS
[0.75 0 0 0.75 0 0] CT
0.775 GC
[1 3] 0 setdash
2 LJ
0.667 LW
N
569.42 712 M
569.42 60 L
S
GR
GS
[0.75 0 0 0.75 0 0] CT
0.775 GC
[1 3] 0 setdash
2 LJ
0.667 LW
N
584.985 712 M
584.985 60 L
S
GR
GS
[0.75 0 0 0.75 0 0] CT
0.775 GC
[1 3] 0 setdash
2 LJ
0.667 LW
N
598.468 712 M
598.468 60 L
S
GR
GS
[0.75 0 0 0.75 0 0] CT
0.775 GC
[1 3] 0 setdash
2 LJ
0.667 LW
N
610.361 712 M
610.361 60 L
S
GR
GS
[0.75 0 0 0.75 0 0] CT
0.775 GC
[1 3] 0 setdash
2 LJ
0.667 LW
N
690.989 712 M
690.989 60 L
S
GR
GS
[0.75 0 0 0.75 0 0] CT
0.775 GC
[1 3] 0 setdash
2 LJ
0.667 LW
N
731.931 712 M
731.931 60 L
S
GR
GS
[0.75 0 0 0.75 0 0] CT
0.775 GC
[1 3] 0 setdash
2 LJ
0.667 LW
N
760.979 712 M
760.979 60 L
S
GR
GS
[0.75 0 0 0.75 0 0] CT
0.775 GC
[1 3] 0 setdash
2 LJ
0.667 LW
N
783.511 712 M
783.511 60 L
S
GR
GS
[0.75 0 0 0.75 0 0] CT
0.775 GC
[1 3] 0 setdash
2 LJ
0.667 LW
N
801.92 712 M
801.92 60 L
S
GR
GS
[0.75 0 0 0.75 0 0] CT
0.775 GC
[1 3] 0 setdash
2 LJ
0.667 LW
N
817.485 712 M
817.485 60 L
S
GR
GS
[0.75 0 0 0.75 0 0] CT
0.775 GC
[1 3] 0 setdash
2 LJ
0.667 LW
N
830.968 712 M
830.968 60 L
S
GR
GS
[0.75 0 0 0.75 0 0] CT
0.775 GC
[1 3] 0 setdash
2 LJ
0.667 LW
N
842.861 712 M
842.861 60 L
S
GR
GS
[0.75 0 0 0.75 0 0] CT
0.775 GC
[1 3] 0 setdash
2 LJ
0.667 LW
N
923.489 712 M
923.489 60 L
S
GR
GS
[0.75 0 0 0.75 0 0] CT
0.775 GC
[1 3] 0 setdash
2 LJ
0.667 LW
N
964.431 712 M
964.431 60 L
S
GR
GS
[0.75 0 0 0.75 0 0] CT
0.775 GC
[1 3] 0 setdash
2 LJ
0.667 LW
N
993.479 712 M
993.479 60 L
S
GR
GS
[0.75 0 0 0.75 0 0] CT
0.775 GC
[1 3] 0 setdash
2 LJ
0.667 LW
N
1016.011 712 M
1016.011 60 L
S
GR
GS
[0.75 0 0 0.75 0 0] CT
0.775 GC
[1 3] 0 setdash
2 LJ
0.667 LW
N
1034.42 712 M
1034.42 60 L
S
GR
GS
[0.75 0 0 0.75 0 0] CT
0.775 GC
[1 3] 0 setdash
2 LJ
0.667 LW
N
1049.985 712 M
1049.985 60 L
S
GR
GS
[0.75 0 0 0.75 0 0] CT
0.775 GC
[1 3] 0 setdash
2 LJ
0.667 LW
N
1063.468 712 M
1063.468 60 L
S
GR
GS
[0.75 0 0 0.75 0 0] CT
0.775 GC
[1 3] 0 setdash
2 LJ
0.667 LW
N
1075.361 712 M
1075.361 60 L
S
GR
GS
[0.75 0 0 0.75 0 0] CT
0.873 GC
1 LJ
0.667 LW
N
156 712 M
156 60 L
S
GR
GS
[0.75 0 0 0.75 0 0] CT
0.873 GC
1 LJ
0.667 LW
N
388.5 712 M
388.5 60 L
S
GR
GS
[0.75 0 0 0.75 0 0] CT
0.873 GC
1 LJ
0.667 LW
N
621 712 M
621 60 L
S
GR
GS
[0.75 0 0 0.75 0 0] CT
0.873 GC
1 LJ
0.667 LW
N
853.5 712 M
853.5 60 L
S
GR
GS
[0.75 0 0 0.75 0 0] CT
0.873 GC
1 LJ
0.667 LW
N
1086 712 M
1086 60 L
S
GR
GS
[0.75 0 0 0.75 0 0] CT
0.873 GC
1 LJ
0.667 LW
N
1086 712 M
156 712 L
S
GR
GS
[0.75 0 0 0.75 0 0] CT
0.873 GC
1 LJ
0.667 LW
N
1086 630.5 M
156 630.5 L
S
GR
GS
[0.75 0 0 0.75 0 0] CT
0.873 GC
1 LJ
0.667 LW
N
1086 549 M
156 549 L
S
GR
GS
[0.75 0 0 0.75 0 0] CT
0.873 GC
1 LJ
0.667 LW
N
1086 467.5 M
156 467.5 L
S
GR
GS
[0.75 0 0 0.75 0 0] CT
0.873 GC
1 LJ
0.667 LW
N
1086 386 M
156 386 L
S
GR
GS
[0.75 0 0 0.75 0 0] CT
0.873 GC
1 LJ
0.667 LW
N
1086 304.5 M
156 304.5 L
S
GR
GS
[0.75 0 0 0.75 0 0] CT
0.873 GC
1 LJ
0.667 LW
N
1086 223 M
156 223 L
S
GR
GS
[0.75 0 0 0.75 0 0] CT
0.873 GC
1 LJ
0.667 LW
N
1086 141.5 M
156 141.5 L
S
GR
GS
[0.75 0 0 0.75 0 0] CT
0.873 GC
1 LJ
0.667 LW
N
1086 60 M
156 60 L
S
GR
GS
[0.75 0 0 0.75 0 0] CT
0.149 GC
2 setlinecap
1 LJ
0.667 LW
N
156 712 M
1086 712 L
S
GR
GS
[0.75 0 0 0.75 0 0] CT
0.149 GC
2 setlinecap
1 LJ
0.667 LW
N
156 60 M
1086 60 L
S
GR
GS
[0.75 0 0 0.75 0 0] CT
0.149 GC
2 setlinecap
1 LJ
0.667 LW
N
156 712 M
156 702.7 L
S
GR
GS
[0.75 0 0 0.75 0 0] CT
0.149 GC
2 setlinecap
1 LJ
0.667 LW
N
388.5 712 M
388.5 702.7 L
S
GR
GS
[0.75 0 0 0.75 0 0] CT
0.149 GC
2 setlinecap
1 LJ
0.667 LW
N
621 712 M
621 702.7 L
S
GR
GS
[0.75 0 0 0.75 0 0] CT
0.149 GC
2 setlinecap
1 LJ
0.667 LW
N
853.5 712 M
853.5 702.7 L
S
GR
GS
[0.75 0 0 0.75 0 0] CT
0.149 GC
2 setlinecap
1 LJ
0.667 LW
N
1086 712 M
1086 702.7 L
S
GR
GS
[0.75 0 0 0.75 0 0] CT
0.149 GC
2 setlinecap
1 LJ
0.667 LW
N
156 60 M
156 69.3 L
S
GR
GS
[0.75 0 0 0.75 0 0] CT
0.149 GC
2 setlinecap
1 LJ
0.667 LW
N
388.5 60 M
388.5 69.3 L
S
GR
GS
[0.75 0 0 0.75 0 0] CT
0.149 GC
2 setlinecap
1 LJ
0.667 LW
N
621 60 M
621 69.3 L
S
GR
GS
[0.75 0 0 0.75 0 0] CT
0.149 GC
2 setlinecap
1 LJ
0.667 LW
N
853.5 60 M
853.5 69.3 L
S
GR
GS
[0.75 0 0 0.75 0 0] CT
0.149 GC
2 setlinecap
1 LJ
0.667 LW
N
1086 60 M
1086 69.3 L
S
GR
GS
[0.75 0 0 0.75 0 0] CT
0.149 GC
2 setlinecap
1 LJ
0.667 LW
N
156 712 M
156 707.35 L
S
GR
GS
[0.75 0 0 0.75 0 0] CT
0.149 GC
2 setlinecap
1 LJ
0.667 LW
N
225.989 712 M
225.989 707.35 L
S
GR
GS
[0.75 0 0 0.75 0 0] CT
0.149 GC
2 setlinecap
1 LJ
0.667 LW
N
266.931 712 M
266.931 707.35 L
S
GR
GS
[0.75 0 0 0.75 0 0] CT
0.149 GC
2 setlinecap
1 LJ
0.667 LW
N
295.979 712 M
295.979 707.35 L
S
GR
GS
[0.75 0 0 0.75 0 0] CT
0.149 GC
2 setlinecap
1 LJ
0.667 LW
N
318.511 712 M
318.511 707.35 L
S
GR
GS
[0.75 0 0 0.75 0 0] CT
0.149 GC
2 setlinecap
1 LJ
0.667 LW
N
336.92 712 M
336.92 707.35 L
S
GR
GS
[0.75 0 0 0.75 0 0] CT
0.149 GC
2 setlinecap
1 LJ
0.667 LW
N
352.485 712 M
352.485 707.35 L
S
GR
GS
[0.75 0 0 0.75 0 0] CT
0.149 GC
2 setlinecap
1 LJ
0.667 LW
N
365.968 712 M
365.968 707.35 L
S
GR
GS
[0.75 0 0 0.75 0 0] CT
0.149 GC
2 setlinecap
1 LJ
0.667 LW
N
377.861 712 M
377.861 707.35 L
S
GR
GS
[0.75 0 0 0.75 0 0] CT
0.149 GC
2 setlinecap
1 LJ
0.667 LW
N
388.5 712 M
388.5 707.35 L
S
GR
GS
[0.75 0 0 0.75 0 0] CT
0.149 GC
2 setlinecap
1 LJ
0.667 LW
N
458.489 712 M
458.489 707.35 L
S
GR
GS
[0.75 0 0 0.75 0 0] CT
0.149 GC
2 setlinecap
1 LJ
0.667 LW
N
499.431 712 M
499.431 707.35 L
S
GR
GS
[0.75 0 0 0.75 0 0] CT
0.149 GC
2 setlinecap
1 LJ
0.667 LW
N
528.479 712 M
528.479 707.35 L
S
GR
GS
[0.75 0 0 0.75 0 0] CT
0.149 GC
2 setlinecap
1 LJ
0.667 LW
N
551.01 712 M
551.01 707.35 L
S
GR
GS
[0.75 0 0 0.75 0 0] CT
0.149 GC
2 setlinecap
1 LJ
0.667 LW
N
569.42 712 M
569.42 707.35 L
S
GR
GS
[0.75 0 0 0.75 0 0] CT
0.149 GC
2 setlinecap
1 LJ
0.667 LW
N
584.985 712 M
584.985 707.35 L
S
GR
GS
[0.75 0 0 0.75 0 0] CT
0.149 GC
2 setlinecap
1 LJ
0.667 LW
N
598.468 712 M
598.468 707.35 L
S
GR
GS
[0.75 0 0 0.75 0 0] CT
0.149 GC
2 setlinecap
1 LJ
0.667 LW
N
610.361 712 M
610.361 707.35 L
S
GR
GS
[0.75 0 0 0.75 0 0] CT
0.149 GC
2 setlinecap
1 LJ
0.667 LW
N
621 712 M
621 707.35 L
S
GR
GS
[0.75 0 0 0.75 0 0] CT
0.149 GC
2 setlinecap
1 LJ
0.667 LW
N
690.989 712 M
690.989 707.35 L
S
GR
GS
[0.75 0 0 0.75 0 0] CT
0.149 GC
2 setlinecap
1 LJ
0.667 LW
N
731.931 712 M
731.931 707.35 L
S
GR
GS
[0.75 0 0 0.75 0 0] CT
0.149 GC
2 setlinecap
1 LJ
0.667 LW
N
760.979 712 M
760.979 707.35 L
S
GR
GS
[0.75 0 0 0.75 0 0] CT
0.149 GC
2 setlinecap
1 LJ
0.667 LW
N
783.511 712 M
783.511 707.35 L
S
GR
GS
[0.75 0 0 0.75 0 0] CT
0.149 GC
2 setlinecap
1 LJ
0.667 LW
N
801.92 712 M
801.92 707.35 L
S
GR
GS
[0.75 0 0 0.75 0 0] CT
0.149 GC
2 setlinecap
1 LJ
0.667 LW
N
817.485 712 M
817.485 707.35 L
S
GR
GS
[0.75 0 0 0.75 0 0] CT
0.149 GC
2 setlinecap
1 LJ
0.667 LW
N
830.968 712 M
830.968 707.35 L
S
GR
GS
[0.75 0 0 0.75 0 0] CT
0.149 GC
2 setlinecap
1 LJ
0.667 LW
N
842.861 712 M
842.861 707.35 L
S
GR
GS
[0.75 0 0 0.75 0 0] CT
0.149 GC
2 setlinecap
1 LJ
0.667 LW
N
853.5 712 M
853.5 707.35 L
S
GR
GS
[0.75 0 0 0.75 0 0] CT
0.149 GC
2 setlinecap
1 LJ
0.667 LW
N
923.489 712 M
923.489 707.35 L
S
GR
GS
[0.75 0 0 0.75 0 0] CT
0.149 GC
2 setlinecap
1 LJ
0.667 LW
N
964.431 712 M
964.431 707.35 L
S
GR
GS
[0.75 0 0 0.75 0 0] CT
0.149 GC
2 setlinecap
1 LJ
0.667 LW
N
993.479 712 M
993.479 707.35 L
S
GR
GS
[0.75 0 0 0.75 0 0] CT
0.149 GC
2 setlinecap
1 LJ
0.667 LW
N
1016.011 712 M
1016.011 707.35 L
S
GR
GS
[0.75 0 0 0.75 0 0] CT
0.149 GC
2 setlinecap
1 LJ
0.667 LW
N
1034.42 712 M
1034.42 707.35 L
S
GR
GS
[0.75 0 0 0.75 0 0] CT
0.149 GC
2 setlinecap
1 LJ
0.667 LW
N
1049.985 712 M
1049.985 707.35 L
S
GR
GS
[0.75 0 0 0.75 0 0] CT
0.149 GC
2 setlinecap
1 LJ
0.667 LW
N
1063.468 712 M
1063.468 707.35 L
S
GR
GS
[0.75 0 0 0.75 0 0] CT
0.149 GC
2 setlinecap
1 LJ
0.667 LW
N
1075.361 712 M
1075.361 707.35 L
S
GR
GS
[0.75 0 0 0.75 0 0] CT
0.149 GC
2 setlinecap
1 LJ
0.667 LW
N
1086 712 M
1086 707.35 L
S
GR
GS
[0.75 0 0 0.75 0 0] CT
0.149 GC
2 setlinecap
1 LJ
0.667 LW
N
156 60 M
156 64.65 L
S
GR
GS
[0.75 0 0 0.75 0 0] CT
0.149 GC
2 setlinecap
1 LJ
0.667 LW
N
225.989 60 M
225.989 64.65 L
S
GR
GS
[0.75 0 0 0.75 0 0] CT
0.149 GC
2 setlinecap
1 LJ
0.667 LW
N
266.931 60 M
266.931 64.65 L
S
GR
GS
[0.75 0 0 0.75 0 0] CT
0.149 GC
2 setlinecap
1 LJ
0.667 LW
N
295.979 60 M
295.979 64.65 L
S
GR
GS
[0.75 0 0 0.75 0 0] CT
0.149 GC
2 setlinecap
1 LJ
0.667 LW
N
318.511 60 M
318.511 64.65 L
S
GR
GS
[0.75 0 0 0.75 0 0] CT
0.149 GC
2 setlinecap
1 LJ
0.667 LW
N
336.92 60 M
336.92 64.65 L
S
GR
GS
[0.75 0 0 0.75 0 0] CT
0.149 GC
2 setlinecap
1 LJ
0.667 LW
N
352.485 60 M
352.485 64.65 L
S
GR
GS
[0.75 0 0 0.75 0 0] CT
0.149 GC
2 setlinecap
1 LJ
0.667 LW
N
365.968 60 M
365.968 64.65 L
S
GR
GS
[0.75 0 0 0.75 0 0] CT
0.149 GC
2 setlinecap
1 LJ
0.667 LW
N
377.861 60 M
377.861 64.65 L
S
GR
GS
[0.75 0 0 0.75 0 0] CT
0.149 GC
2 setlinecap
1 LJ
0.667 LW
N
388.5 60 M
388.5 64.65 L
S
GR
GS
[0.75 0 0 0.75 0 0] CT
0.149 GC
2 setlinecap
1 LJ
0.667 LW
N
458.489 60 M
458.489 64.65 L
S
GR
GS
[0.75 0 0 0.75 0 0] CT
0.149 GC
2 setlinecap
1 LJ
0.667 LW
N
499.431 60 M
499.431 64.65 L
S
GR
GS
[0.75 0 0 0.75 0 0] CT
0.149 GC
2 setlinecap
1 LJ
0.667 LW
N
528.479 60 M
528.479 64.65 L
S
GR
GS
[0.75 0 0 0.75 0 0] CT
0.149 GC
2 setlinecap
1 LJ
0.667 LW
N
551.01 60 M
551.01 64.65 L
S
GR
GS
[0.75 0 0 0.75 0 0] CT
0.149 GC
2 setlinecap
1 LJ
0.667 LW
N
569.42 60 M
569.42 64.65 L
S
GR
GS
[0.75 0 0 0.75 0 0] CT
0.149 GC
2 setlinecap
1 LJ
0.667 LW
N
584.985 60 M
584.985 64.65 L
S
GR
GS
[0.75 0 0 0.75 0 0] CT
0.149 GC
2 setlinecap
1 LJ
0.667 LW
N
598.468 60 M
598.468 64.65 L
S
GR
GS
[0.75 0 0 0.75 0 0] CT
0.149 GC
2 setlinecap
1 LJ
0.667 LW
N
610.361 60 M
610.361 64.65 L
S
GR
GS
[0.75 0 0 0.75 0 0] CT
0.149 GC
2 setlinecap
1 LJ
0.667 LW
N
621 60 M
621 64.65 L
S
GR
GS
[0.75 0 0 0.75 0 0] CT
0.149 GC
2 setlinecap
1 LJ
0.667 LW
N
690.989 60 M
690.989 64.65 L
S
GR
GS
[0.75 0 0 0.75 0 0] CT
0.149 GC
2 setlinecap
1 LJ
0.667 LW
N
731.931 60 M
731.931 64.65 L
S
GR
GS
[0.75 0 0 0.75 0 0] CT
0.149 GC
2 setlinecap
1 LJ
0.667 LW
N
760.979 60 M
760.979 64.65 L
S
GR
GS
[0.75 0 0 0.75 0 0] CT
0.149 GC
2 setlinecap
1 LJ
0.667 LW
N
783.511 60 M
783.511 64.65 L
S
GR
GS
[0.75 0 0 0.75 0 0] CT
0.149 GC
2 setlinecap
1 LJ
0.667 LW
N
801.92 60 M
801.92 64.65 L
S
GR
GS
[0.75 0 0 0.75 0 0] CT
0.149 GC
2 setlinecap
1 LJ
0.667 LW
N
817.485 60 M
817.485 64.65 L
S
GR
GS
[0.75 0 0 0.75 0 0] CT
0.149 GC
2 setlinecap
1 LJ
0.667 LW
N
830.968 60 M
830.968 64.65 L
S
GR
GS
[0.75 0 0 0.75 0 0] CT
0.149 GC
2 setlinecap
1 LJ
0.667 LW
N
842.861 60 M
842.861 64.65 L
S
GR
GS
[0.75 0 0 0.75 0 0] CT
0.149 GC
2 setlinecap
1 LJ
0.667 LW
N
853.5 60 M
853.5 64.65 L
S
GR
GS
[0.75 0 0 0.75 0 0] CT
0.149 GC
2 setlinecap
1 LJ
0.667 LW
N
923.489 60 M
923.489 64.65 L
S
GR
GS
[0.75 0 0 0.75 0 0] CT
0.149 GC
2 setlinecap
1 LJ
0.667 LW
N
964.431 60 M
964.431 64.65 L
S
GR
GS
[0.75 0 0 0.75 0 0] CT
0.149 GC
2 setlinecap
1 LJ
0.667 LW
N
993.479 60 M
993.479 64.65 L
S
GR
GS
[0.75 0 0 0.75 0 0] CT
0.149 GC
2 setlinecap
1 LJ
0.667 LW
N
1016.011 60 M
1016.011 64.65 L
S
GR
GS
[0.75 0 0 0.75 0 0] CT
0.149 GC
2 setlinecap
1 LJ
0.667 LW
N
1034.42 60 M
1034.42 64.65 L
S
GR
GS
[0.75 0 0 0.75 0 0] CT
0.149 GC
2 setlinecap
1 LJ
0.667 LW
N
1049.985 60 M
1049.985 64.65 L
S
GR
GS
[0.75 0 0 0.75 0 0] CT
0.149 GC
2 setlinecap
1 LJ
0.667 LW
N
1063.468 60 M
1063.468 64.65 L
S
GR
GS
[0.75 0 0 0.75 0 0] CT
0.149 GC
2 setlinecap
1 LJ
0.667 LW
N
1075.361 60 M
1075.361 64.65 L
S
GR
GS
[0.75 0 0 0.75 0 0] CT
0.149 GC
2 setlinecap
1 LJ
0.667 LW
N
1086 60 M
1086 64.65 L
S
GR
GS
[0.75 0 0 0.75 108 550.5] CT
0.149 GC
/Helvetica 13.333 F
GS
[1 0 0 1 0 0] CT
0 0 moveto 
1 -1 scale
(10) t 
GR
GR
GS
[0.75 0 0 0.75 120.75 546] CT
0.149 GC
/Helvetica 10.667 F
GS
[1 0 0 1 0 0] CT
0 0 moveto 
1 -1 scale
(1) t 
GR
GR
GS
[0.75 0 0 0.75 282.75 550.5] CT
0.149 GC
/Helvetica 13.333 F
GS
[1 0 0 1 0 0] CT
0 0 moveto 
1 -1 scale
(10) t 
GR
GR
GS
[0.75 0 0 0.75 295.5 546] CT
0.149 GC
/Helvetica 10.667 F
GS
[1 0 0 1 0 0] CT
0 0 moveto 
1 -1 scale
(2) t 
GR
GR
GS
[0.75 0 0 0.75 456.75 550.5] CT
0.149 GC
/Helvetica 13.333 F
GS
[1 0 0 1 0 0] CT
0 0 moveto 
1 -1 scale
(10) t 
GR
GR
GS
[0.75 0 0 0.75 469.5 546] CT
0.149 GC
/Helvetica 10.667 F
GS
[1 0 0 1 0 0] CT
0 0 moveto 
1 -1 scale
(3) t 
GR
GR
GS
[0.75 0 0 0.75 631.5 550.5] CT
0.149 GC
/Helvetica 13.333 F
GS
[1 0 0 1 0 0] CT
0 0 moveto 
1 -1 scale
(10) t 
GR
GR
GS
[0.75 0 0 0.75 644.25 546] CT
0.149 GC
/Helvetica 10.667 F
GS
[1 0 0 1 0 0] CT
0 0 moveto 
1 -1 scale
(4) t 
GR
GR
GS
[0.75 0 0 0.75 805.5 550.5] CT
0.149 GC
/Helvetica 13.333 F
GS
[1 0 0 1 0 0] CT
0 0 moveto 
1 -1 scale
(10) t 
GR
GR
GS
[0.75 0 0 0.75 818.25 546] CT
0.149 GC
/Helvetica 10.667 F
GS
[1 0 0 1 0 0] CT
0 0 moveto 
1 -1 scale
(5) t 
GR
GR
GS
[0.75 0 0 0.75 465.75032 554.00002] CT
0.149 GC
N
-78.927 13.44 M
-78.927 12.877 L
-77.27 12.877 -77.27 11.924 QT
-77.27 3.581 L
-77.27 3.065 -78.927 3.065 QT
-78.927 2.502 L
-75.895 2.502 L
-75.708 2.502 -75.645 2.69 QT
-72.161 11.737 L
-68.677 2.69 L
-68.614 2.502 -68.411 2.502 QT
-65.395 2.502 L
-65.395 3.065 L
-67.036 3.065 -67.036 3.581 QT
-67.036 12.362 L
-67.036 12.877 -65.395 12.877 QT
-65.395 13.44 L
-70.052 13.44 L
-70.052 12.877 L
-68.395 12.877 -68.395 12.362 QT
-68.395 3.049 L
-72.333 13.252 L
-72.411 13.44 -72.598 13.44 QT
-72.802 13.44 -72.88 13.252 QT
-76.77 3.174 L
-76.77 11.924 L
-76.77 12.877 -75.114 12.877 QT
-75.114 13.44 L
-78.927 13.44 L
cp
f
GR
GS
[0.75 0 0 0.75 465.75032 554.00002] CT
0.149 GC
N
-60.838 13.627 M
-61.807 13.627 -62.627 13.112 QT
-63.447 12.596 -63.908 11.737 QT
-64.369 10.877 -64.369 9.924 QT
-64.369 8.987 -63.947 8.143 QT
-63.526 7.299 -62.76 6.784 QT
-61.994 6.268 -61.057 6.268 QT
-60.322 6.268 -59.783 6.51 QT
-59.244 6.752 -58.893 7.19 QT
-58.541 7.627 -58.361 8.221 QT
-58.182 8.815 -58.182 9.534 QT
-58.182 9.737 -58.338 9.737 QT
-62.979 9.737 L
-62.979 9.909 L
-62.979 11.237 -62.44 12.19 QT
-61.901 13.143 -60.697 13.143 QT
-60.197 13.143 -59.783 12.924 QT
-59.369 12.706 -59.057 12.315 QT
-58.744 11.924 -58.635 11.487 QT
-58.619 11.424 -58.58 11.385 QT
-58.541 11.346 -58.479 11.346 QT
-58.338 11.346 L
-58.182 11.346 -58.182 11.549 QT
-58.401 12.456 -59.151 13.042 QT
-59.901 13.627 -60.838 13.627 QT
cp
-62.963 9.346 M
-59.307 9.346 L
-59.307 8.737 -59.479 8.12 QT
-59.651 7.502 -60.041 7.096 QT
-60.432 6.69 -61.057 6.69 QT
-61.963 6.69 -62.463 7.534 QT
-62.963 8.377 -62.963 9.346 QT
cp
f
GR
GS
[0.75 0 0 0.75 465.75032 554.00002] CT
0.149 GC
N
-57.227 13.44 M
-57.227 12.877 L
-56.68 12.877 -56.328 12.792 QT
-55.977 12.706 -55.977 12.362 QT
-55.977 8.002 L
-55.977 7.565 -56.11 7.377 QT
-56.243 7.19 -56.485 7.143 QT
-56.727 7.096 -57.227 7.096 QT
-57.227 6.534 L
-54.914 6.362 L
-54.914 7.924 L
-54.586 7.237 -53.961 6.799 QT
-53.336 6.362 -52.586 6.362 QT
-50.743 6.362 -50.43 7.862 QT
-50.102 7.19 -49.485 6.776 QT
-48.868 6.362 -48.133 6.362 QT
-47.414 6.362 -46.914 6.596 QT
-46.414 6.831 -46.164 7.315 QT
-45.914 7.799 -45.914 8.518 QT
-45.914 12.362 L
-45.914 12.706 -45.563 12.792 QT
-45.211 12.877 -44.664 12.877 QT
-44.664 13.44 L
-48.336 13.44 L
-48.336 12.877 L
-47.789 12.877 -47.438 12.792 QT
-47.086 12.706 -47.086 12.362 QT
-47.086 8.565 L
-47.086 7.768 -47.313 7.276 QT
-47.539 6.784 -48.243 6.784 QT
-49.164 6.784 -49.766 7.526 QT
-50.368 8.268 -50.368 9.206 QT
-50.368 12.362 L
-50.368 12.706 -50.016 12.792 QT
-49.664 12.877 -49.118 12.877 QT
-49.118 13.44 L
-52.774 13.44 L
-52.774 12.877 L
-52.227 12.877 -51.875 12.792 QT
-51.524 12.706 -51.524 12.362 QT
-51.524 8.565 L
-51.524 7.784 -51.75 7.284 QT
-51.977 6.784 -52.68 6.784 QT
-53.618 6.784 -54.211 7.526 QT
-54.805 8.268 -54.805 9.206 QT
-54.805 12.362 L
-54.805 12.706 -54.453 12.792 QT
-54.102 12.877 -53.571 12.877 QT
-53.571 13.44 L
-57.227 13.44 L
cp
f
GR
GS
[0.75 0 0 0.75 465.75032 554.00002] CT
0.149 GC
N
-40.378 13.627 M
-41.331 13.627 -42.151 13.135 QT
-42.972 12.643 -43.448 11.823 QT
-43.925 11.002 -43.925 10.034 QT
-43.925 9.299 -43.667 8.62 QT
-43.409 7.94 -42.917 7.401 QT
-42.425 6.862 -41.776 6.565 QT
-41.128 6.268 -40.378 6.268 QT
-39.394 6.268 -38.581 6.784 QT
-37.769 7.299 -37.3 8.174 QT
-36.831 9.049 -36.831 10.034 QT
-36.831 10.987 -37.308 11.815 QT
-37.784 12.643 -38.604 13.135 QT
-39.425 13.627 -40.378 13.627 QT
cp
-40.378 13.143 M
-39.097 13.143 -38.667 12.213 QT
-38.237 11.284 -38.237 9.846 QT
-38.237 9.049 -38.323 8.518 QT
-38.409 7.987 -38.69 7.565 QT
-38.878 7.299 -39.151 7.096 QT
-39.425 6.893 -39.737 6.792 QT
-40.05 6.69 -40.378 6.69 QT
-40.878 6.69 -41.323 6.917 QT
-41.769 7.143 -42.065 7.565 QT
-42.362 8.018 -42.448 8.557 QT
-42.534 9.096 -42.534 9.846 QT
-42.534 10.752 -42.378 11.463 QT
-42.222 12.174 -41.745 12.659 QT
-41.269 13.143 -40.378 13.143 QT
cp
f
GR
GS
[0.75 0 0 0.75 465.75032 554.00002] CT
0.149 GC
N
-35.956 13.44 M
-35.956 12.877 L
-35.409 12.877 -35.058 12.792 QT
-34.706 12.706 -34.706 12.362 QT
-34.706 8.002 L
-34.706 7.565 -34.839 7.377 QT
-34.972 7.19 -35.214 7.143 QT
-35.456 7.096 -35.956 7.096 QT
-35.956 6.534 L
-33.675 6.362 L
-33.675 7.924 L
-33.409 7.237 -32.933 6.799 QT
-32.456 6.362 -31.784 6.362 QT
-31.3 6.362 -30.925 6.643 QT
-30.55 6.924 -30.55 7.393 QT
-30.55 7.674 -30.761 7.893 QT
-30.972 8.112 -31.269 8.112 QT
-31.565 8.112 -31.776 7.901 QT
-31.987 7.69 -31.987 7.393 QT
-31.987 6.956 -31.69 6.784 QT
-31.784 6.784 L
-32.425 6.784 -32.839 7.252 QT
-33.253 7.721 -33.425 8.417 QT
-33.597 9.112 -33.597 9.737 QT
-33.597 12.362 L
-33.597 12.877 -32.034 12.877 QT
-32.034 13.44 L
-35.956 13.44 L
cp
f
GR
GS
[0.75 0 0 0.75 465.75032 554.00002] CT
0.149 GC
N
-29.002 16.065 M
-28.705 16.315 -28.33 16.315 QT
-27.33 16.315 -26.689 14.784 QT
-26.142 13.44 L
-28.533 7.565 L
-28.689 7.268 -28.994 7.182 QT
-29.299 7.096 -29.799 7.096 QT
-29.799 6.534 L
-26.439 6.534 L
-26.439 7.096 L
-27.33 7.096 -27.33 7.487 QT
-27.33 7.549 -27.314 7.581 QT
-25.533 11.956 L
-23.924 8.018 L
-23.877 7.893 -23.877 7.737 QT
-23.877 7.549 -23.986 7.401 QT
-24.096 7.252 -24.26 7.174 QT
-24.424 7.096 -24.642 7.096 QT
-24.642 6.534 L
-21.986 6.534 L
-21.986 7.096 L
-22.471 7.096 -22.846 7.323 QT
-23.221 7.549 -23.424 8.002 QT
-26.189 14.784 L
-26.408 15.299 -26.697 15.737 QT
-26.986 16.174 -27.408 16.448 QT
-27.83 16.721 -28.33 16.721 QT
-28.924 16.721 -29.361 16.338 QT
-29.799 15.956 -29.799 15.377 QT
-29.799 15.081 -29.596 14.877 QT
-29.392 14.674 -29.096 14.674 QT
-28.892 14.674 -28.736 14.768 QT
-28.58 14.862 -28.486 15.018 QT
-28.392 15.174 -28.392 15.377 QT
-28.392 15.643 -28.564 15.846 QT
-28.736 16.049 -29.002 16.065 QT
cp
f
GR
GS
[0.75 0 0 0.75 465.75032 554.00002] CT
0.149 GC
N
-15.818 13.44 M
-15.818 12.877 L
-15.271 12.877 -14.919 12.792 QT
-14.568 12.706 -14.568 12.362 QT
-14.568 7.096 L
-15.802 7.096 L
-15.802 6.534 L
-14.568 6.534 L
-14.568 4.627 L
-14.568 4.112 -14.357 3.659 QT
-14.146 3.206 -13.779 2.87 QT
-13.412 2.534 -12.943 2.346 QT
-12.474 2.159 -11.958 2.159 QT
-11.427 2.159 -10.99 2.479 QT
-10.552 2.799 -10.552 3.331 QT
-10.552 3.627 -10.763 3.838 QT
-10.974 4.049 -11.271 4.049 QT
-11.583 4.049 -11.794 3.838 QT
-12.005 3.627 -12.005 3.331 QT
-12.005 2.831 -11.583 2.659 QT
-11.833 2.565 -12.037 2.565 QT
-12.505 2.565 -12.841 2.901 QT
-13.177 3.237 -13.341 3.713 QT
-13.505 4.19 -13.505 4.659 QT
-13.505 6.534 L
-11.662 6.534 L
-11.662 7.096 L
-13.443 7.096 L
-13.443 12.362 L
-13.443 12.69 -12.974 12.784 QT
-12.505 12.877 -11.896 12.877 QT
-11.896 13.44 L
-15.818 13.44 L
cp
f
GR
GS
[0.75 0 0 0.75 465.75032 554.00002] CT
0.149 GC
N
-7.444 13.627 M
-8.398 13.627 -9.218 13.135 QT
-10.038 12.643 -10.515 11.823 QT
-10.991 11.002 -10.991 10.034 QT
-10.991 9.299 -10.734 8.62 QT
-10.476 7.94 -9.984 7.401 QT
-9.491 6.862 -8.843 6.565 QT
-8.194 6.268 -7.444 6.268 QT
-6.46 6.268 -5.648 6.784 QT
-4.835 7.299 -4.366 8.174 QT
-3.898 9.049 -3.898 10.034 QT
-3.898 10.987 -4.374 11.815 QT
-4.851 12.643 -5.671 13.135 QT
-6.491 13.627 -7.444 13.627 QT
cp
-7.444 13.143 M
-6.163 13.143 -5.734 12.213 QT
-5.304 11.284 -5.304 9.846 QT
-5.304 9.049 -5.39 8.518 QT
-5.476 7.987 -5.757 7.565 QT
-5.944 7.299 -6.218 7.096 QT
-6.491 6.893 -6.804 6.792 QT
-7.116 6.69 -7.444 6.69 QT
-7.944 6.69 -8.39 6.917 QT
-8.835 7.143 -9.132 7.565 QT
-9.429 8.018 -9.515 8.557 QT
-9.601 9.096 -9.601 9.846 QT
-9.601 10.752 -9.444 11.463 QT
-9.288 12.174 -8.812 12.659 QT
-8.335 13.143 -7.444 13.143 QT
cp
f
GR
GS
[0.75 0 0 0.75 465.75032 554.00002] CT
0.149 GC
N
1 13.627 M
0.047 13.627 -0.773 13.135 QT
-1.594 12.643 -2.07 11.823 QT
-2.547 11.002 -2.547 10.034 QT
-2.547 9.299 -2.289 8.62 QT
-2.031 7.94 -1.539 7.401 QT
-1.047 6.862 -0.398 6.565 QT
0.25 6.268 1 6.268 QT
1.984 6.268 2.797 6.784 QT
3.609 7.299 4.078 8.174 QT
4.547 9.049 4.547 10.034 QT
4.547 10.987 4.07 11.815 QT
3.594 12.643 2.773 13.135 QT
1.953 13.627 1 13.627 QT
cp
1 13.143 M
2.281 13.143 2.711 12.213 QT
3.141 11.284 3.141 9.846 QT
3.141 9.049 3.055 8.518 QT
2.969 7.987 2.687 7.565 QT
2.5 7.299 2.227 7.096 QT
1.953 6.893 1.641 6.792 QT
1.328 6.69 1 6.69 QT
0.5 6.69 0.055 6.917 QT
-0.391 7.143 -0.688 7.565 QT
-0.984 8.018 -1.07 8.557 QT
-1.156 9.096 -1.156 9.846 QT
-1.156 10.752 -1 11.463 QT
-0.844 12.174 -0.367 12.659 QT
0.109 13.143 1 13.143 QT
cp
f
GR
GS
[0.75 0 0 0.75 465.75032 554.00002] CT
0.149 GC
N
6.641 11.518 M
6.641 7.096 L
5.313 7.096 L
5.313 6.69 L
6.359 6.69 6.852 5.713 QT
7.344 4.737 7.344 3.596 QT
7.797 3.596 L
7.797 6.534 L
10.063 6.534 L
10.063 7.096 L
7.797 7.096 L
7.797 11.487 L
7.797 12.143 8.023 12.643 QT
8.25 13.143 8.828 13.143 QT
9.375 13.143 9.617 12.62 QT
9.859 12.096 9.859 11.487 QT
9.859 10.534 L
10.313 10.534 L
10.313 11.518 L
10.313 12.018 10.133 12.502 QT
9.953 12.987 9.594 13.307 QT
9.234 13.627 8.719 13.627 QT
7.75 13.627 7.195 13.049 QT
6.641 12.471 6.641 11.518 QT
cp
f
GR
GS
[0.75 0 0 0.75 465.75032 554.00002] CT
0.149 GC
N
11.644 16.549 M
11.644 15.987 L
12.191 15.987 12.543 15.893 QT
12.894 15.799 12.894 15.471 QT
12.894 7.752 L
12.894 7.315 12.582 7.206 QT
12.269 7.096 11.644 7.096 QT
11.644 6.534 L
14.004 6.362 L
14.004 7.362 L
14.441 6.877 15.027 6.62 QT
15.613 6.362 16.269 6.362 QT
17.207 6.362 17.964 6.877 QT
18.722 7.393 19.152 8.221 QT
19.582 9.049 19.582 9.987 QT
19.582 10.956 19.105 11.792 QT
18.629 12.627 17.816 13.127 QT
17.004 13.627 16.019 13.627 QT
14.863 13.627 14.05 12.674 QT
14.05 15.471 L
14.05 15.799 14.41 15.893 QT
14.769 15.987 15.3 15.987 QT
15.3 16.549 L
11.644 16.549 L
cp
14.05 11.877 M
14.332 12.456 14.832 12.823 QT
15.332 13.19 15.925 13.19 QT
16.488 13.19 16.91 12.893 QT
17.332 12.596 17.621 12.096 QT
17.91 11.596 18.05 11.049 QT
18.191 10.502 18.191 9.987 QT
18.191 9.346 17.957 8.596 QT
17.722 7.846 17.254 7.338 QT
16.785 6.831 16.113 6.831 QT
15.457 6.831 14.918 7.159 QT
14.379 7.487 14.05 8.065 QT
14.05 11.877 L
cp
f
GR
GS
[0.75 0 0 0.75 465.75032 554.00002] CT
0.149 GC
N
20.533 13.44 M
20.533 12.877 L
21.08 12.877 21.431 12.792 QT
21.783 12.706 21.783 12.362 QT
21.783 8.002 L
21.783 7.565 21.65 7.377 QT
21.517 7.19 21.275 7.143 QT
21.033 7.096 20.533 7.096 QT
20.533 6.534 L
22.814 6.362 L
22.814 7.924 L
23.08 7.237 23.556 6.799 QT
24.033 6.362 24.705 6.362 QT
25.189 6.362 25.564 6.643 QT
25.939 6.924 25.939 7.393 QT
25.939 7.674 25.728 7.893 QT
25.517 8.112 25.221 8.112 QT
24.924 8.112 24.713 7.901 QT
24.502 7.69 24.502 7.393 QT
24.502 6.956 24.799 6.784 QT
24.705 6.784 L
24.064 6.784 23.65 7.252 QT
23.236 7.721 23.064 8.417 QT
22.892 9.112 22.892 9.737 QT
22.892 12.362 L
22.892 12.877 24.455 12.877 QT
24.455 13.44 L
20.533 13.44 L
cp
f
GR
GS
[0.75 0 0 0.75 465.75032 554.00002] CT
0.149 GC
N
26.878 13.44 M
26.878 12.877 L
27.425 12.877 27.776 12.792 QT
28.128 12.706 28.128 12.362 QT
28.128 8.002 L
28.128 7.377 27.886 7.237 QT
27.643 7.096 26.94 7.096 QT
26.94 6.534 L
29.253 6.362 L
29.253 12.362 L
29.253 12.706 29.558 12.792 QT
29.862 12.877 30.362 12.877 QT
30.362 13.44 L
26.878 13.44 L
cp
27.55 3.612 M
27.55 3.268 27.815 3.002 QT
28.081 2.737 28.425 2.737 QT
28.659 2.737 28.87 2.854 QT
29.081 2.971 29.198 3.182 QT
29.315 3.393 29.315 3.612 QT
29.315 3.956 29.05 4.221 QT
28.784 4.487 28.425 4.487 QT
28.081 4.487 27.815 4.221 QT
27.55 3.956 27.55 3.612 QT
cp
f
GR
GS
[0.75 0 0 0.75 465.75032 554.00002] CT
0.149 GC
N
31.307 13.44 M
31.307 12.877 L
31.854 12.877 32.205 12.792 QT
32.557 12.706 32.557 12.362 QT
32.557 8.002 L
32.557 7.565 32.424 7.377 QT
32.291 7.19 32.049 7.143 QT
31.807 7.096 31.307 7.096 QT
31.307 6.534 L
33.619 6.362 L
33.619 7.924 L
33.947 7.237 34.572 6.799 QT
35.197 6.362 35.947 6.362 QT
37.057 6.362 37.611 6.893 QT
38.166 7.424 38.166 8.518 QT
38.166 12.362 L
38.166 12.706 38.518 12.792 QT
38.869 12.877 39.416 12.877 QT
39.416 13.44 L
35.76 13.44 L
35.76 12.877 L
36.307 12.877 36.658 12.792 QT
37.01 12.706 37.01 12.362 QT
37.01 8.565 L
37.01 7.784 36.783 7.284 QT
36.557 6.784 35.854 6.784 QT
34.916 6.784 34.322 7.526 QT
33.729 8.268 33.729 9.206 QT
33.729 12.362 L
33.729 12.706 34.08 12.792 QT
34.432 12.877 34.963 12.877 QT
34.963 13.44 L
31.307 13.44 L
cp
f
GR
GS
[0.75 0 0 0.75 465.75032 554.00002] CT
0.149 GC
N
40.907 11.518 M
40.907 7.096 L
39.579 7.096 L
39.579 6.69 L
40.626 6.69 41.118 5.713 QT
41.611 4.737 41.611 3.596 QT
42.064 3.596 L
42.064 6.534 L
44.329 6.534 L
44.329 7.096 L
42.064 7.096 L
42.064 11.487 L
42.064 12.143 42.29 12.643 QT
42.517 13.143 43.095 13.143 QT
43.642 13.143 43.884 12.62 QT
44.126 12.096 44.126 11.487 QT
44.126 10.534 L
44.579 10.534 L
44.579 11.518 L
44.579 12.018 44.4 12.502 QT
44.22 12.987 43.861 13.307 QT
43.501 13.627 42.986 13.627 QT
42.017 13.627 41.462 13.049 QT
40.907 12.471 40.907 11.518 QT
cp
f
GR
GS
[0.75 0 0 0.75 465.75032 554.00002] CT
0.149 GC
N
52.713 17.44 M
52.713 1.44 L
54.9 1.44 L
54.9 2.081 L
53.354 2.081 L
53.354 16.799 L
54.9 16.799 L
54.9 17.44 L
52.713 17.44 L
cp
f
GR
GS
[0.75 0 0 0.75 465.75032 554.00002] CT
0.149 GC
N
55.689 13.44 M
55.689 12.877 L
56.236 12.877 56.587 12.792 QT
56.939 12.706 56.939 12.362 QT
56.939 3.971 L
56.939 3.534 56.806 3.346 QT
56.673 3.159 56.431 3.112 QT
56.189 3.065 55.689 3.065 QT
55.689 2.502 L
58.048 2.331 L
58.048 9.924 L
60.204 8.049 L
60.517 7.737 60.517 7.487 QT
60.517 7.299 60.384 7.198 QT
60.251 7.096 60.064 7.096 QT
60.064 6.534 L
63.079 6.534 L
63.079 7.096 L
61.986 7.096 60.907 8.049 QT
59.767 9.034 L
61.798 11.924 L
62.22 12.534 62.509 12.706 QT
62.798 12.877 63.454 12.877 QT
63.454 13.44 L
60.267 13.44 L
60.267 12.877 L
60.814 12.877 60.814 12.534 QT
60.814 12.299 60.517 11.924 QT
58.986 9.737 L
58.001 10.581 L
58.001 12.362 L
58.001 12.706 58.361 12.792 QT
58.72 12.877 59.251 12.877 QT
59.251 13.44 L
55.689 13.44 L
cp
f
GR
GS
[0.75 0 0 0.75 465.75032 554.00002] CT
0.149 GC
N
64.258 13.44 M
64.258 12.877 L
65.914 12.877 65.914 12.362 QT
65.914 3.581 L
65.914 3.065 64.258 3.065 QT
64.258 2.502 L
70.149 2.502 L
70.961 2.502 71.789 2.823 QT
72.618 3.143 73.157 3.76 QT
73.696 4.377 73.696 5.221 QT
73.696 6.206 72.899 6.862 QT
72.102 7.518 71.024 7.721 QT
71.727 7.721 72.461 8.104 QT
73.196 8.487 73.664 9.127 QT
74.133 9.768 74.133 10.487 QT
74.133 11.362 73.61 12.034 QT
73.086 12.706 72.258 13.073 QT
71.43 13.44 70.602 13.44 QT
64.258 13.44 L
cp
67.305 12.362 M
67.305 12.706 67.5 12.792 QT
67.696 12.877 68.118 12.877 QT
70.149 12.877 L
70.774 12.877 71.305 12.549 QT
71.836 12.221 72.149 11.667 QT
72.461 11.112 72.461 10.487 QT
72.461 9.877 72.203 9.299 QT
71.946 8.721 71.469 8.346 QT
70.993 7.971 70.368 7.971 QT
67.305 7.971 L
67.305 12.362 L
cp
67.305 7.549 M
69.696 7.549 L
70.18 7.549 70.61 7.37 QT
71.039 7.19 71.375 6.862 QT
71.711 6.534 71.899 6.112 QT
72.086 5.69 72.086 5.221 QT
72.086 4.815 71.946 4.432 QT
71.805 4.049 71.539 3.737 QT
71.274 3.424 70.914 3.245 QT
70.555 3.065 70.149 3.065 QT
68.118 3.065 L
67.821 3.065 67.664 3.088 QT
67.508 3.112 67.407 3.229 QT
67.305 3.346 67.305 3.581 QT
67.305 7.549 L
cp
f
GR
GS
[0.75 0 0 0.75 465.75032 554.00002] CT
0.149 GC
N
75.404 17.44 M
75.404 16.799 L
76.951 16.799 L
76.951 2.081 L
75.404 2.081 L
75.404 1.44 L
77.592 1.44 L
77.592 17.44 L
75.404 17.44 L
cp
f
GR
GS
[0.75 0 0 0.75 0 0] CT
0.149 GC
2 setlinecap
1 LJ
0.667 LW
N
156 712 M
156 60 L
S
GR
GS
[0.75 0 0 0.75 0 0] CT
0.149 GC
2 setlinecap
1 LJ
0.667 LW
N
1086 712 M
1086 60 L
S
GR
GS
[0.75 0 0 0.75 0 0] CT
0.149 GC
2 setlinecap
1 LJ
0.667 LW
N
156 712 M
165.3 712 L
S
GR
GS
[0.75 0 0 0.75 0 0] CT
0.149 GC
2 setlinecap
1 LJ
0.667 LW
N
156 630.5 M
165.3 630.5 L
S
GR
GS
[0.75 0 0 0.75 0 0] CT
0.149 GC
2 setlinecap
1 LJ
0.667 LW
N
156 549 M
165.3 549 L
S
GR
GS
[0.75 0 0 0.75 0 0] CT
0.149 GC
2 setlinecap
1 LJ
0.667 LW
N
156 467.5 M
165.3 467.5 L
S
GR
GS
[0.75 0 0 0.75 0 0] CT
0.149 GC
2 setlinecap
1 LJ
0.667 LW
N
156 386 M
165.3 386 L
S
GR
GS
[0.75 0 0 0.75 0 0] CT
0.149 GC
2 setlinecap
1 LJ
0.667 LW
N
156 304.5 M
165.3 304.5 L
S
GR
GS
[0.75 0 0 0.75 0 0] CT
0.149 GC
2 setlinecap
1 LJ
0.667 LW
N
156 223 M
165.3 223 L
S
GR
GS
[0.75 0 0 0.75 0 0] CT
0.149 GC
2 setlinecap
1 LJ
0.667 LW
N
156 141.5 M
165.3 141.5 L
S
GR
GS
[0.75 0 0 0.75 0 0] CT
0.149 GC
2 setlinecap
1 LJ
0.667 LW
N
156 60 M
165.3 60 L
S
GR
GS
[0.75 0 0 0.75 0 0] CT
0.149 GC
2 setlinecap
1 LJ
0.667 LW
N
1086 712 M
1076.7 712 L
S
GR
GS
[0.75 0 0 0.75 0 0] CT
0.149 GC
2 setlinecap
1 LJ
0.667 LW
N
1086 630.5 M
1076.7 630.5 L
S
GR
GS
[0.75 0 0 0.75 0 0] CT
0.149 GC
2 setlinecap
1 LJ
0.667 LW
N
1086 549 M
1076.7 549 L
S
GR
GS
[0.75 0 0 0.75 0 0] CT
0.149 GC
2 setlinecap
1 LJ
0.667 LW
N
1086 467.5 M
1076.7 467.5 L
S
GR
GS
[0.75 0 0 0.75 0 0] CT
0.149 GC
2 setlinecap
1 LJ
0.667 LW
N
1086 386 M
1076.7 386 L
S
GR
GS
[0.75 0 0 0.75 0 0] CT
0.149 GC
2 setlinecap
1 LJ
0.667 LW
N
1086 304.5 M
1076.7 304.5 L
S
GR
GS
[0.75 0 0 0.75 0 0] CT
0.149 GC
2 setlinecap
1 LJ
0.667 LW
N
1086 223 M
1076.7 223 L
S
GR
GS
[0.75 0 0 0.75 0 0] CT
0.149 GC
2 setlinecap
1 LJ
0.667 LW
N
1086 141.5 M
1076.7 141.5 L
S
GR
GS
[0.75 0 0 0.75 0 0] CT
0.149 GC
2 setlinecap
1 LJ
0.667 LW
N
1086 60 M
1076.7 60 L
S
GR
GS
[0.75 0 0 0.75 113 534] CT
0.149 GC
/Helvetica 13.333 F
GS
[1 0 0 1 0 0] CT
-26 5 moveto 
1 -1 scale
(220) t 
GR
GR
GS
[0.75 0 0 0.75 113 472.875] CT
0.149 GC
/Helvetica 13.333 F
GS
[1 0 0 1 0 0] CT
-26 5 moveto 
1 -1 scale
(240) t 
GR
GR
GS
[0.75 0 0 0.75 113 411.75] CT
0.149 GC
/Helvetica 13.333 F
GS
[1 0 0 1 0 0] CT
-26 5 moveto 
1 -1 scale
(260) t 
GR
GR
GS
[0.75 0 0 0.75 113 350.625] CT
0.149 GC
/Helvetica 13.333 F
GS
[1 0 0 1 0 0] CT
-26 5 moveto 
1 -1 scale
(280) t 
GR
GR
GS
[0.75 0 0 0.75 113 289.5] CT
0.149 GC
/Helvetica 13.333 F
GS
[1 0 0 1 0 0] CT
-26 5 moveto 
1 -1 scale
(300) t 
GR
GR
GS
[0.75 0 0 0.75 113 228.375] CT
0.149 GC
/Helvetica 13.333 F
GS
[1 0 0 1 0 0] CT
-26 5 moveto 
1 -1 scale
(320) t 
GR
GR
GS
[0.75 0 0 0.75 113 167.25] CT
0.149 GC
/Helvetica 13.333 F
GS
[1 0 0 1 0 0] CT
-26 5 moveto 
1 -1 scale
(340) t 
GR
GR
GS
[0.75 0 0 0.75 113 106.125] CT
0.149 GC
/Helvetica 13.333 F
GS
[1 0 0 1 0 0] CT
-26 5 moveto 
1 -1 scale
(360) t 
GR
GR
GS
[0.75 0 0 0.75 113 45] CT
0.149 GC
/Helvetica 13.333 F
GS
[1 0 0 1 0 0] CT
-26 5 moveto 
1 -1 scale
(380) t 
GR
GR
GS
[0 -0.75 0.75 0 90.5 289.49977] CT
0.149 GC
N
-86.669 -5.76 M
-86.669 -6.323 L
-85.013 -6.323 -85.013 -6.838 QT
-85.013 -15.619 L
-85.013 -16.135 -86.669 -16.135 QT
-86.669 -16.698 L
-80.966 -16.698 L
-80.091 -16.698 -79.216 -16.338 QT
-78.341 -15.979 -77.778 -15.291 QT
-77.216 -14.604 -77.216 -13.682 QT
-77.216 -12.791 -77.786 -12.119 QT
-78.356 -11.448 -79.224 -11.104 QT
-80.091 -10.76 -80.966 -10.76 QT
-83.528 -10.76 L
-83.528 -6.838 L
-83.528 -6.323 -81.888 -6.323 QT
-81.888 -5.76 L
-86.669 -5.76 L
cp
-83.575 -11.229 M
-81.403 -11.229 L
-80.528 -11.229 -79.981 -11.487 QT
-79.435 -11.744 -79.177 -12.276 QT
-78.919 -12.807 -78.919 -13.682 QT
-78.919 -14.994 -79.497 -15.565 QT
-80.075 -16.135 -81.403 -16.135 QT
-82.763 -16.135 L
-83.06 -16.135 -83.216 -16.112 QT
-83.372 -16.088 -83.474 -15.971 QT
-83.575 -15.854 -83.575 -15.619 QT
-83.575 -11.229 L
cp
f
GR
GS
[0 -0.75 0.75 0 90.5 289.49977] CT
0.149 GC
N
-72.771 -5.573 M
-73.74 -5.573 -74.56 -6.088 QT
-75.381 -6.604 -75.842 -7.463 QT
-76.303 -8.323 -76.303 -9.276 QT
-76.303 -10.213 -75.881 -11.057 QT
-75.459 -11.901 -74.693 -12.416 QT
-73.928 -12.932 -72.99 -12.932 QT
-72.256 -12.932 -71.717 -12.69 QT
-71.178 -12.448 -70.826 -12.01 QT
-70.474 -11.573 -70.295 -10.979 QT
-70.115 -10.385 -70.115 -9.666 QT
-70.115 -9.463 -70.271 -9.463 QT
-74.912 -9.463 L
-74.912 -9.291 L
-74.912 -7.963 -74.373 -7.01 QT
-73.834 -6.057 -72.631 -6.057 QT
-72.131 -6.057 -71.717 -6.276 QT
-71.303 -6.494 -70.99 -6.885 QT
-70.678 -7.276 -70.568 -7.713 QT
-70.553 -7.776 -70.514 -7.815 QT
-70.474 -7.854 -70.412 -7.854 QT
-70.271 -7.854 L
-70.115 -7.854 -70.115 -7.651 QT
-70.334 -6.744 -71.084 -6.158 QT
-71.834 -5.573 -72.771 -5.573 QT
cp
-74.896 -9.854 M
-71.24 -9.854 L
-71.24 -10.463 -71.412 -11.08 QT
-71.584 -11.698 -71.974 -12.104 QT
-72.365 -12.51 -72.99 -12.51 QT
-73.896 -12.51 -74.396 -11.666 QT
-74.896 -10.823 -74.896 -9.854 QT
cp
f
GR
GS
[0 -0.75 0.75 0 90.5 289.49977] CT
0.149 GC
N
-69.223 -5.76 M
-69.223 -6.323 L
-68.676 -6.323 -68.324 -6.408 QT
-67.973 -6.494 -67.973 -6.838 QT
-67.973 -11.198 L
-67.973 -11.635 -68.106 -11.823 QT
-68.238 -12.01 -68.481 -12.057 QT
-68.723 -12.104 -69.223 -12.104 QT
-69.223 -12.666 L
-66.941 -12.838 L
-66.941 -11.276 L
-66.676 -11.963 -66.199 -12.401 QT
-65.723 -12.838 -65.051 -12.838 QT
-64.566 -12.838 -64.191 -12.557 QT
-63.816 -12.276 -63.816 -11.807 QT
-63.816 -11.526 -64.027 -11.307 QT
-64.238 -11.088 -64.535 -11.088 QT
-64.832 -11.088 -65.043 -11.299 QT
-65.254 -11.51 -65.254 -11.807 QT
-65.254 -12.244 -64.957 -12.416 QT
-65.051 -12.416 L
-65.691 -12.416 -66.106 -11.948 QT
-66.52 -11.479 -66.691 -10.783 QT
-66.863 -10.088 -66.863 -9.463 QT
-66.863 -6.838 L
-66.863 -6.323 -65.301 -6.323 QT
-65.301 -5.76 L
-69.223 -5.76 L
cp
f
GR
GS
[0 -0.75 0.75 0 90.5 289.49977] CT
0.149 GC
N
-62.862 -5.76 M
-62.862 -6.323 L
-62.315 -6.323 -61.964 -6.408 QT
-61.612 -6.494 -61.612 -6.838 QT
-61.612 -12.104 L
-62.847 -12.104 L
-62.847 -12.666 L
-61.612 -12.666 L
-61.612 -14.573 L
-61.612 -15.088 -61.401 -15.541 QT
-61.19 -15.994 -60.823 -16.33 QT
-60.456 -16.666 -59.987 -16.854 QT
-59.519 -17.041 -59.003 -17.041 QT
-58.472 -17.041 -58.034 -16.721 QT
-57.597 -16.401 -57.597 -15.869 QT
-57.597 -15.573 -57.808 -15.362 QT
-58.019 -15.151 -58.315 -15.151 QT
-58.628 -15.151 -58.839 -15.362 QT
-59.05 -15.573 -59.05 -15.869 QT
-59.05 -16.369 -58.628 -16.541 QT
-58.878 -16.635 -59.081 -16.635 QT
-59.55 -16.635 -59.886 -16.299 QT
-60.222 -15.963 -60.386 -15.487 QT
-60.55 -15.01 -60.55 -14.541 QT
-60.55 -12.666 L
-58.706 -12.666 L
-58.706 -12.104 L
-60.487 -12.104 L
-60.487 -6.838 L
-60.487 -6.51 -60.019 -6.416 QT
-59.55 -6.323 -58.94 -6.323 QT
-58.94 -5.76 L
-62.862 -5.76 L
cp
f
GR
GS
[0 -0.75 0.75 0 90.5 289.49977] CT
0.149 GC
N
-54.489 -5.573 M
-55.442 -5.573 -56.262 -6.065 QT
-57.083 -6.557 -57.559 -7.377 QT
-58.036 -8.198 -58.036 -9.166 QT
-58.036 -9.901 -57.778 -10.58 QT
-57.52 -11.26 -57.028 -11.799 QT
-56.536 -12.338 -55.887 -12.635 QT
-55.239 -12.932 -54.489 -12.932 QT
-53.505 -12.932 -52.692 -12.416 QT
-51.88 -11.901 -51.411 -11.026 QT
-50.942 -10.151 -50.942 -9.166 QT
-50.942 -8.213 -51.419 -7.385 QT
-51.895 -6.557 -52.716 -6.065 QT
-53.536 -5.573 -54.489 -5.573 QT
cp
-54.489 -6.057 M
-53.208 -6.057 -52.778 -6.987 QT
-52.348 -7.916 -52.348 -9.354 QT
-52.348 -10.151 -52.434 -10.682 QT
-52.52 -11.213 -52.802 -11.635 QT
-52.989 -11.901 -53.262 -12.104 QT
-53.536 -12.307 -53.848 -12.408 QT
-54.161 -12.51 -54.489 -12.51 QT
-54.989 -12.51 -55.434 -12.283 QT
-55.88 -12.057 -56.177 -11.635 QT
-56.473 -11.182 -56.559 -10.643 QT
-56.645 -10.104 -56.645 -9.354 QT
-56.645 -8.448 -56.489 -7.737 QT
-56.333 -7.026 -55.856 -6.541 QT
-55.38 -6.057 -54.489 -6.057 QT
cp
f
GR
GS
[0 -0.75 0.75 0 90.5 289.49977] CT
0.149 GC
N
-50.067 -5.76 M
-50.067 -6.323 L
-49.52 -6.323 -49.169 -6.408 QT
-48.817 -6.494 -48.817 -6.838 QT
-48.817 -11.198 L
-48.817 -11.635 -48.95 -11.823 QT
-49.083 -12.01 -49.325 -12.057 QT
-49.567 -12.104 -50.067 -12.104 QT
-50.067 -12.666 L
-47.786 -12.838 L
-47.786 -11.276 L
-47.52 -11.963 -47.044 -12.401 QT
-46.567 -12.838 -45.895 -12.838 QT
-45.411 -12.838 -45.036 -12.557 QT
-44.661 -12.276 -44.661 -11.807 QT
-44.661 -11.526 -44.872 -11.307 QT
-45.083 -11.088 -45.38 -11.088 QT
-45.676 -11.088 -45.887 -11.299 QT
-46.098 -11.51 -46.098 -11.807 QT
-46.098 -12.244 -45.801 -12.416 QT
-45.895 -12.416 L
-46.536 -12.416 -46.95 -11.948 QT
-47.364 -11.479 -47.536 -10.783 QT
-47.708 -10.088 -47.708 -9.463 QT
-47.708 -6.838 L
-47.708 -6.323 -46.145 -6.323 QT
-46.145 -5.76 L
-50.067 -5.76 L
cp
f
GR
GS
[0 -0.75 0.75 0 90.5 289.49977] CT
0.149 GC
N
-43.738 -5.76 M
-43.738 -6.323 L
-43.191 -6.323 -42.84 -6.408 QT
-42.488 -6.494 -42.488 -6.838 QT
-42.488 -11.198 L
-42.488 -11.635 -42.621 -11.823 QT
-42.754 -12.01 -42.996 -12.057 QT
-43.238 -12.104 -43.738 -12.104 QT
-43.738 -12.666 L
-41.425 -12.838 L
-41.425 -11.276 L
-41.097 -11.963 -40.472 -12.401 QT
-39.847 -12.838 -39.097 -12.838 QT
-37.254 -12.838 -36.941 -11.338 QT
-36.613 -12.01 -35.996 -12.424 QT
-35.379 -12.838 -34.644 -12.838 QT
-33.925 -12.838 -33.425 -12.604 QT
-32.925 -12.369 -32.675 -11.885 QT
-32.425 -11.401 -32.425 -10.682 QT
-32.425 -6.838 L
-32.425 -6.494 -32.074 -6.408 QT
-31.722 -6.323 -31.175 -6.323 QT
-31.175 -5.76 L
-34.847 -5.76 L
-34.847 -6.323 L
-34.3 -6.323 -33.949 -6.408 QT
-33.597 -6.494 -33.597 -6.838 QT
-33.597 -10.635 L
-33.597 -11.432 -33.824 -11.924 QT
-34.05 -12.416 -34.754 -12.416 QT
-35.675 -12.416 -36.277 -11.674 QT
-36.879 -10.932 -36.879 -9.994 QT
-36.879 -6.838 L
-36.879 -6.494 -36.527 -6.408 QT
-36.175 -6.323 -35.629 -6.323 QT
-35.629 -5.76 L
-39.285 -5.76 L
-39.285 -6.323 L
-38.738 -6.323 -38.386 -6.408 QT
-38.035 -6.494 -38.035 -6.838 QT
-38.035 -10.635 L
-38.035 -11.416 -38.261 -11.916 QT
-38.488 -12.416 -39.191 -12.416 QT
-40.129 -12.416 -40.722 -11.674 QT
-41.316 -10.932 -41.316 -9.994 QT
-41.316 -6.838 L
-41.316 -6.494 -40.965 -6.408 QT
-40.613 -6.323 -40.082 -6.323 QT
-40.082 -5.76 L
-43.738 -5.76 L
cp
f
GR
GS
[0 -0.75 0.75 0 90.5 289.49977] CT
0.149 GC
N
-30.248 -7.338 M
-30.248 -8.291 -29.498 -8.885 QT
-28.748 -9.479 -27.694 -9.729 QT
-26.639 -9.979 -25.701 -9.979 QT
-25.701 -10.635 L
-25.701 -11.088 -25.905 -11.526 QT
-26.108 -11.963 -26.491 -12.237 QT
-26.873 -12.51 -27.326 -12.51 QT
-28.389 -12.51 -28.951 -12.041 QT
-28.639 -12.041 -28.444 -11.807 QT
-28.248 -11.573 -28.248 -11.276 QT
-28.248 -10.948 -28.475 -10.721 QT
-28.701 -10.494 -29.014 -10.494 QT
-29.326 -10.494 -29.553 -10.721 QT
-29.78 -10.948 -29.78 -11.276 QT
-29.78 -12.119 -29.014 -12.526 QT
-28.248 -12.932 -27.326 -12.932 QT
-26.686 -12.932 -26.03 -12.658 QT
-25.373 -12.385 -24.951 -11.869 QT
-24.53 -11.354 -24.53 -10.666 QT
-24.53 -7.057 L
-24.53 -6.744 -24.397 -6.487 QT
-24.264 -6.229 -23.983 -6.229 QT
-23.717 -6.229 -23.592 -6.494 QT
-23.467 -6.76 -23.467 -7.057 QT
-23.467 -8.088 L
-22.998 -8.088 L
-22.998 -7.057 L
-22.998 -6.698 -23.186 -6.377 QT
-23.373 -6.057 -23.686 -5.862 QT
-23.998 -5.666 -24.373 -5.666 QT
-24.842 -5.666 -25.178 -6.033 QT
-25.514 -6.401 -25.561 -6.901 QT
-25.858 -6.291 -26.436 -5.932 QT
-27.014 -5.573 -27.67 -5.573 QT
-28.28 -5.573 -28.866 -5.76 QT
-29.451 -5.948 -29.85 -6.33 QT
-30.248 -6.713 -30.248 -7.338 QT
cp
-28.951 -7.338 M
-28.951 -6.776 -28.537 -6.393 QT
-28.123 -6.01 -27.561 -6.01 QT
-27.045 -6.01 -26.623 -6.268 QT
-26.201 -6.526 -25.951 -6.971 QT
-25.701 -7.416 -25.701 -7.901 QT
-25.701 -9.573 L
-26.42 -9.573 -27.186 -9.33 QT
-27.951 -9.088 -28.451 -8.58 QT
-28.951 -8.073 -28.951 -7.338 QT
cp
f
GR
GS
[0 -0.75 0.75 0 90.5 289.49977] CT
0.149 GC
N
-22.405 -5.76 M
-22.405 -6.323 L
-21.858 -6.323 -21.506 -6.408 QT
-21.155 -6.494 -21.155 -6.838 QT
-21.155 -11.198 L
-21.155 -11.635 -21.287 -11.823 QT
-21.42 -12.01 -21.662 -12.057 QT
-21.905 -12.104 -22.405 -12.104 QT
-22.405 -12.666 L
-20.092 -12.838 L
-20.092 -11.276 L
-19.764 -11.963 -19.139 -12.401 QT
-18.514 -12.838 -17.764 -12.838 QT
-16.655 -12.838 -16.1 -12.307 QT
-15.545 -11.776 -15.545 -10.682 QT
-15.545 -6.838 L
-15.545 -6.494 -15.194 -6.408 QT
-14.842 -6.323 -14.295 -6.323 QT
-14.295 -5.76 L
-17.951 -5.76 L
-17.951 -6.323 L
-17.405 -6.323 -17.053 -6.408 QT
-16.701 -6.494 -16.701 -6.838 QT
-16.701 -10.635 L
-16.701 -11.416 -16.928 -11.916 QT
-17.155 -12.416 -17.858 -12.416 QT
-18.795 -12.416 -19.389 -11.674 QT
-19.983 -10.932 -19.983 -9.994 QT
-19.983 -6.838 L
-19.983 -6.494 -19.631 -6.408 QT
-19.28 -6.323 -18.748 -6.323 QT
-18.748 -5.76 L
-22.405 -5.76 L
cp
f
GR
GS
[0 -0.75 0.75 0 90.5 289.49977] CT
0.149 GC
N
-10.016 -5.573 M
-10.984 -5.573 -11.773 -6.08 QT
-12.563 -6.588 -13.016 -7.432 QT
-13.469 -8.276 -13.469 -9.213 QT
-13.469 -10.166 -13.016 -11.033 QT
-12.563 -11.901 -11.773 -12.416 QT
-10.984 -12.932 -10.016 -12.932 QT
-9.078 -12.932 -8.305 -12.565 QT
-7.531 -12.198 -7.531 -11.369 QT
-7.531 -11.057 -7.758 -10.823 QT
-7.984 -10.588 -8.297 -10.588 QT
-8.625 -10.588 -8.844 -10.823 QT
-9.063 -11.057 -9.063 -11.369 QT
-9.063 -11.651 -8.883 -11.854 QT
-8.703 -12.057 -8.438 -12.119 QT
-9 -12.463 -10 -12.463 QT
-10.766 -12.463 -11.234 -11.955 QT
-11.703 -11.448 -11.891 -10.698 QT
-12.078 -9.948 -12.078 -9.213 QT
-12.078 -8.448 -11.844 -7.721 QT
-11.609 -6.994 -11.102 -6.526 QT
-10.594 -6.057 -9.813 -6.057 QT
-9.063 -6.057 -8.531 -6.518 QT
-8 -6.979 -7.797 -7.729 QT
-7.797 -7.823 -7.672 -7.823 QT
-7.484 -7.823 L
-7.438 -7.823 -7.398 -7.783 QT
-7.359 -7.744 -7.359 -7.682 QT
-7.359 -7.635 L
-7.594 -6.698 -8.313 -6.135 QT
-9.031 -5.573 -10.016 -5.573 QT
cp
f
GR
GS
[0 -0.75 0.75 0 90.5 289.49977] CT
0.149 GC
N
-2.905 -5.573 M
-3.873 -5.573 -4.694 -6.088 QT
-5.514 -6.604 -5.975 -7.463 QT
-6.436 -8.323 -6.436 -9.276 QT
-6.436 -10.213 -6.014 -11.057 QT
-5.592 -11.901 -4.826 -12.416 QT
-4.061 -12.932 -3.123 -12.932 QT
-2.389 -12.932 -1.85 -12.69 QT
-1.311 -12.448 -0.959 -12.01 QT
-0.608 -11.573 -0.428 -10.979 QT
-0.248 -10.385 -0.248 -9.666 QT
-0.248 -9.463 -0.405 -9.463 QT
-5.045 -9.463 L
-5.045 -9.291 L
-5.045 -7.963 -4.506 -7.01 QT
-3.967 -6.057 -2.764 -6.057 QT
-2.264 -6.057 -1.85 -6.276 QT
-1.436 -6.494 -1.123 -6.885 QT
-0.811 -7.276 -0.701 -7.713 QT
-0.686 -7.776 -0.647 -7.815 QT
-0.608 -7.854 -0.545 -7.854 QT
-0.405 -7.854 L
-0.248 -7.854 -0.248 -7.651 QT
-0.467 -6.744 -1.217 -6.158 QT
-1.967 -5.573 -2.905 -5.573 QT
cp
-5.03 -9.854 M
-1.373 -9.854 L
-1.373 -10.463 -1.545 -11.08 QT
-1.717 -11.698 -2.108 -12.104 QT
-2.498 -12.51 -3.123 -12.51 QT
-4.03 -12.51 -4.53 -11.666 QT
-5.03 -10.823 -5.03 -9.854 QT
cp
f
GR
GS
[0 -0.75 0.75 0 90.5 289.49977] CT
0.149 GC
N
7.446 -1.76 M
7.446 -17.76 L
9.634 -17.76 L
9.634 -17.119 L
8.087 -17.119 L
8.087 -2.401 L
9.634 -2.401 L
9.634 -1.76 L
7.446 -1.76 L
cp
f
GR
GS
[0 -0.75 0.75 0 90.5 289.49977] CT
0.149 GC
N
10.563 -5.76 M
10.563 -6.323 L
12.219 -6.323 12.219 -7.276 QT
12.219 -15.619 L
12.219 -16.135 10.563 -16.135 QT
10.563 -16.698 L
13.594 -16.698 L
13.781 -16.698 13.844 -16.51 QT
17.328 -7.463 L
20.813 -16.51 L
20.875 -16.698 21.078 -16.698 QT
24.094 -16.698 L
24.094 -16.135 L
22.453 -16.135 22.453 -15.619 QT
22.453 -6.838 L
22.453 -6.323 24.094 -6.323 QT
24.094 -5.76 L
19.438 -5.76 L
19.438 -6.323 L
21.094 -6.323 21.094 -6.838 QT
21.094 -16.151 L
17.156 -5.948 L
17.078 -5.76 16.891 -5.76 QT
16.688 -5.76 16.609 -5.948 QT
12.719 -16.026 L
12.719 -7.276 L
12.719 -6.323 14.375 -6.323 QT
14.375 -5.76 L
10.563 -5.76 L
cp
f
GR
GS
[0 -0.75 0.75 0 90.5 289.49977] CT
0.149 GC
N
25.167 -5.76 M
25.167 -6.323 L
26.807 -6.323 26.807 -6.838 QT
26.807 -15.619 L
26.807 -16.135 25.167 -16.135 QT
25.167 -16.698 L
33.979 -16.698 L
34.432 -13.026 L
33.964 -13.026 L
33.854 -14.041 33.675 -14.619 QT
33.495 -15.198 33.143 -15.533 QT
32.792 -15.869 32.198 -16.002 QT
31.604 -16.135 30.573 -16.135 QT
29.12 -16.135 L
28.823 -16.135 28.667 -16.112 QT
28.51 -16.088 28.409 -15.971 QT
28.307 -15.854 28.307 -15.619 QT
28.307 -11.51 L
29.432 -11.51 L
30.26 -11.51 30.643 -11.651 QT
31.026 -11.791 31.167 -12.174 QT
31.307 -12.557 31.307 -13.385 QT
31.776 -13.385 L
31.776 -9.073 L
31.307 -9.073 L
31.307 -9.901 31.167 -10.283 QT
31.026 -10.666 30.643 -10.807 QT
30.26 -10.948 29.432 -10.948 QT
28.307 -10.948 L
28.307 -6.838 L
28.307 -6.323 30.354 -6.323 QT
30.354 -5.76 L
25.167 -5.76 L
cp
f
GR
GS
[0 -0.75 0.75 0 90.5 289.49977] CT
0.149 GC
N
35.611 -5.76 M
35.611 -6.323 L
37.252 -6.323 37.252 -6.838 QT
37.252 -15.619 L
37.252 -16.135 35.611 -16.135 QT
35.611 -16.698 L
40.799 -16.698 L
40.799 -16.135 L
38.752 -16.135 38.752 -15.619 QT
38.752 -6.838 L
38.752 -6.494 38.947 -6.408 QT
39.142 -6.323 39.564 -6.323 QT
40.799 -6.323 L
41.986 -6.323 42.635 -6.76 QT
43.283 -7.198 43.556 -7.955 QT
43.83 -8.713 43.971 -9.963 QT
44.424 -9.963 L
43.986 -5.76 L
35.611 -5.76 L
cp
f
GR
GS
[0 -0.75 0.75 0 90.5 289.49977] CT
0.149 GC
N
51.346 -5.401 M
49.814 -5.401 48.603 -6.213 QT
47.392 -7.026 46.705 -8.369 QT
46.017 -9.713 46.017 -11.182 QT
46.017 -12.276 46.408 -13.346 QT
46.799 -14.416 47.51 -15.244 QT
48.221 -16.073 49.213 -16.557 QT
50.205 -17.041 51.346 -17.041 QT
52.471 -17.041 53.471 -16.557 QT
54.471 -16.073 55.182 -15.237 QT
55.892 -14.401 56.275 -13.362 QT
56.658 -12.323 56.658 -11.182 QT
56.658 -9.713 55.971 -8.369 QT
55.283 -7.026 54.064 -6.213 QT
52.846 -5.401 51.346 -5.401 QT
cp
48.689 -7.494 M
49.158 -6.76 49.846 -6.323 QT
50.533 -5.885 51.346 -5.885 QT
51.861 -5.885 52.369 -6.096 QT
52.877 -6.307 53.283 -6.674 QT
53.689 -7.041 53.986 -7.494 QT
54.939 -8.932 54.939 -11.448 QT
54.939 -13.744 53.986 -15.088 QT
53.517 -15.76 52.814 -16.166 QT
52.111 -16.573 51.346 -16.573 QT
50.564 -16.573 49.861 -16.166 QT
49.158 -15.76 48.689 -15.088 QT
48.314 -14.573 48.103 -13.979 QT
47.892 -13.385 47.807 -12.752 QT
47.721 -12.119 47.721 -11.448 QT
47.721 -10.713 47.807 -10.026 QT
47.892 -9.338 48.111 -8.674 QT
48.33 -8.01 48.689 -7.494 QT
cp
f
GR
GS
[0 -0.75 0.75 0 90.5 289.49977] CT
0.149 GC
N
58.087 -5.76 M
58.087 -6.323 L
59.743 -6.323 59.743 -6.838 QT
59.743 -15.619 L
59.743 -16.135 58.087 -16.135 QT
58.087 -16.698 L
63.79 -16.698 L
64.665 -16.698 65.54 -16.338 QT
66.415 -15.979 66.978 -15.291 QT
67.54 -14.604 67.54 -13.682 QT
67.54 -12.791 66.97 -12.119 QT
66.399 -11.448 65.532 -11.104 QT
64.665 -10.76 63.79 -10.76 QT
61.228 -10.76 L
61.228 -6.838 L
61.228 -6.323 62.868 -6.323 QT
62.868 -5.76 L
58.087 -5.76 L
cp
61.181 -11.229 M
63.353 -11.229 L
64.228 -11.229 64.774 -11.487 QT
65.321 -11.744 65.579 -12.276 QT
65.837 -12.807 65.837 -13.682 QT
65.837 -14.994 65.259 -15.565 QT
64.681 -16.135 63.353 -16.135 QT
61.993 -16.135 L
61.696 -16.135 61.54 -16.112 QT
61.384 -16.088 61.282 -15.971 QT
61.181 -15.854 61.181 -15.619 QT
61.181 -11.229 L
cp
f
GR
GS
[0 -0.75 0.75 0 90.5 289.49977] CT
0.149 GC
N
69.351 -2.073 M
69.351 -2.119 69.366 -2.135 QT
74.929 -17.573 L
74.96 -17.666 75.038 -17.713 QT
75.116 -17.76 75.21 -17.76 QT
75.351 -17.76 75.445 -17.674 QT
75.538 -17.588 75.538 -17.448 QT
75.538 -17.385 L
69.976 -1.948 L
69.882 -1.76 69.663 -1.76 QT
69.538 -1.76 69.445 -1.854 QT
69.351 -1.948 69.351 -2.073 QT
cp
f
GR
GS
[0 -0.75 0.75 0 90.5 289.49977] CT
0.149 GC
N
76.976 -5.713 M
76.976 -8.323 L
76.976 -8.448 77.117 -8.448 QT
77.32 -8.448 L
77.413 -8.448 77.445 -8.323 QT
77.882 -6.01 79.601 -6.01 QT
80.351 -6.01 80.867 -6.354 QT
81.382 -6.698 81.382 -7.416 QT
81.382 -7.932 80.984 -8.291 QT
80.585 -8.651 80.038 -8.791 QT
78.96 -8.994 L
78.429 -9.119 77.984 -9.362 QT
77.538 -9.604 77.257 -10.002 QT
76.976 -10.401 76.976 -10.932 QT
76.976 -11.635 77.351 -12.088 QT
77.726 -12.541 78.32 -12.737 QT
78.913 -12.932 79.601 -12.932 QT
80.413 -12.932 81.023 -12.494 QT
81.492 -12.901 L
81.492 -12.932 81.57 -12.932 QT
81.679 -12.932 L
81.726 -12.932 81.765 -12.893 QT
81.804 -12.854 81.804 -12.807 QT
81.804 -10.713 L
81.804 -10.557 81.679 -10.557 QT
81.492 -10.557 L
81.351 -10.557 81.351 -10.713 QT
81.351 -11.541 80.882 -12.049 QT
80.413 -12.557 79.585 -12.557 QT
78.867 -12.557 78.335 -12.291 QT
77.804 -12.026 77.804 -11.385 QT
77.804 -10.932 78.187 -10.651 QT
78.57 -10.369 79.07 -10.244 QT
80.163 -10.041 L
80.71 -9.916 81.179 -9.619 QT
81.648 -9.323 81.929 -8.869 QT
82.21 -8.416 82.21 -7.838 QT
82.21 -7.26 82.007 -6.838 QT
81.804 -6.416 81.452 -6.135 QT
81.101 -5.854 80.617 -5.713 QT
80.132 -5.573 79.601 -5.573 QT
78.601 -5.573 77.882 -6.26 QT
77.304 -5.619 L
77.304 -5.573 77.21 -5.573 QT
77.117 -5.573 L
76.976 -5.573 76.976 -5.713 QT
cp
f
GR
GS
[0 -0.75 0.75 0 90.5 289.49977] CT
0.149 GC
N
83.115 -1.76 M
83.115 -2.401 L
84.662 -2.401 L
84.662 -17.119 L
83.115 -17.119 L
83.115 -17.76 L
85.303 -17.76 L
85.303 -1.76 L
83.115 -1.76 L
cp
f
GR
GS
[0.75 0 0 0.75 0 0] CT
0 0.447 0.741 RC
1 LJ
1.6 LW
N
257.57 269.671 M
422.362 196.134 L
524.865 149.255 L
641.877 152.951 L
811.137 136.019 L
889.256 131.039 L
945.432 128.33 L
S
GR
GS
[0.75 0 0 0.75 193.17783 202.25322] CT
0 0.447 0.741 RC
N
3.333 0 M
3.333 1.841 1.841 3.333 0 3.333 C
-1.841 3.333 -3.333 1.841 -3.333 0 C
-3.333 -1.841 -1.841 -3.333 0 -3.333 C
1.841 -3.333 3.333 -1.841 3.333 0 C
cp
f
GR
GS
[0.75 0 0 0.75 316.77164 147.10015] CT
0 0.447 0.741 RC
N
/f-1867764608{3.333 0 M
3.333 1.841 1.841 3.333 0 3.333 C
-1.841 3.333 -3.333 1.841 -3.333 0 C
-3.333 -1.841 -1.841 -3.333 0 -3.333 C
1.841 -3.333 3.333 -1.841 3.333 0 C
cp}def
f-1867764608
f
GR
GS
[0.75 0 0 0.75 393.64902 111.94105] CT
0 0.447 0.741 RC
N
f-1867764608
f
GR
GS
[0.75 0 0 0.75 481.40799 114.71307] CT
0 0.447 0.741 RC
N
f-1867764608
f
GR
GS
[0.75 0 0 0.75 608.35258 102.01436] CT
0 0.447 0.741 RC
N
f-1867764608
f
GR
GS
[0.75 0 0 0.75 666.94231 98.27962] CT
0 0.447 0.741 RC
N
f-1867764608
f
GR
GS
[0.75 0 0 0.75 709.07433 96.24719] CT
0 0.447 0.741 RC
N
f-1867764608
f
GR
GS
[0.75 0 0 0.75 0 0] CT
0.851 0.325 0.098 RC
1 LJ
1.6 LW
N
257.57 230.302 M
422.362 248.774 L
524.865 219.17 L
641.877 508.926 L
811.137 526.958 L
889.256 595.117 L
945.432 552.533 L
S
GR
GS
[0.75 0 0 0.75 193.17783 172.72681] CT
0.851 0.325 0.098 RC
N
f-1867764608
f
GR
GS
[0.75 0 0 0.75 316.77164 186.58078] CT
0.851 0.325 0.098 RC
N
f-1867764608
f
GR
GS
[0.75 0 0 0.75 393.64902 164.37713] CT
0.851 0.325 0.098 RC
N
f-1867764608
f
GR
GS
[0.75 0 0 0.75 481.40799 381.69484] CT
0.851 0.325 0.098 RC
N
f-1867764608
f
GR
GS
[0.75 0 0 0.75 608.35258 395.21873] CT
0.851 0.325 0.098 RC
N
f-1867764608
f
GR
GS
[0.75 0 0 0.75 666.94231 446.33757] CT
0.851 0.325 0.098 RC
N
f-1867764608
f
GR
GS
[0.75 0 0 0.75 709.07433 414.39977] CT
0.851 0.325 0.098 RC
N
f-1867764608
f
GR
GS
[0.75 0 0 0.75 0 0] CT
0.929 0.694 0.125 RC
1 LJ
1.6 LW
N
257.57 187.25 M
422.362 165.636 L
524.865 147.462 L
641.877 137.747 L
811.137 131.606 L
889.256 127.857 L
945.432 125.986 L
S
GR
GS
[0.75 0 0 0.75 193.17783 140.43751] CT
0.929 0.694 0.125 RC
N
f-1867764608
f
GR
GS
[0.75 0 0 0.75 316.77164 124.22718] CT
0.929 0.694 0.125 RC
N
f-1867764608
f
GR
GS
[0.75 0 0 0.75 393.64902 110.5963] CT
0.929 0.694 0.125 RC
N
f-1867764608
f
GR
GS
[0.75 0 0 0.75 481.40799 103.31019] CT
0.929 0.694 0.125 RC
N
f-1867764608
f
GR
GS
[0.75 0 0 0.75 608.35258 98.70443] CT
0.929 0.694 0.125 RC
N
f-1867764608
f
GR
GS
[0.75 0 0 0.75 666.94231 95.89268] CT
0.929 0.694 0.125 RC
N
f-1867764608
f
GR
GS
[0.75 0 0 0.75 709.07433 94.48985] CT
0.929 0.694 0.125 RC
N
f-1867764608
f
GR
GS
[0.75 0 0 0.75 0 0] CT
0.494 0.184 0.557 RC
1 LJ
1.6 LW
N
257.57 179.336 M
422.362 177.494 L
524.865 177.046 L
641.877 438.747 L
811.137 350.812 L
889.256 551.441 L
945.432 429.036 L
S
GR
GS
[0.75 0 0 0.75 193.17783 134.50229] CT
0.494 0.184 0.557 RC
N
f-1867764608
f
GR
GS
[0.75 0 0 0.75 316.77164 133.12085] CT
0.494 0.184 0.557 RC
N
f-1867764608
f
GR
GS
[0.75 0 0 0.75 393.64902 132.78468] CT
0.494 0.184 0.557 RC
N
f-1867764608
f
GR
GS
[0.75 0 0 0.75 481.40799 329.0601] CT
0.494 0.184 0.557 RC
N
f-1867764608
f
GR
GS
[0.75 0 0 0.75 608.35258 263.10928] CT
0.494 0.184 0.557 RC
N
f-1867764608
f
GR
GS
[0.75 0 0 0.75 666.94231 413.58069] CT
0.494 0.184 0.557 RC
N
f-1867764608
f
GR
GS
[0.75 0 0 0.75 709.07433 321.77705] CT
0.494 0.184 0.557 RC
N
f-1867764608
f
GR
GS
[0.75 0 0 0.75 0 0] CT
0.467 0.675 0.188 RC
1 LJ
1.6 LW
N
257.57 232.018 M
422.362 260.07 L
524.865 238.86 L
641.877 532.435 L
811.137 644.257 L
889.256 522.264 L
945.432 596.449 L
S
GR
GS
[0.75 0 0 0.75 193.17783 174.01348] CT
0.467 0.675 0.188 RC
N
f-1867764608
f
GR
GS
[0.75 0 0 0.75 316.77164 195.05271] CT
0.467 0.675 0.188 RC
N
f-1867764608
f
GR
GS
[0.75 0 0 0.75 393.64902 179.14493] CT
0.467 0.675 0.188 RC
N
f-1867764608
f
GR
GS
[0.75 0 0 0.75 481.40799 399.32634] CT
0.467 0.675 0.188 RC
N
f-1867764608
f
GR
GS
[0.75 0 0 0.75 608.35258 483.1929] CT
0.467 0.675 0.188 RC
N
f-1867764608
f
GR
GS
[0.75 0 0 0.75 666.94231 391.69794] CT
0.467 0.675 0.188 RC
N
f-1867764608
f
GR
GS
[0.75 0 0 0.75 709.07433 447.33696] CT
0.467 0.675 0.188 RC
N
f-1867764608
f
GR
GS
[0.75 0 0 0.75 0 0] CT
0.302 0.745 0.933 RC
1 LJ
1.6 LW
N
257.57 174.377 M
422.362 157.376 L
524.865 151.394 L
641.877 282.951 L
811.137 432.255 L
889.256 369.113 L
945.432 322.89 L
S
GR
GS
[0.75 0 0 0.75 193.17783 130.78282] CT
0.302 0.745 0.933 RC
N
f-1867764608
f
GR
GS
[0.75 0 0 0.75 316.77164 118.03214] CT
0.302 0.745 0.933 RC
N
f-1867764608
f
GR
GS
[0.75 0 0 0.75 393.64902 113.54557] CT
0.302 0.745 0.933 RC
N
f-1867764608
f
GR
GS
[0.75 0 0 0.75 481.40799 212.21354] CT
0.302 0.745 0.933 RC
N
f-1867764608
f
GR
GS
[0.75 0 0 0.75 608.35258 324.19148] CT
0.302 0.745 0.933 RC
N
f-1867764608
f
GR
GS
[0.75 0 0 0.75 666.94231 276.83489] CT
0.302 0.745 0.933 RC
N
f-1867764608
f
GR
GS
[0.75 0 0 0.75 709.07433 242.16785] CT
0.302 0.745 0.933 RC
N
f-1867764608
f
GR
GS
[0.75 0 0 0.75 0 0] CT
[10 6] 0 setdash
2 LJ
0.667 LW
N
275.842 712 M
275.842 60 L
S
GR
GS
[0.75 0 0 0.75 0 0] CT
[10 6] 0 setdash
2 LJ
0.667 LW
N
625.789 712 M
625.789 60 L
S
GR
GS
[0.75 0 0 0.75 0 0] CT
1 GC
N
1075 154 M
1075 71 L
1004 71 L
1004 154 L
cp
f
GR
GS
[0.75 0 0 0.75 788.03064 59.52731] CT
N
0.281 2.56 M
0.281 2.169 L
0.656 2.169 0.898 2.115 QT
1.141 2.06 1.141 1.826 QT
1.141 -3.956 L
1.141 -4.253 1.055 -4.378 QT
0.969 -4.503 0.805 -4.534 QT
0.641 -4.565 0.281 -4.565 QT
0.281 -4.956 L
1.906 -5.065 L
1.906 0.154 L
3.391 -1.143 L
3.609 -1.362 3.609 -1.534 QT
3.609 -1.659 3.516 -1.729 QT
3.422 -1.799 3.297 -1.799 QT
3.297 -2.19 L
5.359 -2.19 L
5.359 -1.799 L
4.625 -1.799 3.875 -1.143 QT
3.094 -0.471 L
4.484 1.529 L
4.781 1.935 4.977 2.052 QT
5.172 2.169 5.625 2.169 QT
5.625 2.56 L
3.438 2.56 L
3.438 2.169 L
3.813 2.169 3.813 1.935 QT
3.813 1.779 3.609 1.529 QT
2.547 0.013 L
1.875 0.607 L
1.875 1.826 L
1.875 2.06 2.125 2.115 QT
2.375 2.169 2.734 2.169 QT
2.734 2.56 L
0.281 2.56 L
cp
f
GR
GS
[0.75 0 0 0.75 788.03064 59.52731] CT
N
5.958 2.56 M
5.958 2.169 L
6.333 2.169 6.575 2.115 QT
6.817 2.06 6.817 1.826 QT
6.817 -1.174 L
6.817 -1.471 6.731 -1.604 QT
6.645 -1.737 6.473 -1.768 QT
6.302 -1.799 5.958 -1.799 QT
5.958 -2.19 L
7.552 -2.299 L
7.552 -1.221 L
7.77 -1.706 8.208 -2.003 QT
8.645 -2.299 9.145 -2.299 QT
10.411 -2.299 10.63 -1.268 QT
10.848 -1.737 11.278 -2.018 QT
11.708 -2.299 12.208 -2.299 QT
12.708 -2.299 13.052 -2.135 QT
13.395 -1.971 13.567 -1.643 QT
13.739 -1.315 13.739 -0.815 QT
13.739 1.826 L
13.739 2.06 13.981 2.115 QT
14.223 2.169 14.598 2.169 QT
14.598 2.56 L
12.083 2.56 L
12.083 2.169 L
12.458 2.169 12.7 2.115 QT
12.942 2.06 12.942 1.826 QT
12.942 -0.784 L
12.942 -1.346 12.786 -1.682 QT
12.63 -2.018 12.145 -2.018 QT
11.505 -2.018 11.091 -1.51 QT
10.677 -1.003 10.677 -0.346 QT
10.677 1.826 L
10.677 2.06 10.919 2.115 QT
11.161 2.169 11.536 2.169 QT
11.536 2.56 L
9.02 2.56 L
9.02 2.169 L
9.395 2.169 9.637 2.115 QT
9.88 2.06 9.88 1.826 QT
9.88 -0.784 L
9.88 -1.331 9.723 -1.674 QT
9.567 -2.018 9.083 -2.018 QT
8.442 -2.018 8.036 -1.51 QT
7.63 -1.003 7.63 -0.346 QT
7.63 1.826 L
7.63 2.06 7.864 2.115 QT
8.098 2.169 8.473 2.169 QT
8.473 2.56 L
5.958 2.56 L
cp
f
GR
GS
[0.75 0 0 0.75 788.03064 59.52731] CT
N
14.847 2.56 M
14.847 2.169 L
15.222 2.169 15.464 2.115 QT
15.706 2.06 15.706 1.826 QT
15.706 -1.174 L
15.706 -1.471 15.62 -1.604 QT
15.534 -1.737 15.362 -1.768 QT
15.19 -1.799 14.847 -1.799 QT
14.847 -2.19 L
16.44 -2.299 L
16.44 -1.221 L
16.659 -1.706 17.097 -2.003 QT
17.534 -2.299 18.034 -2.299 QT
18.8 -2.299 19.183 -1.932 QT
19.565 -1.565 19.565 -0.815 QT
19.565 1.826 L
19.565 2.06 19.808 2.115 QT
20.05 2.169 20.425 2.169 QT
20.425 2.56 L
17.909 2.56 L
17.909 2.169 L
18.284 2.169 18.526 2.115 QT
18.769 2.06 18.769 1.826 QT
18.769 -0.784 L
18.769 -1.331 18.612 -1.674 QT
18.456 -2.018 17.972 -2.018 QT
17.331 -2.018 16.925 -1.51 QT
16.519 -1.003 16.519 -0.346 QT
16.519 1.826 L
16.519 2.06 16.753 2.115 QT
16.987 2.169 17.362 2.169 QT
17.362 2.56 L
14.847 2.56 L
cp
f
GR
GS
[0.75 0 0 0.75 0 0] CT
0 0.447 0.741 RC
1 LJ
1.6 LW
N
1007.975 79.37 M
1047.726 79.37 L
S
GR
GS
[0.75 0 0 0.75 770.88803 59.52731] CT
0 0.447 0.741 RC
N
f-1867764608
f
GR
GS
[0.75 0 0 0.75 788.03064 69.46639] CT
N
/f305086161{0.281 2.56 M
0.281 2.169 L
0.656 2.169 0.898 2.115 QT
1.141 2.06 1.141 1.826 QT
1.141 -3.956 L
1.141 -4.253 1.055 -4.378 QT
0.969 -4.503 0.805 -4.534 QT
0.641 -4.565 0.281 -4.565 QT
0.281 -4.956 L
1.906 -5.065 L
1.906 0.154 L
3.391 -1.143 L
3.609 -1.362 3.609 -1.534 QT
3.609 -1.659 3.516 -1.729 QT
3.422 -1.799 3.297 -1.799 QT
3.297 -2.19 L
5.359 -2.19 L
5.359 -1.799 L
4.625 -1.799 3.875 -1.143 QT
3.094 -0.471 L
4.484 1.529 L
4.781 1.935 4.977 2.052 QT
5.172 2.169 5.625 2.169 QT
5.625 2.56 L
3.438 2.56 L
3.438 2.169 L
3.813 2.169 3.813 1.935 QT
3.813 1.779 3.609 1.529 QT
2.547 0.013 L
1.875 0.607 L
1.875 1.826 L
1.875 2.06 2.125 2.115 QT
2.375 2.169 2.734 2.169 QT
2.734 2.56 L
0.281 2.56 L
cp}def
f305086161
f
GR
GS
[0.75 0 0 0.75 788.03064 69.46639] CT
N
/f-694345428{5.958 2.56 M
5.958 2.169 L
6.333 2.169 6.575 2.115 QT
6.817 2.06 6.817 1.826 QT
6.817 -1.174 L
6.817 -1.471 6.731 -1.604 QT
6.645 -1.737 6.473 -1.768 QT
6.302 -1.799 5.958 -1.799 QT
5.958 -2.19 L
7.552 -2.299 L
7.552 -1.221 L
7.77 -1.706 8.208 -2.003 QT
8.645 -2.299 9.145 -2.299 QT
9.911 -2.299 10.294 -1.932 QT
10.677 -1.565 10.677 -0.815 QT
10.677 1.826 L
10.677 2.06 10.919 2.115 QT
11.161 2.169 11.536 2.169 QT
11.536 2.56 L
9.02 2.56 L
9.02 2.169 L
9.395 2.169 9.637 2.115 QT
9.88 2.06 9.88 1.826 QT
9.88 -0.784 L
9.88 -1.331 9.723 -1.674 QT
9.567 -2.018 9.083 -2.018 QT
8.442 -2.018 8.036 -1.51 QT
7.63 -1.003 7.63 -0.346 QT
7.63 1.826 L
7.63 2.06 7.864 2.115 QT
8.098 2.169 8.473 2.169 QT
8.473 2.56 L
5.958 2.56 L
cp}def
f-694345428
f
GR
GS
[0.75 0 0 0.75 788.03064 69.46639] CT
N
/f2056957038{11.884 2.56 M
11.884 2.169 L
12.259 2.169 12.501 2.115 QT
12.743 2.06 12.743 1.826 QT
12.743 -1.174 L
12.743 -1.471 12.657 -1.604 QT
12.571 -1.737 12.399 -1.768 QT
12.227 -1.799 11.884 -1.799 QT
11.884 -2.19 L
13.477 -2.299 L
13.477 -1.221 L
13.696 -1.706 14.134 -2.003 QT
14.571 -2.299 15.071 -2.299 QT
16.337 -2.299 16.556 -1.268 QT
16.774 -1.737 17.204 -2.018 QT
17.634 -2.299 18.134 -2.299 QT
18.634 -2.299 18.977 -2.135 QT
19.321 -1.971 19.493 -1.643 QT
19.665 -1.315 19.665 -0.815 QT
19.665 1.826 L
19.665 2.06 19.907 2.115 QT
20.149 2.169 20.524 2.169 QT
20.524 2.56 L
18.009 2.56 L
18.009 2.169 L
18.384 2.169 18.626 2.115 QT
18.868 2.06 18.868 1.826 QT
18.868 -0.784 L
18.868 -1.346 18.712 -1.682 QT
18.556 -2.018 18.071 -2.018 QT
17.431 -2.018 17.017 -1.51 QT
16.602 -1.003 16.602 -0.346 QT
16.602 1.826 L
16.602 2.06 16.845 2.115 QT
17.087 2.169 17.462 2.169 QT
17.462 2.56 L
14.946 2.56 L
14.946 2.169 L
15.321 2.169 15.563 2.115 QT
15.806 2.06 15.806 1.826 QT
15.806 -0.784 L
15.806 -1.331 15.649 -1.674 QT
15.493 -2.018 15.009 -2.018 QT
14.368 -2.018 13.962 -1.51 QT
13.556 -1.003 13.556 -0.346 QT
13.556 1.826 L
13.556 2.06 13.79 2.115 QT
14.024 2.169 14.399 2.169 QT
14.399 2.56 L
11.884 2.56 L
cp}def
f2056957038
f
GR
GS
[0.75 0 0 0.75 0 0] CT
0.851 0.325 0.098 RC
1 LJ
1.6 LW
N
1007.975 92.622 M
1047.726 92.622 L
S
GR
GS
[0.75 0 0 0.75 770.88803 69.46639] CT
0.851 0.325 0.098 RC
N
f-1867764608
f
GR
GS
[0.75 0 0 0.75 788.03064 79.40546] CT
N
/f-700236089{0.328 2.56 M
0.328 2.169 L
0.703 2.169 0.945 2.115 QT
1.188 2.06 1.188 1.826 QT
1.188 -1.174 L
1.188 -1.471 1.102 -1.604 QT
1.016 -1.737 0.844 -1.768 QT
0.672 -1.799 0.328 -1.799 QT
0.328 -2.19 L
1.922 -2.299 L
1.922 -1.221 L
2.141 -1.706 2.578 -2.003 QT
3.016 -2.299 3.516 -2.299 QT
4.781 -2.299 5 -1.268 QT
5.219 -1.737 5.648 -2.018 QT
6.078 -2.299 6.578 -2.299 QT
7.078 -2.299 7.422 -2.135 QT
7.766 -1.971 7.938 -1.643 QT
8.109 -1.315 8.109 -0.815 QT
8.109 1.826 L
8.109 2.06 8.352 2.115 QT
8.594 2.169 8.969 2.169 QT
8.969 2.56 L
6.453 2.56 L
6.453 2.169 L
6.828 2.169 7.07 2.115 QT
7.313 2.06 7.313 1.826 QT
7.313 -0.784 L
7.313 -1.346 7.156 -1.682 QT
7 -2.018 6.516 -2.018 QT
5.875 -2.018 5.461 -1.51 QT
5.047 -1.003 5.047 -0.346 QT
5.047 1.826 L
5.047 2.06 5.289 2.115 QT
5.531 2.169 5.906 2.169 QT
5.906 2.56 L
3.391 2.56 L
3.391 2.169 L
3.766 2.169 4.008 2.115 QT
4.25 2.06 4.25 1.826 QT
4.25 -0.784 L
4.25 -1.331 4.094 -1.674 QT
3.938 -2.018 3.453 -2.018 QT
2.813 -2.018 2.406 -1.51 QT
2 -1.003 2 -0.346 QT
2 1.826 L
2 2.06 2.234 2.115 QT
2.469 2.169 2.844 2.169 QT
2.844 2.56 L
0.328 2.56 L
cp}def
f-700236089
f
GR
GS
[0.75 0 0 0.75 788.03064 79.40546] CT
N
/f-1254220489{9.17 2.56 M
9.17 2.169 L
9.545 2.169 9.787 2.115 QT
10.03 2.06 10.03 1.826 QT
10.03 -3.956 L
10.03 -4.253 9.944 -4.378 QT
9.858 -4.503 9.694 -4.534 QT
9.53 -4.565 9.17 -4.565 QT
9.17 -4.956 L
10.795 -5.065 L
10.795 0.154 L
12.28 -1.143 L
12.498 -1.362 12.498 -1.534 QT
12.498 -1.659 12.405 -1.729 QT
12.311 -1.799 12.186 -1.799 QT
12.186 -2.19 L
14.248 -2.19 L
14.248 -1.799 L
13.514 -1.799 12.764 -1.143 QT
11.983 -0.471 L
13.373 1.529 L
13.67 1.935 13.865 2.052 QT
14.061 2.169 14.514 2.169 QT
14.514 2.56 L
12.326 2.56 L
12.326 2.169 L
12.701 2.169 12.701 1.935 QT
12.701 1.779 12.498 1.529 QT
11.436 0.013 L
10.764 0.607 L
10.764 1.826 L
10.764 2.06 11.014 2.115 QT
11.264 2.169 11.623 2.169 QT
11.623 2.56 L
9.17 2.56 L
cp}def
f-1254220489
f
GR
GS
[0.75 0 0 0.75 788.03064 79.40546] CT
N
/f-140205049{14.847 2.56 M
14.847 2.169 L
15.222 2.169 15.464 2.115 QT
15.706 2.06 15.706 1.826 QT
15.706 -1.174 L
15.706 -1.471 15.62 -1.604 QT
15.534 -1.737 15.362 -1.768 QT
15.19 -1.799 14.847 -1.799 QT
14.847 -2.19 L
16.44 -2.299 L
16.44 -1.221 L
16.659 -1.706 17.097 -2.003 QT
17.534 -2.299 18.034 -2.299 QT
18.8 -2.299 19.183 -1.932 QT
19.565 -1.565 19.565 -0.815 QT
19.565 1.826 L
19.565 2.06 19.808 2.115 QT
20.05 2.169 20.425 2.169 QT
20.425 2.56 L
17.909 2.56 L
17.909 2.169 L
18.284 2.169 18.526 2.115 QT
18.769 2.06 18.769 1.826 QT
18.769 -0.784 L
18.769 -1.331 18.612 -1.674 QT
18.456 -2.018 17.972 -2.018 QT
17.331 -2.018 16.925 -1.51 QT
16.519 -1.003 16.519 -0.346 QT
16.519 1.826 L
16.519 2.06 16.753 2.115 QT
16.987 2.169 17.362 2.169 QT
17.362 2.56 L
14.847 2.56 L
cp}def
f-140205049
f
GR
GS
[0.75 0 0 0.75 0 0] CT
0.929 0.694 0.125 RC
1 LJ
1.6 LW
N
1007.975 105.874 M
1047.726 105.874 L
S
GR
GS
[0.75 0 0 0.75 770.88803 79.40546] CT
0.929 0.694 0.125 RC
N
f-1867764608
f
GR
GS
[0.75 0 0 0.75 788.03064 89.34454] CT
N
f-700236089
f
GR
GS
[0.75 0 0 0.75 788.03064 89.34454] CT
N
/f-644451843{9.217 2.56 M
9.217 2.169 L
9.592 2.169 9.834 2.115 QT
10.076 2.06 10.076 1.826 QT
10.076 -1.174 L
10.076 -1.471 9.99 -1.604 QT
9.905 -1.737 9.733 -1.768 QT
9.561 -1.799 9.217 -1.799 QT
9.217 -2.19 L
10.811 -2.299 L
10.811 -1.221 L
11.03 -1.706 11.467 -2.003 QT
11.905 -2.299 12.405 -2.299 QT
13.17 -2.299 13.553 -1.932 QT
13.936 -1.565 13.936 -0.815 QT
13.936 1.826 L
13.936 2.06 14.178 2.115 QT
14.42 2.169 14.795 2.169 QT
14.795 2.56 L
12.28 2.56 L
12.28 2.169 L
12.655 2.169 12.897 2.115 QT
13.139 2.06 13.139 1.826 QT
13.139 -0.784 L
13.139 -1.331 12.983 -1.674 QT
12.826 -2.018 12.342 -2.018 QT
11.701 -2.018 11.295 -1.51 QT
10.889 -1.003 10.889 -0.346 QT
10.889 1.826 L
10.889 2.06 11.123 2.115 QT
11.358 2.169 11.733 2.169 QT
11.733 2.56 L
9.217 2.56 L
cp}def
f-644451843
f
GR
GS
[0.75 0 0 0.75 788.03064 89.34454] CT
N
/f-906124984{15.096 2.56 M
15.096 2.169 L
15.471 2.169 15.713 2.115 QT
15.955 2.06 15.955 1.826 QT
15.955 -3.956 L
15.955 -4.253 15.87 -4.378 QT
15.784 -4.503 15.62 -4.534 QT
15.455 -4.565 15.096 -4.565 QT
15.096 -4.956 L
16.721 -5.065 L
16.721 0.154 L
18.205 -1.143 L
18.424 -1.362 18.424 -1.534 QT
18.424 -1.659 18.33 -1.729 QT
18.237 -1.799 18.112 -1.799 QT
18.112 -2.19 L
20.174 -2.19 L
20.174 -1.799 L
19.44 -1.799 18.69 -1.143 QT
17.909 -0.471 L
19.299 1.529 L
19.596 1.935 19.791 2.052 QT
19.987 2.169 20.44 2.169 QT
20.44 2.56 L
18.252 2.56 L
18.252 2.169 L
18.627 2.169 18.627 1.935 QT
18.627 1.779 18.424 1.529 QT
17.362 0.013 L
16.69 0.607 L
16.69 1.826 L
16.69 2.06 16.94 2.115 QT
17.19 2.169 17.549 2.169 QT
17.549 2.56 L
15.096 2.56 L
cp}def
f-906124984
f
GR
GS
[0.75 0 0 0.75 0 0] CT
0.494 0.184 0.557 RC
1 LJ
1.6 LW
N
1007.975 119.126 M
1047.726 119.126 L
S
GR
GS
[0.75 0 0 0.75 770.88803 89.34454] CT
0.494 0.184 0.557 RC
N
f-1867764608
f
GR
GS
[0.75 0 0 0.75 788.03064 99.28361] CT
N
/f-432010360{0.328 2.56 M
0.328 2.169 L
0.703 2.169 0.945 2.115 QT
1.188 2.06 1.188 1.826 QT
1.188 -1.174 L
1.188 -1.471 1.102 -1.604 QT
1.016 -1.737 0.844 -1.768 QT
0.672 -1.799 0.328 -1.799 QT
0.328 -2.19 L
1.922 -2.299 L
1.922 -1.221 L
2.141 -1.706 2.578 -2.003 QT
3.016 -2.299 3.516 -2.299 QT
4.281 -2.299 4.664 -1.932 QT
5.047 -1.565 5.047 -0.815 QT
5.047 1.826 L
5.047 2.06 5.289 2.115 QT
5.531 2.169 5.906 2.169 QT
5.906 2.56 L
3.391 2.56 L
3.391 2.169 L
3.766 2.169 4.008 2.115 QT
4.25 2.06 4.25 1.826 QT
4.25 -0.784 L
4.25 -1.331 4.094 -1.674 QT
3.938 -2.018 3.453 -2.018 QT
2.813 -2.018 2.406 -1.51 QT
2 -1.003 2 -0.346 QT
2 1.826 L
2 2.06 2.234 2.115 QT
2.469 2.169 2.844 2.169 QT
2.844 2.56 L
0.328 2.56 L
cp}def
f-432010360
f
GR
GS
[0.75 0 0 0.75 788.03064 99.28361] CT
N
/f690420415{6.207 2.56 M
6.207 2.169 L
6.582 2.169 6.824 2.115 QT
7.067 2.06 7.067 1.826 QT
7.067 -3.956 L
7.067 -4.253 6.981 -4.378 QT
6.895 -4.503 6.731 -4.534 QT
6.567 -4.565 6.207 -4.565 QT
6.207 -4.956 L
7.832 -5.065 L
7.832 0.154 L
9.317 -1.143 L
9.535 -1.362 9.535 -1.534 QT
9.535 -1.659 9.442 -1.729 QT
9.348 -1.799 9.223 -1.799 QT
9.223 -2.19 L
11.285 -2.19 L
11.285 -1.799 L
10.551 -1.799 9.801 -1.143 QT
9.02 -0.471 L
10.41 1.529 L
10.707 1.935 10.903 2.052 QT
11.098 2.169 11.551 2.169 QT
11.551 2.56 L
9.363 2.56 L
9.363 2.169 L
9.738 2.169 9.738 1.935 QT
9.738 1.779 9.535 1.529 QT
8.473 0.013 L
7.801 0.607 L
7.801 1.826 L
7.801 2.06 8.051 2.115 QT
8.301 2.169 8.66 2.169 QT
8.66 2.56 L
6.207 2.56 L
cp}def
f690420415
f
GR
GS
[0.75 0 0 0.75 788.03064 99.28361] CT
N
f2056957038
f
GR
GS
[0.75 0 0 0.75 0 0] CT
0.467 0.675 0.188 RC
1 LJ
1.6 LW
N
1007.975 132.378 M
1047.726 132.378 L
S
GR
GS
[0.75 0 0 0.75 770.88803 99.28362] CT
0.467 0.675 0.188 RC
N
f-1867764608
f
GR
GS
[0.75 0 0 0.75 788.03064 109.22269] CT
N
f-432010360
f
GR
GS
[0.75 0 0 0.75 788.03064 109.22269] CT
N
/f363712577{6.254 2.56 M
6.254 2.169 L
6.629 2.169 6.871 2.115 QT
7.113 2.06 7.113 1.826 QT
7.113 -1.174 L
7.113 -1.471 7.028 -1.604 QT
6.942 -1.737 6.77 -1.768 QT
6.598 -1.799 6.254 -1.799 QT
6.254 -2.19 L
7.848 -2.299 L
7.848 -1.221 L
8.067 -1.706 8.504 -2.003 QT
8.942 -2.299 9.442 -2.299 QT
10.707 -2.299 10.926 -1.268 QT
11.145 -1.737 11.574 -2.018 QT
12.004 -2.299 12.504 -2.299 QT
13.004 -2.299 13.348 -2.135 QT
13.692 -1.971 13.863 -1.643 QT
14.035 -1.315 14.035 -0.815 QT
14.035 1.826 L
14.035 2.06 14.278 2.115 QT
14.52 2.169 14.895 2.169 QT
14.895 2.56 L
12.379 2.56 L
12.379 2.169 L
12.754 2.169 12.996 2.115 QT
13.238 2.06 13.238 1.826 QT
13.238 -0.784 L
13.238 -1.346 13.082 -1.682 QT
12.926 -2.018 12.442 -2.018 QT
11.801 -2.018 11.387 -1.51 QT
10.973 -1.003 10.973 -0.346 QT
10.973 1.826 L
10.973 2.06 11.215 2.115 QT
11.457 2.169 11.832 2.169 QT
11.832 2.56 L
9.317 2.56 L
9.317 2.169 L
9.692 2.169 9.934 2.115 QT
10.176 2.06 10.176 1.826 QT
10.176 -0.784 L
10.176 -1.331 10.02 -1.674 QT
9.863 -2.018 9.379 -2.018 QT
8.738 -2.018 8.332 -1.51 QT
7.926 -1.003 7.926 -0.346 QT
7.926 1.826 L
7.926 2.06 8.16 2.115 QT
8.395 2.169 8.77 2.169 QT
8.77 2.56 L
6.254 2.56 L
cp}def
f363712577
f
GR
GS
[0.75 0 0 0.75 788.03064 109.22269] CT
N
f-906124984
f
GR
GS
[0.75 0 0 0.75 0 0] CT
0.302 0.745 0.933 RC
1 LJ
1.6 LW
N
1007.975 145.63 M
1047.726 145.63 L
S
GR
GS
[0.75 0 0 0.75 770.88803 109.22269] CT
0.302 0.745 0.933 RC
N
f-1867764608
f
GR
GS
[0.75 0 0 0.75 0 0] CT
0.149 GC
10.0 ML
0.667 LW
N
1004 154 M
1004 71 L
1075 71 L
1075 154 L
cp
S
GR
%%Trailer
%%Pages: 1
%%EOF
