%!PS-Adobe-3.0 EPSF-3.0
%%Creator: (MATLAB, The Mathworks, Inc. Version 9.4.0.813654 \(R2018a\). Operating System: Linux)
%%Title: 02614-HPC/Assignments/assignment1/results/blk_permutations/permutation_comp_opt.eps
%%CreationDate: 2019-01-10T13:46:48
%%Pages: (atend)
%%BoundingBox:     2     5   388   296
%%LanguageLevel: 3
%%EndComments
%%BeginProlog
%%BeginResource: procset (Apache XML Graphics Std ProcSet) 1.2 0
%%Version: 1.2 0
%%Copyright: (Copyright 2001-2003,2010 The Apache Software Foundation. License terms: http://www.apache.org/licenses/LICENSE-2.0)
/bd{bind def}bind def
/ld{load def}bd
/GR/grestore ld
/GS/gsave ld
/RM/rmoveto ld
/C/curveto ld
/t/show ld
/L/lineto ld
/ML/setmiterlimit ld
/CT/concat ld
/f/fill ld
/N/newpath ld
/S/stroke ld
/CC/setcmykcolor ld
/A/ashow ld
/cp/closepath ld
/RC/setrgbcolor ld
/LJ/setlinejoin ld
/GC/setgray ld
/LW/setlinewidth ld
/M/moveto ld
/re {4 2 roll M
1 index 0 rlineto
0 exch rlineto
neg 0 rlineto
cp } bd
/_ctm matrix def
/_tm matrix def
/BT { _ctm currentmatrix pop matrix _tm copy pop 0 0 moveto } bd
/ET { _ctm setmatrix } bd
/iTm { _ctm setmatrix _tm concat } bd
/Tm { _tm astore pop iTm 0 0 moveto } bd
/ux 0.0 def
/uy 0.0 def
/F {
  /Tp exch def
  /Tf exch def
  Tf findfont Tp scalefont setfont
  /cf Tf def  /cs Tp def
} bd
/ULS {currentpoint /uy exch def /ux exch def} bd
/ULE {
  /Tcx currentpoint pop def
  gsave
  newpath
  cf findfont cs scalefont dup
  /FontMatrix get 0 get /Ts exch def /FontInfo get dup
  /UnderlinePosition get Ts mul /To exch def
  /UnderlineThickness get Ts mul /Tt exch def
  ux uy To add moveto  Tcx uy To add lineto
  Tt setlinewidth stroke
  grestore
} bd
/OLE {
  /Tcx currentpoint pop def
  gsave
  newpath
  cf findfont cs scalefont dup
  /FontMatrix get 0 get /Ts exch def /FontInfo get dup
  /UnderlinePosition get Ts mul /To exch def
  /UnderlineThickness get Ts mul /Tt exch def
  ux uy To add cs add moveto Tcx uy To add cs add lineto
  Tt setlinewidth stroke
  grestore
} bd
/SOE {
  /Tcx currentpoint pop def
  gsave
  newpath
  cf findfont cs scalefont dup
  /FontMatrix get 0 get /Ts exch def /FontInfo get dup
  /UnderlinePosition get Ts mul /To exch def
  /UnderlineThickness get Ts mul /Tt exch def
  ux uy To add cs 10 mul 26 idiv add moveto Tcx uy To add cs 10 mul 26 idiv add lineto
  Tt setlinewidth stroke
  grestore
} bd
/QT {
/Y22 exch store
/X22 exch store
/Y21 exch store
/X21 exch store
currentpoint
/Y21 load 2 mul add 3 div exch
/X21 load 2 mul add 3 div exch
/X21 load 2 mul /X22 load add 3 div
/Y21 load 2 mul /Y22 load add 3 div
/X22 load /Y22 load curveto
} bd
/SSPD {
dup length /d exch dict def
{
/v exch def
/k exch def
currentpagedevice k known {
/cpdv currentpagedevice k get def
v cpdv ne {
/upd false def
/nullv v type /nulltype eq def
/nullcpdv cpdv type /nulltype eq def
nullv nullcpdv or
{
/upd true def
} {
/sametype v type cpdv type eq def
sametype {
v type /arraytype eq {
/vlen v length def
/cpdvlen cpdv length def
vlen cpdvlen eq {
0 1 vlen 1 sub {
/i exch def
/obj v i get def
/cpdobj cpdv i get def
obj cpdobj ne {
/upd true def
exit
} if
} for
} {
/upd true def
} ifelse
} {
v type /dicttype eq {
v {
/dv exch def
/dk exch def
/cpddv cpdv dk get def
dv cpddv ne {
/upd true def
exit
} if
} forall
} {
/upd true def
} ifelse
} ifelse
} if
} ifelse
upd true eq {
d k v put
} if
} if
} if
} forall
d length 0 gt {
d setpagedevice
} if
} bd
/RE { % /NewFontName [NewEncodingArray] /FontName RE -
  findfont dup length dict begin
  {
    1 index /FID ne
    {def} {pop pop} ifelse
  } forall
  /Encoding exch def
  /FontName 1 index def
  currentdict definefont pop
  end
} bind def
%%EndResource
%%BeginResource: procset (Apache XML Graphics EPS ProcSet) 1.0 0
%%Version: 1.0 0
%%Copyright: (Copyright 2002-2003 The Apache Software Foundation. License terms: http://www.apache.org/licenses/LICENSE-2.0)
/BeginEPSF { %def
/b4_Inc_state save def         % Save state for cleanup
/dict_count countdictstack def % Count objects on dict stack
/op_count count 1 sub def      % Count objects on operand stack
userdict begin                 % Push userdict on dict stack
/showpage { } def              % Redefine showpage, { } = null proc
0 setgray 0 setlinecap         % Prepare graphics state
1 setlinewidth 0 setlinejoin
10 setmiterlimit [ ] 0 setdash newpath
/languagelevel where           % If level not equal to 1 then
{pop languagelevel             % set strokeadjust and
1 ne                           % overprint to their defaults.
{false setstrokeadjust false setoverprint
} if
} if
} bd
/EndEPSF { %def
count op_count sub {pop} repeat            % Clean up stacks
countdictstack dict_count sub {end} repeat
b4_Inc_state restore
} bd
%%EndResource
%FOPBeginFontDict
%%IncludeResource: font Courier-Oblique
%%IncludeResource: font Courier-BoldOblique
%%IncludeResource: font Courier-Bold
%%IncludeResource: font ZapfDingbats
%%IncludeResource: font Symbol
%%IncludeResource: font Helvetica
%%IncludeResource: font Helvetica-Oblique
%%IncludeResource: font Helvetica-Bold
%%IncludeResource: font Helvetica-BoldOblique
%%IncludeResource: font Times-Roman
%%IncludeResource: font Times-Italic
%%IncludeResource: font Times-Bold
%%IncludeResource: font Times-BoldItalic
%%IncludeResource: font Courier
%FOPEndFontDict
%%BeginResource: encoding WinAnsiEncoding
/WinAnsiEncoding [
/.notdef /.notdef /.notdef /.notdef /.notdef
/.notdef /.notdef /.notdef /.notdef /.notdef
/.notdef /.notdef /.notdef /.notdef /.notdef
/.notdef /.notdef /.notdef /.notdef /.notdef
/.notdef /.notdef /.notdef /.notdef /.notdef
/.notdef /.notdef /.notdef /.notdef /.notdef
/.notdef /.notdef /space /exclam /quotedbl
/numbersign /dollar /percent /ampersand /quotesingle
/parenleft /parenright /asterisk /plus /comma
/hyphen /period /slash /zero /one
/two /three /four /five /six
/seven /eight /nine /colon /semicolon
/less /equal /greater /question /at
/A /B /C /D /E
/F /G /H /I /J
/K /L /M /N /O
/P /Q /R /S /T
/U /V /W /X /Y
/Z /bracketleft /backslash /bracketright /asciicircum
/underscore /quoteleft /a /b /c
/d /e /f /g /h
/i /j /k /l /m
/n /o /p /q /r
/s /t /u /v /w
/x /y /z /braceleft /bar
/braceright /asciitilde /bullet /Euro /bullet
/quotesinglbase /florin /quotedblbase /ellipsis /dagger
/daggerdbl /circumflex /perthousand /Scaron /guilsinglleft
/OE /bullet /Zcaron /bullet /bullet
/quoteleft /quoteright /quotedblleft /quotedblright /bullet
/endash /emdash /asciitilde /trademark /scaron
/guilsinglright /oe /bullet /zcaron /Ydieresis
/space /exclamdown /cent /sterling /currency
/yen /brokenbar /section /dieresis /copyright
/ordfeminine /guillemotleft /logicalnot /sfthyphen /registered
/macron /degree /plusminus /twosuperior /threesuperior
/acute /mu /paragraph /middot /cedilla
/onesuperior /ordmasculine /guillemotright /onequarter /onehalf
/threequarters /questiondown /Agrave /Aacute /Acircumflex
/Atilde /Adieresis /Aring /AE /Ccedilla
/Egrave /Eacute /Ecircumflex /Edieresis /Igrave
/Iacute /Icircumflex /Idieresis /Eth /Ntilde
/Ograve /Oacute /Ocircumflex /Otilde /Odieresis
/multiply /Oslash /Ugrave /Uacute /Ucircumflex
/Udieresis /Yacute /Thorn /germandbls /agrave
/aacute /acircumflex /atilde /adieresis /aring
/ae /ccedilla /egrave /eacute /ecircumflex
/edieresis /igrave /iacute /icircumflex /idieresis
/eth /ntilde /ograve /oacute /ocircumflex
/otilde /odieresis /divide /oslash /ugrave
/uacute /ucircumflex /udieresis /yacute /thorn
/ydieresis
] def
%%EndResource
%FOPBeginFontReencode
/Courier-Oblique findfont
dup length dict begin
  {1 index /FID ne {def} {pop pop} ifelse} forall
  /Encoding WinAnsiEncoding def
  currentdict
end
/Courier-Oblique exch definefont pop
/Courier-BoldOblique findfont
dup length dict begin
  {1 index /FID ne {def} {pop pop} ifelse} forall
  /Encoding WinAnsiEncoding def
  currentdict
end
/Courier-BoldOblique exch definefont pop
/Courier-Bold findfont
dup length dict begin
  {1 index /FID ne {def} {pop pop} ifelse} forall
  /Encoding WinAnsiEncoding def
  currentdict
end
/Courier-Bold exch definefont pop
/Helvetica findfont
dup length dict begin
  {1 index /FID ne {def} {pop pop} ifelse} forall
  /Encoding WinAnsiEncoding def
  currentdict
end
/Helvetica exch definefont pop
/Helvetica-Oblique findfont
dup length dict begin
  {1 index /FID ne {def} {pop pop} ifelse} forall
  /Encoding WinAnsiEncoding def
  currentdict
end
/Helvetica-Oblique exch definefont pop
/Helvetica-Bold findfont
dup length dict begin
  {1 index /FID ne {def} {pop pop} ifelse} forall
  /Encoding WinAnsiEncoding def
  currentdict
end
/Helvetica-Bold exch definefont pop
/Helvetica-BoldOblique findfont
dup length dict begin
  {1 index /FID ne {def} {pop pop} ifelse} forall
  /Encoding WinAnsiEncoding def
  currentdict
end
/Helvetica-BoldOblique exch definefont pop
/Times-Roman findfont
dup length dict begin
  {1 index /FID ne {def} {pop pop} ifelse} forall
  /Encoding WinAnsiEncoding def
  currentdict
end
/Times-Roman exch definefont pop
/Times-Italic findfont
dup length dict begin
  {1 index /FID ne {def} {pop pop} ifelse} forall
  /Encoding WinAnsiEncoding def
  currentdict
end
/Times-Italic exch definefont pop
/Times-Bold findfont
dup length dict begin
  {1 index /FID ne {def} {pop pop} ifelse} forall
  /Encoding WinAnsiEncoding def
  currentdict
end
/Times-Bold exch definefont pop
/Times-BoldItalic findfont
dup length dict begin
  {1 index /FID ne {def} {pop pop} ifelse} forall
  /Encoding WinAnsiEncoding def
  currentdict
end
/Times-BoldItalic exch definefont pop
/Courier findfont
dup length dict begin
  {1 index /FID ne {def} {pop pop} ifelse} forall
  /Encoding WinAnsiEncoding def
  currentdict
end
/Courier exch definefont pop
%FOPEndFontReencode
%%EndProlog
%%Page: 1 1
%%PageBoundingBox: 0 0 420 315
%%BeginPageSetup
[1 0 0 -1 0 315] CT
%%EndPageSetup
GS
[0.75 0 0 0.75 0 0] CT
1 GC
N
0 0 560 420 re
f
GR
GS
[0.75 0 0 0.75 0 0] CT
1 GC
N
0 0 560 420 re
f
GR
GS
[0.75 0 0 0.75 0 0] CT
1 GC
N
63 374 M
415 374 L
415 31 L
63 31 L
cp
f
GR
GS
[0.75 0 0 0.75 0 0] CT
0.873 GC
1 LJ
0.667 LW
N
63 374 M
63 31 L
S
GR
GS
[0.75 0 0 0.75 0 0] CT
0.873 GC
1 LJ
0.667 LW
N
133.4 374 M
133.4 31 L
S
GR
GS
[0.75 0 0 0.75 0 0] CT
0.873 GC
1 LJ
0.667 LW
N
203.8 374 M
203.8 31 L
S
GR
GS
[0.75 0 0 0.75 0 0] CT
0.873 GC
1 LJ
0.667 LW
N
274.2 374 M
274.2 31 L
S
GR
GS
[0.75 0 0 0.75 0 0] CT
0.873 GC
1 LJ
0.667 LW
N
344.6 374 M
344.6 31 L
S
GR
GS
[0.75 0 0 0.75 0 0] CT
0.873 GC
1 LJ
0.667 LW
N
415 374 M
415 31 L
S
GR
GS
[0.75 0 0 0.75 0 0] CT
0.873 GC
1 LJ
0.667 LW
N
415 374 M
63 374 L
S
GR
GS
[0.75 0 0 0.75 0 0] CT
0.873 GC
1 LJ
0.667 LW
N
415 325 M
63 325 L
S
GR
GS
[0.75 0 0 0.75 0 0] CT
0.873 GC
1 LJ
0.667 LW
N
415 276 M
63 276 L
S
GR
GS
[0.75 0 0 0.75 0 0] CT
0.873 GC
1 LJ
0.667 LW
N
415 227 M
63 227 L
S
GR
GS
[0.75 0 0 0.75 0 0] CT
0.873 GC
1 LJ
0.667 LW
N
415 178 M
63 178 L
S
GR
GS
[0.75 0 0 0.75 0 0] CT
0.873 GC
1 LJ
0.667 LW
N
415 129 M
63 129 L
S
GR
GS
[0.75 0 0 0.75 0 0] CT
0.873 GC
1 LJ
0.667 LW
N
415 80 M
63 80 L
S
GR
GS
[0.75 0 0 0.75 0 0] CT
0.873 GC
1 LJ
0.667 LW
N
415 31 M
63 31 L
S
GR
GS
[0.75 0 0 0.75 0 0] CT
0.149 GC
2 setlinecap
1 LJ
0.667 LW
N
63 374 M
415 374 L
S
GR
GS
[0.75 0 0 0.75 0 0] CT
0.149 GC
2 setlinecap
1 LJ
0.667 LW
N
63 374 M
63 370.483 L
S
GR
GS
[0.75 0 0 0.75 0 0] CT
0.149 GC
2 setlinecap
1 LJ
0.667 LW
N
133.4 374 M
133.4 370.483 L
S
GR
GS
[0.75 0 0 0.75 0 0] CT
0.149 GC
2 setlinecap
1 LJ
0.667 LW
N
203.8 374 M
203.8 370.483 L
S
GR
GS
[0.75 0 0 0.75 0 0] CT
0.149 GC
2 setlinecap
1 LJ
0.667 LW
N
274.2 374 M
274.2 370.483 L
S
GR
GS
[0.75 0 0 0.75 0 0] CT
0.149 GC
2 setlinecap
1 LJ
0.667 LW
N
344.6 374 M
344.6 370.483 L
S
GR
GS
[0.75 0 0 0.75 0 0] CT
0.149 GC
2 setlinecap
1 LJ
0.667 LW
N
415 374 M
415 370.483 L
S
GR
GS
[0.75 0 0 0.75 47.25 284.49996] CT
0.149 GC
/Helvetica 13.333 F
GS
[1 0 0 1 0 0] CT
-4.5 13 moveto 
1 -1 scale
(0) t 
GR
GR
GS
[0.75 0 0 0.75 100.05 284.49996] CT
0.149 GC
/Helvetica 13.333 F
GS
[1 0 0 1 0 0] CT
-13 13 moveto 
1 -1 scale
(200) t 
GR
GR
GS
[0.75 0 0 0.75 152.85 284.49996] CT
0.149 GC
/Helvetica 13.333 F
GS
[1 0 0 1 0 0] CT
-13 13 moveto 
1 -1 scale
(400) t 
GR
GR
GS
[0.75 0 0 0.75 205.65001 284.49996] CT
0.149 GC
/Helvetica 13.333 F
GS
[1 0 0 1 0 0] CT
-13 13 moveto 
1 -1 scale
(600) t 
GR
GR
GS
[0.75 0 0 0.75 258.45 284.49996] CT
0.149 GC
/Helvetica 13.333 F
GS
[1 0 0 1 0 0] CT
-13 13 moveto 
1 -1 scale
(800) t 
GR
GR
GS
[0.75 0 0 0.75 311.25 284.49996] CT
0.149 GC
/Helvetica 13.333 F
GS
[1 0 0 1 0 0] CT
-17 13 moveto 
1 -1 scale
(1000) t 
GR
GR
GS
[0.75 0 0 0.75 179.25013 297.50002] CT
0.149 GC
/Helvetica 16 F
GS
[1 0 0 1 0 0] CT
-47 16 moveto 
1 -1 scale
(Matrix sizes) t 
GR
GR
GS
[0.75 0 0 0.75 0 0] CT
0.149 GC
2 setlinecap
1 LJ
0.667 LW
N
63 374 M
63 31 L
S
GR
GS
[0.75 0 0 0.75 0 0] CT
0.149 GC
2 setlinecap
1 LJ
0.667 LW
N
63 374 M
66.517 374 L
S
GR
GS
[0.75 0 0 0.75 0 0] CT
0.149 GC
2 setlinecap
1 LJ
0.667 LW
N
63 325 M
66.517 325 L
S
GR
GS
[0.75 0 0 0.75 0 0] CT
0.149 GC
2 setlinecap
1 LJ
0.667 LW
N
63 276 M
66.517 276 L
S
GR
GS
[0.75 0 0 0.75 0 0] CT
0.149 GC
2 setlinecap
1 LJ
0.667 LW
N
63 227 M
66.517 227 L
S
GR
GS
[0.75 0 0 0.75 0 0] CT
0.149 GC
2 setlinecap
1 LJ
0.667 LW
N
63 178 M
66.517 178 L
S
GR
GS
[0.75 0 0 0.75 0 0] CT
0.149 GC
2 setlinecap
1 LJ
0.667 LW
N
63 129 M
66.517 129 L
S
GR
GS
[0.75 0 0 0.75 0 0] CT
0.149 GC
2 setlinecap
1 LJ
0.667 LW
N
63 80 M
66.517 80 L
S
GR
GS
[0.75 0 0 0.75 0 0] CT
0.149 GC
2 setlinecap
1 LJ
0.667 LW
N
63 31 M
66.517 31 L
S
GR
GS
[0.75 0 0 0.75 43.25 280.5] CT
0.149 GC
/Helvetica 13.333 F
GS
[1 0 0 1 0 0] CT
-34 5 moveto 
1 -1 scale
(2900) t 
GR
GR
GS
[0.75 0 0 0.75 43.25 243.75] CT
0.149 GC
/Helvetica 13.333 F
GS
[1 0 0 1 0 0] CT
-34 5 moveto 
1 -1 scale
(3000) t 
GR
GR
GS
[0.75 0 0 0.75 43.25 207] CT
0.149 GC
/Helvetica 13.333 F
GS
[1 0 0 1 0 0] CT
-34 5 moveto 
1 -1 scale
(3100) t 
GR
GR
GS
[0.75 0 0 0.75 43.25 170.25] CT
0.149 GC
/Helvetica 13.333 F
GS
[1 0 0 1 0 0] CT
-34 5 moveto 
1 -1 scale
(3200) t 
GR
GR
GS
[0.75 0 0 0.75 43.25 133.5] CT
0.149 GC
/Helvetica 13.333 F
GS
[1 0 0 1 0 0] CT
-34 5 moveto 
1 -1 scale
(3300) t 
GR
GR
GS
[0.75 0 0 0.75 43.25 96.75] CT
0.149 GC
/Helvetica 13.333 F
GS
[1 0 0 1 0 0] CT
-34 5 moveto 
1 -1 scale
(3400) t 
GR
GR
GS
[0.75 0 0 0.75 43.25 60] CT
0.149 GC
/Helvetica 13.333 F
GS
[1 0 0 1 0 0] CT
-34 5 moveto 
1 -1 scale
(3500) t 
GR
GR
GS
[0.75 0 0 0.75 43.25 23.25] CT
0.149 GC
/Helvetica 13.333 F
GS
[1 0 0 1 0 0] CT
-34 5 moveto 
1 -1 scale
(3600) t 
GR
GR
GS
[0 -0.75 0.75 0 15 151.87491] CT
0.149 GC
/Helvetica 16 F
GS
[1 0 0 1 0 0] CT
-91 -4 moveto 
1 -1 scale
(Performance [MFLOP/s]) t 
GR
GR
GS
[0.75 0 0 0.75 0 0] CT
0 0.447 0.741 RC
1 LJ
1.6 LW
N
66.52 325.78 M
80.6 61.496 L
98.2 88.427 L
133.4 119.201 L
239 139.469 L
327 146.435 L
415 183.86 L
S
GR
GS
[0.75 0 0 0.75 49.89 244.33472] CT
0 0.447 0.741 RC
N
3.333 0 M
3.333 1.841 1.841 3.333 0 3.333 C
-1.841 3.333 -3.333 1.841 -3.333 0 C
-3.333 -1.841 -1.841 -3.333 0 -3.333 C
1.841 -3.333 3.333 -1.841 3.333 0 C
cp
f
GR
GS
[0.75 0 0 0.75 60.45 46.12212] CT
0 0.447 0.741 RC
N
/f-1867764608{3.333 0 M
3.333 1.841 1.841 3.333 0 3.333 C
-1.841 3.333 -3.333 1.841 -3.333 0 C
-3.333 -1.841 -1.841 -3.333 0 -3.333 C
1.841 -3.333 3.333 -1.841 3.333 0 C
cp}def
f-1867764608
f
GR
GS
[0.75 0 0 0.75 73.65 66.32062] CT
0 0.447 0.741 RC
N
f-1867764608
f
GR
GS
[0.75 0 0 0.75 100.05 89.40072] CT
0 0.447 0.741 RC
N
f-1867764608
f
GR
GS
[0.75 0 0 0.75 179.25 104.602] CT
0 0.447 0.741 RC
N
f-1867764608
f
GR
GS
[0.75 0 0 0.75 245.25 109.8264] CT
0 0.447 0.741 RC
N
f-1867764608
f
GR
GS
[0.75 0 0 0.75 311.25 137.89493] CT
0 0.447 0.741 RC
N
f-1867764608
f
GR
GS
[0.75 0 0 0.75 0 0] CT
0.851 0.325 0.098 RC
1 LJ
1.6 LW
N
66.52 353.224 M
80.6 98.324 L
98.2 126.672 L
133.4 156.456 L
239 249.056 L
327 276.667 L
415 308.454 L
S
GR
GS
[0.75 0 0 0.75 49.89 264.91805] CT
0.851 0.325 0.098 RC
N
f-1867764608
f
GR
GS
[0.75 0 0 0.75 60.45 73.74267] CT
0.851 0.325 0.098 RC
N
f-1867764608
f
GR
GS
[0.75 0 0 0.75 73.65 95.00401] CT
0.851 0.325 0.098 RC
N
f-1867764608
f
GR
GS
[0.75 0 0 0.75 100.05 117.34175] CT
0.851 0.325 0.098 RC
N
f-1867764608
f
GR
GS
[0.75 0 0 0.75 179.25 186.7919] CT
0.851 0.325 0.098 RC
N
f-1867764608
f
GR
GS
[0.75 0 0 0.75 245.25 207.5002] CT
0.851 0.325 0.098 RC
N
f-1867764608
f
GR
GS
[0.75 0 0 0.75 311.25 231.3406] CT
0.851 0.325 0.098 RC
N
f-1867764608
f
GR
GS
[0.75 0 0 0.75 0 0] CT
0.929 0.694 0.125 RC
1 LJ
1.6 LW
N
66.52 336.422 M
80.6 87.487 L
98.2 97.591 L
133.4 115.128 L
239 138.158 L
327 135.09 L
415 115.614 L
S
GR
GS
[0.75 0 0 0.75 49.89 252.3168] CT
0.929 0.694 0.125 RC
N
f-1867764608
f
GR
GS
[0.75 0 0 0.75 60.45 65.61541] CT
0.929 0.694 0.125 RC
N
f-1867764608
f
GR
GS
[0.75 0 0 0.75 73.65 73.19321] CT
0.929 0.694 0.125 RC
N
f-1867764608
f
GR
GS
[0.75 0 0 0.75 100.05 86.3457] CT
0.929 0.694 0.125 RC
N
f-1867764608
f
GR
GS
[0.75 0 0 0.75 179.25 103.61855] CT
0.929 0.694 0.125 RC
N
f-1867764608
f
GR
GS
[0.75 0 0 0.75 245.25 101.31765] CT
0.929 0.694 0.125 RC
N
f-1867764608
f
GR
GS
[0.75 0 0 0.75 311.25 86.71059] CT
0.929 0.694 0.125 RC
N
f-1867764608
f
GR
GS
[0.75 0 0 0.75 0 0] CT
0.494 0.184 0.557 RC
1 LJ
1.6 LW
N
66.52 335.952 M
80.6 86.489 L
98.2 116.978 L
133.4 155.374 L
239 228.766 L
327 204.46 L
415 210.745 L
S
GR
GS
[0.75 0 0 0.75 49.89 251.96365] CT
0.494 0.184 0.557 RC
N
f-1867764608
f
GR
GS
[0.75 0 0 0.75 60.45 64.86677] CT
0.494 0.184 0.557 RC
N
f-1867764608
f
GR
GS
[0.75 0 0 0.75 73.65 87.73378] CT
0.494 0.184 0.557 RC
N
f-1867764608
f
GR
GS
[0.75 0 0 0.75 100.05 116.53031] CT
0.494 0.184 0.557 RC
N
f-1867764608
f
GR
GS
[0.75 0 0 0.75 179.25 171.57447] CT
0.494 0.184 0.557 RC
N
f-1867764608
f
GR
GS
[0.75 0 0 0.75 245.25 153.34501] CT
0.494 0.184 0.557 RC
N
f-1867764608
f
GR
GS
[0.75 0 0 0.75 311.25 158.05853] CT
0.494 0.184 0.557 RC
N
f-1867764608
f
GR
GS
[0.75 0 0 0.75 0 0] CT
0.467 0.675 0.188 RC
1 LJ
1.6 LW
N
66.52 339.756 M
80.6 93.919 L
98.2 127.986 L
133.4 157.128 L
239 226.69 L
327 219.014 L
415 290.112 L
S
GR
GS
[0.75 0 0 0.75 49.89 254.81726] CT
0.467 0.675 0.188 RC
N
f-1867764608
f
GR
GS
[0.75 0 0 0.75 60.45 70.43921] CT
0.467 0.675 0.188 RC
N
f-1867764608
f
GR
GS
[0.75 0 0 0.75 73.65 95.98961] CT
0.467 0.675 0.188 RC
N
f-1867764608
f
GR
GS
[0.75 0 0 0.75 100.05 117.84563] CT
0.467 0.675 0.188 RC
N
f-1867764608
f
GR
GS
[0.75 0 0 0.75 179.25 170.01771] CT
0.467 0.675 0.188 RC
N
f-1867764608
f
GR
GS
[0.75 0 0 0.75 245.25 164.26045] CT
0.467 0.675 0.188 RC
N
f-1867764608
f
GR
GS
[0.75 0 0 0.75 311.25 217.58402] CT
0.467 0.675 0.188 RC
N
f-1867764608
f
GR
GS
[0.75 0 0 0.75 0 0] CT
0.302 0.745 0.933 RC
1 LJ
1.6 LW
N
66.52 370.247 M
80.6 92.085 L
98.2 123.896 L
133.4 152.656 L
239 178.378 L
327 218.756 L
415 220.008 L
S
GR
GS
[0.75 0 0 0.75 49.89 277.68535] CT
0.302 0.745 0.933 RC
N
f-1867764608
f
GR
GS
[0.75 0 0 0.75 60.45 69.06369] CT
0.302 0.745 0.933 RC
N
f-1867764608
f
GR
GS
[0.75 0 0 0.75 73.65 92.92176] CT
0.302 0.745 0.933 RC
N
f-1867764608
f
GR
GS
[0.75 0 0 0.75 100.05 114.49219] CT
0.302 0.745 0.933 RC
N
f-1867764608
f
GR
GS
[0.75 0 0 0.75 179.25 133.7837] CT
0.302 0.745 0.933 RC
N
f-1867764608
f
GR
GS
[0.75 0 0 0.75 245.25 164.06683] CT
0.302 0.745 0.933 RC
N
f-1867764608
f
GR
GS
[0.75 0 0 0.75 311.25 165.00577] CT
0.302 0.745 0.933 RC
N
f-1867764608
f
GR
GS
[0.75 0 0 0.75 0 0] CT
1 GC
N
517 121 M
517 31 L
443 31 L
443 121 L
cp
f
GR
GS
[0.75 0 0 0.75 367.5 29.96271] CT
/Helvetica 10.667 F
GS
[1 0 0 1 0 0] CT
0 4 moveto 
1 -1 scale
(kmn) t 
GR
GR
GS
[0.75 0 0 0.75 0 0] CT
0 0.447 0.741 RC
1 LJ
1.6 LW
N
447 39.95 M
487 39.95 L
S
GR
GS
[0.75 0 0 0.75 350.25 29.96271] CT
0 0.447 0.741 RC
N
f-1867764608
f
GR
GS
[0.75 0 0 0.75 367.5 40.77763] CT
/Helvetica 10.667 F
GS
[1 0 0 1 0 0] CT
0 4 moveto 
1 -1 scale
(knm) t 
GR
GR
GS
[0.75 0 0 0.75 0 0] CT
0.851 0.325 0.098 RC
1 LJ
1.6 LW
N
447 54.37 M
487 54.37 L
S
GR
GS
[0.75 0 0 0.75 350.25 40.77763] CT
0.851 0.325 0.098 RC
N
f-1867764608
f
GR
GS
[0.75 0 0 0.75 367.5 51.59254] CT
/Helvetica 10.667 F
GS
[1 0 0 1 0 0] CT
0 4 moveto 
1 -1 scale
(mkn) t 
GR
GR
GS
[0.75 0 0 0.75 0 0] CT
0.929 0.694 0.125 RC
1 LJ
1.6 LW
N
447 68.79 M
487 68.79 L
S
GR
GS
[0.75 0 0 0.75 350.25 51.59254] CT
0.929 0.694 0.125 RC
N
f-1867764608
f
GR
GS
[0.75 0 0 0.75 367.5 62.40746] CT
/Helvetica 10.667 F
GS
[1 0 0 1 0 0] CT
0 4 moveto 
1 -1 scale
(mnk) t 
GR
GR
GS
[0.75 0 0 0.75 0 0] CT
0.494 0.184 0.557 RC
1 LJ
1.6 LW
N
447 83.21 M
487 83.21 L
S
GR
GS
[0.75 0 0 0.75 350.25 62.40746] CT
0.494 0.184 0.557 RC
N
f-1867764608
f
GR
GS
[0.75 0 0 0.75 367.5 73.22238] CT
/Helvetica 10.667 F
GS
[1 0 0 1 0 0] CT
0 4 moveto 
1 -1 scale
(nkm) t 
GR
GR
GS
[0.75 0 0 0.75 0 0] CT
0.467 0.675 0.188 RC
1 LJ
1.6 LW
N
447 97.63 M
487 97.63 L
S
GR
GS
[0.75 0 0 0.75 350.25 73.22238] CT
0.467 0.675 0.188 RC
N
f-1867764608
f
GR
GS
[0.75 0 0 0.75 367.5 84.03729] CT
/Helvetica 10.667 F
GS
[1 0 0 1 0 0] CT
0 4 moveto 
1 -1 scale
(nmk) t 
GR
GR
GS
[0.75 0 0 0.75 0 0] CT
0.302 0.745 0.933 RC
1 LJ
1.6 LW
N
447 112.05 M
487 112.05 L
S
GR
GS
[0.75 0 0 0.75 350.25 84.03729] CT
0.302 0.745 0.933 RC
N
f-1867764608
f
GR
GS
[0.75 0 0 0.75 0 0] CT
0.149 GC
10.0 ML
0.667 LW
N
443 121 M
443 31 L
517 31 L
517 121 L
cp
S
GR
%%Trailer
%%Pages: 1
%%EOF
