%!PS-Adobe-3.0 EPSF-3.0
%%Creator: (MATLAB, The Mathworks, Inc. Version 9.4.0.813654 \(R2018a\). Operating System: Linux)
%%Title: 02614-HPC/Assignments/assignment1/results/blk_permutations/permutation_comp2.eps
%%CreationDate: 2019-01-10T14:09:31
%%Pages: (atend)
%%BoundingBox:     6     5   388   296
%%LanguageLevel: 3
%%EndComments
%%BeginProlog
%%BeginResource: procset (Apache XML Graphics Std ProcSet) 1.2 0
%%Version: 1.2 0
%%Copyright: (Copyright 2001-2003,2010 The Apache Software Foundation. License terms: http://www.apache.org/licenses/LICENSE-2.0)
/bd{bind def}bind def
/ld{load def}bd
/GR/grestore ld
/GS/gsave ld
/RM/rmoveto ld
/C/curveto ld
/t/show ld
/L/lineto ld
/ML/setmiterlimit ld
/CT/concat ld
/f/fill ld
/N/newpath ld
/S/stroke ld
/CC/setcmykcolor ld
/A/ashow ld
/cp/closepath ld
/RC/setrgbcolor ld
/LJ/setlinejoin ld
/GC/setgray ld
/LW/setlinewidth ld
/M/moveto ld
/re {4 2 roll M
1 index 0 rlineto
0 exch rlineto
neg 0 rlineto
cp } bd
/_ctm matrix def
/_tm matrix def
/BT { _ctm currentmatrix pop matrix _tm copy pop 0 0 moveto } bd
/ET { _ctm setmatrix } bd
/iTm { _ctm setmatrix _tm concat } bd
/Tm { _tm astore pop iTm 0 0 moveto } bd
/ux 0.0 def
/uy 0.0 def
/F {
  /Tp exch def
  /Tf exch def
  Tf findfont Tp scalefont setfont
  /cf Tf def  /cs Tp def
} bd
/ULS {currentpoint /uy exch def /ux exch def} bd
/ULE {
  /Tcx currentpoint pop def
  gsave
  newpath
  cf findfont cs scalefont dup
  /FontMatrix get 0 get /Ts exch def /FontInfo get dup
  /UnderlinePosition get Ts mul /To exch def
  /UnderlineThickness get Ts mul /Tt exch def
  ux uy To add moveto  Tcx uy To add lineto
  Tt setlinewidth stroke
  grestore
} bd
/OLE {
  /Tcx currentpoint pop def
  gsave
  newpath
  cf findfont cs scalefont dup
  /FontMatrix get 0 get /Ts exch def /FontInfo get dup
  /UnderlinePosition get Ts mul /To exch def
  /UnderlineThickness get Ts mul /Tt exch def
  ux uy To add cs add moveto Tcx uy To add cs add lineto
  Tt setlinewidth stroke
  grestore
} bd
/SOE {
  /Tcx currentpoint pop def
  gsave
  newpath
  cf findfont cs scalefont dup
  /FontMatrix get 0 get /Ts exch def /FontInfo get dup
  /UnderlinePosition get Ts mul /To exch def
  /UnderlineThickness get Ts mul /Tt exch def
  ux uy To add cs 10 mul 26 idiv add moveto Tcx uy To add cs 10 mul 26 idiv add lineto
  Tt setlinewidth stroke
  grestore
} bd
/QT {
/Y22 exch store
/X22 exch store
/Y21 exch store
/X21 exch store
currentpoint
/Y21 load 2 mul add 3 div exch
/X21 load 2 mul add 3 div exch
/X21 load 2 mul /X22 load add 3 div
/Y21 load 2 mul /Y22 load add 3 div
/X22 load /Y22 load curveto
} bd
/SSPD {
dup length /d exch dict def
{
/v exch def
/k exch def
currentpagedevice k known {
/cpdv currentpagedevice k get def
v cpdv ne {
/upd false def
/nullv v type /nulltype eq def
/nullcpdv cpdv type /nulltype eq def
nullv nullcpdv or
{
/upd true def
} {
/sametype v type cpdv type eq def
sametype {
v type /arraytype eq {
/vlen v length def
/cpdvlen cpdv length def
vlen cpdvlen eq {
0 1 vlen 1 sub {
/i exch def
/obj v i get def
/cpdobj cpdv i get def
obj cpdobj ne {
/upd true def
exit
} if
} for
} {
/upd true def
} ifelse
} {
v type /dicttype eq {
v {
/dv exch def
/dk exch def
/cpddv cpdv dk get def
dv cpddv ne {
/upd true def
exit
} if
} forall
} {
/upd true def
} ifelse
} ifelse
} if
} ifelse
upd true eq {
d k v put
} if
} if
} if
} forall
d length 0 gt {
d setpagedevice
} if
} bd
/RE { % /NewFontName [NewEncodingArray] /FontName RE -
  findfont dup length dict begin
  {
    1 index /FID ne
    {def} {pop pop} ifelse
  } forall
  /Encoding exch def
  /FontName 1 index def
  currentdict definefont pop
  end
} bind def
%%EndResource
%%BeginResource: procset (Apache XML Graphics EPS ProcSet) 1.0 0
%%Version: 1.0 0
%%Copyright: (Copyright 2002-2003 The Apache Software Foundation. License terms: http://www.apache.org/licenses/LICENSE-2.0)
/BeginEPSF { %def
/b4_Inc_state save def         % Save state for cleanup
/dict_count countdictstack def % Count objects on dict stack
/op_count count 1 sub def      % Count objects on operand stack
userdict begin                 % Push userdict on dict stack
/showpage { } def              % Redefine showpage, { } = null proc
0 setgray 0 setlinecap         % Prepare graphics state
1 setlinewidth 0 setlinejoin
10 setmiterlimit [ ] 0 setdash newpath
/languagelevel where           % If level not equal to 1 then
{pop languagelevel             % set strokeadjust and
1 ne                           % overprint to their defaults.
{false setstrokeadjust false setoverprint
} if
} if
} bd
/EndEPSF { %def
count op_count sub {pop} repeat            % Clean up stacks
countdictstack dict_count sub {end} repeat
b4_Inc_state restore
} bd
%%EndResource
%FOPBeginFontDict
%%IncludeResource: font Courier-Oblique
%%IncludeResource: font Courier-BoldOblique
%%IncludeResource: font Courier-Bold
%%IncludeResource: font ZapfDingbats
%%IncludeResource: font Symbol
%%IncludeResource: font Helvetica
%%IncludeResource: font Helvetica-Oblique
%%IncludeResource: font Helvetica-Bold
%%IncludeResource: font Helvetica-BoldOblique
%%IncludeResource: font Times-Roman
%%IncludeResource: font Times-Italic
%%IncludeResource: font Times-Bold
%%IncludeResource: font Times-BoldItalic
%%IncludeResource: font Courier
%FOPEndFontDict
%%BeginResource: encoding WinAnsiEncoding
/WinAnsiEncoding [
/.notdef /.notdef /.notdef /.notdef /.notdef
/.notdef /.notdef /.notdef /.notdef /.notdef
/.notdef /.notdef /.notdef /.notdef /.notdef
/.notdef /.notdef /.notdef /.notdef /.notdef
/.notdef /.notdef /.notdef /.notdef /.notdef
/.notdef /.notdef /.notdef /.notdef /.notdef
/.notdef /.notdef /space /exclam /quotedbl
/numbersign /dollar /percent /ampersand /quotesingle
/parenleft /parenright /asterisk /plus /comma
/hyphen /period /slash /zero /one
/two /three /four /five /six
/seven /eight /nine /colon /semicolon
/less /equal /greater /question /at
/A /B /C /D /E
/F /G /H /I /J
/K /L /M /N /O
/P /Q /R /S /T
/U /V /W /X /Y
/Z /bracketleft /backslash /bracketright /asciicircum
/underscore /quoteleft /a /b /c
/d /e /f /g /h
/i /j /k /l /m
/n /o /p /q /r
/s /t /u /v /w
/x /y /z /braceleft /bar
/braceright /asciitilde /bullet /Euro /bullet
/quotesinglbase /florin /quotedblbase /ellipsis /dagger
/daggerdbl /circumflex /perthousand /Scaron /guilsinglleft
/OE /bullet /Zcaron /bullet /bullet
/quoteleft /quoteright /quotedblleft /quotedblright /bullet
/endash /emdash /asciitilde /trademark /scaron
/guilsinglright /oe /bullet /zcaron /Ydieresis
/space /exclamdown /cent /sterling /currency
/yen /brokenbar /section /dieresis /copyright
/ordfeminine /guillemotleft /logicalnot /sfthyphen /registered
/macron /degree /plusminus /twosuperior /threesuperior
/acute /mu /paragraph /middot /cedilla
/onesuperior /ordmasculine /guillemotright /onequarter /onehalf
/threequarters /questiondown /Agrave /Aacute /Acircumflex
/Atilde /Adieresis /Aring /AE /Ccedilla
/Egrave /Eacute /Ecircumflex /Edieresis /Igrave
/Iacute /Icircumflex /Idieresis /Eth /Ntilde
/Ograve /Oacute /Ocircumflex /Otilde /Odieresis
/multiply /Oslash /Ugrave /Uacute /Ucircumflex
/Udieresis /Yacute /Thorn /germandbls /agrave
/aacute /acircumflex /atilde /adieresis /aring
/ae /ccedilla /egrave /eacute /ecircumflex
/edieresis /igrave /iacute /icircumflex /idieresis
/eth /ntilde /ograve /oacute /ocircumflex
/otilde /odieresis /divide /oslash /ugrave
/uacute /ucircumflex /udieresis /yacute /thorn
/ydieresis
] def
%%EndResource
%FOPBeginFontReencode
/Courier-Oblique findfont
dup length dict begin
  {1 index /FID ne {def} {pop pop} ifelse} forall
  /Encoding WinAnsiEncoding def
  currentdict
end
/Courier-Oblique exch definefont pop
/Courier-BoldOblique findfont
dup length dict begin
  {1 index /FID ne {def} {pop pop} ifelse} forall
  /Encoding WinAnsiEncoding def
  currentdict
end
/Courier-BoldOblique exch definefont pop
/Courier-Bold findfont
dup length dict begin
  {1 index /FID ne {def} {pop pop} ifelse} forall
  /Encoding WinAnsiEncoding def
  currentdict
end
/Courier-Bold exch definefont pop
/Helvetica findfont
dup length dict begin
  {1 index /FID ne {def} {pop pop} ifelse} forall
  /Encoding WinAnsiEncoding def
  currentdict
end
/Helvetica exch definefont pop
/Helvetica-Oblique findfont
dup length dict begin
  {1 index /FID ne {def} {pop pop} ifelse} forall
  /Encoding WinAnsiEncoding def
  currentdict
end
/Helvetica-Oblique exch definefont pop
/Helvetica-Bold findfont
dup length dict begin
  {1 index /FID ne {def} {pop pop} ifelse} forall
  /Encoding WinAnsiEncoding def
  currentdict
end
/Helvetica-Bold exch definefont pop
/Helvetica-BoldOblique findfont
dup length dict begin
  {1 index /FID ne {def} {pop pop} ifelse} forall
  /Encoding WinAnsiEncoding def
  currentdict
end
/Helvetica-BoldOblique exch definefont pop
/Times-Roman findfont
dup length dict begin
  {1 index /FID ne {def} {pop pop} ifelse} forall
  /Encoding WinAnsiEncoding def
  currentdict
end
/Times-Roman exch definefont pop
/Times-Italic findfont
dup length dict begin
  {1 index /FID ne {def} {pop pop} ifelse} forall
  /Encoding WinAnsiEncoding def
  currentdict
end
/Times-Italic exch definefont pop
/Times-Bold findfont
dup length dict begin
  {1 index /FID ne {def} {pop pop} ifelse} forall
  /Encoding WinAnsiEncoding def
  currentdict
end
/Times-Bold exch definefont pop
/Times-BoldItalic findfont
dup length dict begin
  {1 index /FID ne {def} {pop pop} ifelse} forall
  /Encoding WinAnsiEncoding def
  currentdict
end
/Times-BoldItalic exch definefont pop
/Courier findfont
dup length dict begin
  {1 index /FID ne {def} {pop pop} ifelse} forall
  /Encoding WinAnsiEncoding def
  currentdict
end
/Courier exch definefont pop
%FOPEndFontReencode
%%EndProlog
%%Page: 1 1
%%PageBoundingBox: 0 0 420 315
%%BeginPageSetup
[1 0 0 -1 0 315] CT
%%EndPageSetup
GS
[0.75 0 0 0.75 0 0] CT
1 GC
N
0 0 560 420 re
f
GR
GS
[0.75 0 0 0.75 0 0] CT
1 GC
N
0 0 560 420 re
f
GR
GS
[0.75 0 0 0.75 0 0] CT
1 GC
N
60 374 M
415 374 L
415 31 L
60 31 L
cp
f
GR
GS
[0.75 0 0 0.75 0 0] CT
0.873 GC
1 LJ
0.667 LW
N
60 374 M
60 31 L
S
GR
GS
[0.75 0 0 0.75 0 0] CT
0.873 GC
1 LJ
0.667 LW
N
131 374 M
131 31 L
S
GR
GS
[0.75 0 0 0.75 0 0] CT
0.873 GC
1 LJ
0.667 LW
N
202 374 M
202 31 L
S
GR
GS
[0.75 0 0 0.75 0 0] CT
0.873 GC
1 LJ
0.667 LW
N
273 374 M
273 31 L
S
GR
GS
[0.75 0 0 0.75 0 0] CT
0.873 GC
1 LJ
0.667 LW
N
344 374 M
344 31 L
S
GR
GS
[0.75 0 0 0.75 0 0] CT
0.873 GC
1 LJ
0.667 LW
N
415 374 M
415 31 L
S
GR
GS
[0.75 0 0 0.75 0 0] CT
0.873 GC
1 LJ
0.667 LW
N
415 374 M
60 374 L
S
GR
GS
[0.75 0 0 0.75 0 0] CT
0.873 GC
1 LJ
0.667 LW
N
415 325 M
60 325 L
S
GR
GS
[0.75 0 0 0.75 0 0] CT
0.873 GC
1 LJ
0.667 LW
N
415 276 M
60 276 L
S
GR
GS
[0.75 0 0 0.75 0 0] CT
0.873 GC
1 LJ
0.667 LW
N
415 227 M
60 227 L
S
GR
GS
[0.75 0 0 0.75 0 0] CT
0.873 GC
1 LJ
0.667 LW
N
415 178 M
60 178 L
S
GR
GS
[0.75 0 0 0.75 0 0] CT
0.873 GC
1 LJ
0.667 LW
N
415 129 M
60 129 L
S
GR
GS
[0.75 0 0 0.75 0 0] CT
0.873 GC
1 LJ
0.667 LW
N
415 80 M
60 80 L
S
GR
GS
[0.75 0 0 0.75 0 0] CT
0.873 GC
1 LJ
0.667 LW
N
415 31 M
60 31 L
S
GR
GS
[0.75 0 0 0.75 0 0] CT
0.149 GC
2 setlinecap
1 LJ
0.667 LW
N
60 374 M
415 374 L
S
GR
GS
[0.75 0 0 0.75 0 0] CT
0.149 GC
2 setlinecap
1 LJ
0.667 LW
N
60 374 M
60 370.45 L
S
GR
GS
[0.75 0 0 0.75 0 0] CT
0.149 GC
2 setlinecap
1 LJ
0.667 LW
N
131 374 M
131 370.45 L
S
GR
GS
[0.75 0 0 0.75 0 0] CT
0.149 GC
2 setlinecap
1 LJ
0.667 LW
N
202 374 M
202 370.45 L
S
GR
GS
[0.75 0 0 0.75 0 0] CT
0.149 GC
2 setlinecap
1 LJ
0.667 LW
N
273 374 M
273 370.45 L
S
GR
GS
[0.75 0 0 0.75 0 0] CT
0.149 GC
2 setlinecap
1 LJ
0.667 LW
N
344 374 M
344 370.45 L
S
GR
GS
[0.75 0 0 0.75 0 0] CT
0.149 GC
2 setlinecap
1 LJ
0.667 LW
N
415 374 M
415 370.45 L
S
GR
GS
[0.75 0 0 0.75 45 284.50001] CT
0.149 GC
/Helvetica 13.333 F
GS
[1 0 0 1 0 0] CT
-4.5 13 moveto 
1 -1 scale
(0) t 
GR
GR
GS
[0.75 0 0 0.75 98.25 284.50001] CT
0.149 GC
/Helvetica 13.333 F
GS
[1 0 0 1 0 0] CT
-13 13 moveto 
1 -1 scale
(200) t 
GR
GR
GS
[0.75 0 0 0.75 151.5 284.50001] CT
0.149 GC
/Helvetica 13.333 F
GS
[1 0 0 1 0 0] CT
-13 13 moveto 
1 -1 scale
(400) t 
GR
GR
GS
[0.75 0 0 0.75 204.75 284.50001] CT
0.149 GC
/Helvetica 13.333 F
GS
[1 0 0 1 0 0] CT
-13 13 moveto 
1 -1 scale
(600) t 
GR
GR
GS
[0.75 0 0 0.75 258 284.50001] CT
0.149 GC
/Helvetica 13.333 F
GS
[1 0 0 1 0 0] CT
-13 13 moveto 
1 -1 scale
(800) t 
GR
GR
GS
[0.75 0 0 0.75 311.25 284.50001] CT
0.149 GC
/Helvetica 13.333 F
GS
[1 0 0 1 0 0] CT
-17 13 moveto 
1 -1 scale
(1000) t 
GR
GR
GS
[0.75 0 0 0.75 178.12513 297.50002] CT
0.149 GC
/Helvetica 16 F
GS
[1 0 0 1 0 0] CT
-47 16 moveto 
1 -1 scale
(Matrix sizes) t 
GR
GR
GS
[0.75 0 0 0.75 0 0] CT
0.149 GC
2 setlinecap
1 LJ
0.667 LW
N
60 374 M
60 31 L
S
GR
GS
[0.75 0 0 0.75 0 0] CT
0.149 GC
2 setlinecap
1 LJ
0.667 LW
N
60 374 M
63.55 374 L
S
GR
GS
[0.75 0 0 0.75 0 0] CT
0.149 GC
2 setlinecap
1 LJ
0.667 LW
N
60 325 M
63.55 325 L
S
GR
GS
[0.75 0 0 0.75 0 0] CT
0.149 GC
2 setlinecap
1 LJ
0.667 LW
N
60 276 M
63.55 276 L
S
GR
GS
[0.75 0 0 0.75 0 0] CT
0.149 GC
2 setlinecap
1 LJ
0.667 LW
N
60 227 M
63.55 227 L
S
GR
GS
[0.75 0 0 0.75 0 0] CT
0.149 GC
2 setlinecap
1 LJ
0.667 LW
N
60 178 M
63.55 178 L
S
GR
GS
[0.75 0 0 0.75 0 0] CT
0.149 GC
2 setlinecap
1 LJ
0.667 LW
N
60 129 M
63.55 129 L
S
GR
GS
[0.75 0 0 0.75 0 0] CT
0.149 GC
2 setlinecap
1 LJ
0.667 LW
N
60 80 M
63.55 80 L
S
GR
GS
[0.75 0 0 0.75 0 0] CT
0.149 GC
2 setlinecap
1 LJ
0.667 LW
N
60 31 M
63.55 31 L
S
GR
GS
[0.75 0 0 0.75 41 280.5] CT
0.149 GC
/Helvetica 13.333 F
GS
[1 0 0 1 0 0] CT
-26 5 moveto 
1 -1 scale
(450) t 
GR
GR
GS
[0.75 0 0 0.75 41 243.75] CT
0.149 GC
/Helvetica 13.333 F
GS
[1 0 0 1 0 0] CT
-26 5 moveto 
1 -1 scale
(460) t 
GR
GR
GS
[0.75 0 0 0.75 41 207] CT
0.149 GC
/Helvetica 13.333 F
GS
[1 0 0 1 0 0] CT
-26 5 moveto 
1 -1 scale
(470) t 
GR
GR
GS
[0.75 0 0 0.75 41 170.25] CT
0.149 GC
/Helvetica 13.333 F
GS
[1 0 0 1 0 0] CT
-26 5 moveto 
1 -1 scale
(480) t 
GR
GR
GS
[0.75 0 0 0.75 41 133.5] CT
0.149 GC
/Helvetica 13.333 F
GS
[1 0 0 1 0 0] CT
-26 5 moveto 
1 -1 scale
(490) t 
GR
GR
GS
[0.75 0 0 0.75 41 96.75] CT
0.149 GC
/Helvetica 13.333 F
GS
[1 0 0 1 0 0] CT
-26 5 moveto 
1 -1 scale
(500) t 
GR
GR
GS
[0.75 0 0 0.75 41 60] CT
0.149 GC
/Helvetica 13.333 F
GS
[1 0 0 1 0 0] CT
-26 5 moveto 
1 -1 scale
(510) t 
GR
GR
GS
[0.75 0 0 0.75 41 23.25] CT
0.149 GC
/Helvetica 13.333 F
GS
[1 0 0 1 0 0] CT
-26 5 moveto 
1 -1 scale
(520) t 
GR
GR
GS
[0 -0.75 0.75 0 18.5 151.87489] CT
0.149 GC
/Helvetica 16 F
GS
[1 0 0 1 0 0] CT
-91 -4 moveto 
1 -1 scale
(Performance [MFLOP/s]) t 
GR
GR
GS
[0.75 0 0 0.75 0 0] CT
0 0.447 0.741 RC
1 LJ
1.6 LW
N
63.55 270.345 M
77.75 246.683 L
95.5 252.696 L
131 251.814 L
237.5 261.354 L
326.25 258.228 L
415 261.726 L
S
GR
GS
[0.75 0 0 0.75 47.6625 202.75907] CT
0 0.447 0.741 RC
N
3.333 0 M
3.333 1.841 1.841 3.333 0 3.333 C
-1.841 3.333 -3.333 1.841 -3.333 0 C
-3.333 -1.841 -1.841 -3.333 0 -3.333 C
1.841 -3.333 3.333 -1.841 3.333 0 C
cp
f
GR
GS
[0.75 0 0 0.75 58.3125 185.01247] CT
0 0.447 0.741 RC
N
/f-1867764608{3.333 0 M
3.333 1.841 1.841 3.333 0 3.333 C
-1.841 3.333 -3.333 1.841 -3.333 0 C
-3.333 -1.841 -1.841 -3.333 0 -3.333 C
1.841 -3.333 3.333 -1.841 3.333 0 C
cp}def
f-1867764608
f
GR
GS
[0.75 0 0 0.75 71.625 189.52166] CT
0 0.447 0.741 RC
N
f-1867764608
f
GR
GS
[0.75 0 0 0.75 98.25 188.86019] CT
0 0.447 0.741 RC
N
f-1867764608
f
GR
GS
[0.75 0 0 0.75 178.125 196.01537] CT
0 0.447 0.741 RC
N
f-1867764608
f
GR
GS
[0.75 0 0 0.75 244.6875 193.67072] CT
0 0.447 0.741 RC
N
f-1867764608
f
GR
GS
[0.75 0 0 0.75 311.25 196.29474] CT
0 0.447 0.741 RC
N
f-1867764608
f
GR
GS
[0.75 0 0 0.75 0 0] CT
0.851 0.325 0.098 RC
1 LJ
1.6 LW
N
63.55 317.087 M
77.75 304.302 L
95.5 303.69 L
131 309.153 L
237.5 320.404 L
326.25 332.997 L
415 342.302 L
S
GR
GS
[0.75 0 0 0.75 47.6625 237.81491] CT
0.851 0.325 0.098 RC
N
f-1867764608
f
GR
GS
[0.75 0 0 0.75 58.3125 228.2268] CT
0.851 0.325 0.098 RC
N
f-1867764608
f
GR
GS
[0.75 0 0 0.75 71.625 227.76743] CT
0.851 0.325 0.098 RC
N
f-1867764608
f
GR
GS
[0.75 0 0 0.75 98.25 231.86501] CT
0.851 0.325 0.098 RC
N
f-1867764608
f
GR
GS
[0.75 0 0 0.75 178.125 240.3029] CT
0.851 0.325 0.098 RC
N
f-1867764608
f
GR
GS
[0.75 0 0 0.75 244.6875 249.74755] CT
0.851 0.325 0.098 RC
N
f-1867764608
f
GR
GS
[0.75 0 0 0.75 311.25 256.72646] CT
0.851 0.325 0.098 RC
N
f-1867764608
f
GR
GS
[0.75 0 0 0.75 0 0] CT
0.929 0.694 0.125 RC
1 LJ
1.6 LW
N
63.55 65.334 M
77.75 62.605 L
95.5 74.14 L
131 51.467 L
237.5 39.119 L
326.25 41.731 L
415 45.661 L
S
GR
GS
[0.75 0 0 0.75 47.6625 49.0008] CT
0.929 0.694 0.125 RC
N
f-1867764608
f
GR
GS
[0.75 0 0 0.75 58.3125 46.9538] CT
0.929 0.694 0.125 RC
N
f-1867764608
f
GR
GS
[0.75 0 0 0.75 71.625 55.60464] CT
0.929 0.694 0.125 RC
N
f-1867764608
f
GR
GS
[0.75 0 0 0.75 98.25 38.60048] CT
0.929 0.694 0.125 RC
N
f-1867764608
f
GR
GS
[0.75 0 0 0.75 178.125 29.33941] CT
0.929 0.694 0.125 RC
N
f-1867764608
f
GR
GS
[0.75 0 0 0.75 244.6875 31.29826] CT
0.929 0.694 0.125 RC
N
f-1867764608
f
GR
GS
[0.75 0 0 0.75 311.25 34.24562] CT
0.929 0.694 0.125 RC
N
f-1867764608
f
GR
GS
[0.75 0 0 0.75 0 0] CT
0.494 0.184 0.557 RC
1 LJ
1.6 LW
N
63.55 334.241 M
77.75 317.929 L
95.5 333.663 L
131 336.51 L
237.5 350.382 L
326.25 364.068 L
415 367.444 L
S
GR
GS
[0.75 0 0 0.75 47.6625 250.681] CT
0.494 0.184 0.557 RC
N
f-1867764608
f
GR
GS
[0.75 0 0 0.75 58.3125 238.44699] CT
0.494 0.184 0.557 RC
N
f-1867764608
f
GR
GS
[0.75 0 0 0.75 71.625 250.24743] CT
0.494 0.184 0.557 RC
N
f-1867764608
f
GR
GS
[0.75 0 0 0.75 98.25 252.38258] CT
0.494 0.184 0.557 RC
N
f-1867764608
f
GR
GS
[0.75 0 0 0.75 178.125 262.78647] CT
0.494 0.184 0.557 RC
N
f-1867764608
f
GR
GS
[0.75 0 0 0.75 244.6875 273.05074] CT
0.494 0.184 0.557 RC
N
f-1867764608
f
GR
GS
[0.75 0 0 0.75 311.25 275.58279] CT
0.494 0.184 0.557 RC
N
f-1867764608
f
GR
GS
[0.75 0 0 0.75 0 0] CT
0.467 0.675 0.188 RC
1 LJ
1.6 LW
N
63.55 337.735 M
77.75 324.221 L
95.5 320.683 L
131 326.294 L
237.5 357.982 L
326.25 358.923 L
415 367.434 L
S
GR
GS
[0.75 0 0 0.75 47.6625 253.30133] CT
0.467 0.675 0.188 RC
N
f-1867764608
f
GR
GS
[0.75 0 0 0.75 58.3125 243.16569] CT
0.467 0.675 0.188 RC
N
f-1867764608
f
GR
GS
[0.75 0 0 0.75 71.625 240.51228] CT
0.467 0.675 0.188 RC
N
f-1867764608
f
GR
GS
[0.75 0 0 0.75 98.25 244.72023] CT
0.467 0.675 0.188 RC
N
f-1867764608
f
GR
GS
[0.75 0 0 0.75 178.125 268.48638] CT
0.467 0.675 0.188 RC
N
f-1867764608
f
GR
GS
[0.75 0 0 0.75 244.6875 269.19205] CT
0.467 0.675 0.188 RC
N
f-1867764608
f
GR
GS
[0.75 0 0 0.75 311.25 275.57552] CT
0.467 0.675 0.188 RC
N
f-1867764608
f
GR
GS
[0.75 0 0 0.75 0 0] CT
0.302 0.745 0.933 RC
1 LJ
1.6 LW
N
63.55 359.295 M
77.75 324.29 L
95.5 325.505 L
131 322.045 L
237.5 345.31 L
326.25 345.796 L
415 346.094 L
S
GR
GS
[0.75 0 0 0.75 47.6625 269.47131] CT
0.302 0.745 0.933 RC
N
f-1867764608
f
GR
GS
[0.75 0 0 0.75 58.3125 243.21716] CT
0.302 0.745 0.933 RC
N
f-1867764608
f
GR
GS
[0.75 0 0 0.75 71.625 244.12852] CT
0.302 0.745 0.933 RC
N
f-1867764608
f
GR
GS
[0.75 0 0 0.75 98.25 241.53399] CT
0.302 0.745 0.933 RC
N
f-1867764608
f
GR
GS
[0.75 0 0 0.75 178.125 258.98284] CT
0.302 0.745 0.933 RC
N
f-1867764608
f
GR
GS
[0.75 0 0 0.75 244.6875 259.34665] CT
0.302 0.745 0.933 RC
N
f-1867764608
f
GR
GS
[0.75 0 0 0.75 311.25 259.57084] CT
0.302 0.745 0.933 RC
N
f-1867764608
f
GR
GS
[0.75 0 0 0.75 0 0] CT
1 GC
N
517 121 M
517 31 L
443 31 L
443 121 L
cp
f
GR
GS
[0.75 0 0 0.75 367.5 29.96271] CT
/Helvetica 10.667 F
GS
[1 0 0 1 0 0] CT
0 4 moveto 
1 -1 scale
(kmn) t 
GR
GR
GS
[0.75 0 0 0.75 0 0] CT
0 0.447 0.741 RC
1 LJ
1.6 LW
N
447 39.95 M
487 39.95 L
S
GR
GS
[0.75 0 0 0.75 350.25 29.96271] CT
0 0.447 0.741 RC
N
f-1867764608
f
GR
GS
[0.75 0 0 0.75 367.5 40.77763] CT
/Helvetica 10.667 F
GS
[1 0 0 1 0 0] CT
0 4 moveto 
1 -1 scale
(knm) t 
GR
GR
GS
[0.75 0 0 0.75 0 0] CT
0.851 0.325 0.098 RC
1 LJ
1.6 LW
N
447 54.37 M
487 54.37 L
S
GR
GS
[0.75 0 0 0.75 350.25 40.77763] CT
0.851 0.325 0.098 RC
N
f-1867764608
f
GR
GS
[0.75 0 0 0.75 367.5 51.59254] CT
/Helvetica 10.667 F
GS
[1 0 0 1 0 0] CT
0 4 moveto 
1 -1 scale
(mkn) t 
GR
GR
GS
[0.75 0 0 0.75 0 0] CT
0.929 0.694 0.125 RC
1 LJ
1.6 LW
N
447 68.79 M
487 68.79 L
S
GR
GS
[0.75 0 0 0.75 350.25 51.59254] CT
0.929 0.694 0.125 RC
N
f-1867764608
f
GR
GS
[0.75 0 0 0.75 367.5 62.40746] CT
/Helvetica 10.667 F
GS
[1 0 0 1 0 0] CT
0 4 moveto 
1 -1 scale
(mnk) t 
GR
GR
GS
[0.75 0 0 0.75 0 0] CT
0.494 0.184 0.557 RC
1 LJ
1.6 LW
N
447 83.21 M
487 83.21 L
S
GR
GS
[0.75 0 0 0.75 350.25 62.40746] CT
0.494 0.184 0.557 RC
N
f-1867764608
f
GR
GS
[0.75 0 0 0.75 367.5 73.22238] CT
/Helvetica 10.667 F
GS
[1 0 0 1 0 0] CT
0 4 moveto 
1 -1 scale
(nkm) t 
GR
GR
GS
[0.75 0 0 0.75 0 0] CT
0.467 0.675 0.188 RC
1 LJ
1.6 LW
N
447 97.63 M
487 97.63 L
S
GR
GS
[0.75 0 0 0.75 350.25 73.22238] CT
0.467 0.675 0.188 RC
N
f-1867764608
f
GR
GS
[0.75 0 0 0.75 367.5 84.03729] CT
/Helvetica 10.667 F
GS
[1 0 0 1 0 0] CT
0 4 moveto 
1 -1 scale
(nmk) t 
GR
GR
GS
[0.75 0 0 0.75 0 0] CT
0.302 0.745 0.933 RC
1 LJ
1.6 LW
N
447 112.05 M
487 112.05 L
S
GR
GS
[0.75 0 0 0.75 350.25 84.03729] CT
0.302 0.745 0.933 RC
N
f-1867764608
f
GR
GS
[0.75 0 0 0.75 0 0] CT
0.149 GC
10.0 ML
0.667 LW
N
443 121 M
443 31 L
517 31 L
517 121 L
cp
S
GR
%%Trailer
%%Pages: 1
%%EOF
