%!PS-Adobe-3.0 EPSF-3.0
%%Creator: (MATLAB, The Mathworks, Inc. Version 9.4.0.813654 \(R2018a\). Operating System: Linux)
%%Title: ./permutation_comp.eps
%%CreationDate: 2019-01-10T13:20:08
%%Pages: (atend)
%%BoundingBox:     2     5   388   296
%%LanguageLevel: 3
%%EndComments
%%BeginProlog
%%BeginResource: procset (Apache XML Graphics Std ProcSet) 1.2 0
%%Version: 1.2 0
%%Copyright: (Copyright 2001-2003,2010 The Apache Software Foundation. License terms: http://www.apache.org/licenses/LICENSE-2.0)
/bd{bind def}bind def
/ld{load def}bd
/GR/grestore ld
/GS/gsave ld
/RM/rmoveto ld
/C/curveto ld
/t/show ld
/L/lineto ld
/ML/setmiterlimit ld
/CT/concat ld
/f/fill ld
/N/newpath ld
/S/stroke ld
/CC/setcmykcolor ld
/A/ashow ld
/cp/closepath ld
/RC/setrgbcolor ld
/LJ/setlinejoin ld
/GC/setgray ld
/LW/setlinewidth ld
/M/moveto ld
/re {4 2 roll M
1 index 0 rlineto
0 exch rlineto
neg 0 rlineto
cp } bd
/_ctm matrix def
/_tm matrix def
/BT { _ctm currentmatrix pop matrix _tm copy pop 0 0 moveto } bd
/ET { _ctm setmatrix } bd
/iTm { _ctm setmatrix _tm concat } bd
/Tm { _tm astore pop iTm 0 0 moveto } bd
/ux 0.0 def
/uy 0.0 def
/F {
  /Tp exch def
  /Tf exch def
  Tf findfont Tp scalefont setfont
  /cf Tf def  /cs Tp def
} bd
/ULS {currentpoint /uy exch def /ux exch def} bd
/ULE {
  /Tcx currentpoint pop def
  gsave
  newpath
  cf findfont cs scalefont dup
  /FontMatrix get 0 get /Ts exch def /FontInfo get dup
  /UnderlinePosition get Ts mul /To exch def
  /UnderlineThickness get Ts mul /Tt exch def
  ux uy To add moveto  Tcx uy To add lineto
  Tt setlinewidth stroke
  grestore
} bd
/OLE {
  /Tcx currentpoint pop def
  gsave
  newpath
  cf findfont cs scalefont dup
  /FontMatrix get 0 get /Ts exch def /FontInfo get dup
  /UnderlinePosition get Ts mul /To exch def
  /UnderlineThickness get Ts mul /Tt exch def
  ux uy To add cs add moveto Tcx uy To add cs add lineto
  Tt setlinewidth stroke
  grestore
} bd
/SOE {
  /Tcx currentpoint pop def
  gsave
  newpath
  cf findfont cs scalefont dup
  /FontMatrix get 0 get /Ts exch def /FontInfo get dup
  /UnderlinePosition get Ts mul /To exch def
  /UnderlineThickness get Ts mul /Tt exch def
  ux uy To add cs 10 mul 26 idiv add moveto Tcx uy To add cs 10 mul 26 idiv add lineto
  Tt setlinewidth stroke
  grestore
} bd
/QT {
/Y22 exch store
/X22 exch store
/Y21 exch store
/X21 exch store
currentpoint
/Y21 load 2 mul add 3 div exch
/X21 load 2 mul add 3 div exch
/X21 load 2 mul /X22 load add 3 div
/Y21 load 2 mul /Y22 load add 3 div
/X22 load /Y22 load curveto
} bd
/SSPD {
dup length /d exch dict def
{
/v exch def
/k exch def
currentpagedevice k known {
/cpdv currentpagedevice k get def
v cpdv ne {
/upd false def
/nullv v type /nulltype eq def
/nullcpdv cpdv type /nulltype eq def
nullv nullcpdv or
{
/upd true def
} {
/sametype v type cpdv type eq def
sametype {
v type /arraytype eq {
/vlen v length def
/cpdvlen cpdv length def
vlen cpdvlen eq {
0 1 vlen 1 sub {
/i exch def
/obj v i get def
/cpdobj cpdv i get def
obj cpdobj ne {
/upd true def
exit
} if
} for
} {
/upd true def
} ifelse
} {
v type /dicttype eq {
v {
/dv exch def
/dk exch def
/cpddv cpdv dk get def
dv cpddv ne {
/upd true def
exit
} if
} forall
} {
/upd true def
} ifelse
} ifelse
} if
} ifelse
upd true eq {
d k v put
} if
} if
} if
} forall
d length 0 gt {
d setpagedevice
} if
} bd
/RE { % /NewFontName [NewEncodingArray] /FontName RE -
  findfont dup length dict begin
  {
    1 index /FID ne
    {def} {pop pop} ifelse
  } forall
  /Encoding exch def
  /FontName 1 index def
  currentdict definefont pop
  end
} bind def
%%EndResource
%%BeginResource: procset (Apache XML Graphics EPS ProcSet) 1.0 0
%%Version: 1.0 0
%%Copyright: (Copyright 2002-2003 The Apache Software Foundation. License terms: http://www.apache.org/licenses/LICENSE-2.0)
/BeginEPSF { %def
/b4_Inc_state save def         % Save state for cleanup
/dict_count countdictstack def % Count objects on dict stack
/op_count count 1 sub def      % Count objects on operand stack
userdict begin                 % Push userdict on dict stack
/showpage { } def              % Redefine showpage, { } = null proc
0 setgray 0 setlinecap         % Prepare graphics state
1 setlinewidth 0 setlinejoin
10 setmiterlimit [ ] 0 setdash newpath
/languagelevel where           % If level not equal to 1 then
{pop languagelevel             % set strokeadjust and
1 ne                           % overprint to their defaults.
{false setstrokeadjust false setoverprint
} if
} if
} bd
/EndEPSF { %def
count op_count sub {pop} repeat            % Clean up stacks
countdictstack dict_count sub {end} repeat
b4_Inc_state restore
} bd
%%EndResource
%FOPBeginFontDict
%%IncludeResource: font Courier-Oblique
%%IncludeResource: font Courier-BoldOblique
%%IncludeResource: font Courier-Bold
%%IncludeResource: font ZapfDingbats
%%IncludeResource: font Symbol
%%IncludeResource: font Helvetica
%%IncludeResource: font Helvetica-Oblique
%%IncludeResource: font Helvetica-Bold
%%IncludeResource: font Helvetica-BoldOblique
%%IncludeResource: font Times-Roman
%%IncludeResource: font Times-Italic
%%IncludeResource: font Times-Bold
%%IncludeResource: font Times-BoldItalic
%%IncludeResource: font Courier
%FOPEndFontDict
%%BeginResource: encoding WinAnsiEncoding
/WinAnsiEncoding [
/.notdef /.notdef /.notdef /.notdef /.notdef
/.notdef /.notdef /.notdef /.notdef /.notdef
/.notdef /.notdef /.notdef /.notdef /.notdef
/.notdef /.notdef /.notdef /.notdef /.notdef
/.notdef /.notdef /.notdef /.notdef /.notdef
/.notdef /.notdef /.notdef /.notdef /.notdef
/.notdef /.notdef /space /exclam /quotedbl
/numbersign /dollar /percent /ampersand /quotesingle
/parenleft /parenright /asterisk /plus /comma
/hyphen /period /slash /zero /one
/two /three /four /five /six
/seven /eight /nine /colon /semicolon
/less /equal /greater /question /at
/A /B /C /D /E
/F /G /H /I /J
/K /L /M /N /O
/P /Q /R /S /T
/U /V /W /X /Y
/Z /bracketleft /backslash /bracketright /asciicircum
/underscore /quoteleft /a /b /c
/d /e /f /g /h
/i /j /k /l /m
/n /o /p /q /r
/s /t /u /v /w
/x /y /z /braceleft /bar
/braceright /asciitilde /bullet /Euro /bullet
/quotesinglbase /florin /quotedblbase /ellipsis /dagger
/daggerdbl /circumflex /perthousand /Scaron /guilsinglleft
/OE /bullet /Zcaron /bullet /bullet
/quoteleft /quoteright /quotedblleft /quotedblright /bullet
/endash /emdash /asciitilde /trademark /scaron
/guilsinglright /oe /bullet /zcaron /Ydieresis
/space /exclamdown /cent /sterling /currency
/yen /brokenbar /section /dieresis /copyright
/ordfeminine /guillemotleft /logicalnot /sfthyphen /registered
/macron /degree /plusminus /twosuperior /threesuperior
/acute /mu /paragraph /middot /cedilla
/onesuperior /ordmasculine /guillemotright /onequarter /onehalf
/threequarters /questiondown /Agrave /Aacute /Acircumflex
/Atilde /Adieresis /Aring /AE /Ccedilla
/Egrave /Eacute /Ecircumflex /Edieresis /Igrave
/Iacute /Icircumflex /Idieresis /Eth /Ntilde
/Ograve /Oacute /Ocircumflex /Otilde /Odieresis
/multiply /Oslash /Ugrave /Uacute /Ucircumflex
/Udieresis /Yacute /Thorn /germandbls /agrave
/aacute /acircumflex /atilde /adieresis /aring
/ae /ccedilla /egrave /eacute /ecircumflex
/edieresis /igrave /iacute /icircumflex /idieresis
/eth /ntilde /ograve /oacute /ocircumflex
/otilde /odieresis /divide /oslash /ugrave
/uacute /ucircumflex /udieresis /yacute /thorn
/ydieresis
] def
%%EndResource
%FOPBeginFontReencode
/Courier-Oblique findfont
dup length dict begin
  {1 index /FID ne {def} {pop pop} ifelse} forall
  /Encoding WinAnsiEncoding def
  currentdict
end
/Courier-Oblique exch definefont pop
/Courier-BoldOblique findfont
dup length dict begin
  {1 index /FID ne {def} {pop pop} ifelse} forall
  /Encoding WinAnsiEncoding def
  currentdict
end
/Courier-BoldOblique exch definefont pop
/Courier-Bold findfont
dup length dict begin
  {1 index /FID ne {def} {pop pop} ifelse} forall
  /Encoding WinAnsiEncoding def
  currentdict
end
/Courier-Bold exch definefont pop
/Helvetica findfont
dup length dict begin
  {1 index /FID ne {def} {pop pop} ifelse} forall
  /Encoding WinAnsiEncoding def
  currentdict
end
/Helvetica exch definefont pop
/Helvetica-Oblique findfont
dup length dict begin
  {1 index /FID ne {def} {pop pop} ifelse} forall
  /Encoding WinAnsiEncoding def
  currentdict
end
/Helvetica-Oblique exch definefont pop
/Helvetica-Bold findfont
dup length dict begin
  {1 index /FID ne {def} {pop pop} ifelse} forall
  /Encoding WinAnsiEncoding def
  currentdict
end
/Helvetica-Bold exch definefont pop
/Helvetica-BoldOblique findfont
dup length dict begin
  {1 index /FID ne {def} {pop pop} ifelse} forall
  /Encoding WinAnsiEncoding def
  currentdict
end
/Helvetica-BoldOblique exch definefont pop
/Times-Roman findfont
dup length dict begin
  {1 index /FID ne {def} {pop pop} ifelse} forall
  /Encoding WinAnsiEncoding def
  currentdict
end
/Times-Roman exch definefont pop
/Times-Italic findfont
dup length dict begin
  {1 index /FID ne {def} {pop pop} ifelse} forall
  /Encoding WinAnsiEncoding def
  currentdict
end
/Times-Italic exch definefont pop
/Times-Bold findfont
dup length dict begin
  {1 index /FID ne {def} {pop pop} ifelse} forall
  /Encoding WinAnsiEncoding def
  currentdict
end
/Times-Bold exch definefont pop
/Times-BoldItalic findfont
dup length dict begin
  {1 index /FID ne {def} {pop pop} ifelse} forall
  /Encoding WinAnsiEncoding def
  currentdict
end
/Times-BoldItalic exch definefont pop
/Courier findfont
dup length dict begin
  {1 index /FID ne {def} {pop pop} ifelse} forall
  /Encoding WinAnsiEncoding def
  currentdict
end
/Courier exch definefont pop
%FOPEndFontReencode
%%EndProlog
%%Page: 1 1
%%PageBoundingBox: 0 0 420 315
%%BeginPageSetup
[1 0 0 -1 0 315] CT
%%EndPageSetup
GS
[0.75 0 0 0.75 0 0] CT
1 GC
N
0 0 560 420 re
f
GR
GS
[0.75 0 0 0.75 0 0] CT
1 GC
N
0 0 560 420 re
f
GR
GS
[0.75 0 0 0.75 0 0] CT
1 GC
N
63 374 M
415 374 L
415 31 L
63 31 L
cp
f
GR
GS
[0.75 0 0 0.75 0 0] CT
0.873 GC
1 LJ
0.667 LW
N
63 374 M
63 31 L
S
GR
GS
[0.75 0 0 0.75 0 0] CT
0.873 GC
1 LJ
0.667 LW
N
133.4 374 M
133.4 31 L
S
GR
GS
[0.75 0 0 0.75 0 0] CT
0.873 GC
1 LJ
0.667 LW
N
203.8 374 M
203.8 31 L
S
GR
GS
[0.75 0 0 0.75 0 0] CT
0.873 GC
1 LJ
0.667 LW
N
274.2 374 M
274.2 31 L
S
GR
GS
[0.75 0 0 0.75 0 0] CT
0.873 GC
1 LJ
0.667 LW
N
344.6 374 M
344.6 31 L
S
GR
GS
[0.75 0 0 0.75 0 0] CT
0.873 GC
1 LJ
0.667 LW
N
415 374 M
415 31 L
S
GR
GS
[0.75 0 0 0.75 0 0] CT
0.873 GC
1 LJ
0.667 LW
N
415 374 M
63 374 L
S
GR
GS
[0.75 0 0 0.75 0 0] CT
0.873 GC
1 LJ
0.667 LW
N
415 325 M
63 325 L
S
GR
GS
[0.75 0 0 0.75 0 0] CT
0.873 GC
1 LJ
0.667 LW
N
415 276 M
63 276 L
S
GR
GS
[0.75 0 0 0.75 0 0] CT
0.873 GC
1 LJ
0.667 LW
N
415 227 M
63 227 L
S
GR
GS
[0.75 0 0 0.75 0 0] CT
0.873 GC
1 LJ
0.667 LW
N
415 178 M
63 178 L
S
GR
GS
[0.75 0 0 0.75 0 0] CT
0.873 GC
1 LJ
0.667 LW
N
415 129 M
63 129 L
S
GR
GS
[0.75 0 0 0.75 0 0] CT
0.873 GC
1 LJ
0.667 LW
N
415 80 M
63 80 L
S
GR
GS
[0.75 0 0 0.75 0 0] CT
0.873 GC
1 LJ
0.667 LW
N
415 31 M
63 31 L
S
GR
GS
[0.75 0 0 0.75 0 0] CT
0.149 GC
2 setlinecap
1 LJ
0.667 LW
N
63 374 M
415 374 L
S
GR
GS
[0.75 0 0 0.75 0 0] CT
0.149 GC
2 setlinecap
1 LJ
0.667 LW
N
63 374 M
63 370.483 L
S
GR
GS
[0.75 0 0 0.75 0 0] CT
0.149 GC
2 setlinecap
1 LJ
0.667 LW
N
133.4 374 M
133.4 370.483 L
S
GR
GS
[0.75 0 0 0.75 0 0] CT
0.149 GC
2 setlinecap
1 LJ
0.667 LW
N
203.8 374 M
203.8 370.483 L
S
GR
GS
[0.75 0 0 0.75 0 0] CT
0.149 GC
2 setlinecap
1 LJ
0.667 LW
N
274.2 374 M
274.2 370.483 L
S
GR
GS
[0.75 0 0 0.75 0 0] CT
0.149 GC
2 setlinecap
1 LJ
0.667 LW
N
344.6 374 M
344.6 370.483 L
S
GR
GS
[0.75 0 0 0.75 0 0] CT
0.149 GC
2 setlinecap
1 LJ
0.667 LW
N
415 374 M
415 370.483 L
S
GR
GS
[0.75 0 0 0.75 47.25 284.50001] CT
0.149 GC
/Helvetica 13.333 F
GS
[1 0 0 1 0 0] CT
-4.5 13 moveto 
1 -1 scale
(0) t 
GR
GR
GS
[0.75 0 0 0.75 100.05 284.50001] CT
0.149 GC
/Helvetica 13.333 F
GS
[1 0 0 1 0 0] CT
-13 13 moveto 
1 -1 scale
(200) t 
GR
GR
GS
[0.75 0 0 0.75 152.85 284.50001] CT
0.149 GC
/Helvetica 13.333 F
GS
[1 0 0 1 0 0] CT
-13 13 moveto 
1 -1 scale
(400) t 
GR
GR
GS
[0.75 0 0 0.75 205.65001 284.50001] CT
0.149 GC
/Helvetica 13.333 F
GS
[1 0 0 1 0 0] CT
-13 13 moveto 
1 -1 scale
(600) t 
GR
GR
GS
[0.75 0 0 0.75 258.45 284.50001] CT
0.149 GC
/Helvetica 13.333 F
GS
[1 0 0 1 0 0] CT
-13 13 moveto 
1 -1 scale
(800) t 
GR
GR
GS
[0.75 0 0 0.75 311.25 284.50001] CT
0.149 GC
/Helvetica 13.333 F
GS
[1 0 0 1 0 0] CT
-17 13 moveto 
1 -1 scale
(1000) t 
GR
GR
GS
[0.75 0 0 0.75 179.25013 297.49999] CT
0.149 GC
/Helvetica 16 F
GS
[1 0 0 1 0 0] CT
-47 16 moveto 
1 -1 scale
(Matrix sizes) t 
GR
GR
GS
[0.75 0 0 0.75 0 0] CT
0.149 GC
2 setlinecap
1 LJ
0.667 LW
N
63 374 M
63 31 L
S
GR
GS
[0.75 0 0 0.75 0 0] CT
0.149 GC
2 setlinecap
1 LJ
0.667 LW
N
63 374 M
66.517 374 L
S
GR
GS
[0.75 0 0 0.75 0 0] CT
0.149 GC
2 setlinecap
1 LJ
0.667 LW
N
63 325 M
66.517 325 L
S
GR
GS
[0.75 0 0 0.75 0 0] CT
0.149 GC
2 setlinecap
1 LJ
0.667 LW
N
63 276 M
66.517 276 L
S
GR
GS
[0.75 0 0 0.75 0 0] CT
0.149 GC
2 setlinecap
1 LJ
0.667 LW
N
63 227 M
66.517 227 L
S
GR
GS
[0.75 0 0 0.75 0 0] CT
0.149 GC
2 setlinecap
1 LJ
0.667 LW
N
63 178 M
66.517 178 L
S
GR
GS
[0.75 0 0 0.75 0 0] CT
0.149 GC
2 setlinecap
1 LJ
0.667 LW
N
63 129 M
66.517 129 L
S
GR
GS
[0.75 0 0 0.75 0 0] CT
0.149 GC
2 setlinecap
1 LJ
0.667 LW
N
63 80 M
66.517 80 L
S
GR
GS
[0.75 0 0 0.75 0 0] CT
0.149 GC
2 setlinecap
1 LJ
0.667 LW
N
63 31 M
66.517 31 L
S
GR
GS
[0.75 0 0 0.75 43.25 280.5] CT
0.149 GC
/Helvetica 13.333 F
GS
[1 0 0 1 0 0] CT
-9 5 moveto 
1 -1 scale
(0) t 
GR
GR
GS
[0.75 0 0 0.75 43.25 243.75] CT
0.149 GC
/Helvetica 13.333 F
GS
[1 0 0 1 0 0] CT
-26 5 moveto 
1 -1 scale
(500) t 
GR
GR
GS
[0.75 0 0 0.75 43.25 207] CT
0.149 GC
/Helvetica 13.333 F
GS
[1 0 0 1 0 0] CT
-34 5 moveto 
1 -1 scale
(1000) t 
GR
GR
GS
[0.75 0 0 0.75 43.25 170.25] CT
0.149 GC
/Helvetica 13.333 F
GS
[1 0 0 1 0 0] CT
-34 5 moveto 
1 -1 scale
(1500) t 
GR
GR
GS
[0.75 0 0 0.75 43.25 133.5] CT
0.149 GC
/Helvetica 13.333 F
GS
[1 0 0 1 0 0] CT
-34 5 moveto 
1 -1 scale
(2000) t 
GR
GR
GS
[0.75 0 0 0.75 43.25 96.75] CT
0.149 GC
/Helvetica 13.333 F
GS
[1 0 0 1 0 0] CT
-34 5 moveto 
1 -1 scale
(2500) t 
GR
GR
GS
[0.75 0 0 0.75 43.25 60] CT
0.149 GC
/Helvetica 13.333 F
GS
[1 0 0 1 0 0] CT
-34 5 moveto 
1 -1 scale
(3000) t 
GR
GR
GS
[0.75 0 0 0.75 43.25 23.25] CT
0.149 GC
/Helvetica 13.333 F
GS
[1 0 0 1 0 0] CT
-34 5 moveto 
1 -1 scale
(3500) t 
GR
GR
GS
[0 -0.75 0.75 0 15 151.87487] CT
0.149 GC
/Helvetica 16 F
GS
[1 0 0 1 0 0] CT
-91 -4 moveto 
1 -1 scale
(Performance [MFLOP/s]) t 
GR
GR
GS
[0.75 0 0 0.75 0 0] CT
0 0.447 0.741 RC
1 LJ
1.6 LW
N
66.52 327.827 M
80.6 327.354 L
98.2 327.474 L
133.4 327.456 L
239 327.647 L
327 327.585 L
415 327.655 L
S
GR
GS
[0.75 0 0 0.75 49.89 245.87018] CT
0 0.447 0.741 RC
N
3.333 0 M
3.333 1.841 1.841 3.333 0 3.333 C
-1.841 3.333 -3.333 1.841 -3.333 0 C
-3.333 -1.841 -1.841 -3.333 0 -3.333 C
1.841 -3.333 3.333 -1.841 3.333 0 C
cp
f
GR
GS
[0.75 0 0 0.75 60.45 245.51525] CT
0 0.447 0.741 RC
N
/f-1867764608{3.333 0 M
3.333 1.841 1.841 3.333 0 3.333 C
-1.841 3.333 -3.333 1.841 -3.333 0 C
-3.333 -1.841 -1.841 -3.333 0 -3.333 C
1.841 -3.333 3.333 -1.841 3.333 0 C
cp}def
f-1867764608
f
GR
GS
[0.75 0 0 0.75 73.65 245.60543] CT
0 0.447 0.741 RC
N
f-1867764608
f
GR
GS
[0.75 0 0 0.75 100.05 245.5922] CT
0 0.447 0.741 RC
N
f-1867764608
f
GR
GS
[0.75 0 0 0.75 179.25 245.7353] CT
0 0.447 0.741 RC
N
f-1867764608
f
GR
GS
[0.75 0 0 0.75 245.25 245.68842] CT
0 0.447 0.741 RC
N
f-1867764608
f
GR
GS
[0.75 0 0 0.75 311.25 245.74091] CT
0 0.447 0.741 RC
N
f-1867764608
f
GR
GS
[0.75 0 0 0.75 0 0] CT
0.851 0.325 0.098 RC
1 LJ
1.6 LW
N
66.52 328.762 M
80.6 328.506 L
98.2 328.494 L
133.4 328.603 L
239 328.828 L
327 329.08 L
415 329.266 L
S
GR
GS
[0.75 0 0 0.75 49.89 246.57129] CT
0.851 0.325 0.098 RC
N
f-1867764608
f
GR
GS
[0.75 0 0 0.75 60.45 246.37953] CT
0.851 0.325 0.098 RC
N
f-1867764608
f
GR
GS
[0.75 0 0 0.75 73.65 246.37035] CT
0.851 0.325 0.098 RC
N
f-1867764608
f
GR
GS
[0.75 0 0 0.75 100.05 246.45229] CT
0.851 0.325 0.098 RC
N
f-1867764608
f
GR
GS
[0.75 0 0 0.75 179.25 246.62105] CT
0.851 0.325 0.098 RC
N
f-1867764608
f
GR
GS
[0.75 0 0 0.75 245.25 246.80994] CT
0.851 0.325 0.098 RC
N
f-1867764608
f
GR
GS
[0.75 0 0 0.75 311.25 246.94954] CT
0.851 0.325 0.098 RC
N
f-1867764608
f
GR
GS
[0.75 0 0 0.75 0 0] CT
0.929 0.694 0.125 RC
1 LJ
1.6 LW
N
66.52 95.58 M
80.6 44.238 L
98.2 49.68 L
133.4 55.072 L
239 64.21 L
327 60.086 L
415 65.898 L
S
GR
GS
[0.75 0 0 0.75 49.89 71.68532] CT
0.929 0.694 0.125 RC
N
f-1867764608
f
GR
GS
[0.75 0 0 0.75 60.45 33.17846] CT
0.929 0.694 0.125 RC
N
f-1867764608
f
GR
GS
[0.75 0 0 0.75 73.65 37.26027] CT
0.929 0.694 0.125 RC
N
f-1867764608
f
GR
GS
[0.75 0 0 0.75 100.05 41.30396] CT
0.929 0.694 0.125 RC
N
f-1867764608
f
GR
GS
[0.75 0 0 0.75 179.25 48.15767] CT
0.929 0.694 0.125 RC
N
f-1867764608
f
GR
GS
[0.75 0 0 0.75 245.25 45.06459] CT
0.929 0.694 0.125 RC
N
f-1867764608
f
GR
GS
[0.75 0 0 0.75 311.25 49.42319] CT
0.929 0.694 0.125 RC
N
f-1867764608
f
GR
GS
[0.75 0 0 0.75 0 0] CT
0.494 0.184 0.557 RC
1 LJ
1.6 LW
N
66.52 329.105 M
80.6 328.779 L
98.2 329.093 L
133.4 329.15 L
239 329.428 L
327 329.701 L
415 329.769 L
S
GR
GS
[0.75 0 0 0.75 49.89 246.82862] CT
0.494 0.184 0.557 RC
N
f-1867764608
f
GR
GS
[0.75 0 0 0.75 60.45 246.58395] CT
0.494 0.184 0.557 RC
N
f-1867764608
f
GR
GS
[0.75 0 0 0.75 73.65 246.81995] CT
0.494 0.184 0.557 RC
N
f-1867764608
f
GR
GS
[0.75 0 0 0.75 100.05 246.86266] CT
0.494 0.184 0.557 RC
N
f-1867764608
f
GR
GS
[0.75 0 0 0.75 179.25 247.07073] CT
0.494 0.184 0.557 RC
N
f-1867764608
f
GR
GS
[0.75 0 0 0.75 245.25 247.27602] CT
0.494 0.184 0.557 RC
N
f-1867764608
f
GR
GS
[0.75 0 0 0.75 311.25 247.32664] CT
0.494 0.184 0.557 RC
N
f-1867764608
f
GR
GS
[0.75 0 0 0.75 0 0] CT
0.467 0.675 0.188 RC
1 LJ
1.6 LW
N
66.52 329.175 M
80.6 328.904 L
98.2 328.834 L
133.4 328.946 L
239 329.58 L
327 329.598 L
415 329.769 L
S
GR
GS
[0.75 0 0 0.75 49.89 246.88103] CT
0.467 0.675 0.188 RC
N
f-1867764608
f
GR
GS
[0.75 0 0 0.75 60.45 246.67831] CT
0.467 0.675 0.188 RC
N
f-1867764608
f
GR
GS
[0.75 0 0 0.75 73.65 246.62524] CT
0.467 0.675 0.188 RC
N
f-1867764608
f
GR
GS
[0.75 0 0 0.75 100.05 246.7094] CT
0.467 0.675 0.188 RC
N
f-1867764608
f
GR
GS
[0.75 0 0 0.75 179.25 247.18474] CT
0.467 0.675 0.188 RC
N
f-1867764608
f
GR
GS
[0.75 0 0 0.75 245.25 247.19884] CT
0.467 0.675 0.188 RC
N
f-1867764608
f
GR
GS
[0.75 0 0 0.75 311.25 247.32651] CT
0.467 0.675 0.188 RC
N
f-1867764608
f
GR
GS
[0.75 0 0 0.75 0 0] CT
0.302 0.745 0.933 RC
1 LJ
1.6 LW
N
66.52 329.606 M
80.6 328.906 L
98.2 328.93 L
133.4 328.861 L
239 329.326 L
327 329.336 L
415 329.342 L
S
GR
GS
[0.75 0 0 0.75 49.89 247.20442] CT
0.302 0.745 0.933 RC
N
f-1867764608
f
GR
GS
[0.75 0 0 0.75 60.45 246.67934] CT
0.302 0.745 0.933 RC
N
f-1867764608
f
GR
GS
[0.75 0 0 0.75 73.65 246.69756] CT
0.302 0.745 0.933 RC
N
f-1867764608
f
GR
GS
[0.75 0 0 0.75 100.05 246.64568] CT
0.302 0.745 0.933 RC
N
f-1867764608
f
GR
GS
[0.75 0 0 0.75 179.25 246.99465] CT
0.302 0.745 0.933 RC
N
f-1867764608
f
GR
GS
[0.75 0 0 0.75 245.25 247.00193] CT
0.302 0.745 0.933 RC
N
f-1867764608
f
GR
GS
[0.75 0 0 0.75 311.25 247.00642] CT
0.302 0.745 0.933 RC
N
f-1867764608
f
GR
GS
[0.75 0 0 0.75 0 0] CT
1 GC
N
517 121 M
517 31 L
443 31 L
443 121 L
cp
f
GR
GS
[0.75 0 0 0.75 367.5 29.96271] CT
/Helvetica 10.667 F
GS
[1 0 0 1 0 0] CT
0 4 moveto 
1 -1 scale
(kmn) t 
GR
GR
GS
[0.75 0 0 0.75 0 0] CT
0 0.447 0.741 RC
1 LJ
1.6 LW
N
447 39.95 M
487 39.95 L
S
GR
GS
[0.75 0 0 0.75 350.25 29.96271] CT
0 0.447 0.741 RC
N
f-1867764608
f
GR
GS
[0.75 0 0 0.75 367.5 40.77763] CT
/Helvetica 10.667 F
GS
[1 0 0 1 0 0] CT
0 4 moveto 
1 -1 scale
(knm) t 
GR
GR
GS
[0.75 0 0 0.75 0 0] CT
0.851 0.325 0.098 RC
1 LJ
1.6 LW
N
447 54.37 M
487 54.37 L
S
GR
GS
[0.75 0 0 0.75 350.25 40.77763] CT
0.851 0.325 0.098 RC
N
f-1867764608
f
GR
GS
[0.75 0 0 0.75 367.5 51.59254] CT
/Helvetica 10.667 F
GS
[1 0 0 1 0 0] CT
0 4 moveto 
1 -1 scale
(mkn) t 
GR
GR
GS
[0.75 0 0 0.75 0 0] CT
0.929 0.694 0.125 RC
1 LJ
1.6 LW
N
447 68.79 M
487 68.79 L
S
GR
GS
[0.75 0 0 0.75 350.25 51.59254] CT
0.929 0.694 0.125 RC
N
f-1867764608
f
GR
GS
[0.75 0 0 0.75 367.5 62.40746] CT
/Helvetica 10.667 F
GS
[1 0 0 1 0 0] CT
0 4 moveto 
1 -1 scale
(mnk) t 
GR
GR
GS
[0.75 0 0 0.75 0 0] CT
0.494 0.184 0.557 RC
1 LJ
1.6 LW
N
447 83.21 M
487 83.21 L
S
GR
GS
[0.75 0 0 0.75 350.25 62.40746] CT
0.494 0.184 0.557 RC
N
f-1867764608
f
GR
GS
[0.75 0 0 0.75 367.5 73.22238] CT
/Helvetica 10.667 F
GS
[1 0 0 1 0 0] CT
0 4 moveto 
1 -1 scale
(nkm) t 
GR
GR
GS
[0.75 0 0 0.75 0 0] CT
0.467 0.675 0.188 RC
1 LJ
1.6 LW
N
447 97.63 M
487 97.63 L
S
GR
GS
[0.75 0 0 0.75 350.25 73.22238] CT
0.467 0.675 0.188 RC
N
f-1867764608
f
GR
GS
[0.75 0 0 0.75 367.5 84.03729] CT
/Helvetica 10.667 F
GS
[1 0 0 1 0 0] CT
0 4 moveto 
1 -1 scale
(nmk) t 
GR
GR
GS
[0.75 0 0 0.75 0 0] CT
0.302 0.745 0.933 RC
1 LJ
1.6 LW
N
447 112.05 M
487 112.05 L
S
GR
GS
[0.75 0 0 0.75 350.25 84.03729] CT
0.302 0.745 0.933 RC
N
f-1867764608
f
GR
GS
[0.75 0 0 0.75 0 0] CT
0.149 GC
10.0 ML
0.667 LW
N
443 121 M
443 31 L
517 31 L
517 121 L
cp
S
GR
%%Trailer
%%Pages: 1
%%EOF
