%!PS-Adobe-3.0 EPSF-3.0
%%Creator: (MATLAB, The Mathworks, Inc. Version 9.4.0.813654 \(R2018a\). Operating System: Linux)
%%Title: /zhome/1b/8/89071/02614-HPC/Assignments/assignment1/results/permutation_results/config_one.eps
%%CreationDate: 2019-01-11T11:22:09
%%Pages: (atend)
%%BoundingBox: 0 0 900 600
%%LanguageLevel: 3
%%EndComments
%%BeginProlog
%%BeginResource: procset (Apache XML Graphics Std ProcSet) 1.2 0
%%Version: 1.2 0
%%Copyright: (Copyright 2001-2003,2010 The Apache Software Foundation. License terms: http://www.apache.org/licenses/LICENSE-2.0)
/bd{bind def}bind def
/ld{load def}bd
/GR/grestore ld
/GS/gsave ld
/RM/rmoveto ld
/C/curveto ld
/t/show ld
/L/lineto ld
/ML/setmiterlimit ld
/CT/concat ld
/f/fill ld
/N/newpath ld
/S/stroke ld
/CC/setcmykcolor ld
/A/ashow ld
/cp/closepath ld
/RC/setrgbcolor ld
/LJ/setlinejoin ld
/GC/setgray ld
/LW/setlinewidth ld
/M/moveto ld
/re {4 2 roll M
1 index 0 rlineto
0 exch rlineto
neg 0 rlineto
cp } bd
/_ctm matrix def
/_tm matrix def
/BT { _ctm currentmatrix pop matrix _tm copy pop 0 0 moveto } bd
/ET { _ctm setmatrix } bd
/iTm { _ctm setmatrix _tm concat } bd
/Tm { _tm astore pop iTm 0 0 moveto } bd
/ux 0.0 def
/uy 0.0 def
/F {
  /Tp exch def
  /Tf exch def
  Tf findfont Tp scalefont setfont
  /cf Tf def  /cs Tp def
} bd
/ULS {currentpoint /uy exch def /ux exch def} bd
/ULE {
  /Tcx currentpoint pop def
  gsave
  newpath
  cf findfont cs scalefont dup
  /FontMatrix get 0 get /Ts exch def /FontInfo get dup
  /UnderlinePosition get Ts mul /To exch def
  /UnderlineThickness get Ts mul /Tt exch def
  ux uy To add moveto  Tcx uy To add lineto
  Tt setlinewidth stroke
  grestore
} bd
/OLE {
  /Tcx currentpoint pop def
  gsave
  newpath
  cf findfont cs scalefont dup
  /FontMatrix get 0 get /Ts exch def /FontInfo get dup
  /UnderlinePosition get Ts mul /To exch def
  /UnderlineThickness get Ts mul /Tt exch def
  ux uy To add cs add moveto Tcx uy To add cs add lineto
  Tt setlinewidth stroke
  grestore
} bd
/SOE {
  /Tcx currentpoint pop def
  gsave
  newpath
  cf findfont cs scalefont dup
  /FontMatrix get 0 get /Ts exch def /FontInfo get dup
  /UnderlinePosition get Ts mul /To exch def
  /UnderlineThickness get Ts mul /Tt exch def
  ux uy To add cs 10 mul 26 idiv add moveto Tcx uy To add cs 10 mul 26 idiv add lineto
  Tt setlinewidth stroke
  grestore
} bd
/QT {
/Y22 exch store
/X22 exch store
/Y21 exch store
/X21 exch store
currentpoint
/Y21 load 2 mul add 3 div exch
/X21 load 2 mul add 3 div exch
/X21 load 2 mul /X22 load add 3 div
/Y21 load 2 mul /Y22 load add 3 div
/X22 load /Y22 load curveto
} bd
/SSPD {
dup length /d exch dict def
{
/v exch def
/k exch def
currentpagedevice k known {
/cpdv currentpagedevice k get def
v cpdv ne {
/upd false def
/nullv v type /nulltype eq def
/nullcpdv cpdv type /nulltype eq def
nullv nullcpdv or
{
/upd true def
} {
/sametype v type cpdv type eq def
sametype {
v type /arraytype eq {
/vlen v length def
/cpdvlen cpdv length def
vlen cpdvlen eq {
0 1 vlen 1 sub {
/i exch def
/obj v i get def
/cpdobj cpdv i get def
obj cpdobj ne {
/upd true def
exit
} if
} for
} {
/upd true def
} ifelse
} {
v type /dicttype eq {
v {
/dv exch def
/dk exch def
/cpddv cpdv dk get def
dv cpddv ne {
/upd true def
exit
} if
} forall
} {
/upd true def
} ifelse
} ifelse
} if
} ifelse
upd true eq {
d k v put
} if
} if
} if
} forall
d length 0 gt {
d setpagedevice
} if
} bd
/RE { % /NewFontName [NewEncodingArray] /FontName RE -
  findfont dup length dict begin
  {
    1 index /FID ne
    {def} {pop pop} ifelse
  } forall
  /Encoding exch def
  /FontName 1 index def
  currentdict definefont pop
  end
} bind def
%%EndResource
%%BeginResource: procset (Apache XML Graphics EPS ProcSet) 1.0 0
%%Version: 1.0 0
%%Copyright: (Copyright 2002-2003 The Apache Software Foundation. License terms: http://www.apache.org/licenses/LICENSE-2.0)
/BeginEPSF { %def
/b4_Inc_state save def         % Save state for cleanup
/dict_count countdictstack def % Count objects on dict stack
/op_count count 1 sub def      % Count objects on operand stack
userdict begin                 % Push userdict on dict stack
/showpage { } def              % Redefine showpage, { } = null proc
0 setgray 0 setlinecap         % Prepare graphics state
1 setlinewidth 0 setlinejoin
10 setmiterlimit [ ] 0 setdash newpath
/languagelevel where           % If level not equal to 1 then
{pop languagelevel             % set strokeadjust and
1 ne                           % overprint to their defaults.
{false setstrokeadjust false setoverprint
} if
} if
} bd
/EndEPSF { %def
count op_count sub {pop} repeat            % Clean up stacks
countdictstack dict_count sub {end} repeat
b4_Inc_state restore
} bd
%%EndResource
%FOPBeginFontDict
%%IncludeResource: font Courier-Oblique
%%IncludeResource: font Courier-BoldOblique
%%IncludeResource: font Courier-Bold
%%IncludeResource: font ZapfDingbats
%%IncludeResource: font Symbol
%%IncludeResource: font Helvetica
%%IncludeResource: font Helvetica-Oblique
%%IncludeResource: font Helvetica-Bold
%%IncludeResource: font Helvetica-BoldOblique
%%IncludeResource: font Times-Roman
%%IncludeResource: font Times-Italic
%%IncludeResource: font Times-Bold
%%IncludeResource: font Times-BoldItalic
%%IncludeResource: font Courier
%FOPEndFontDict
%%BeginResource: encoding WinAnsiEncoding
/WinAnsiEncoding [
/.notdef /.notdef /.notdef /.notdef /.notdef
/.notdef /.notdef /.notdef /.notdef /.notdef
/.notdef /.notdef /.notdef /.notdef /.notdef
/.notdef /.notdef /.notdef /.notdef /.notdef
/.notdef /.notdef /.notdef /.notdef /.notdef
/.notdef /.notdef /.notdef /.notdef /.notdef
/.notdef /.notdef /space /exclam /quotedbl
/numbersign /dollar /percent /ampersand /quotesingle
/parenleft /parenright /asterisk /plus /comma
/hyphen /period /slash /zero /one
/two /three /four /five /six
/seven /eight /nine /colon /semicolon
/less /equal /greater /question /at
/A /B /C /D /E
/F /G /H /I /J
/K /L /M /N /O
/P /Q /R /S /T
/U /V /W /X /Y
/Z /bracketleft /backslash /bracketright /asciicircum
/underscore /quoteleft /a /b /c
/d /e /f /g /h
/i /j /k /l /m
/n /o /p /q /r
/s /t /u /v /w
/x /y /z /braceleft /bar
/braceright /asciitilde /bullet /Euro /bullet
/quotesinglbase /florin /quotedblbase /ellipsis /dagger
/daggerdbl /circumflex /perthousand /Scaron /guilsinglleft
/OE /bullet /Zcaron /bullet /bullet
/quoteleft /quoteright /quotedblleft /quotedblright /bullet
/endash /emdash /asciitilde /trademark /scaron
/guilsinglright /oe /bullet /zcaron /Ydieresis
/space /exclamdown /cent /sterling /currency
/yen /brokenbar /section /dieresis /copyright
/ordfeminine /guillemotleft /logicalnot /sfthyphen /registered
/macron /degree /plusminus /twosuperior /threesuperior
/acute /mu /paragraph /middot /cedilla
/onesuperior /ordmasculine /guillemotright /onequarter /onehalf
/threequarters /questiondown /Agrave /Aacute /Acircumflex
/Atilde /Adieresis /Aring /AE /Ccedilla
/Egrave /Eacute /Ecircumflex /Edieresis /Igrave
/Iacute /Icircumflex /Idieresis /Eth /Ntilde
/Ograve /Oacute /Ocircumflex /Otilde /Odieresis
/multiply /Oslash /Ugrave /Uacute /Ucircumflex
/Udieresis /Yacute /Thorn /germandbls /agrave
/aacute /acircumflex /atilde /adieresis /aring
/ae /ccedilla /egrave /eacute /ecircumflex
/edieresis /igrave /iacute /icircumflex /idieresis
/eth /ntilde /ograve /oacute /ocircumflex
/otilde /odieresis /divide /oslash /ugrave
/uacute /ucircumflex /udieresis /yacute /thorn
/ydieresis
] def
%%EndResource
%FOPBeginFontReencode
/Courier-Oblique findfont
dup length dict begin
  {1 index /FID ne {def} {pop pop} ifelse} forall
  /Encoding WinAnsiEncoding def
  currentdict
end
/Courier-Oblique exch definefont pop
/Courier-BoldOblique findfont
dup length dict begin
  {1 index /FID ne {def} {pop pop} ifelse} forall
  /Encoding WinAnsiEncoding def
  currentdict
end
/Courier-BoldOblique exch definefont pop
/Courier-Bold findfont
dup length dict begin
  {1 index /FID ne {def} {pop pop} ifelse} forall
  /Encoding WinAnsiEncoding def
  currentdict
end
/Courier-Bold exch definefont pop
/Helvetica findfont
dup length dict begin
  {1 index /FID ne {def} {pop pop} ifelse} forall
  /Encoding WinAnsiEncoding def
  currentdict
end
/Helvetica exch definefont pop
/Helvetica-Oblique findfont
dup length dict begin
  {1 index /FID ne {def} {pop pop} ifelse} forall
  /Encoding WinAnsiEncoding def
  currentdict
end
/Helvetica-Oblique exch definefont pop
/Helvetica-Bold findfont
dup length dict begin
  {1 index /FID ne {def} {pop pop} ifelse} forall
  /Encoding WinAnsiEncoding def
  currentdict
end
/Helvetica-Bold exch definefont pop
/Helvetica-BoldOblique findfont
dup length dict begin
  {1 index /FID ne {def} {pop pop} ifelse} forall
  /Encoding WinAnsiEncoding def
  currentdict
end
/Helvetica-BoldOblique exch definefont pop
/Times-Roman findfont
dup length dict begin
  {1 index /FID ne {def} {pop pop} ifelse} forall
  /Encoding WinAnsiEncoding def
  currentdict
end
/Times-Roman exch definefont pop
/Times-Italic findfont
dup length dict begin
  {1 index /FID ne {def} {pop pop} ifelse} forall
  /Encoding WinAnsiEncoding def
  currentdict
end
/Times-Italic exch definefont pop
/Times-Bold findfont
dup length dict begin
  {1 index /FID ne {def} {pop pop} ifelse} forall
  /Encoding WinAnsiEncoding def
  currentdict
end
/Times-Bold exch definefont pop
/Times-BoldItalic findfont
dup length dict begin
  {1 index /FID ne {def} {pop pop} ifelse} forall
  /Encoding WinAnsiEncoding def
  currentdict
end
/Times-BoldItalic exch definefont pop
/Courier findfont
dup length dict begin
  {1 index /FID ne {def} {pop pop} ifelse} forall
  /Encoding WinAnsiEncoding def
  currentdict
end
/Courier exch definefont pop
%FOPEndFontReencode
%%EndProlog
%%Page: 1 1
%%PageBoundingBox: 0 0 900 600
%%BeginPageSetup
[1 0 0 -1 0 600] CT
%%EndPageSetup
GS
[0.75 0 0 0.75 0 0] CT
1 GC
N
0 0 1200 800 re
f
GR
GS
[0.75 0 0 0.75 0 0] CT
1 GC
N
0 0 1200 800 re
f
GR
GS
[0.75 0 0 0.75 0 0] CT
1 GC
N
156 712 M
1086 712 L
1086 60 L
156 60 L
cp
f
GR
GS
[0.75 0 0 0.75 0 0] CT
0.873 GC
1 LJ
0.667 LW
N
156 712 M
156 60 L
S
GR
GS
[0.75 0 0 0.75 0 0] CT
0.873 GC
1 LJ
0.667 LW
N
249 712 M
249 60 L
S
GR
GS
[0.75 0 0 0.75 0 0] CT
0.873 GC
1 LJ
0.667 LW
N
342 712 M
342 60 L
S
GR
GS
[0.75 0 0 0.75 0 0] CT
0.873 GC
1 LJ
0.667 LW
N
435 712 M
435 60 L
S
GR
GS
[0.75 0 0 0.75 0 0] CT
0.873 GC
1 LJ
0.667 LW
N
528 712 M
528 60 L
S
GR
GS
[0.75 0 0 0.75 0 0] CT
0.873 GC
1 LJ
0.667 LW
N
621 712 M
621 60 L
S
GR
GS
[0.75 0 0 0.75 0 0] CT
0.873 GC
1 LJ
0.667 LW
N
714 712 M
714 60 L
S
GR
GS
[0.75 0 0 0.75 0 0] CT
0.873 GC
1 LJ
0.667 LW
N
807 712 M
807 60 L
S
GR
GS
[0.75 0 0 0.75 0 0] CT
0.873 GC
1 LJ
0.667 LW
N
900 712 M
900 60 L
S
GR
GS
[0.75 0 0 0.75 0 0] CT
0.873 GC
1 LJ
0.667 LW
N
993 712 M
993 60 L
S
GR
GS
[0.75 0 0 0.75 0 0] CT
0.873 GC
1 LJ
0.667 LW
N
1086 712 M
1086 60 L
S
GR
GS
[0.75 0 0 0.75 0 0] CT
0.873 GC
1 LJ
0.667 LW
N
1086 712 M
156 712 L
S
GR
GS
[0.75 0 0 0.75 0 0] CT
0.873 GC
1 LJ
0.667 LW
N
1086 618.857 M
156 618.857 L
S
GR
GS
[0.75 0 0 0.75 0 0] CT
0.873 GC
1 LJ
0.667 LW
N
1086 525.714 M
156 525.714 L
S
GR
GS
[0.75 0 0 0.75 0 0] CT
0.873 GC
1 LJ
0.667 LW
N
1086 432.571 M
156 432.571 L
S
GR
GS
[0.75 0 0 0.75 0 0] CT
0.873 GC
1 LJ
0.667 LW
N
1086 339.429 M
156 339.429 L
S
GR
GS
[0.75 0 0 0.75 0 0] CT
0.873 GC
1 LJ
0.667 LW
N
1086 246.286 M
156 246.286 L
S
GR
GS
[0.75 0 0 0.75 0 0] CT
0.873 GC
1 LJ
0.667 LW
N
1086 153.143 M
156 153.143 L
S
GR
GS
[0.75 0 0 0.75 0 0] CT
0.873 GC
1 LJ
0.667 LW
N
1086 60 M
156 60 L
S
GR
GS
[0.75 0 0 0.75 0 0] CT
0.149 GC
2 setlinecap
1 LJ
0.667 LW
N
156 712 M
1086 712 L
S
GR
GS
[0.75 0 0 0.75 0 0] CT
0.149 GC
2 setlinecap
1 LJ
0.667 LW
N
156 712 M
156 702.7 L
S
GR
GS
[0.75 0 0 0.75 0 0] CT
0.149 GC
2 setlinecap
1 LJ
0.667 LW
N
249 712 M
249 702.7 L
S
GR
GS
[0.75 0 0 0.75 0 0] CT
0.149 GC
2 setlinecap
1 LJ
0.667 LW
N
342 712 M
342 702.7 L
S
GR
GS
[0.75 0 0 0.75 0 0] CT
0.149 GC
2 setlinecap
1 LJ
0.667 LW
N
435 712 M
435 702.7 L
S
GR
GS
[0.75 0 0 0.75 0 0] CT
0.149 GC
2 setlinecap
1 LJ
0.667 LW
N
528 712 M
528 702.7 L
S
GR
GS
[0.75 0 0 0.75 0 0] CT
0.149 GC
2 setlinecap
1 LJ
0.667 LW
N
621 712 M
621 702.7 L
S
GR
GS
[0.75 0 0 0.75 0 0] CT
0.149 GC
2 setlinecap
1 LJ
0.667 LW
N
714 712 M
714 702.7 L
S
GR
GS
[0.75 0 0 0.75 0 0] CT
0.149 GC
2 setlinecap
1 LJ
0.667 LW
N
807 712 M
807 702.7 L
S
GR
GS
[0.75 0 0 0.75 0 0] CT
0.149 GC
2 setlinecap
1 LJ
0.667 LW
N
900 712 M
900 702.7 L
S
GR
GS
[0.75 0 0 0.75 0 0] CT
0.149 GC
2 setlinecap
1 LJ
0.667 LW
N
993 712 M
993 702.7 L
S
GR
GS
[0.75 0 0 0.75 0 0] CT
0.149 GC
2 setlinecap
1 LJ
0.667 LW
N
1086 712 M
1086 702.7 L
S
GR
GS
[0.75 0 0 0.75 117 538.00003] CT
0.149 GC
/Helvetica 13.333 F
GS
[1 0 0 1 0 0] CT
-4.5 13 moveto 
1 -1 scale
(0) t 
GR
GR
GS
[0.75 0 0 0.75 186.75 538.00003] CT
0.149 GC
/Helvetica 13.333 F
GS
[1 0 0 1 0 0] CT
-13 13 moveto 
1 -1 scale
(100) t 
GR
GR
GS
[0.75 0 0 0.75 256.5 538.00003] CT
0.149 GC
/Helvetica 13.333 F
GS
[1 0 0 1 0 0] CT
-13 13 moveto 
1 -1 scale
(200) t 
GR
GR
GS
[0.75 0 0 0.75 326.25 538.00003] CT
0.149 GC
/Helvetica 13.333 F
GS
[1 0 0 1 0 0] CT
-13 13 moveto 
1 -1 scale
(300) t 
GR
GR
GS
[0.75 0 0 0.75 396 538.00003] CT
0.149 GC
/Helvetica 13.333 F
GS
[1 0 0 1 0 0] CT
-13 13 moveto 
1 -1 scale
(400) t 
GR
GR
GS
[0.75 0 0 0.75 465.75 538.00003] CT
0.149 GC
/Helvetica 13.333 F
GS
[1 0 0 1 0 0] CT
-13 13 moveto 
1 -1 scale
(500) t 
GR
GR
GS
[0.75 0 0 0.75 535.5 538.00003] CT
0.149 GC
/Helvetica 13.333 F
GS
[1 0 0 1 0 0] CT
-13 13 moveto 
1 -1 scale
(600) t 
GR
GR
GS
[0.75 0 0 0.75 605.25 538.00003] CT
0.149 GC
/Helvetica 13.333 F
GS
[1 0 0 1 0 0] CT
-13 13 moveto 
1 -1 scale
(700) t 
GR
GR
GS
[0.75 0 0 0.75 675 538.00003] CT
0.149 GC
/Helvetica 13.333 F
GS
[1 0 0 1 0 0] CT
-13 13 moveto 
1 -1 scale
(800) t 
GR
GR
GS
[0.75 0 0 0.75 744.75 538.00003] CT
0.149 GC
/Helvetica 13.333 F
GS
[1 0 0 1 0 0] CT
-13 13 moveto 
1 -1 scale
(900) t 
GR
GR
GS
[0.75 0 0 0.75 814.5 538.00003] CT
0.149 GC
/Helvetica 13.333 F
GS
[1 0 0 1 0 0] CT
-17 13 moveto 
1 -1 scale
(1000) t 
GR
GR
GS
[0.75 0 0 0.75 465.75032 550.99997] CT
0.149 GC
N
-41.771 13.44 M
-41.771 12.877 L
-40.115 12.877 -40.115 11.924 QT
-40.115 3.581 L
-40.115 3.065 -41.771 3.065 QT
-41.771 2.502 L
-38.74 2.502 L
-38.552 2.502 -38.49 2.69 QT
-35.005 11.737 L
-31.521 2.69 L
-31.458 2.502 -31.255 2.502 QT
-28.24 2.502 L
-28.24 3.065 L
-29.88 3.065 -29.88 3.581 QT
-29.88 12.362 L
-29.88 12.877 -28.24 12.877 QT
-28.24 13.44 L
-32.896 13.44 L
-32.896 12.877 L
-31.24 12.877 -31.24 12.362 QT
-31.24 3.049 L
-35.177 13.252 L
-35.255 13.44 -35.443 13.44 QT
-35.646 13.44 -35.724 13.252 QT
-39.615 3.174 L
-39.615 11.924 L
-39.615 12.877 -37.958 12.877 QT
-37.958 13.44 L
-41.771 13.44 L
cp
f
GR
GS
[0.75 0 0 0.75 465.75032 550.99997] CT
0.149 GC
N
-27.026 11.862 M
-27.026 10.909 -26.276 10.315 QT
-25.526 9.721 -24.471 9.471 QT
-23.417 9.221 -22.479 9.221 QT
-22.479 8.565 L
-22.479 8.112 -22.682 7.674 QT
-22.885 7.237 -23.268 6.963 QT
-23.651 6.69 -24.104 6.69 QT
-25.167 6.69 -25.729 7.159 QT
-25.417 7.159 -25.221 7.393 QT
-25.026 7.627 -25.026 7.924 QT
-25.026 8.252 -25.253 8.479 QT
-25.479 8.706 -25.792 8.706 QT
-26.104 8.706 -26.331 8.479 QT
-26.557 8.252 -26.557 7.924 QT
-26.557 7.081 -25.792 6.674 QT
-25.026 6.268 -24.104 6.268 QT
-23.464 6.268 -22.807 6.542 QT
-22.151 6.815 -21.729 7.331 QT
-21.307 7.846 -21.307 8.534 QT
-21.307 12.143 L
-21.307 12.456 -21.175 12.713 QT
-21.042 12.971 -20.76 12.971 QT
-20.495 12.971 -20.37 12.706 QT
-20.245 12.44 -20.245 12.143 QT
-20.245 11.112 L
-19.776 11.112 L
-19.776 12.143 L
-19.776 12.502 -19.964 12.823 QT
-20.151 13.143 -20.464 13.338 QT
-20.776 13.534 -21.151 13.534 QT
-21.62 13.534 -21.956 13.167 QT
-22.292 12.799 -22.339 12.299 QT
-22.635 12.909 -23.214 13.268 QT
-23.792 13.627 -24.448 13.627 QT
-25.057 13.627 -25.643 13.44 QT
-26.229 13.252 -26.628 12.87 QT
-27.026 12.487 -27.026 11.862 QT
cp
-25.729 11.862 M
-25.729 12.424 -25.315 12.807 QT
-24.901 13.19 -24.339 13.19 QT
-23.823 13.19 -23.401 12.932 QT
-22.979 12.674 -22.729 12.229 QT
-22.479 11.784 -22.479 11.299 QT
-22.479 9.627 L
-23.198 9.627 -23.964 9.87 QT
-24.729 10.112 -25.229 10.62 QT
-25.729 11.127 -25.729 11.862 QT
cp
f
GR
GS
[0.75 0 0 0.75 465.75032 550.99997] CT
0.149 GC
N
-18.026 11.518 M
-18.026 7.096 L
-19.354 7.096 L
-19.354 6.69 L
-18.307 6.69 -17.815 5.713 QT
-17.323 4.737 -17.323 3.596 QT
-16.87 3.596 L
-16.87 6.534 L
-14.604 6.534 L
-14.604 7.096 L
-16.87 7.096 L
-16.87 11.487 L
-16.87 12.143 -16.643 12.643 QT
-16.417 13.143 -15.839 13.143 QT
-15.292 13.143 -15.049 12.62 QT
-14.807 12.096 -14.807 11.487 QT
-14.807 10.534 L
-14.354 10.534 L
-14.354 11.518 L
-14.354 12.018 -14.534 12.502 QT
-14.714 12.987 -15.073 13.307 QT
-15.432 13.627 -15.948 13.627 QT
-16.917 13.627 -17.471 13.049 QT
-18.026 12.471 -18.026 11.518 QT
cp
f
GR
GS
[0.75 0 0 0.75 465.75032 550.99997] CT
0.149 GC
N
-13.023 13.44 M
-13.023 12.877 L
-12.476 12.877 -12.124 12.792 QT
-11.773 12.706 -11.773 12.362 QT
-11.773 8.002 L
-11.773 7.565 -11.905 7.377 QT
-12.038 7.19 -12.28 7.143 QT
-12.523 7.096 -13.023 7.096 QT
-13.023 6.534 L
-10.741 6.362 L
-10.741 7.924 L
-10.476 7.237 -9.999 6.799 QT
-9.523 6.362 -8.851 6.362 QT
-8.366 6.362 -7.991 6.643 QT
-7.616 6.924 -7.616 7.393 QT
-7.616 7.674 -7.827 7.893 QT
-8.038 8.112 -8.335 8.112 QT
-8.632 8.112 -8.843 7.901 QT
-9.054 7.69 -9.054 7.393 QT
-9.054 6.956 -8.757 6.784 QT
-8.851 6.784 L
-9.491 6.784 -9.905 7.252 QT
-10.319 7.721 -10.491 8.417 QT
-10.663 9.112 -10.663 9.737 QT
-10.663 12.362 L
-10.663 12.877 -9.101 12.877 QT
-9.101 13.44 L
-13.023 13.44 L
cp
f
GR
GS
[0.75 0 0 0.75 465.75032 550.99997] CT
0.149 GC
N
-6.678 13.44 M
-6.678 12.877 L
-6.131 12.877 -5.779 12.792 QT
-5.428 12.706 -5.428 12.362 QT
-5.428 8.002 L
-5.428 7.377 -5.67 7.237 QT
-5.912 7.096 -6.615 7.096 QT
-6.615 6.534 L
-4.303 6.362 L
-4.303 12.362 L
-4.303 12.706 -3.998 12.792 QT
-3.693 12.877 -3.193 12.877 QT
-3.193 13.44 L
-6.678 13.44 L
cp
-6.006 3.612 M
-6.006 3.268 -5.74 3.002 QT
-5.475 2.737 -5.131 2.737 QT
-4.897 2.737 -4.686 2.854 QT
-4.475 2.971 -4.357 3.182 QT
-4.24 3.393 -4.24 3.612 QT
-4.24 3.956 -4.506 4.221 QT
-4.772 4.487 -5.131 4.487 QT
-5.475 4.487 -5.74 4.221 QT
-6.006 3.956 -6.006 3.612 QT
cp
f
GR
GS
[0.75 0 0 0.75 465.75032 550.99997] CT
0.149 GC
N
-2.53 13.44 M
-2.53 12.877 L
-1.921 12.877 -1.382 12.635 QT
-0.843 12.393 -0.468 11.924 QT
0.985 10.081 L
-0.905 7.612 L
-1.186 7.268 -1.522 7.182 QT
-1.858 7.096 -2.452 7.096 QT
-2.452 6.534 L
0.876 6.534 L
0.876 7.096 L
0.657 7.096 0.478 7.19 QT
0.298 7.284 0.298 7.471 QT
0.298 7.534 0.345 7.612 QT
1.626 9.284 L
2.579 8.049 L
2.782 7.815 2.782 7.581 QT
2.782 7.377 2.65 7.237 QT
2.517 7.096 2.314 7.096 QT
2.314 6.534 L
5.251 6.534 L
5.251 7.096 L
4.642 7.096 4.095 7.338 QT
3.548 7.581 3.173 8.049 QT
1.907 9.659 L
3.954 12.362 L
4.267 12.721 4.595 12.799 QT
4.923 12.877 5.532 12.877 QT
5.532 13.44 L
2.204 13.44 L
2.204 12.877 L
2.392 12.877 2.571 12.784 QT
2.751 12.69 2.751 12.502 QT
2.751 12.44 2.704 12.362 QT
1.267 10.456 L
0.126 11.924 L
-0.061 12.127 -0.061 12.393 QT
-0.061 12.596 0.071 12.737 QT
0.204 12.877 0.392 12.877 QT
0.392 13.44 L
-2.53 13.44 L
cp
f
GR
GS
[0.75 0 0 0.75 465.75032 550.99997] CT
0.149 GC
N
11.576 13.487 M
11.576 10.877 L
11.576 10.752 11.716 10.752 QT
11.92 10.752 L
12.013 10.752 12.045 10.877 QT
12.482 13.19 14.201 13.19 QT
14.951 13.19 15.466 12.846 QT
15.982 12.502 15.982 11.784 QT
15.982 11.268 15.584 10.909 QT
15.185 10.549 14.638 10.409 QT
13.56 10.206 L
13.029 10.081 12.584 9.838 QT
12.138 9.596 11.857 9.198 QT
11.576 8.799 11.576 8.268 QT
11.576 7.565 11.951 7.112 QT
12.326 6.659 12.92 6.463 QT
13.513 6.268 14.201 6.268 QT
15.013 6.268 15.623 6.706 QT
16.091 6.299 L
16.091 6.268 16.17 6.268 QT
16.279 6.268 L
16.326 6.268 16.365 6.307 QT
16.404 6.346 16.404 6.393 QT
16.404 8.487 L
16.404 8.643 16.279 8.643 QT
16.091 8.643 L
15.951 8.643 15.951 8.487 QT
15.951 7.659 15.482 7.151 QT
15.013 6.643 14.185 6.643 QT
13.466 6.643 12.935 6.909 QT
12.404 7.174 12.404 7.815 QT
12.404 8.268 12.787 8.549 QT
13.17 8.831 13.67 8.956 QT
14.763 9.159 L
15.31 9.284 15.779 9.581 QT
16.248 9.877 16.529 10.331 QT
16.81 10.784 16.81 11.362 QT
16.81 11.94 16.607 12.362 QT
16.404 12.784 16.052 13.065 QT
15.701 13.346 15.216 13.487 QT
14.732 13.627 14.201 13.627 QT
13.201 13.627 12.482 12.94 QT
11.904 13.581 L
11.904 13.627 11.81 13.627 QT
11.716 13.627 L
11.576 13.627 11.576 13.487 QT
cp
f
GR
GS
[0.75 0 0 0.75 465.75032 550.99997] CT
0.149 GC
N
17.856 13.44 M
17.856 12.877 L
18.402 12.877 18.754 12.792 QT
19.106 12.706 19.106 12.362 QT
19.106 8.002 L
19.106 7.377 18.863 7.237 QT
18.621 7.096 17.918 7.096 QT
17.918 6.534 L
20.231 6.362 L
20.231 12.362 L
20.231 12.706 20.535 12.792 QT
20.84 12.877 21.34 12.877 QT
21.34 13.44 L
17.856 13.44 L
cp
18.527 3.612 M
18.527 3.268 18.793 3.002 QT
19.059 2.737 19.402 2.737 QT
19.637 2.737 19.848 2.854 QT
20.059 2.971 20.176 3.182 QT
20.293 3.393 20.293 3.612 QT
20.293 3.956 20.027 4.221 QT
19.762 4.487 19.402 4.487 QT
19.059 4.487 18.793 4.221 QT
18.527 3.956 18.527 3.612 QT
cp
f
GR
GS
[0.75 0 0 0.75 465.75032 550.99997] CT
0.149 GC
N
22.425 13.44 M
22.253 13.44 22.253 13.252 QT
22.253 13.127 L
22.253 13.065 22.3 13.018 QT
26.769 6.956 L
25.331 6.956 L
24.644 6.956 24.206 7.042 QT
23.769 7.127 23.48 7.37 QT
23.191 7.612 23.066 8.026 QT
22.941 8.44 22.941 9.174 QT
22.472 9.174 L
22.659 6.534 L
28.019 6.534 L
28.081 6.534 28.136 6.588 QT
28.191 6.643 28.191 6.721 QT
28.191 6.815 L
28.191 6.862 28.159 6.924 QT
23.675 12.971 L
25.206 12.971 L
25.909 12.971 26.37 12.885 QT
26.831 12.799 27.159 12.471 QT
27.472 12.174 27.581 11.659 QT
27.691 11.143 27.753 10.377 QT
28.222 10.377 L
27.941 13.44 L
22.425 13.44 L
cp
f
GR
GS
[0.75 0 0 0.75 465.75032 550.99997] CT
0.149 GC
N
32.896 13.627 M
31.927 13.627 31.106 13.112 QT
30.286 12.596 29.825 11.737 QT
29.364 10.877 29.364 9.924 QT
29.364 8.987 29.786 8.143 QT
30.208 7.299 30.974 6.784 QT
31.739 6.268 32.677 6.268 QT
33.411 6.268 33.95 6.51 QT
34.489 6.752 34.841 7.19 QT
35.192 7.627 35.372 8.221 QT
35.552 8.815 35.552 9.534 QT
35.552 9.737 35.396 9.737 QT
30.755 9.737 L
30.755 9.909 L
30.755 11.237 31.294 12.19 QT
31.833 13.143 33.036 13.143 QT
33.536 13.143 33.95 12.924 QT
34.364 12.706 34.677 12.315 QT
34.989 11.924 35.099 11.487 QT
35.114 11.424 35.153 11.385 QT
35.192 11.346 35.255 11.346 QT
35.396 11.346 L
35.552 11.346 35.552 11.549 QT
35.333 12.456 34.583 13.042 QT
33.833 13.627 32.896 13.627 QT
cp
30.771 9.346 M
34.427 9.346 L
34.427 8.737 34.255 8.12 QT
34.083 7.502 33.692 7.096 QT
33.302 6.69 32.677 6.69 QT
31.771 6.69 31.271 7.534 QT
30.771 8.377 30.771 9.346 QT
cp
f
GR
GS
[0.75 0 0 0.75 465.75032 550.99997] CT
0.149 GC
N
36.554 13.487 M
36.554 10.877 L
36.554 10.752 36.694 10.752 QT
36.897 10.752 L
36.991 10.752 37.022 10.877 QT
37.46 13.19 39.179 13.19 QT
39.929 13.19 40.444 12.846 QT
40.96 12.502 40.96 11.784 QT
40.96 11.268 40.561 10.909 QT
40.163 10.549 39.616 10.409 QT
38.538 10.206 L
38.007 10.081 37.561 9.838 QT
37.116 9.596 36.835 9.198 QT
36.554 8.799 36.554 8.268 QT
36.554 7.565 36.929 7.112 QT
37.304 6.659 37.897 6.463 QT
38.491 6.268 39.179 6.268 QT
39.991 6.268 40.6 6.706 QT
41.069 6.299 L
41.069 6.268 41.147 6.268 QT
41.257 6.268 L
41.304 6.268 41.343 6.307 QT
41.382 6.346 41.382 6.393 QT
41.382 8.487 L
41.382 8.643 41.257 8.643 QT
41.069 8.643 L
40.929 8.643 40.929 8.487 QT
40.929 7.659 40.46 7.151 QT
39.991 6.643 39.163 6.643 QT
38.444 6.643 37.913 6.909 QT
37.382 7.174 37.382 7.815 QT
37.382 8.268 37.764 8.549 QT
38.147 8.831 38.647 8.956 QT
39.741 9.159 L
40.288 9.284 40.757 9.581 QT
41.225 9.877 41.507 10.331 QT
41.788 10.784 41.788 11.362 QT
41.788 11.94 41.585 12.362 QT
41.382 12.784 41.03 13.065 QT
40.679 13.346 40.194 13.487 QT
39.71 13.627 39.179 13.627 QT
38.179 13.627 37.46 12.94 QT
36.882 13.581 L
36.882 13.627 36.788 13.627 QT
36.694 13.627 L
36.554 13.627 36.554 13.487 QT
cp
f
GR
GS
[0.75 0 0 0.75 0 0] CT
0.149 GC
2 setlinecap
1 LJ
0.667 LW
N
156 712 M
156 60 L
S
GR
GS
[0.75 0 0 0.75 0 0] CT
0.149 GC
2 setlinecap
1 LJ
0.667 LW
N
156 712 M
165.3 712 L
S
GR
GS
[0.75 0 0 0.75 0 0] CT
0.149 GC
2 setlinecap
1 LJ
0.667 LW
N
156 618.857 M
165.3 618.857 L
S
GR
GS
[0.75 0 0 0.75 0 0] CT
0.149 GC
2 setlinecap
1 LJ
0.667 LW
N
156 525.714 M
165.3 525.714 L
S
GR
GS
[0.75 0 0 0.75 0 0] CT
0.149 GC
2 setlinecap
1 LJ
0.667 LW
N
156 432.571 M
165.3 432.571 L
S
GR
GS
[0.75 0 0 0.75 0 0] CT
0.149 GC
2 setlinecap
1 LJ
0.667 LW
N
156 339.429 M
165.3 339.429 L
S
GR
GS
[0.75 0 0 0.75 0 0] CT
0.149 GC
2 setlinecap
1 LJ
0.667 LW
N
156 246.286 M
165.3 246.286 L
S
GR
GS
[0.75 0 0 0.75 0 0] CT
0.149 GC
2 setlinecap
1 LJ
0.667 LW
N
156 153.143 M
165.3 153.143 L
S
GR
GS
[0.75 0 0 0.75 0 0] CT
0.149 GC
2 setlinecap
1 LJ
0.667 LW
N
156 60 M
165.3 60 L
S
GR
GS
[0.75 0 0 0.75 113 534] CT
0.149 GC
/Helvetica 13.333 F
GS
[1 0 0 1 0 0] CT
-26 5 moveto 
1 -1 scale
(450) t 
GR
GR
GS
[0.75 0 0 0.75 113 464.14284] CT
0.149 GC
/Helvetica 13.333 F
GS
[1 0 0 1 0 0] CT
-26 5 moveto 
1 -1 scale
(460) t 
GR
GR
GS
[0.75 0 0 0.75 113 394.28572] CT
0.149 GC
/Helvetica 13.333 F
GS
[1 0 0 1 0 0] CT
-26 5 moveto 
1 -1 scale
(470) t 
GR
GR
GS
[0.75 0 0 0.75 113 324.42858] CT
0.149 GC
/Helvetica 13.333 F
GS
[1 0 0 1 0 0] CT
-26 5 moveto 
1 -1 scale
(480) t 
GR
GR
GS
[0.75 0 0 0.75 113 254.57142] CT
0.149 GC
/Helvetica 13.333 F
GS
[1 0 0 1 0 0] CT
-26 5 moveto 
1 -1 scale
(490) t 
GR
GR
GS
[0.75 0 0 0.75 113 184.71429] CT
0.149 GC
/Helvetica 13.333 F
GS
[1 0 0 1 0 0] CT
-26 5 moveto 
1 -1 scale
(500) t 
GR
GR
GS
[0.75 0 0 0.75 113 114.85714] CT
0.149 GC
/Helvetica 13.333 F
GS
[1 0 0 1 0 0] CT
-26 5 moveto 
1 -1 scale
(510) t 
GR
GR
GS
[0.75 0 0 0.75 113 45] CT
0.149 GC
/Helvetica 13.333 F
GS
[1 0 0 1 0 0] CT
-26 5 moveto 
1 -1 scale
(520) t 
GR
GR
GS
[0 -0.75 0.75 0 90.5 289.49979] CT
0.149 GC
N
-86.669 -5.76 M
-86.669 -6.323 L
-85.013 -6.323 -85.013 -6.838 QT
-85.013 -15.619 L
-85.013 -16.135 -86.669 -16.135 QT
-86.669 -16.698 L
-80.966 -16.698 L
-80.091 -16.698 -79.216 -16.338 QT
-78.341 -15.979 -77.778 -15.291 QT
-77.216 -14.604 -77.216 -13.682 QT
-77.216 -12.791 -77.786 -12.119 QT
-78.356 -11.448 -79.224 -11.104 QT
-80.091 -10.76 -80.966 -10.76 QT
-83.528 -10.76 L
-83.528 -6.838 L
-83.528 -6.323 -81.888 -6.323 QT
-81.888 -5.76 L
-86.669 -5.76 L
cp
-83.575 -11.229 M
-81.403 -11.229 L
-80.528 -11.229 -79.981 -11.487 QT
-79.435 -11.744 -79.177 -12.276 QT
-78.919 -12.807 -78.919 -13.682 QT
-78.919 -14.994 -79.497 -15.565 QT
-80.075 -16.135 -81.403 -16.135 QT
-82.763 -16.135 L
-83.06 -16.135 -83.216 -16.112 QT
-83.372 -16.088 -83.474 -15.971 QT
-83.575 -15.854 -83.575 -15.619 QT
-83.575 -11.229 L
cp
f
GR
GS
[0 -0.75 0.75 0 90.5 289.49979] CT
0.149 GC
N
-72.771 -5.573 M
-73.74 -5.573 -74.56 -6.088 QT
-75.381 -6.604 -75.842 -7.463 QT
-76.303 -8.323 -76.303 -9.276 QT
-76.303 -10.213 -75.881 -11.057 QT
-75.459 -11.901 -74.693 -12.416 QT
-73.928 -12.932 -72.99 -12.932 QT
-72.256 -12.932 -71.717 -12.69 QT
-71.178 -12.448 -70.826 -12.01 QT
-70.474 -11.573 -70.295 -10.979 QT
-70.115 -10.385 -70.115 -9.666 QT
-70.115 -9.463 -70.271 -9.463 QT
-74.912 -9.463 L
-74.912 -9.291 L
-74.912 -7.963 -74.373 -7.01 QT
-73.834 -6.057 -72.631 -6.057 QT
-72.131 -6.057 -71.717 -6.276 QT
-71.303 -6.494 -70.99 -6.885 QT
-70.678 -7.276 -70.568 -7.713 QT
-70.553 -7.776 -70.514 -7.815 QT
-70.474 -7.854 -70.412 -7.854 QT
-70.271 -7.854 L
-70.115 -7.854 -70.115 -7.651 QT
-70.334 -6.744 -71.084 -6.158 QT
-71.834 -5.573 -72.771 -5.573 QT
cp
-74.896 -9.854 M
-71.24 -9.854 L
-71.24 -10.463 -71.412 -11.08 QT
-71.584 -11.698 -71.974 -12.104 QT
-72.365 -12.51 -72.99 -12.51 QT
-73.896 -12.51 -74.396 -11.666 QT
-74.896 -10.823 -74.896 -9.854 QT
cp
f
GR
GS
[0 -0.75 0.75 0 90.5 289.49979] CT
0.149 GC
N
-69.223 -5.76 M
-69.223 -6.323 L
-68.676 -6.323 -68.324 -6.408 QT
-67.973 -6.494 -67.973 -6.838 QT
-67.973 -11.198 L
-67.973 -11.635 -68.106 -11.823 QT
-68.238 -12.01 -68.481 -12.057 QT
-68.723 -12.104 -69.223 -12.104 QT
-69.223 -12.666 L
-66.941 -12.838 L
-66.941 -11.276 L
-66.676 -11.963 -66.199 -12.401 QT
-65.723 -12.838 -65.051 -12.838 QT
-64.566 -12.838 -64.191 -12.557 QT
-63.816 -12.276 -63.816 -11.807 QT
-63.816 -11.526 -64.027 -11.307 QT
-64.238 -11.088 -64.535 -11.088 QT
-64.832 -11.088 -65.043 -11.299 QT
-65.254 -11.51 -65.254 -11.807 QT
-65.254 -12.244 -64.957 -12.416 QT
-65.051 -12.416 L
-65.691 -12.416 -66.106 -11.948 QT
-66.52 -11.479 -66.691 -10.783 QT
-66.863 -10.088 -66.863 -9.463 QT
-66.863 -6.838 L
-66.863 -6.323 -65.301 -6.323 QT
-65.301 -5.76 L
-69.223 -5.76 L
cp
f
GR
GS
[0 -0.75 0.75 0 90.5 289.49979] CT
0.149 GC
N
-62.862 -5.76 M
-62.862 -6.323 L
-62.315 -6.323 -61.964 -6.408 QT
-61.612 -6.494 -61.612 -6.838 QT
-61.612 -12.104 L
-62.847 -12.104 L
-62.847 -12.666 L
-61.612 -12.666 L
-61.612 -14.573 L
-61.612 -15.088 -61.401 -15.541 QT
-61.19 -15.994 -60.823 -16.33 QT
-60.456 -16.666 -59.987 -16.854 QT
-59.519 -17.041 -59.003 -17.041 QT
-58.472 -17.041 -58.034 -16.721 QT
-57.597 -16.401 -57.597 -15.869 QT
-57.597 -15.573 -57.808 -15.362 QT
-58.019 -15.151 -58.315 -15.151 QT
-58.628 -15.151 -58.839 -15.362 QT
-59.05 -15.573 -59.05 -15.869 QT
-59.05 -16.369 -58.628 -16.541 QT
-58.878 -16.635 -59.081 -16.635 QT
-59.55 -16.635 -59.886 -16.299 QT
-60.222 -15.963 -60.386 -15.487 QT
-60.55 -15.01 -60.55 -14.541 QT
-60.55 -12.666 L
-58.706 -12.666 L
-58.706 -12.104 L
-60.487 -12.104 L
-60.487 -6.838 L
-60.487 -6.51 -60.019 -6.416 QT
-59.55 -6.323 -58.94 -6.323 QT
-58.94 -5.76 L
-62.862 -5.76 L
cp
f
GR
GS
[0 -0.75 0.75 0 90.5 289.49979] CT
0.149 GC
N
-54.489 -5.573 M
-55.442 -5.573 -56.262 -6.065 QT
-57.083 -6.557 -57.559 -7.377 QT
-58.036 -8.198 -58.036 -9.166 QT
-58.036 -9.901 -57.778 -10.58 QT
-57.52 -11.26 -57.028 -11.799 QT
-56.536 -12.338 -55.887 -12.635 QT
-55.239 -12.932 -54.489 -12.932 QT
-53.505 -12.932 -52.692 -12.416 QT
-51.88 -11.901 -51.411 -11.026 QT
-50.942 -10.151 -50.942 -9.166 QT
-50.942 -8.213 -51.419 -7.385 QT
-51.895 -6.557 -52.716 -6.065 QT
-53.536 -5.573 -54.489 -5.573 QT
cp
-54.489 -6.057 M
-53.208 -6.057 -52.778 -6.987 QT
-52.348 -7.916 -52.348 -9.354 QT
-52.348 -10.151 -52.434 -10.682 QT
-52.52 -11.213 -52.802 -11.635 QT
-52.989 -11.901 -53.262 -12.104 QT
-53.536 -12.307 -53.848 -12.408 QT
-54.161 -12.51 -54.489 -12.51 QT
-54.989 -12.51 -55.434 -12.283 QT
-55.88 -12.057 -56.177 -11.635 QT
-56.473 -11.182 -56.559 -10.643 QT
-56.645 -10.104 -56.645 -9.354 QT
-56.645 -8.448 -56.489 -7.737 QT
-56.333 -7.026 -55.856 -6.541 QT
-55.38 -6.057 -54.489 -6.057 QT
cp
f
GR
GS
[0 -0.75 0.75 0 90.5 289.49979] CT
0.149 GC
N
-50.067 -5.76 M
-50.067 -6.323 L
-49.52 -6.323 -49.169 -6.408 QT
-48.817 -6.494 -48.817 -6.838 QT
-48.817 -11.198 L
-48.817 -11.635 -48.95 -11.823 QT
-49.083 -12.01 -49.325 -12.057 QT
-49.567 -12.104 -50.067 -12.104 QT
-50.067 -12.666 L
-47.786 -12.838 L
-47.786 -11.276 L
-47.52 -11.963 -47.044 -12.401 QT
-46.567 -12.838 -45.895 -12.838 QT
-45.411 -12.838 -45.036 -12.557 QT
-44.661 -12.276 -44.661 -11.807 QT
-44.661 -11.526 -44.872 -11.307 QT
-45.083 -11.088 -45.38 -11.088 QT
-45.676 -11.088 -45.887 -11.299 QT
-46.098 -11.51 -46.098 -11.807 QT
-46.098 -12.244 -45.801 -12.416 QT
-45.895 -12.416 L
-46.536 -12.416 -46.95 -11.948 QT
-47.364 -11.479 -47.536 -10.783 QT
-47.708 -10.088 -47.708 -9.463 QT
-47.708 -6.838 L
-47.708 -6.323 -46.145 -6.323 QT
-46.145 -5.76 L
-50.067 -5.76 L
cp
f
GR
GS
[0 -0.75 0.75 0 90.5 289.49979] CT
0.149 GC
N
-43.738 -5.76 M
-43.738 -6.323 L
-43.191 -6.323 -42.84 -6.408 QT
-42.488 -6.494 -42.488 -6.838 QT
-42.488 -11.198 L
-42.488 -11.635 -42.621 -11.823 QT
-42.754 -12.01 -42.996 -12.057 QT
-43.238 -12.104 -43.738 -12.104 QT
-43.738 -12.666 L
-41.425 -12.838 L
-41.425 -11.276 L
-41.097 -11.963 -40.472 -12.401 QT
-39.847 -12.838 -39.097 -12.838 QT
-37.254 -12.838 -36.941 -11.338 QT
-36.613 -12.01 -35.996 -12.424 QT
-35.379 -12.838 -34.644 -12.838 QT
-33.925 -12.838 -33.425 -12.604 QT
-32.925 -12.369 -32.675 -11.885 QT
-32.425 -11.401 -32.425 -10.682 QT
-32.425 -6.838 L
-32.425 -6.494 -32.074 -6.408 QT
-31.722 -6.323 -31.175 -6.323 QT
-31.175 -5.76 L
-34.847 -5.76 L
-34.847 -6.323 L
-34.3 -6.323 -33.949 -6.408 QT
-33.597 -6.494 -33.597 -6.838 QT
-33.597 -10.635 L
-33.597 -11.432 -33.824 -11.924 QT
-34.05 -12.416 -34.754 -12.416 QT
-35.675 -12.416 -36.277 -11.674 QT
-36.879 -10.932 -36.879 -9.994 QT
-36.879 -6.838 L
-36.879 -6.494 -36.527 -6.408 QT
-36.175 -6.323 -35.629 -6.323 QT
-35.629 -5.76 L
-39.285 -5.76 L
-39.285 -6.323 L
-38.738 -6.323 -38.386 -6.408 QT
-38.035 -6.494 -38.035 -6.838 QT
-38.035 -10.635 L
-38.035 -11.416 -38.261 -11.916 QT
-38.488 -12.416 -39.191 -12.416 QT
-40.129 -12.416 -40.722 -11.674 QT
-41.316 -10.932 -41.316 -9.994 QT
-41.316 -6.838 L
-41.316 -6.494 -40.965 -6.408 QT
-40.613 -6.323 -40.082 -6.323 QT
-40.082 -5.76 L
-43.738 -5.76 L
cp
f
GR
GS
[0 -0.75 0.75 0 90.5 289.49979] CT
0.149 GC
N
-30.248 -7.338 M
-30.248 -8.291 -29.498 -8.885 QT
-28.748 -9.479 -27.694 -9.729 QT
-26.639 -9.979 -25.701 -9.979 QT
-25.701 -10.635 L
-25.701 -11.088 -25.905 -11.526 QT
-26.108 -11.963 -26.491 -12.237 QT
-26.873 -12.51 -27.326 -12.51 QT
-28.389 -12.51 -28.951 -12.041 QT
-28.639 -12.041 -28.444 -11.807 QT
-28.248 -11.573 -28.248 -11.276 QT
-28.248 -10.948 -28.475 -10.721 QT
-28.701 -10.494 -29.014 -10.494 QT
-29.326 -10.494 -29.553 -10.721 QT
-29.78 -10.948 -29.78 -11.276 QT
-29.78 -12.119 -29.014 -12.526 QT
-28.248 -12.932 -27.326 -12.932 QT
-26.686 -12.932 -26.03 -12.658 QT
-25.373 -12.385 -24.951 -11.869 QT
-24.53 -11.354 -24.53 -10.666 QT
-24.53 -7.057 L
-24.53 -6.744 -24.397 -6.487 QT
-24.264 -6.229 -23.983 -6.229 QT
-23.717 -6.229 -23.592 -6.494 QT
-23.467 -6.76 -23.467 -7.057 QT
-23.467 -8.088 L
-22.998 -8.088 L
-22.998 -7.057 L
-22.998 -6.698 -23.186 -6.377 QT
-23.373 -6.057 -23.686 -5.862 QT
-23.998 -5.666 -24.373 -5.666 QT
-24.842 -5.666 -25.178 -6.033 QT
-25.514 -6.401 -25.561 -6.901 QT
-25.858 -6.291 -26.436 -5.932 QT
-27.014 -5.573 -27.67 -5.573 QT
-28.28 -5.573 -28.866 -5.76 QT
-29.451 -5.948 -29.85 -6.33 QT
-30.248 -6.713 -30.248 -7.338 QT
cp
-28.951 -7.338 M
-28.951 -6.776 -28.537 -6.393 QT
-28.123 -6.01 -27.561 -6.01 QT
-27.045 -6.01 -26.623 -6.268 QT
-26.201 -6.526 -25.951 -6.971 QT
-25.701 -7.416 -25.701 -7.901 QT
-25.701 -9.573 L
-26.42 -9.573 -27.186 -9.33 QT
-27.951 -9.088 -28.451 -8.58 QT
-28.951 -8.073 -28.951 -7.338 QT
cp
f
GR
GS
[0 -0.75 0.75 0 90.5 289.49979] CT
0.149 GC
N
-22.405 -5.76 M
-22.405 -6.323 L
-21.858 -6.323 -21.506 -6.408 QT
-21.155 -6.494 -21.155 -6.838 QT
-21.155 -11.198 L
-21.155 -11.635 -21.287 -11.823 QT
-21.42 -12.01 -21.662 -12.057 QT
-21.905 -12.104 -22.405 -12.104 QT
-22.405 -12.666 L
-20.092 -12.838 L
-20.092 -11.276 L
-19.764 -11.963 -19.139 -12.401 QT
-18.514 -12.838 -17.764 -12.838 QT
-16.655 -12.838 -16.1 -12.307 QT
-15.545 -11.776 -15.545 -10.682 QT
-15.545 -6.838 L
-15.545 -6.494 -15.194 -6.408 QT
-14.842 -6.323 -14.295 -6.323 QT
-14.295 -5.76 L
-17.951 -5.76 L
-17.951 -6.323 L
-17.405 -6.323 -17.053 -6.408 QT
-16.701 -6.494 -16.701 -6.838 QT
-16.701 -10.635 L
-16.701 -11.416 -16.928 -11.916 QT
-17.155 -12.416 -17.858 -12.416 QT
-18.795 -12.416 -19.389 -11.674 QT
-19.983 -10.932 -19.983 -9.994 QT
-19.983 -6.838 L
-19.983 -6.494 -19.631 -6.408 QT
-19.28 -6.323 -18.748 -6.323 QT
-18.748 -5.76 L
-22.405 -5.76 L
cp
f
GR
GS
[0 -0.75 0.75 0 90.5 289.49979] CT
0.149 GC
N
-10.016 -5.573 M
-10.984 -5.573 -11.773 -6.08 QT
-12.563 -6.588 -13.016 -7.432 QT
-13.469 -8.276 -13.469 -9.213 QT
-13.469 -10.166 -13.016 -11.033 QT
-12.563 -11.901 -11.773 -12.416 QT
-10.984 -12.932 -10.016 -12.932 QT
-9.078 -12.932 -8.305 -12.565 QT
-7.531 -12.198 -7.531 -11.369 QT
-7.531 -11.057 -7.758 -10.823 QT
-7.984 -10.588 -8.297 -10.588 QT
-8.625 -10.588 -8.844 -10.823 QT
-9.063 -11.057 -9.063 -11.369 QT
-9.063 -11.651 -8.883 -11.854 QT
-8.703 -12.057 -8.438 -12.119 QT
-9 -12.463 -10 -12.463 QT
-10.766 -12.463 -11.234 -11.955 QT
-11.703 -11.448 -11.891 -10.698 QT
-12.078 -9.948 -12.078 -9.213 QT
-12.078 -8.448 -11.844 -7.721 QT
-11.609 -6.994 -11.102 -6.526 QT
-10.594 -6.057 -9.813 -6.057 QT
-9.063 -6.057 -8.531 -6.518 QT
-8 -6.979 -7.797 -7.729 QT
-7.797 -7.823 -7.672 -7.823 QT
-7.484 -7.823 L
-7.438 -7.823 -7.398 -7.783 QT
-7.359 -7.744 -7.359 -7.682 QT
-7.359 -7.635 L
-7.594 -6.698 -8.313 -6.135 QT
-9.031 -5.573 -10.016 -5.573 QT
cp
f
GR
GS
[0 -0.75 0.75 0 90.5 289.49979] CT
0.149 GC
N
-2.905 -5.573 M
-3.873 -5.573 -4.694 -6.088 QT
-5.514 -6.604 -5.975 -7.463 QT
-6.436 -8.323 -6.436 -9.276 QT
-6.436 -10.213 -6.014 -11.057 QT
-5.592 -11.901 -4.826 -12.416 QT
-4.061 -12.932 -3.123 -12.932 QT
-2.389 -12.932 -1.85 -12.69 QT
-1.311 -12.448 -0.959 -12.01 QT
-0.608 -11.573 -0.428 -10.979 QT
-0.248 -10.385 -0.248 -9.666 QT
-0.248 -9.463 -0.405 -9.463 QT
-5.045 -9.463 L
-5.045 -9.291 L
-5.045 -7.963 -4.506 -7.01 QT
-3.967 -6.057 -2.764 -6.057 QT
-2.264 -6.057 -1.85 -6.276 QT
-1.436 -6.494 -1.123 -6.885 QT
-0.811 -7.276 -0.701 -7.713 QT
-0.686 -7.776 -0.647 -7.815 QT
-0.608 -7.854 -0.545 -7.854 QT
-0.405 -7.854 L
-0.248 -7.854 -0.248 -7.651 QT
-0.467 -6.744 -1.217 -6.158 QT
-1.967 -5.573 -2.905 -5.573 QT
cp
-5.03 -9.854 M
-1.373 -9.854 L
-1.373 -10.463 -1.545 -11.08 QT
-1.717 -11.698 -2.108 -12.104 QT
-2.498 -12.51 -3.123 -12.51 QT
-4.03 -12.51 -4.53 -11.666 QT
-5.03 -10.823 -5.03 -9.854 QT
cp
f
GR
GS
[0 -0.75 0.75 0 90.5 289.49979] CT
0.149 GC
N
7.446 -1.76 M
7.446 -17.76 L
9.634 -17.76 L
9.634 -17.119 L
8.087 -17.119 L
8.087 -2.401 L
9.634 -2.401 L
9.634 -1.76 L
7.446 -1.76 L
cp
f
GR
GS
[0 -0.75 0.75 0 90.5 289.49979] CT
0.149 GC
N
10.563 -5.76 M
10.563 -6.323 L
12.219 -6.323 12.219 -7.276 QT
12.219 -15.619 L
12.219 -16.135 10.563 -16.135 QT
10.563 -16.698 L
13.594 -16.698 L
13.781 -16.698 13.844 -16.51 QT
17.328 -7.463 L
20.813 -16.51 L
20.875 -16.698 21.078 -16.698 QT
24.094 -16.698 L
24.094 -16.135 L
22.453 -16.135 22.453 -15.619 QT
22.453 -6.838 L
22.453 -6.323 24.094 -6.323 QT
24.094 -5.76 L
19.438 -5.76 L
19.438 -6.323 L
21.094 -6.323 21.094 -6.838 QT
21.094 -16.151 L
17.156 -5.948 L
17.078 -5.76 16.891 -5.76 QT
16.688 -5.76 16.609 -5.948 QT
12.719 -16.026 L
12.719 -7.276 L
12.719 -6.323 14.375 -6.323 QT
14.375 -5.76 L
10.563 -5.76 L
cp
f
GR
GS
[0 -0.75 0.75 0 90.5 289.49979] CT
0.149 GC
N
25.167 -5.76 M
25.167 -6.323 L
26.807 -6.323 26.807 -6.838 QT
26.807 -15.619 L
26.807 -16.135 25.167 -16.135 QT
25.167 -16.698 L
33.979 -16.698 L
34.432 -13.026 L
33.964 -13.026 L
33.854 -14.041 33.675 -14.619 QT
33.495 -15.198 33.143 -15.533 QT
32.792 -15.869 32.198 -16.002 QT
31.604 -16.135 30.573 -16.135 QT
29.12 -16.135 L
28.823 -16.135 28.667 -16.112 QT
28.51 -16.088 28.409 -15.971 QT
28.307 -15.854 28.307 -15.619 QT
28.307 -11.51 L
29.432 -11.51 L
30.26 -11.51 30.643 -11.651 QT
31.026 -11.791 31.167 -12.174 QT
31.307 -12.557 31.307 -13.385 QT
31.776 -13.385 L
31.776 -9.073 L
31.307 -9.073 L
31.307 -9.901 31.167 -10.283 QT
31.026 -10.666 30.643 -10.807 QT
30.26 -10.948 29.432 -10.948 QT
28.307 -10.948 L
28.307 -6.838 L
28.307 -6.323 30.354 -6.323 QT
30.354 -5.76 L
25.167 -5.76 L
cp
f
GR
GS
[0 -0.75 0.75 0 90.5 289.49979] CT
0.149 GC
N
35.611 -5.76 M
35.611 -6.323 L
37.252 -6.323 37.252 -6.838 QT
37.252 -15.619 L
37.252 -16.135 35.611 -16.135 QT
35.611 -16.698 L
40.799 -16.698 L
40.799 -16.135 L
38.752 -16.135 38.752 -15.619 QT
38.752 -6.838 L
38.752 -6.494 38.947 -6.408 QT
39.142 -6.323 39.564 -6.323 QT
40.799 -6.323 L
41.986 -6.323 42.635 -6.76 QT
43.283 -7.198 43.556 -7.955 QT
43.83 -8.713 43.971 -9.963 QT
44.424 -9.963 L
43.986 -5.76 L
35.611 -5.76 L
cp
f
GR
GS
[0 -0.75 0.75 0 90.5 289.49979] CT
0.149 GC
N
51.346 -5.401 M
49.814 -5.401 48.603 -6.213 QT
47.392 -7.026 46.705 -8.369 QT
46.017 -9.713 46.017 -11.182 QT
46.017 -12.276 46.408 -13.346 QT
46.799 -14.416 47.51 -15.244 QT
48.221 -16.073 49.213 -16.557 QT
50.205 -17.041 51.346 -17.041 QT
52.471 -17.041 53.471 -16.557 QT
54.471 -16.073 55.182 -15.237 QT
55.892 -14.401 56.275 -13.362 QT
56.658 -12.323 56.658 -11.182 QT
56.658 -9.713 55.971 -8.369 QT
55.283 -7.026 54.064 -6.213 QT
52.846 -5.401 51.346 -5.401 QT
cp
48.689 -7.494 M
49.158 -6.76 49.846 -6.323 QT
50.533 -5.885 51.346 -5.885 QT
51.861 -5.885 52.369 -6.096 QT
52.877 -6.307 53.283 -6.674 QT
53.689 -7.041 53.986 -7.494 QT
54.939 -8.932 54.939 -11.448 QT
54.939 -13.744 53.986 -15.088 QT
53.517 -15.76 52.814 -16.166 QT
52.111 -16.573 51.346 -16.573 QT
50.564 -16.573 49.861 -16.166 QT
49.158 -15.76 48.689 -15.088 QT
48.314 -14.573 48.103 -13.979 QT
47.892 -13.385 47.807 -12.752 QT
47.721 -12.119 47.721 -11.448 QT
47.721 -10.713 47.807 -10.026 QT
47.892 -9.338 48.111 -8.674 QT
48.33 -8.01 48.689 -7.494 QT
cp
f
GR
GS
[0 -0.75 0.75 0 90.5 289.49979] CT
0.149 GC
N
58.087 -5.76 M
58.087 -6.323 L
59.743 -6.323 59.743 -6.838 QT
59.743 -15.619 L
59.743 -16.135 58.087 -16.135 QT
58.087 -16.698 L
63.79 -16.698 L
64.665 -16.698 65.54 -16.338 QT
66.415 -15.979 66.978 -15.291 QT
67.54 -14.604 67.54 -13.682 QT
67.54 -12.791 66.97 -12.119 QT
66.399 -11.448 65.532 -11.104 QT
64.665 -10.76 63.79 -10.76 QT
61.228 -10.76 L
61.228 -6.838 L
61.228 -6.323 62.868 -6.323 QT
62.868 -5.76 L
58.087 -5.76 L
cp
61.181 -11.229 M
63.353 -11.229 L
64.228 -11.229 64.774 -11.487 QT
65.321 -11.744 65.579 -12.276 QT
65.837 -12.807 65.837 -13.682 QT
65.837 -14.994 65.259 -15.565 QT
64.681 -16.135 63.353 -16.135 QT
61.993 -16.135 L
61.696 -16.135 61.54 -16.112 QT
61.384 -16.088 61.282 -15.971 QT
61.181 -15.854 61.181 -15.619 QT
61.181 -11.229 L
cp
f
GR
GS
[0 -0.75 0.75 0 90.5 289.49979] CT
0.149 GC
N
69.351 -2.073 M
69.351 -2.119 69.366 -2.135 QT
74.929 -17.573 L
74.96 -17.666 75.038 -17.713 QT
75.116 -17.76 75.21 -17.76 QT
75.351 -17.76 75.445 -17.674 QT
75.538 -17.588 75.538 -17.448 QT
75.538 -17.385 L
69.976 -1.948 L
69.882 -1.76 69.663 -1.76 QT
69.538 -1.76 69.445 -1.854 QT
69.351 -1.948 69.351 -2.073 QT
cp
f
GR
GS
[0 -0.75 0.75 0 90.5 289.49979] CT
0.149 GC
N
76.976 -5.713 M
76.976 -8.323 L
76.976 -8.448 77.117 -8.448 QT
77.32 -8.448 L
77.413 -8.448 77.445 -8.323 QT
77.882 -6.01 79.601 -6.01 QT
80.351 -6.01 80.867 -6.354 QT
81.382 -6.698 81.382 -7.416 QT
81.382 -7.932 80.984 -8.291 QT
80.585 -8.651 80.038 -8.791 QT
78.96 -8.994 L
78.429 -9.119 77.984 -9.362 QT
77.538 -9.604 77.257 -10.002 QT
76.976 -10.401 76.976 -10.932 QT
76.976 -11.635 77.351 -12.088 QT
77.726 -12.541 78.32 -12.737 QT
78.913 -12.932 79.601 -12.932 QT
80.413 -12.932 81.023 -12.494 QT
81.492 -12.901 L
81.492 -12.932 81.57 -12.932 QT
81.679 -12.932 L
81.726 -12.932 81.765 -12.893 QT
81.804 -12.854 81.804 -12.807 QT
81.804 -10.713 L
81.804 -10.557 81.679 -10.557 QT
81.492 -10.557 L
81.351 -10.557 81.351 -10.713 QT
81.351 -11.541 80.882 -12.049 QT
80.413 -12.557 79.585 -12.557 QT
78.867 -12.557 78.335 -12.291 QT
77.804 -12.026 77.804 -11.385 QT
77.804 -10.932 78.187 -10.651 QT
78.57 -10.369 79.07 -10.244 QT
80.163 -10.041 L
80.71 -9.916 81.179 -9.619 QT
81.648 -9.323 81.929 -8.869 QT
82.21 -8.416 82.21 -7.838 QT
82.21 -7.26 82.007 -6.838 QT
81.804 -6.416 81.452 -6.135 QT
81.101 -5.854 80.617 -5.713 QT
80.132 -5.573 79.601 -5.573 QT
78.601 -5.573 77.882 -6.26 QT
77.304 -5.619 L
77.304 -5.573 77.21 -5.573 QT
77.117 -5.573 L
76.976 -5.573 76.976 -5.713 QT
cp
f
GR
GS
[0 -0.75 0.75 0 90.5 289.49979] CT
0.149 GC
N
83.115 -1.76 M
83.115 -2.401 L
84.662 -2.401 L
84.662 -17.119 L
83.115 -17.119 L
83.115 -17.76 L
85.303 -17.76 L
85.303 -1.76 L
83.115 -1.76 L
cp
f
GR
GS
[0.75 0 0 0.75 0 0] CT
0 0.447 0.741 RC
1 LJ
1.6 LW
N
165.3 514.966 M
202.5 469.987 L
249 481.415 L
342 479.739 L
621 497.874 L
853.5 491.931 L
1086 498.582 L
S
GR
GS
[0.75 0 0 0.75 123.975 386.22427] CT
0 0.447 0.741 RC
N
3.333 0 M
3.333 1.841 1.841 3.333 0 3.333 C
-1.841 3.333 -3.333 1.841 -3.333 0 C
-3.333 -1.841 -1.841 -3.333 0 -3.333 C
1.841 -3.333 3.333 -1.841 3.333 0 C
cp
f
GR
GS
[0.75 0 0 0.75 151.875 352.49018] CT
0 0.447 0.741 RC
N
/f-1867764608{3.333 0 M
3.333 1.841 1.841 3.333 0 3.333 C
-1.841 3.333 -3.333 1.841 -3.333 0 C
-3.333 -1.841 -1.841 -3.333 0 -3.333 C
1.841 -3.333 3.333 -1.841 3.333 0 C
cp}def
f-1867764608
f
GR
GS
[0.75 0 0 0.75 186.75 361.06158] CT
0 0.447 0.741 RC
N
f-1867764608
f
GR
GS
[0.75 0 0 0.75 256.5 359.80419] CT
0 0.447 0.741 RC
N
f-1867764608
f
GR
GS
[0.75 0 0 0.75 465.75 373.40531] CT
0 0.447 0.741 RC
N
f-1867764608
f
GR
GS
[0.75 0 0 0.75 640.125 368.94843] CT
0 0.447 0.741 RC
N
f-1867764608
f
GR
GS
[0.75 0 0 0.75 814.5 373.93636] CT
0 0.447 0.741 RC
N
f-1867764608
f
GR
GS
[0.75 0 0 0.75 0 0] CT
0.851 0.325 0.098 RC
1 LJ
1.6 LW
N
165.3 603.815 M
202.5 579.514 L
249 578.349 L
342 588.735 L
621 610.12 L
853.5 634.058 L
1086 651.746 L
S
GR
GS
[0.75 0 0 0.75 123.975 452.86098] CT
0.851 0.325 0.098 RC
N
f-1867764608
f
GR
GS
[0.75 0 0 0.75 151.875 434.63521] CT
0.851 0.325 0.098 RC
N
f-1867764608
f
GR
GS
[0.75 0 0 0.75 186.75 433.76198] CT
0.851 0.325 0.098 RC
N
f-1867764608
f
GR
GS
[0.75 0 0 0.75 256.5 441.55101] CT
0.851 0.325 0.098 RC
N
f-1867764608
f
GR
GS
[0.75 0 0 0.75 465.75 457.59032] CT
0.851 0.325 0.098 RC
N
f-1867764608
f
GR
GS
[0.75 0 0 0.75 640.125 475.54344] CT
0.851 0.325 0.098 RC
N
f-1867764608
f
GR
GS
[0.75 0 0 0.75 814.5 488.80943] CT
0.851 0.325 0.098 RC
N
f-1867764608
f
GR
GS
[0.75 0 0 0.75 0 0] CT
0.929 0.694 0.125 RC
1 LJ
1.6 LW
N
165.3 125.265 M
202.5 120.077 L
249 142.003 L
342 98.906 L
621 75.434 L
853.5 80.398 L
1086 87.868 L
S
GR
GS
[0.75 0 0 0.75 123.975 93.94904] CT
0.929 0.694 0.125 RC
N
f-1867764608
f
GR
GS
[0.75 0 0 0.75 151.875 90.05794] CT
0.929 0.694 0.125 RC
N
f-1867764608
f
GR
GS
[0.75 0 0 0.75 186.75 106.50213] CT
0.929 0.694 0.125 RC
N
f-1867764608
f
GR
GS
[0.75 0 0 0.75 256.5 74.17934] CT
0.929 0.694 0.125 RC
N
f-1867764608
f
GR
GS
[0.75 0 0 0.75 465.75 56.57521] CT
0.929 0.694 0.125 RC
N
f-1867764608
f
GR
GS
[0.75 0 0 0.75 640.125 60.29873] CT
0.929 0.694 0.125 RC
N
f-1867764608
f
GR
GS
[0.75 0 0 0.75 814.5 65.90129] CT
0.929 0.694 0.125 RC
N
f-1867764608
f
GR
GS
[0.75 0 0 0.75 0 0] CT
0.494 0.184 0.557 RC
1 LJ
1.6 LW
N
165.3 636.424 M
202.5 605.417 L
249 635.325 L
342 640.736 L
621 667.105 L
853.5 693.12 L
1086 699.537 L
S
GR
GS
[0.75 0 0 0.75 123.975 477.31783] CT
0.494 0.184 0.557 RC
N
f-1867764608
f
GR
GS
[0.75 0 0 0.75 151.875 454.06252] CT
0.494 0.184 0.557 RC
N
f-1867764608
f
GR
GS
[0.75 0 0 0.75 186.75 476.49362] CT
0.494 0.184 0.557 RC
N
f-1867764608
f
GR
GS
[0.75 0 0 0.75 256.5 480.55229] CT
0.494 0.184 0.557 RC
N
f-1867764608
f
GR
GS
[0.75 0 0 0.75 465.75 500.32883] CT
0.494 0.184 0.557 RC
N
f-1867764608
f
GR
GS
[0.75 0 0 0.75 640.125 519.8399] CT
0.494 0.184 0.557 RC
N
f-1867764608
f
GR
GS
[0.75 0 0 0.75 814.5 524.65302] CT
0.494 0.184 0.557 RC
N
f-1867764608
f
GR
GS
[0.75 0 0 0.75 0 0] CT
0.467 0.675 0.188 RC
1 LJ
1.6 LW
N
165.3 643.065 M
202.5 617.376 L
249 610.651 L
342 621.316 L
621 681.552 L
853.5 683.34 L
1086 699.519 L
S
GR
GS
[0.75 0 0 0.75 123.975 482.29871] CT
0.467 0.675 0.188 RC
N
f-1867764608
f
GR
GS
[0.75 0 0 0.75 151.875 463.03217] CT
0.467 0.675 0.188 RC
N
f-1867764608
f
GR
GS
[0.75 0 0 0.75 186.75 457.98834] CT
0.467 0.675 0.188 RC
N
f-1867764608
f
GR
GS
[0.75 0 0 0.75 256.5 465.98712] CT
0.467 0.675 0.188 RC
N
f-1867764608
f
GR
GS
[0.75 0 0 0.75 465.75 511.16364] CT
0.467 0.675 0.188 RC
N
f-1867764608
f
GR
GS
[0.75 0 0 0.75 640.125 512.50497] CT
0.467 0.675 0.188 RC
N
f-1867764608
f
GR
GS
[0.75 0 0 0.75 814.5 524.63919] CT
0.467 0.675 0.188 RC
N
f-1867764608
f
GR
GS
[0.75 0 0 0.75 0 0] CT
0.302 0.745 0.933 RC
1 LJ
1.6 LW
N
165.3 684.048 M
202.5 617.507 L
249 619.816 L
342 613.241 L
621 657.465 L
853.5 658.387 L
1086 658.955 L
S
GR
GS
[0.75 0 0 0.75 123.975 513.03584] CT
0.302 0.745 0.933 RC
N
f-1867764608
f
GR
GS
[0.75 0 0 0.75 151.875 463.12999] CT
0.302 0.745 0.933 RC
N
f-1867764608
f
GR
GS
[0.75 0 0 0.75 186.75 464.86235] CT
0.302 0.745 0.933 RC
N
f-1867764608
f
GR
GS
[0.75 0 0 0.75 256.5 459.9305] CT
0.302 0.745 0.933 RC
N
f-1867764608
f
GR
GS
[0.75 0 0 0.75 465.75 493.09859] CT
0.302 0.745 0.933 RC
N
f-1867764608
f
GR
GS
[0.75 0 0 0.75 640.125 493.79013] CT
0.302 0.745 0.933 RC
N
f-1867764608
f
GR
GS
[0.75 0 0 0.75 814.5 494.21631] CT
0.302 0.745 0.933 RC
N
f-1867764608
f
GR
GS
[0.75 0 0 0.75 0 0] CT
1 GC
N
1075 154 M
1075 71 L
1004 71 L
1004 154 L
cp
f
GR
GS
[0.75 0 0 0.75 788.03064 59.52731] CT
N
0.281 2.56 M
0.281 2.169 L
0.656 2.169 0.898 2.115 QT
1.141 2.06 1.141 1.826 QT
1.141 -3.956 L
1.141 -4.253 1.055 -4.378 QT
0.969 -4.503 0.805 -4.534 QT
0.641 -4.565 0.281 -4.565 QT
0.281 -4.956 L
1.906 -5.065 L
1.906 0.154 L
3.391 -1.143 L
3.609 -1.362 3.609 -1.534 QT
3.609 -1.659 3.516 -1.729 QT
3.422 -1.799 3.297 -1.799 QT
3.297 -2.19 L
5.359 -2.19 L
5.359 -1.799 L
4.625 -1.799 3.875 -1.143 QT
3.094 -0.471 L
4.484 1.529 L
4.781 1.935 4.977 2.052 QT
5.172 2.169 5.625 2.169 QT
5.625 2.56 L
3.438 2.56 L
3.438 2.169 L
3.813 2.169 3.813 1.935 QT
3.813 1.779 3.609 1.529 QT
2.547 0.013 L
1.875 0.607 L
1.875 1.826 L
1.875 2.06 2.125 2.115 QT
2.375 2.169 2.734 2.169 QT
2.734 2.56 L
0.281 2.56 L
cp
f
GR
GS
[0.75 0 0 0.75 788.03064 59.52731] CT
N
5.958 2.56 M
5.958 2.169 L
6.333 2.169 6.575 2.115 QT
6.817 2.06 6.817 1.826 QT
6.817 -1.174 L
6.817 -1.471 6.731 -1.604 QT
6.645 -1.737 6.473 -1.768 QT
6.302 -1.799 5.958 -1.799 QT
5.958 -2.19 L
7.552 -2.299 L
7.552 -1.221 L
7.77 -1.706 8.208 -2.003 QT
8.645 -2.299 9.145 -2.299 QT
10.411 -2.299 10.63 -1.268 QT
10.848 -1.737 11.278 -2.018 QT
11.708 -2.299 12.208 -2.299 QT
12.708 -2.299 13.052 -2.135 QT
13.395 -1.971 13.567 -1.643 QT
13.739 -1.315 13.739 -0.815 QT
13.739 1.826 L
13.739 2.06 13.981 2.115 QT
14.223 2.169 14.598 2.169 QT
14.598 2.56 L
12.083 2.56 L
12.083 2.169 L
12.458 2.169 12.7 2.115 QT
12.942 2.06 12.942 1.826 QT
12.942 -0.784 L
12.942 -1.346 12.786 -1.682 QT
12.63 -2.018 12.145 -2.018 QT
11.505 -2.018 11.091 -1.51 QT
10.677 -1.003 10.677 -0.346 QT
10.677 1.826 L
10.677 2.06 10.919 2.115 QT
11.161 2.169 11.536 2.169 QT
11.536 2.56 L
9.02 2.56 L
9.02 2.169 L
9.395 2.169 9.637 2.115 QT
9.88 2.06 9.88 1.826 QT
9.88 -0.784 L
9.88 -1.331 9.723 -1.674 QT
9.567 -2.018 9.083 -2.018 QT
8.442 -2.018 8.036 -1.51 QT
7.63 -1.003 7.63 -0.346 QT
7.63 1.826 L
7.63 2.06 7.864 2.115 QT
8.098 2.169 8.473 2.169 QT
8.473 2.56 L
5.958 2.56 L
cp
f
GR
GS
[0.75 0 0 0.75 788.03064 59.52731] CT
N
14.847 2.56 M
14.847 2.169 L
15.222 2.169 15.464 2.115 QT
15.706 2.06 15.706 1.826 QT
15.706 -1.174 L
15.706 -1.471 15.62 -1.604 QT
15.534 -1.737 15.362 -1.768 QT
15.19 -1.799 14.847 -1.799 QT
14.847 -2.19 L
16.44 -2.299 L
16.44 -1.221 L
16.659 -1.706 17.097 -2.003 QT
17.534 -2.299 18.034 -2.299 QT
18.8 -2.299 19.183 -1.932 QT
19.565 -1.565 19.565 -0.815 QT
19.565 1.826 L
19.565 2.06 19.808 2.115 QT
20.05 2.169 20.425 2.169 QT
20.425 2.56 L
17.909 2.56 L
17.909 2.169 L
18.284 2.169 18.526 2.115 QT
18.769 2.06 18.769 1.826 QT
18.769 -0.784 L
18.769 -1.331 18.612 -1.674 QT
18.456 -2.018 17.972 -2.018 QT
17.331 -2.018 16.925 -1.51 QT
16.519 -1.003 16.519 -0.346 QT
16.519 1.826 L
16.519 2.06 16.753 2.115 QT
16.987 2.169 17.362 2.169 QT
17.362 2.56 L
14.847 2.56 L
cp
f
GR
GS
[0.75 0 0 0.75 0 0] CT
0 0.447 0.741 RC
1 LJ
1.6 LW
N
1007.975 79.37 M
1047.726 79.37 L
S
GR
GS
[0.75 0 0 0.75 770.88803 59.52731] CT
0 0.447 0.741 RC
N
f-1867764608
f
GR
GS
[0.75 0 0 0.75 788.03064 69.46639] CT
N
/f305086161{0.281 2.56 M
0.281 2.169 L
0.656 2.169 0.898 2.115 QT
1.141 2.06 1.141 1.826 QT
1.141 -3.956 L
1.141 -4.253 1.055 -4.378 QT
0.969 -4.503 0.805 -4.534 QT
0.641 -4.565 0.281 -4.565 QT
0.281 -4.956 L
1.906 -5.065 L
1.906 0.154 L
3.391 -1.143 L
3.609 -1.362 3.609 -1.534 QT
3.609 -1.659 3.516 -1.729 QT
3.422 -1.799 3.297 -1.799 QT
3.297 -2.19 L
5.359 -2.19 L
5.359 -1.799 L
4.625 -1.799 3.875 -1.143 QT
3.094 -0.471 L
4.484 1.529 L
4.781 1.935 4.977 2.052 QT
5.172 2.169 5.625 2.169 QT
5.625 2.56 L
3.438 2.56 L
3.438 2.169 L
3.813 2.169 3.813 1.935 QT
3.813 1.779 3.609 1.529 QT
2.547 0.013 L
1.875 0.607 L
1.875 1.826 L
1.875 2.06 2.125 2.115 QT
2.375 2.169 2.734 2.169 QT
2.734 2.56 L
0.281 2.56 L
cp}def
f305086161
f
GR
GS
[0.75 0 0 0.75 788.03064 69.46639] CT
N
/f-694345428{5.958 2.56 M
5.958 2.169 L
6.333 2.169 6.575 2.115 QT
6.817 2.06 6.817 1.826 QT
6.817 -1.174 L
6.817 -1.471 6.731 -1.604 QT
6.645 -1.737 6.473 -1.768 QT
6.302 -1.799 5.958 -1.799 QT
5.958 -2.19 L
7.552 -2.299 L
7.552 -1.221 L
7.77 -1.706 8.208 -2.003 QT
8.645 -2.299 9.145 -2.299 QT
9.911 -2.299 10.294 -1.932 QT
10.677 -1.565 10.677 -0.815 QT
10.677 1.826 L
10.677 2.06 10.919 2.115 QT
11.161 2.169 11.536 2.169 QT
11.536 2.56 L
9.02 2.56 L
9.02 2.169 L
9.395 2.169 9.637 2.115 QT
9.88 2.06 9.88 1.826 QT
9.88 -0.784 L
9.88 -1.331 9.723 -1.674 QT
9.567 -2.018 9.083 -2.018 QT
8.442 -2.018 8.036 -1.51 QT
7.63 -1.003 7.63 -0.346 QT
7.63 1.826 L
7.63 2.06 7.864 2.115 QT
8.098 2.169 8.473 2.169 QT
8.473 2.56 L
5.958 2.56 L
cp}def
f-694345428
f
GR
GS
[0.75 0 0 0.75 788.03064 69.46639] CT
N
/f2056957038{11.884 2.56 M
11.884 2.169 L
12.259 2.169 12.501 2.115 QT
12.743 2.06 12.743 1.826 QT
12.743 -1.174 L
12.743 -1.471 12.657 -1.604 QT
12.571 -1.737 12.399 -1.768 QT
12.227 -1.799 11.884 -1.799 QT
11.884 -2.19 L
13.477 -2.299 L
13.477 -1.221 L
13.696 -1.706 14.134 -2.003 QT
14.571 -2.299 15.071 -2.299 QT
16.337 -2.299 16.556 -1.268 QT
16.774 -1.737 17.204 -2.018 QT
17.634 -2.299 18.134 -2.299 QT
18.634 -2.299 18.977 -2.135 QT
19.321 -1.971 19.493 -1.643 QT
19.665 -1.315 19.665 -0.815 QT
19.665 1.826 L
19.665 2.06 19.907 2.115 QT
20.149 2.169 20.524 2.169 QT
20.524 2.56 L
18.009 2.56 L
18.009 2.169 L
18.384 2.169 18.626 2.115 QT
18.868 2.06 18.868 1.826 QT
18.868 -0.784 L
18.868 -1.346 18.712 -1.682 QT
18.556 -2.018 18.071 -2.018 QT
17.431 -2.018 17.017 -1.51 QT
16.602 -1.003 16.602 -0.346 QT
16.602 1.826 L
16.602 2.06 16.845 2.115 QT
17.087 2.169 17.462 2.169 QT
17.462 2.56 L
14.946 2.56 L
14.946 2.169 L
15.321 2.169 15.563 2.115 QT
15.806 2.06 15.806 1.826 QT
15.806 -0.784 L
15.806 -1.331 15.649 -1.674 QT
15.493 -2.018 15.009 -2.018 QT
14.368 -2.018 13.962 -1.51 QT
13.556 -1.003 13.556 -0.346 QT
13.556 1.826 L
13.556 2.06 13.79 2.115 QT
14.024 2.169 14.399 2.169 QT
14.399 2.56 L
11.884 2.56 L
cp}def
f2056957038
f
GR
GS
[0.75 0 0 0.75 0 0] CT
0.851 0.325 0.098 RC
1 LJ
1.6 LW
N
1007.975 92.622 M
1047.726 92.622 L
S
GR
GS
[0.75 0 0 0.75 770.88803 69.46639] CT
0.851 0.325 0.098 RC
N
f-1867764608
f
GR
GS
[0.75 0 0 0.75 788.03064 79.40546] CT
N
/f-700236089{0.328 2.56 M
0.328 2.169 L
0.703 2.169 0.945 2.115 QT
1.188 2.06 1.188 1.826 QT
1.188 -1.174 L
1.188 -1.471 1.102 -1.604 QT
1.016 -1.737 0.844 -1.768 QT
0.672 -1.799 0.328 -1.799 QT
0.328 -2.19 L
1.922 -2.299 L
1.922 -1.221 L
2.141 -1.706 2.578 -2.003 QT
3.016 -2.299 3.516 -2.299 QT
4.781 -2.299 5 -1.268 QT
5.219 -1.737 5.648 -2.018 QT
6.078 -2.299 6.578 -2.299 QT
7.078 -2.299 7.422 -2.135 QT
7.766 -1.971 7.938 -1.643 QT
8.109 -1.315 8.109 -0.815 QT
8.109 1.826 L
8.109 2.06 8.352 2.115 QT
8.594 2.169 8.969 2.169 QT
8.969 2.56 L
6.453 2.56 L
6.453 2.169 L
6.828 2.169 7.07 2.115 QT
7.313 2.06 7.313 1.826 QT
7.313 -0.784 L
7.313 -1.346 7.156 -1.682 QT
7 -2.018 6.516 -2.018 QT
5.875 -2.018 5.461 -1.51 QT
5.047 -1.003 5.047 -0.346 QT
5.047 1.826 L
5.047 2.06 5.289 2.115 QT
5.531 2.169 5.906 2.169 QT
5.906 2.56 L
3.391 2.56 L
3.391 2.169 L
3.766 2.169 4.008 2.115 QT
4.25 2.06 4.25 1.826 QT
4.25 -0.784 L
4.25 -1.331 4.094 -1.674 QT
3.938 -2.018 3.453 -2.018 QT
2.813 -2.018 2.406 -1.51 QT
2 -1.003 2 -0.346 QT
2 1.826 L
2 2.06 2.234 2.115 QT
2.469 2.169 2.844 2.169 QT
2.844 2.56 L
0.328 2.56 L
cp}def
f-700236089
f
GR
GS
[0.75 0 0 0.75 788.03064 79.40546] CT
N
/f-1254220489{9.17 2.56 M
9.17 2.169 L
9.545 2.169 9.787 2.115 QT
10.03 2.06 10.03 1.826 QT
10.03 -3.956 L
10.03 -4.253 9.944 -4.378 QT
9.858 -4.503 9.694 -4.534 QT
9.53 -4.565 9.17 -4.565 QT
9.17 -4.956 L
10.795 -5.065 L
10.795 0.154 L
12.28 -1.143 L
12.498 -1.362 12.498 -1.534 QT
12.498 -1.659 12.405 -1.729 QT
12.311 -1.799 12.186 -1.799 QT
12.186 -2.19 L
14.248 -2.19 L
14.248 -1.799 L
13.514 -1.799 12.764 -1.143 QT
11.983 -0.471 L
13.373 1.529 L
13.67 1.935 13.865 2.052 QT
14.061 2.169 14.514 2.169 QT
14.514 2.56 L
12.326 2.56 L
12.326 2.169 L
12.701 2.169 12.701 1.935 QT
12.701 1.779 12.498 1.529 QT
11.436 0.013 L
10.764 0.607 L
10.764 1.826 L
10.764 2.06 11.014 2.115 QT
11.264 2.169 11.623 2.169 QT
11.623 2.56 L
9.17 2.56 L
cp}def
f-1254220489
f
GR
GS
[0.75 0 0 0.75 788.03064 79.40546] CT
N
/f-140205049{14.847 2.56 M
14.847 2.169 L
15.222 2.169 15.464 2.115 QT
15.706 2.06 15.706 1.826 QT
15.706 -1.174 L
15.706 -1.471 15.62 -1.604 QT
15.534 -1.737 15.362 -1.768 QT
15.19 -1.799 14.847 -1.799 QT
14.847 -2.19 L
16.44 -2.299 L
16.44 -1.221 L
16.659 -1.706 17.097 -2.003 QT
17.534 -2.299 18.034 -2.299 QT
18.8 -2.299 19.183 -1.932 QT
19.565 -1.565 19.565 -0.815 QT
19.565 1.826 L
19.565 2.06 19.808 2.115 QT
20.05 2.169 20.425 2.169 QT
20.425 2.56 L
17.909 2.56 L
17.909 2.169 L
18.284 2.169 18.526 2.115 QT
18.769 2.06 18.769 1.826 QT
18.769 -0.784 L
18.769 -1.331 18.612 -1.674 QT
18.456 -2.018 17.972 -2.018 QT
17.331 -2.018 16.925 -1.51 QT
16.519 -1.003 16.519 -0.346 QT
16.519 1.826 L
16.519 2.06 16.753 2.115 QT
16.987 2.169 17.362 2.169 QT
17.362 2.56 L
14.847 2.56 L
cp}def
f-140205049
f
GR
GS
[0.75 0 0 0.75 0 0] CT
0.929 0.694 0.125 RC
1 LJ
1.6 LW
N
1007.975 105.874 M
1047.726 105.874 L
S
GR
GS
[0.75 0 0 0.75 770.88803 79.40546] CT
0.929 0.694 0.125 RC
N
f-1867764608
f
GR
GS
[0.75 0 0 0.75 788.03064 89.34454] CT
N
f-700236089
f
GR
GS
[0.75 0 0 0.75 788.03064 89.34454] CT
N
/f-644451843{9.217 2.56 M
9.217 2.169 L
9.592 2.169 9.834 2.115 QT
10.076 2.06 10.076 1.826 QT
10.076 -1.174 L
10.076 -1.471 9.99 -1.604 QT
9.905 -1.737 9.733 -1.768 QT
9.561 -1.799 9.217 -1.799 QT
9.217 -2.19 L
10.811 -2.299 L
10.811 -1.221 L
11.03 -1.706 11.467 -2.003 QT
11.905 -2.299 12.405 -2.299 QT
13.17 -2.299 13.553 -1.932 QT
13.936 -1.565 13.936 -0.815 QT
13.936 1.826 L
13.936 2.06 14.178 2.115 QT
14.42 2.169 14.795 2.169 QT
14.795 2.56 L
12.28 2.56 L
12.28 2.169 L
12.655 2.169 12.897 2.115 QT
13.139 2.06 13.139 1.826 QT
13.139 -0.784 L
13.139 -1.331 12.983 -1.674 QT
12.826 -2.018 12.342 -2.018 QT
11.701 -2.018 11.295 -1.51 QT
10.889 -1.003 10.889 -0.346 QT
10.889 1.826 L
10.889 2.06 11.123 2.115 QT
11.358 2.169 11.733 2.169 QT
11.733 2.56 L
9.217 2.56 L
cp}def
f-644451843
f
GR
GS
[0.75 0 0 0.75 788.03064 89.34454] CT
N
/f-906124984{15.096 2.56 M
15.096 2.169 L
15.471 2.169 15.713 2.115 QT
15.955 2.06 15.955 1.826 QT
15.955 -3.956 L
15.955 -4.253 15.87 -4.378 QT
15.784 -4.503 15.62 -4.534 QT
15.455 -4.565 15.096 -4.565 QT
15.096 -4.956 L
16.721 -5.065 L
16.721 0.154 L
18.205 -1.143 L
18.424 -1.362 18.424 -1.534 QT
18.424 -1.659 18.33 -1.729 QT
18.237 -1.799 18.112 -1.799 QT
18.112 -2.19 L
20.174 -2.19 L
20.174 -1.799 L
19.44 -1.799 18.69 -1.143 QT
17.909 -0.471 L
19.299 1.529 L
19.596 1.935 19.791 2.052 QT
19.987 2.169 20.44 2.169 QT
20.44 2.56 L
18.252 2.56 L
18.252 2.169 L
18.627 2.169 18.627 1.935 QT
18.627 1.779 18.424 1.529 QT
17.362 0.013 L
16.69 0.607 L
16.69 1.826 L
16.69 2.06 16.94 2.115 QT
17.19 2.169 17.549 2.169 QT
17.549 2.56 L
15.096 2.56 L
cp}def
f-906124984
f
GR
GS
[0.75 0 0 0.75 0 0] CT
0.494 0.184 0.557 RC
1 LJ
1.6 LW
N
1007.975 119.126 M
1047.726 119.126 L
S
GR
GS
[0.75 0 0 0.75 770.88803 89.34454] CT
0.494 0.184 0.557 RC
N
f-1867764608
f
GR
GS
[0.75 0 0 0.75 788.03064 99.28361] CT
N
/f-432010360{0.328 2.56 M
0.328 2.169 L
0.703 2.169 0.945 2.115 QT
1.188 2.06 1.188 1.826 QT
1.188 -1.174 L
1.188 -1.471 1.102 -1.604 QT
1.016 -1.737 0.844 -1.768 QT
0.672 -1.799 0.328 -1.799 QT
0.328 -2.19 L
1.922 -2.299 L
1.922 -1.221 L
2.141 -1.706 2.578 -2.003 QT
3.016 -2.299 3.516 -2.299 QT
4.281 -2.299 4.664 -1.932 QT
5.047 -1.565 5.047 -0.815 QT
5.047 1.826 L
5.047 2.06 5.289 2.115 QT
5.531 2.169 5.906 2.169 QT
5.906 2.56 L
3.391 2.56 L
3.391 2.169 L
3.766 2.169 4.008 2.115 QT
4.25 2.06 4.25 1.826 QT
4.25 -0.784 L
4.25 -1.331 4.094 -1.674 QT
3.938 -2.018 3.453 -2.018 QT
2.813 -2.018 2.406 -1.51 QT
2 -1.003 2 -0.346 QT
2 1.826 L
2 2.06 2.234 2.115 QT
2.469 2.169 2.844 2.169 QT
2.844 2.56 L
0.328 2.56 L
cp}def
f-432010360
f
GR
GS
[0.75 0 0 0.75 788.03064 99.28361] CT
N
/f690420415{6.207 2.56 M
6.207 2.169 L
6.582 2.169 6.824 2.115 QT
7.067 2.06 7.067 1.826 QT
7.067 -3.956 L
7.067 -4.253 6.981 -4.378 QT
6.895 -4.503 6.731 -4.534 QT
6.567 -4.565 6.207 -4.565 QT
6.207 -4.956 L
7.832 -5.065 L
7.832 0.154 L
9.317 -1.143 L
9.535 -1.362 9.535 -1.534 QT
9.535 -1.659 9.442 -1.729 QT
9.348 -1.799 9.223 -1.799 QT
9.223 -2.19 L
11.285 -2.19 L
11.285 -1.799 L
10.551 -1.799 9.801 -1.143 QT
9.02 -0.471 L
10.41 1.529 L
10.707 1.935 10.903 2.052 QT
11.098 2.169 11.551 2.169 QT
11.551 2.56 L
9.363 2.56 L
9.363 2.169 L
9.738 2.169 9.738 1.935 QT
9.738 1.779 9.535 1.529 QT
8.473 0.013 L
7.801 0.607 L
7.801 1.826 L
7.801 2.06 8.051 2.115 QT
8.301 2.169 8.66 2.169 QT
8.66 2.56 L
6.207 2.56 L
cp}def
f690420415
f
GR
GS
[0.75 0 0 0.75 788.03064 99.28361] CT
N
f2056957038
f
GR
GS
[0.75 0 0 0.75 0 0] CT
0.467 0.675 0.188 RC
1 LJ
1.6 LW
N
1007.975 132.378 M
1047.726 132.378 L
S
GR
GS
[0.75 0 0 0.75 770.88803 99.28362] CT
0.467 0.675 0.188 RC
N
f-1867764608
f
GR
GS
[0.75 0 0 0.75 788.03064 109.22269] CT
N
f-432010360
f
GR
GS
[0.75 0 0 0.75 788.03064 109.22269] CT
N
/f363712577{6.254 2.56 M
6.254 2.169 L
6.629 2.169 6.871 2.115 QT
7.113 2.06 7.113 1.826 QT
7.113 -1.174 L
7.113 -1.471 7.028 -1.604 QT
6.942 -1.737 6.77 -1.768 QT
6.598 -1.799 6.254 -1.799 QT
6.254 -2.19 L
7.848 -2.299 L
7.848 -1.221 L
8.067 -1.706 8.504 -2.003 QT
8.942 -2.299 9.442 -2.299 QT
10.707 -2.299 10.926 -1.268 QT
11.145 -1.737 11.574 -2.018 QT
12.004 -2.299 12.504 -2.299 QT
13.004 -2.299 13.348 -2.135 QT
13.692 -1.971 13.863 -1.643 QT
14.035 -1.315 14.035 -0.815 QT
14.035 1.826 L
14.035 2.06 14.278 2.115 QT
14.52 2.169 14.895 2.169 QT
14.895 2.56 L
12.379 2.56 L
12.379 2.169 L
12.754 2.169 12.996 2.115 QT
13.238 2.06 13.238 1.826 QT
13.238 -0.784 L
13.238 -1.346 13.082 -1.682 QT
12.926 -2.018 12.442 -2.018 QT
11.801 -2.018 11.387 -1.51 QT
10.973 -1.003 10.973 -0.346 QT
10.973 1.826 L
10.973 2.06 11.215 2.115 QT
11.457 2.169 11.832 2.169 QT
11.832 2.56 L
9.317 2.56 L
9.317 2.169 L
9.692 2.169 9.934 2.115 QT
10.176 2.06 10.176 1.826 QT
10.176 -0.784 L
10.176 -1.331 10.02 -1.674 QT
9.863 -2.018 9.379 -2.018 QT
8.738 -2.018 8.332 -1.51 QT
7.926 -1.003 7.926 -0.346 QT
7.926 1.826 L
7.926 2.06 8.16 2.115 QT
8.395 2.169 8.77 2.169 QT
8.77 2.56 L
6.254 2.56 L
cp}def
f363712577
f
GR
GS
[0.75 0 0 0.75 788.03064 109.22269] CT
N
f-906124984
f
GR
GS
[0.75 0 0 0.75 0 0] CT
0.302 0.745 0.933 RC
1 LJ
1.6 LW
N
1007.975 145.63 M
1047.726 145.63 L
S
GR
GS
[0.75 0 0 0.75 770.88803 109.22269] CT
0.302 0.745 0.933 RC
N
f-1867764608
f
GR
GS
[0.75 0 0 0.75 0 0] CT
0.149 GC
10.0 ML
0.667 LW
N
1004 154 M
1004 71 L
1075 71 L
1075 154 L
cp
S
GR
%%Trailer
%%Pages: 1
%%EOF
