%!PS-Adobe-3.0 EPSF-3.0
%%Creator: (MATLAB, The Mathworks, Inc. Version 9.5.0.944444 \(R2018b\). Operating System: Mac OS X)
%%Title: ./gpu3.eps
%%CreationDate: 2019-01-25T21:21:58
%%Pages: (atend)
%%BoundingBox:    80    11  1090   749
%%LanguageLevel: 3
%%EndComments
%%BeginProlog
%%BeginResource: procset (Apache XML Graphics Std ProcSet) 1.2 0
%%Version: 1.2 0
%%Copyright: (Copyright 2001-2003,2010 The Apache Software Foundation. License terms: http://www.apache.org/licenses/LICENSE-2.0)
/bd{bind def}bind def
/ld{load def}bd
/GR/grestore ld
/GS/gsave ld
/RM/rmoveto ld
/C/curveto ld
/t/show ld
/L/lineto ld
/ML/setmiterlimit ld
/CT/concat ld
/f/fill ld
/N/newpath ld
/S/stroke ld
/CC/setcmykcolor ld
/A/ashow ld
/cp/closepath ld
/RC/setrgbcolor ld
/LJ/setlinejoin ld
/GC/setgray ld
/LW/setlinewidth ld
/M/moveto ld
/re {4 2 roll M
1 index 0 rlineto
0 exch rlineto
neg 0 rlineto
cp } bd
/_ctm matrix def
/_tm matrix def
/BT { _ctm currentmatrix pop matrix _tm copy pop 0 0 moveto } bd
/ET { _ctm setmatrix } bd
/iTm { _ctm setmatrix _tm concat } bd
/Tm { _tm astore pop iTm 0 0 moveto } bd
/ux 0.0 def
/uy 0.0 def
/F {
  /Tp exch def
  /Tf exch def
  Tf findfont Tp scalefont setfont
  /cf Tf def  /cs Tp def
} bd
/ULS {currentpoint /uy exch def /ux exch def} bd
/ULE {
  /Tcx currentpoint pop def
  gsave
  newpath
  cf findfont cs scalefont dup
  /FontMatrix get 0 get /Ts exch def /FontInfo get dup
  /UnderlinePosition get Ts mul /To exch def
  /UnderlineThickness get Ts mul /Tt exch def
  ux uy To add moveto  Tcx uy To add lineto
  Tt setlinewidth stroke
  grestore
} bd
/OLE {
  /Tcx currentpoint pop def
  gsave
  newpath
  cf findfont cs scalefont dup
  /FontMatrix get 0 get /Ts exch def /FontInfo get dup
  /UnderlinePosition get Ts mul /To exch def
  /UnderlineThickness get Ts mul /Tt exch def
  ux uy To add cs add moveto Tcx uy To add cs add lineto
  Tt setlinewidth stroke
  grestore
} bd
/SOE {
  /Tcx currentpoint pop def
  gsave
  newpath
  cf findfont cs scalefont dup
  /FontMatrix get 0 get /Ts exch def /FontInfo get dup
  /UnderlinePosition get Ts mul /To exch def
  /UnderlineThickness get Ts mul /Tt exch def
  ux uy To add cs 10 mul 26 idiv add moveto Tcx uy To add cs 10 mul 26 idiv add lineto
  Tt setlinewidth stroke
  grestore
} bd
/QT {
/Y22 exch store
/X22 exch store
/Y21 exch store
/X21 exch store
currentpoint
/Y21 load 2 mul add 3 div exch
/X21 load 2 mul add 3 div exch
/X21 load 2 mul /X22 load add 3 div
/Y21 load 2 mul /Y22 load add 3 div
/X22 load /Y22 load curveto
} bd
/SSPD {
dup length /d exch dict def
{
/v exch def
/k exch def
currentpagedevice k known {
/cpdv currentpagedevice k get def
v cpdv ne {
/upd false def
/nullv v type /nulltype eq def
/nullcpdv cpdv type /nulltype eq def
nullv nullcpdv or
{
/upd true def
} {
/sametype v type cpdv type eq def
sametype {
v type /arraytype eq {
/vlen v length def
/cpdvlen cpdv length def
vlen cpdvlen eq {
0 1 vlen 1 sub {
/i exch def
/obj v i get def
/cpdobj cpdv i get def
obj cpdobj ne {
/upd true def
exit
} if
} for
} {
/upd true def
} ifelse
} {
v type /dicttype eq {
v {
/dv exch def
/dk exch def
/cpddv cpdv dk get def
dv cpddv ne {
/upd true def
exit
} if
} forall
} {
/upd true def
} ifelse
} ifelse
} if
} ifelse
upd true eq {
d k v put
} if
} if
} if
} forall
d length 0 gt {
d setpagedevice
} if
} bd
/RE { % /NewFontName [NewEncodingArray] /FontName RE -
  findfont dup length dict begin
  {
    1 index /FID ne
    {def} {pop pop} ifelse
  } forall
  /Encoding exch def
  /FontName 1 index def
  currentdict definefont pop
  end
} bind def
%%EndResource
%%BeginResource: procset (Apache XML Graphics EPS ProcSet) 1.0 0
%%Version: 1.0 0
%%Copyright: (Copyright 2002-2003 The Apache Software Foundation. License terms: http://www.apache.org/licenses/LICENSE-2.0)
/BeginEPSF { %def
/b4_Inc_state save def         % Save state for cleanup
/dict_count countdictstack def % Count objects on dict stack
/op_count count 1 sub def      % Count objects on operand stack
userdict begin                 % Push userdict on dict stack
/showpage { } def              % Redefine showpage, { } = null proc
0 setgray 0 setlinecap         % Prepare graphics state
1 setlinewidth 0 setlinejoin
10 setmiterlimit [ ] 0 setdash newpath
/languagelevel where           % If level not equal to 1 then
{pop languagelevel             % set strokeadjust and
1 ne                           % overprint to their defaults.
{false setstrokeadjust false setoverprint
} if
} if
} bd
/EndEPSF { %def
count op_count sub {pop} repeat            % Clean up stacks
countdictstack dict_count sub {end} repeat
b4_Inc_state restore
} bd
%%EndResource
%FOPBeginFontDict
%%IncludeResource: font Courier-Oblique
%%IncludeResource: font Courier-BoldOblique
%%IncludeResource: font Courier-Bold
%%IncludeResource: font ZapfDingbats
%%IncludeResource: font Symbol
%%IncludeResource: font Helvetica
%%IncludeResource: font Helvetica-Oblique
%%IncludeResource: font Helvetica-Bold
%%IncludeResource: font Helvetica-BoldOblique
%%IncludeResource: font Times-Roman
%%IncludeResource: font Times-Italic
%%IncludeResource: font Times-Bold
%%IncludeResource: font Times-BoldItalic
%%IncludeResource: font Courier
%FOPEndFontDict
%%BeginResource: encoding WinAnsiEncoding
/WinAnsiEncoding [
/.notdef /.notdef /.notdef /.notdef /.notdef
/.notdef /.notdef /.notdef /.notdef /.notdef
/.notdef /.notdef /.notdef /.notdef /.notdef
/.notdef /.notdef /.notdef /.notdef /.notdef
/.notdef /.notdef /.notdef /.notdef /.notdef
/.notdef /.notdef /.notdef /.notdef /.notdef
/.notdef /.notdef /space /exclam /quotedbl
/numbersign /dollar /percent /ampersand /quotesingle
/parenleft /parenright /asterisk /plus /comma
/hyphen /period /slash /zero /one
/two /three /four /five /six
/seven /eight /nine /colon /semicolon
/less /equal /greater /question /at
/A /B /C /D /E
/F /G /H /I /J
/K /L /M /N /O
/P /Q /R /S /T
/U /V /W /X /Y
/Z /bracketleft /backslash /bracketright /asciicircum
/underscore /quoteleft /a /b /c
/d /e /f /g /h
/i /j /k /l /m
/n /o /p /q /r
/s /t /u /v /w
/x /y /z /braceleft /bar
/braceright /asciitilde /bullet /Euro /bullet
/quotesinglbase /florin /quotedblbase /ellipsis /dagger
/daggerdbl /circumflex /perthousand /Scaron /guilsinglleft
/OE /bullet /Zcaron /bullet /bullet
/quoteleft /quoteright /quotedblleft /quotedblright /bullet
/endash /emdash /asciitilde /trademark /scaron
/guilsinglright /oe /bullet /zcaron /Ydieresis
/space /exclamdown /cent /sterling /currency
/yen /brokenbar /section /dieresis /copyright
/ordfeminine /guillemotleft /logicalnot /sfthyphen /registered
/macron /degree /plusminus /twosuperior /threesuperior
/acute /mu /paragraph /middot /cedilla
/onesuperior /ordmasculine /guillemotright /onequarter /onehalf
/threequarters /questiondown /Agrave /Aacute /Acircumflex
/Atilde /Adieresis /Aring /AE /Ccedilla
/Egrave /Eacute /Ecircumflex /Edieresis /Igrave
/Iacute /Icircumflex /Idieresis /Eth /Ntilde
/Ograve /Oacute /Ocircumflex /Otilde /Odieresis
/multiply /Oslash /Ugrave /Uacute /Ucircumflex
/Udieresis /Yacute /Thorn /germandbls /agrave
/aacute /acircumflex /atilde /adieresis /aring
/ae /ccedilla /egrave /eacute /ecircumflex
/edieresis /igrave /iacute /icircumflex /idieresis
/eth /ntilde /ograve /oacute /ocircumflex
/otilde /odieresis /divide /oslash /ugrave
/uacute /ucircumflex /udieresis /yacute /thorn
/ydieresis
] def
%%EndResource
%FOPBeginFontReencode
/Courier-Oblique findfont
dup length dict begin
  {1 index /FID ne {def} {pop pop} ifelse} forall
  /Encoding WinAnsiEncoding def
  currentdict
end
/Courier-Oblique exch definefont pop
/Courier-BoldOblique findfont
dup length dict begin
  {1 index /FID ne {def} {pop pop} ifelse} forall
  /Encoding WinAnsiEncoding def
  currentdict
end
/Courier-BoldOblique exch definefont pop
/Courier-Bold findfont
dup length dict begin
  {1 index /FID ne {def} {pop pop} ifelse} forall
  /Encoding WinAnsiEncoding def
  currentdict
end
/Courier-Bold exch definefont pop
/Helvetica findfont
dup length dict begin
  {1 index /FID ne {def} {pop pop} ifelse} forall
  /Encoding WinAnsiEncoding def
  currentdict
end
/Helvetica exch definefont pop
/Helvetica-Oblique findfont
dup length dict begin
  {1 index /FID ne {def} {pop pop} ifelse} forall
  /Encoding WinAnsiEncoding def
  currentdict
end
/Helvetica-Oblique exch definefont pop
/Helvetica-Bold findfont
dup length dict begin
  {1 index /FID ne {def} {pop pop} ifelse} forall
  /Encoding WinAnsiEncoding def
  currentdict
end
/Helvetica-Bold exch definefont pop
/Helvetica-BoldOblique findfont
dup length dict begin
  {1 index /FID ne {def} {pop pop} ifelse} forall
  /Encoding WinAnsiEncoding def
  currentdict
end
/Helvetica-BoldOblique exch definefont pop
/Times-Roman findfont
dup length dict begin
  {1 index /FID ne {def} {pop pop} ifelse} forall
  /Encoding WinAnsiEncoding def
  currentdict
end
/Times-Roman exch definefont pop
/Times-Italic findfont
dup length dict begin
  {1 index /FID ne {def} {pop pop} ifelse} forall
  /Encoding WinAnsiEncoding def
  currentdict
end
/Times-Italic exch definefont pop
/Times-Bold findfont
dup length dict begin
  {1 index /FID ne {def} {pop pop} ifelse} forall
  /Encoding WinAnsiEncoding def
  currentdict
end
/Times-Bold exch definefont pop
/Times-BoldItalic findfont
dup length dict begin
  {1 index /FID ne {def} {pop pop} ifelse} forall
  /Encoding WinAnsiEncoding def
  currentdict
end
/Times-BoldItalic exch definefont pop
/Courier findfont
dup length dict begin
  {1 index /FID ne {def} {pop pop} ifelse} forall
  /Encoding WinAnsiEncoding def
  currentdict
end
/Courier exch definefont pop
%FOPEndFontReencode
%%EndProlog
%%Page: 1 1
%%PageBoundingBox: 0 0 1200 800
%%BeginPageSetup
[1 0 0 -1 0 800] CT
%%EndPageSetup
GS
1 GC
N
0 0 1200 800 re
f
GR
GS
1 GC
N
0 0 1200 800 re
f
GR
GS
1 GC
N
156 712 M
1086 712 L
1086 60 L
156 60 L
cp
f
GR
GS
0.775 GC
[1 3] 0 setdash
2 LJ
0.5 LW
N
274.13 712 M
274.13 60 L
S
GR
GS
0.775 GC
[1 3] 0 setdash
2 LJ
0.5 LW
N
343.232 712 M
343.232 60 L
S
GR
GS
0.775 GC
[1 3] 0 setdash
2 LJ
0.5 LW
N
392.26 712 M
392.26 60 L
S
GR
GS
0.775 GC
[1 3] 0 setdash
2 LJ
0.5 LW
N
430.29 712 M
430.29 60 L
S
GR
GS
0.775 GC
[1 3] 0 setdash
2 LJ
0.5 LW
N
461.362 712 M
461.362 60 L
S
GR
GS
0.775 GC
[1 3] 0 setdash
2 LJ
0.5 LW
N
487.633 712 M
487.633 60 L
S
GR
GS
0.775 GC
[1 3] 0 setdash
2 LJ
0.5 LW
N
510.39 712 M
510.39 60 L
S
GR
GS
0.775 GC
[1 3] 0 setdash
2 LJ
0.5 LW
N
530.464 712 M
530.464 60 L
S
GR
GS
0.775 GC
[1 3] 0 setdash
2 LJ
0.5 LW
N
666.55 712 M
666.55 60 L
S
GR
GS
0.775 GC
[1 3] 0 setdash
2 LJ
0.5 LW
N
735.652 712 M
735.652 60 L
S
GR
GS
0.775 GC
[1 3] 0 setdash
2 LJ
0.5 LW
N
784.68 712 M
784.68 60 L
S
GR
GS
0.775 GC
[1 3] 0 setdash
2 LJ
0.5 LW
N
822.709 712 M
822.709 60 L
S
GR
GS
0.775 GC
[1 3] 0 setdash
2 LJ
0.5 LW
N
853.782 712 M
853.782 60 L
S
GR
GS
0.775 GC
[1 3] 0 setdash
2 LJ
0.5 LW
N
880.053 712 M
880.053 60 L
S
GR
GS
0.775 GC
[1 3] 0 setdash
2 LJ
0.5 LW
N
902.81 712 M
902.81 60 L
S
GR
GS
0.775 GC
[1 3] 0 setdash
2 LJ
0.5 LW
N
922.883 712 M
922.883 60 L
S
GR
GS
0.775 GC
[1 3] 0 setdash
2 LJ
0.5 LW
N
1058.97 712 M
1058.97 60 L
S
GR
GS
0.873 GC
1 LJ
0.5 LW
N
156 712 M
156 60 L
S
GR
GS
0.873 GC
1 LJ
0.5 LW
N
548.42 712 M
548.42 60 L
S
GR
GS
0.873 GC
1 LJ
0.5 LW
N
940.839 712 M
940.839 60 L
S
GR
GS
0.873 GC
1 LJ
0.5 LW
N
1086 712 M
156 712 L
S
GR
GS
0.873 GC
1 LJ
0.5 LW
N
1086 630.5 M
156 630.5 L
S
GR
GS
0.873 GC
1 LJ
0.5 LW
N
1086 549 M
156 549 L
S
GR
GS
0.873 GC
1 LJ
0.5 LW
N
1086 467.5 M
156 467.5 L
S
GR
GS
0.873 GC
1 LJ
0.5 LW
N
1086 386 M
156 386 L
S
GR
GS
0.873 GC
1 LJ
0.5 LW
N
1086 304.5 M
156 304.5 L
S
GR
GS
0.873 GC
1 LJ
0.5 LW
N
1086 223 M
156 223 L
S
GR
GS
0.873 GC
1 LJ
0.5 LW
N
1086 141.5 M
156 141.5 L
S
GR
GS
0.873 GC
1 LJ
0.5 LW
N
1086 60 M
156 60 L
S
GR
GS
0.149 GC
2 setlinecap
1 LJ
0.5 LW
N
156 712 M
1086 712 L
S
GR
GS
0.149 GC
2 setlinecap
1 LJ
0.5 LW
N
156 60 M
1086 60 L
S
GR
GS
0.149 GC
2 setlinecap
1 LJ
0.5 LW
N
156 712 M
156 702.7 L
S
GR
GS
0.149 GC
2 setlinecap
1 LJ
0.5 LW
N
548.42 712 M
548.42 702.7 L
S
GR
GS
0.149 GC
2 setlinecap
1 LJ
0.5 LW
N
940.839 712 M
940.839 702.7 L
S
GR
GS
0.149 GC
2 setlinecap
1 LJ
0.5 LW
N
156 60 M
156 69.3 L
S
GR
GS
0.149 GC
2 setlinecap
1 LJ
0.5 LW
N
548.42 60 M
548.42 69.3 L
S
GR
GS
0.149 GC
2 setlinecap
1 LJ
0.5 LW
N
940.839 60 M
940.839 69.3 L
S
GR
GS
0.149 GC
2 setlinecap
1 LJ
0.5 LW
N
156 712 M
156 707.35 L
S
GR
GS
0.149 GC
2 setlinecap
1 LJ
0.5 LW
N
274.13 712 M
274.13 707.35 L
S
GR
GS
0.149 GC
2 setlinecap
1 LJ
0.5 LW
N
343.232 712 M
343.232 707.35 L
S
GR
GS
0.149 GC
2 setlinecap
1 LJ
0.5 LW
N
392.26 712 M
392.26 707.35 L
S
GR
GS
0.149 GC
2 setlinecap
1 LJ
0.5 LW
N
430.29 712 M
430.29 707.35 L
S
GR
GS
0.149 GC
2 setlinecap
1 LJ
0.5 LW
N
461.362 712 M
461.362 707.35 L
S
GR
GS
0.149 GC
2 setlinecap
1 LJ
0.5 LW
N
487.633 712 M
487.633 707.35 L
S
GR
GS
0.149 GC
2 setlinecap
1 LJ
0.5 LW
N
510.39 712 M
510.39 707.35 L
S
GR
GS
0.149 GC
2 setlinecap
1 LJ
0.5 LW
N
530.464 712 M
530.464 707.35 L
S
GR
GS
0.149 GC
2 setlinecap
1 LJ
0.5 LW
N
548.42 712 M
548.42 707.35 L
S
GR
GS
0.149 GC
2 setlinecap
1 LJ
0.5 LW
N
666.55 712 M
666.55 707.35 L
S
GR
GS
0.149 GC
2 setlinecap
1 LJ
0.5 LW
N
735.652 712 M
735.652 707.35 L
S
GR
GS
0.149 GC
2 setlinecap
1 LJ
0.5 LW
N
784.68 712 M
784.68 707.35 L
S
GR
GS
0.149 GC
2 setlinecap
1 LJ
0.5 LW
N
822.709 712 M
822.709 707.35 L
S
GR
GS
0.149 GC
2 setlinecap
1 LJ
0.5 LW
N
853.782 712 M
853.782 707.35 L
S
GR
GS
0.149 GC
2 setlinecap
1 LJ
0.5 LW
N
880.053 712 M
880.053 707.35 L
S
GR
GS
0.149 GC
2 setlinecap
1 LJ
0.5 LW
N
902.81 712 M
902.81 707.35 L
S
GR
GS
0.149 GC
2 setlinecap
1 LJ
0.5 LW
N
922.883 712 M
922.883 707.35 L
S
GR
GS
0.149 GC
2 setlinecap
1 LJ
0.5 LW
N
940.839 712 M
940.839 707.35 L
S
GR
GS
0.149 GC
2 setlinecap
1 LJ
0.5 LW
N
1058.97 712 M
1058.97 707.35 L
S
GR
GS
0.149 GC
2 setlinecap
1 LJ
0.5 LW
N
156 60 M
156 64.65 L
S
GR
GS
0.149 GC
2 setlinecap
1 LJ
0.5 LW
N
274.13 60 M
274.13 64.65 L
S
GR
GS
0.149 GC
2 setlinecap
1 LJ
0.5 LW
N
343.232 60 M
343.232 64.65 L
S
GR
GS
0.149 GC
2 setlinecap
1 LJ
0.5 LW
N
392.26 60 M
392.26 64.65 L
S
GR
GS
0.149 GC
2 setlinecap
1 LJ
0.5 LW
N
430.29 60 M
430.29 64.65 L
S
GR
GS
0.149 GC
2 setlinecap
1 LJ
0.5 LW
N
461.362 60 M
461.362 64.65 L
S
GR
GS
0.149 GC
2 setlinecap
1 LJ
0.5 LW
N
487.633 60 M
487.633 64.65 L
S
GR
GS
0.149 GC
2 setlinecap
1 LJ
0.5 LW
N
510.39 60 M
510.39 64.65 L
S
GR
GS
0.149 GC
2 setlinecap
1 LJ
0.5 LW
N
530.464 60 M
530.464 64.65 L
S
GR
GS
0.149 GC
2 setlinecap
1 LJ
0.5 LW
N
548.42 60 M
548.42 64.65 L
S
GR
GS
0.149 GC
2 setlinecap
1 LJ
0.5 LW
N
666.55 60 M
666.55 64.65 L
S
GR
GS
0.149 GC
2 setlinecap
1 LJ
0.5 LW
N
735.652 60 M
735.652 64.65 L
S
GR
GS
0.149 GC
2 setlinecap
1 LJ
0.5 LW
N
784.68 60 M
784.68 64.65 L
S
GR
GS
0.149 GC
2 setlinecap
1 LJ
0.5 LW
N
822.709 60 M
822.709 64.65 L
S
GR
GS
0.149 GC
2 setlinecap
1 LJ
0.5 LW
N
853.782 60 M
853.782 64.65 L
S
GR
GS
0.149 GC
2 setlinecap
1 LJ
0.5 LW
N
880.053 60 M
880.053 64.65 L
S
GR
GS
0.149 GC
2 setlinecap
1 LJ
0.5 LW
N
902.81 60 M
902.81 64.65 L
S
GR
GS
0.149 GC
2 setlinecap
1 LJ
0.5 LW
N
922.883 60 M
922.883 64.65 L
S
GR
GS
0.149 GC
2 setlinecap
1 LJ
0.5 LW
N
940.839 60 M
940.839 64.65 L
S
GR
GS
0.149 GC
2 setlinecap
1 LJ
0.5 LW
N
1058.97 60 M
1058.97 64.65 L
S
GR
GS
[1 0 0 1 136 751] CT
0.149 GC
/Helvetica 25 F
GS
[1 0 0 1 0 0] CT
0 0 moveto 
1 -1 scale
(10) t 
GR
GR
GS
[1 0 0 1 164 739] CT
0.149 GC
/Helvetica 20 F
GS
[1 0 0 1 0 0] CT
0 0 moveto 
1 -1 scale
(4) t 
GR
GR
GS
[1 0 0 1 528 751] CT
0.149 GC
/Helvetica 25 F
GS
[1 0 0 1 0 0] CT
0 0 moveto 
1 -1 scale
(10) t 
GR
GR
GS
[1 0 0 1 556 739] CT
0.149 GC
/Helvetica 20 F
GS
[1 0 0 1 0 0] CT
0 0 moveto 
1 -1 scale
(5) t 
GR
GR
GS
[1 0 0 1 921 751] CT
0.149 GC
/Helvetica 25 F
GS
[1 0 0 1 0 0] CT
0 0 moveto 
1 -1 scale
(10) t 
GR
GR
GS
[1 0 0 1 949 739] CT
0.149 GC
/Helvetica 20 F
GS
[1 0 0 1 0 0] CT
0 0 moveto 
1 -1 scale
(6) t 
GR
GR
GS
[1 0 0 1 621.00043 758] CT
0.149 GC
N
-139.266 23.1 M
-139.266 22.116 L
-136.375 22.116 -136.375 20.459 QT
-136.375 5.85 L
-136.375 4.959 -139.266 4.959 QT
-139.266 3.975 L
-133.969 3.975 L
-133.625 3.975 -133.516 4.287 QT
-127.422 20.131 L
-121.328 4.287 L
-121.219 3.975 -120.875 3.975 QT
-115.578 3.975 L
-115.578 4.959 L
-118.469 4.959 -118.469 5.85 QT
-118.469 21.225 L
-118.469 22.116 -115.578 22.116 QT
-115.578 23.1 L
-123.735 23.1 L
-123.735 22.116 L
-120.844 22.116 -120.844 21.225 QT
-120.844 4.928 L
-127.735 22.787 L
-127.86 23.1 -128.203 23.1 QT
-128.563 23.1 -128.688 22.787 QT
-135.485 5.147 L
-135.485 20.459 L
-135.485 22.116 -132.61 22.116 QT
-132.61 23.1 L
-139.266 23.1 L
cp
f
GR
GS
[1 0 0 1 621.00043 758] CT
0.149 GC
N
-108.073 23.412 M
-109.776 23.412 -111.206 22.514 QT
-112.636 21.616 -113.448 20.123 QT
-114.261 18.631 -114.261 16.959 QT
-114.261 15.319 -113.519 13.842 QT
-112.776 12.366 -111.44 11.459 QT
-110.104 10.553 -108.464 10.553 QT
-107.183 10.553 -106.229 10.983 QT
-105.276 11.412 -104.659 12.178 QT
-104.042 12.944 -103.729 13.983 QT
-103.417 15.022 -103.417 16.256 QT
-103.417 16.631 -103.714 16.631 QT
-111.808 16.631 L
-111.808 16.928 L
-111.808 19.256 -110.878 20.928 QT
-109.948 22.6 -107.823 22.6 QT
-106.964 22.6 -106.229 22.217 QT
-105.495 21.834 -104.956 21.147 QT
-104.417 20.459 -104.229 19.678 QT
-104.198 19.584 -104.12 19.506 QT
-104.042 19.428 -103.948 19.428 QT
-103.714 19.428 L
-103.417 19.428 -103.417 19.787 QT
-103.823 21.381 -105.136 22.397 QT
-106.448 23.412 -108.073 23.412 QT
cp
-111.792 15.928 M
-105.401 15.928 L
-105.401 14.881 -105.698 13.803 QT
-105.995 12.725 -106.675 12.006 QT
-107.354 11.287 -108.464 11.287 QT
-110.058 11.287 -110.925 12.772 QT
-111.792 14.256 -111.792 15.928 QT
cp
f
GR
GS
[1 0 0 1 621.00043 758] CT
0.149 GC
N
-101.992 23.1 M
-101.992 22.116 L
-101.023 22.116 -100.413 21.967 QT
-99.804 21.819 -99.804 21.225 QT
-99.804 13.584 L
-99.804 12.834 -100.023 12.498 QT
-100.242 12.162 -100.671 12.084 QT
-101.101 12.006 -101.992 12.006 QT
-101.992 11.022 L
-97.929 10.725 L
-97.929 13.459 L
-97.367 12.256 -96.265 11.491 QT
-95.163 10.725 -93.867 10.725 QT
-90.632 10.725 -90.07 13.35 QT
-89.523 12.178 -88.437 11.451 QT
-87.351 10.725 -86.07 10.725 QT
-84.804 10.725 -83.937 11.139 QT
-83.07 11.553 -82.632 12.389 QT
-82.195 13.225 -82.195 14.506 QT
-82.195 21.225 L
-82.195 21.819 -81.57 21.967 QT
-80.945 22.116 -80.007 22.116 QT
-80.007 23.1 L
-86.413 23.1 L
-86.413 22.116 L
-85.46 22.116 -84.843 21.967 QT
-84.226 21.819 -84.226 21.225 QT
-84.226 14.584 L
-84.226 13.178 -84.624 12.311 QT
-85.023 11.444 -86.242 11.444 QT
-87.867 11.444 -88.913 12.748 QT
-89.96 14.053 -89.96 15.709 QT
-89.96 21.225 L
-89.96 21.819 -89.351 21.967 QT
-88.742 22.116 -87.773 22.116 QT
-87.773 23.1 L
-94.195 23.1 L
-94.195 22.116 L
-93.242 22.116 -92.624 21.967 QT
-92.007 21.819 -92.007 21.225 QT
-92.007 14.584 L
-92.007 13.209 -92.406 12.326 QT
-92.804 11.444 -94.023 11.444 QT
-95.648 11.444 -96.695 12.748 QT
-97.742 14.053 -97.742 15.709 QT
-97.742 21.225 L
-97.742 21.819 -97.132 21.967 QT
-96.523 22.116 -95.57 22.116 QT
-95.57 23.1 L
-101.992 23.1 L
cp
f
GR
GS
[1 0 0 1 621.00043 758] CT
0.149 GC
N
-72.903 23.412 M
-74.59 23.412 -76.02 22.561 QT
-77.45 21.709 -78.286 20.272 QT
-79.122 18.834 -79.122 17.131 QT
-79.122 15.85 -78.661 14.662 QT
-78.2 13.475 -77.348 12.537 QT
-76.497 11.6 -75.364 11.076 QT
-74.231 10.553 -72.903 10.553 QT
-71.184 10.553 -69.77 11.459 QT
-68.356 12.366 -67.536 13.889 QT
-66.715 15.412 -66.715 17.131 QT
-66.715 18.819 -67.544 20.264 QT
-68.372 21.709 -69.801 22.561 QT
-71.231 23.412 -72.903 23.412 QT
cp
-72.903 22.6 M
-70.653 22.6 -69.903 20.967 QT
-69.153 19.334 -69.153 16.819 QT
-69.153 15.412 -69.301 14.491 QT
-69.45 13.569 -69.965 12.819 QT
-70.278 12.35 -70.762 12.006 QT
-71.247 11.662 -71.786 11.475 QT
-72.325 11.287 -72.903 11.287 QT
-73.778 11.287 -74.567 11.686 QT
-75.356 12.084 -75.872 12.819 QT
-76.387 13.616 -76.528 14.561 QT
-76.669 15.506 -76.669 16.819 QT
-76.669 18.397 -76.395 19.647 QT
-76.122 20.897 -75.301 21.748 QT
-74.481 22.6 -72.903 22.6 QT
cp
f
GR
GS
[1 0 0 1 621.00043 758] CT
0.149 GC
N
-65.434 23.1 M
-65.434 22.116 L
-64.465 22.116 -63.856 21.967 QT
-63.247 21.819 -63.247 21.225 QT
-63.247 13.584 L
-63.247 12.834 -63.465 12.498 QT
-63.684 12.162 -64.114 12.084 QT
-64.544 12.006 -65.434 12.006 QT
-65.434 11.022 L
-61.419 10.725 L
-61.419 13.459 L
-60.965 12.241 -60.137 11.483 QT
-59.309 10.725 -58.106 10.725 QT
-57.278 10.725 -56.622 11.217 QT
-55.965 11.709 -55.965 12.522 QT
-55.965 13.022 -56.325 13.397 QT
-56.684 13.772 -57.231 13.772 QT
-57.747 13.772 -58.114 13.405 QT
-58.481 13.037 -58.481 12.522 QT
-58.481 11.772 -57.95 11.444 QT
-58.106 11.444 L
-59.247 11.444 -59.965 12.264 QT
-60.684 13.084 -60.981 14.303 QT
-61.278 15.522 -61.278 16.631 QT
-61.278 21.225 L
-61.278 22.116 -58.559 22.116 QT
-58.559 23.1 L
-65.434 23.1 L
cp
f
GR
GS
[1 0 0 1 621.00043 758] CT
0.149 GC
N
-53.46 27.694 M
-52.913 28.116 -52.273 28.116 QT
-50.507 28.116 -49.398 25.459 QT
-48.429 23.1 L
-52.632 12.819 L
-52.898 12.303 -53.429 12.155 QT
-53.96 12.006 -54.851 12.006 QT
-54.851 11.022 L
-48.976 11.022 L
-48.976 12.006 L
-50.507 12.006 -50.507 12.678 QT
-50.507 12.787 -50.491 12.85 QT
-47.366 20.506 L
-44.57 13.616 L
-44.491 13.397 -44.491 13.131 QT
-44.491 12.787 -44.671 12.537 QT
-44.851 12.287 -45.148 12.147 QT
-45.445 12.006 -45.804 12.006 QT
-45.804 11.022 L
-41.163 11.022 L
-41.163 12.006 L
-42.023 12.006 -42.671 12.405 QT
-43.32 12.803 -43.679 13.584 QT
-48.523 25.459 L
-48.898 26.35 -49.413 27.108 QT
-49.929 27.866 -50.663 28.358 QT
-51.398 28.85 -52.273 28.85 QT
-53.304 28.85 -54.077 28.17 QT
-54.851 27.491 -54.851 26.491 QT
-54.851 25.975 -54.491 25.616 QT
-54.132 25.256 -53.616 25.256 QT
-53.257 25.256 -52.976 25.412 QT
-52.695 25.569 -52.538 25.842 QT
-52.382 26.116 -52.382 26.491 QT
-52.382 26.944 -52.687 27.295 QT
-52.991 27.647 -53.46 27.694 QT
cp
f
GR
GS
[1 0 0 1 621.00043 758] CT
0.149 GC
N
-30.842 23.1 M
-30.842 22.116 L
-27.951 22.116 -27.951 21.225 QT
-27.951 5.85 L
-27.951 4.959 -30.842 4.959 QT
-30.842 3.975 L
-15.405 3.975 L
-14.623 10.381 L
-15.436 10.381 L
-15.623 8.616 -15.944 7.6 QT
-16.264 6.584 -16.881 6.006 QT
-17.498 5.428 -18.53 5.194 QT
-19.561 4.959 -21.358 4.959 QT
-23.92 4.959 L
-24.42 4.959 -24.701 4.998 QT
-24.983 5.037 -25.162 5.233 QT
-25.342 5.428 -25.342 5.85 QT
-25.342 13.053 L
-23.358 13.053 L
-21.92 13.053 -21.256 12.795 QT
-20.592 12.537 -20.334 11.873 QT
-20.076 11.209 -20.076 9.772 QT
-19.28 9.772 L
-19.28 17.303 L
-20.076 17.303 L
-20.076 15.866 -20.334 15.194 QT
-20.592 14.522 -21.256 14.272 QT
-21.92 14.022 -23.358 14.022 QT
-25.342 14.022 L
-25.342 21.225 L
-25.342 22.116 -21.764 22.116 QT
-21.764 23.1 L
-30.842 23.1 L
cp
f
GR
GS
[1 0 0 1 621.00043 758] CT
0.149 GC
N
-9.042 23.412 M
-10.729 23.412 -12.159 22.561 QT
-13.589 21.709 -14.425 20.272 QT
-15.26 18.834 -15.26 17.131 QT
-15.26 15.85 -14.8 14.662 QT
-14.339 13.475 -13.487 12.537 QT
-12.635 11.6 -11.503 11.076 QT
-10.37 10.553 -9.042 10.553 QT
-7.323 10.553 -5.909 11.459 QT
-4.495 12.366 -3.675 13.889 QT
-2.854 15.412 -2.854 17.131 QT
-2.854 18.819 -3.682 20.264 QT
-4.51 21.709 -5.94 22.561 QT
-7.37 23.412 -9.042 23.412 QT
cp
-9.042 22.6 M
-6.792 22.6 -6.042 20.967 QT
-5.292 19.334 -5.292 16.819 QT
-5.292 15.412 -5.44 14.491 QT
-5.589 13.569 -6.104 12.819 QT
-6.417 12.35 -6.901 12.006 QT
-7.385 11.662 -7.925 11.475 QT
-8.464 11.287 -9.042 11.287 QT
-9.917 11.287 -10.706 11.686 QT
-11.495 12.084 -12.01 12.819 QT
-12.526 13.616 -12.667 14.561 QT
-12.807 15.506 -12.807 16.819 QT
-12.807 18.397 -12.534 19.647 QT
-12.26 20.897 -11.44 21.748 QT
-10.62 22.6 -9.042 22.6 QT
cp
f
GR
GS
[1 0 0 1 621.00043 758] CT
0.149 GC
N
5.472 23.412 M
3.785 23.412 2.355 22.561 QT
0.925 21.709 0.089 20.272 QT
-0.747 18.834 -0.747 17.131 QT
-0.747 15.85 -0.286 14.662 QT
0.175 13.475 1.027 12.537 QT
1.878 11.6 3.011 11.076 QT
4.144 10.553 5.472 10.553 QT
7.191 10.553 8.605 11.459 QT
10.019 12.366 10.839 13.889 QT
11.66 15.412 11.66 17.131 QT
11.66 18.819 10.832 20.264 QT
10.003 21.709 8.574 22.561 QT
7.144 23.412 5.472 23.412 QT
cp
5.472 22.6 M
7.722 22.6 8.472 20.967 QT
9.222 19.334 9.222 16.819 QT
9.222 15.412 9.074 14.491 QT
8.925 13.569 8.41 12.819 QT
8.097 12.35 7.613 12.006 QT
7.128 11.662 6.589 11.475 QT
6.05 11.287 5.472 11.287 QT
4.597 11.287 3.808 11.686 QT
3.019 12.084 2.503 12.819 QT
1.988 13.616 1.847 14.561 QT
1.707 15.506 1.707 16.819 QT
1.707 18.397 1.98 19.647 QT
2.253 20.897 3.074 21.748 QT
3.894 22.6 5.472 22.6 QT
cp
f
GR
GS
[1 0 0 1 621.00043 758] CT
0.149 GC
N
15.082 19.741 M
15.082 12.006 L
12.754 12.006 L
12.754 11.287 L
14.582 11.287 15.449 9.576 QT
16.316 7.866 16.316 5.866 QT
17.113 5.866 L
17.113 11.022 L
21.066 11.022 L
21.066 12.006 L
17.113 12.006 L
17.113 19.678 L
17.113 20.85 17.504 21.725 QT
17.894 22.6 18.91 22.6 QT
19.863 22.6 20.285 21.67 QT
20.707 20.741 20.707 19.678 QT
20.707 18.022 L
21.519 18.022 L
21.519 19.741 L
21.519 20.616 21.199 21.467 QT
20.879 22.319 20.246 22.866 QT
19.613 23.412 18.722 23.412 QT
17.035 23.412 16.058 22.405 QT
15.082 21.397 15.082 19.741 QT
cp
f
GR
GS
[1 0 0 1 621.00043 758] CT
0.149 GC
N
23.635 28.522 M
23.635 27.553 L
24.604 27.553 25.214 27.389 QT
25.823 27.225 25.823 26.662 QT
25.823 13.162 L
25.823 12.397 25.276 12.201 QT
24.729 12.006 23.635 12.006 QT
23.635 11.022 L
27.792 10.725 L
27.792 12.459 L
28.557 11.616 29.573 11.17 QT
30.589 10.725 31.729 10.725 QT
33.385 10.725 34.714 11.623 QT
36.042 12.522 36.784 13.975 QT
37.526 15.428 37.526 17.053 QT
37.526 18.756 36.706 20.217 QT
35.885 21.678 34.456 22.545 QT
33.026 23.412 31.307 23.412 QT
29.276 23.412 27.87 21.756 QT
27.87 26.662 L
27.87 27.225 28.487 27.389 QT
29.104 27.553 30.057 27.553 QT
30.057 28.522 L
23.635 28.522 L
cp
27.87 20.381 M
28.354 21.381 29.229 22.03 QT
30.104 22.678 31.151 22.678 QT
32.12 22.678 32.862 22.155 QT
33.604 21.631 34.112 20.756 QT
34.62 19.881 34.862 18.92 QT
35.104 17.959 35.104 17.053 QT
35.104 15.928 34.698 14.623 QT
34.292 13.319 33.464 12.428 QT
32.635 11.537 31.464 11.537 QT
30.323 11.537 29.378 12.116 QT
28.432 12.694 27.87 13.694 QT
27.87 20.381 L
cp
f
GR
GS
[1 0 0 1 621.00043 758] CT
0.149 GC
N
38.913 23.1 M
38.913 22.116 L
39.882 22.116 40.491 21.967 QT
41.101 21.819 41.101 21.225 QT
41.101 13.584 L
41.101 12.834 40.882 12.498 QT
40.663 12.162 40.234 12.084 QT
39.804 12.006 38.913 12.006 QT
38.913 11.022 L
42.929 10.725 L
42.929 13.459 L
43.382 12.241 44.21 11.483 QT
45.038 10.725 46.241 10.725 QT
47.07 10.725 47.726 11.217 QT
48.382 11.709 48.382 12.522 QT
48.382 13.022 48.023 13.397 QT
47.663 13.772 47.116 13.772 QT
46.601 13.772 46.234 13.405 QT
45.866 13.037 45.866 12.522 QT
45.866 11.772 46.398 11.444 QT
46.241 11.444 L
45.101 11.444 44.382 12.264 QT
43.663 13.084 43.366 14.303 QT
43.07 15.522 43.07 16.631 QT
43.07 21.225 L
43.07 22.116 45.788 22.116 QT
45.788 23.1 L
38.913 23.1 L
cp
f
GR
GS
[1 0 0 1 621.00043 758] CT
0.149 GC
N
49.825 23.1 M
49.825 22.116 L
50.778 22.116 51.395 21.967 QT
52.012 21.819 52.012 21.225 QT
52.012 13.584 L
52.012 12.506 51.598 12.256 QT
51.184 12.006 49.95 12.006 QT
49.95 11.022 L
53.981 10.725 L
53.981 21.225 L
53.981 21.819 54.512 21.967 QT
55.044 22.116 55.934 22.116 QT
55.934 23.1 L
49.825 23.1 L
cp
51.012 5.912 M
51.012 5.303 51.481 4.834 QT
51.95 4.366 52.544 4.366 QT
52.95 4.366 53.317 4.569 QT
53.684 4.772 53.887 5.147 QT
54.09 5.522 54.09 5.912 QT
54.09 6.522 53.629 6.983 QT
53.169 7.444 52.544 7.444 QT
51.95 7.444 51.481 6.983 QT
51.012 6.522 51.012 5.912 QT
cp
f
GR
GS
[1 0 0 1 621.00043 758] CT
0.149 GC
N
57.432 23.1 M
57.432 22.116 L
58.401 22.116 59.011 21.967 QT
59.62 21.819 59.62 21.225 QT
59.62 13.584 L
59.62 12.834 59.401 12.498 QT
59.182 12.162 58.753 12.084 QT
58.323 12.006 57.432 12.006 QT
57.432 11.022 L
61.495 10.725 L
61.495 13.459 L
62.057 12.256 63.159 11.491 QT
64.261 10.725 65.557 10.725 QT
67.495 10.725 68.479 11.655 QT
69.464 12.584 69.464 14.506 QT
69.464 21.225 L
69.464 21.819 70.073 21.967 QT
70.682 22.116 71.651 22.116 QT
71.651 23.1 L
65.229 23.1 L
65.229 22.116 L
66.182 22.116 66.8 21.967 QT
67.417 21.819 67.417 21.225 QT
67.417 14.584 L
67.417 13.209 67.018 12.326 QT
66.62 11.444 65.401 11.444 QT
63.776 11.444 62.729 12.748 QT
61.682 14.053 61.682 15.709 QT
61.682 21.225 L
61.682 21.819 62.292 21.967 QT
62.901 22.116 63.854 22.116 QT
63.854 23.1 L
57.432 23.1 L
cp
f
GR
GS
[1 0 0 1 621.00043 758] CT
0.149 GC
N
73.978 19.741 M
73.978 12.006 L
71.649 12.006 L
71.649 11.287 L
73.478 11.287 74.345 9.576 QT
75.212 7.866 75.212 5.866 QT
76.009 5.866 L
76.009 11.022 L
79.962 11.022 L
79.962 12.006 L
76.009 12.006 L
76.009 19.678 L
76.009 20.85 76.399 21.725 QT
76.79 22.6 77.806 22.6 QT
78.759 22.6 79.181 21.67 QT
79.603 20.741 79.603 19.678 QT
79.603 18.022 L
80.415 18.022 L
80.415 19.741 L
80.415 20.616 80.095 21.467 QT
79.774 22.319 79.142 22.866 QT
78.509 23.412 77.618 23.412 QT
75.931 23.412 74.954 22.405 QT
73.978 21.397 73.978 19.741 QT
cp
f
GR
GS
[1 0 0 1 621.00043 758] CT
0.149 GC
N
94.292 30.1 M
94.292 2.1 L
98.12 2.1 L
98.12 3.225 L
95.417 3.225 L
95.417 28.975 L
98.12 28.975 L
98.12 30.1 L
94.292 30.1 L
cp
f
GR
GS
[1 0 0 1 621.00043 758] CT
0.149 GC
N
99.337 23.1 M
99.337 22.116 L
100.306 22.116 100.915 21.967 QT
101.525 21.819 101.525 21.225 QT
101.525 6.522 L
101.525 5.772 101.306 5.436 QT
101.087 5.1 100.657 5.03 QT
100.228 4.959 99.337 4.959 QT
99.337 3.975 L
103.493 3.678 L
103.493 16.959 L
107.243 13.662 L
107.806 13.131 107.806 12.678 QT
107.806 12.35 107.571 12.178 QT
107.337 12.006 107.009 12.006 QT
107.009 11.022 L
112.275 11.022 L
112.275 12.006 L
110.384 12.006 108.478 13.662 QT
106.478 15.397 L
110.056 20.459 L
110.79 21.506 111.29 21.811 QT
111.79 22.116 112.931 22.116 QT
112.931 23.1 L
107.353 23.1 L
107.353 22.116 L
108.306 22.116 108.306 21.522 QT
108.306 21.1 107.806 20.459 QT
105.118 16.631 L
103.4 18.116 L
103.4 21.225 L
103.4 21.819 104.025 21.967 QT
104.65 22.116 105.587 22.116 QT
105.587 23.1 L
99.337 23.1 L
cp
f
GR
GS
[1 0 0 1 621.00043 758] CT
0.149 GC
N
114.085 23.1 M
114.085 22.116 L
116.976 22.116 116.976 21.225 QT
116.976 5.85 L
116.976 4.959 114.085 4.959 QT
114.085 3.975 L
124.382 3.975 L
125.804 3.975 127.257 4.53 QT
128.71 5.084 129.656 6.17 QT
130.601 7.256 130.601 8.725 QT
130.601 10.444 129.203 11.6 QT
127.804 12.756 125.929 13.1 QT
127.148 13.1 128.429 13.772 QT
129.71 14.444 130.531 15.569 QT
131.351 16.694 131.351 17.944 QT
131.351 19.475 130.445 20.655 QT
129.538 21.834 128.093 22.467 QT
126.648 23.1 125.179 23.1 QT
114.085 23.1 L
cp
119.413 21.225 M
119.413 21.834 119.749 21.975 QT
120.085 22.116 120.835 22.116 QT
124.382 22.116 L
125.476 22.116 126.413 21.537 QT
127.351 20.959 127.898 19.998 QT
128.445 19.037 128.445 17.944 QT
128.445 16.881 127.992 15.858 QT
127.538 14.834 126.703 14.178 QT
125.867 13.522 124.788 13.522 QT
119.413 13.522 L
119.413 21.225 L
cp
119.413 12.787 M
123.601 12.787 L
124.46 12.787 125.203 12.483 QT
125.945 12.178 126.538 11.592 QT
127.132 11.006 127.453 10.28 QT
127.773 9.553 127.773 8.725 QT
127.773 8.006 127.538 7.334 QT
127.304 6.662 126.835 6.116 QT
126.367 5.569 125.742 5.264 QT
125.117 4.959 124.382 4.959 QT
120.835 4.959 L
120.32 4.959 120.038 4.998 QT
119.757 5.037 119.585 5.233 QT
119.413 5.428 119.413 5.85 QT
119.413 12.787 L
cp
f
GR
GS
[1 0 0 1 621.00043 758] CT
0.149 GC
N
133.221 30.1 M
133.221 28.975 L
135.955 28.975 L
135.955 3.225 L
133.221 3.225 L
133.221 2.1 L
137.065 2.1 L
137.065 30.1 L
133.221 30.1 L
cp
f
GR
GS
0.149 GC
2 setlinecap
1 LJ
0.5 LW
N
156 712 M
156 60 L
S
GR
GS
0.149 GC
2 setlinecap
1 LJ
0.5 LW
N
1086 712 M
1086 60 L
S
GR
GS
0.149 GC
2 setlinecap
1 LJ
0.5 LW
N
156 712 M
165.3 712 L
S
GR
GS
0.149 GC
2 setlinecap
1 LJ
0.5 LW
N
156 630.5 M
165.3 630.5 L
S
GR
GS
0.149 GC
2 setlinecap
1 LJ
0.5 LW
N
156 549 M
165.3 549 L
S
GR
GS
0.149 GC
2 setlinecap
1 LJ
0.5 LW
N
156 467.5 M
165.3 467.5 L
S
GR
GS
0.149 GC
2 setlinecap
1 LJ
0.5 LW
N
156 386 M
165.3 386 L
S
GR
GS
0.149 GC
2 setlinecap
1 LJ
0.5 LW
N
156 304.5 M
165.3 304.5 L
S
GR
GS
0.149 GC
2 setlinecap
1 LJ
0.5 LW
N
156 223 M
165.3 223 L
S
GR
GS
0.149 GC
2 setlinecap
1 LJ
0.5 LW
N
156 141.5 M
165.3 141.5 L
S
GR
GS
0.149 GC
2 setlinecap
1 LJ
0.5 LW
N
156 60 M
165.3 60 L
S
GR
GS
0.149 GC
2 setlinecap
1 LJ
0.5 LW
N
1086 712 M
1076.7 712 L
S
GR
GS
0.149 GC
2 setlinecap
1 LJ
0.5 LW
N
1086 630.5 M
1076.7 630.5 L
S
GR
GS
0.149 GC
2 setlinecap
1 LJ
0.5 LW
N
1086 549 M
1076.7 549 L
S
GR
GS
0.149 GC
2 setlinecap
1 LJ
0.5 LW
N
1086 467.5 M
1076.7 467.5 L
S
GR
GS
0.149 GC
2 setlinecap
1 LJ
0.5 LW
N
1086 386 M
1076.7 386 L
S
GR
GS
0.149 GC
2 setlinecap
1 LJ
0.5 LW
N
1086 304.5 M
1076.7 304.5 L
S
GR
GS
0.149 GC
2 setlinecap
1 LJ
0.5 LW
N
1086 223 M
1076.7 223 L
S
GR
GS
0.149 GC
2 setlinecap
1 LJ
0.5 LW
N
1086 141.5 M
1076.7 141.5 L
S
GR
GS
0.149 GC
2 setlinecap
1 LJ
0.5 LW
N
1086 60 M
1076.7 60 L
S
GR
GS
[1 0 0 1 149 712] CT
0.149 GC
/Helvetica 25 F
GS
[1 0 0 1 0 0] CT
-35 9 moveto 
1 -1 scale
(0.9) t 
GR
GR
GS
[1 0 0 1 149 630.5] CT
0.149 GC
/Helvetica 25 F
GS
[1 0 0 1 0 0] CT
-14 9 moveto 
1 -1 scale
(1) t 
GR
GR
GS
[1 0 0 1 149 549] CT
0.149 GC
/Helvetica 25 F
GS
[1 0 0 1 0 0] CT
-35 9 moveto 
1 -1 scale
(1.1) t 
GR
GR
GS
[1 0 0 1 149 467.5] CT
0.149 GC
/Helvetica 25 F
GS
[1 0 0 1 0 0] CT
-35 9 moveto 
1 -1 scale
(1.2) t 
GR
GR
GS
[1 0 0 1 149 386] CT
0.149 GC
/Helvetica 25 F
GS
[1 0 0 1 0 0] CT
-35 9 moveto 
1 -1 scale
(1.3) t 
GR
GR
GS
[1 0 0 1 149 304.5] CT
0.149 GC
/Helvetica 25 F
GS
[1 0 0 1 0 0] CT
-35 9 moveto 
1 -1 scale
(1.4) t 
GR
GR
GS
[1 0 0 1 149 223] CT
0.149 GC
/Helvetica 25 F
GS
[1 0 0 1 0 0] CT
-35 9 moveto 
1 -1 scale
(1.5) t 
GR
GR
GS
[1 0 0 1 149 141.5] CT
0.149 GC
/Helvetica 25 F
GS
[1 0 0 1 0 0] CT
-35 9 moveto 
1 -1 scale
(1.6) t 
GR
GR
GS
[1 0 0 1 149 60] CT
0.149 GC
/Helvetica 25 F
GS
[1 0 0 1 0 0] CT
-35 9 moveto 
1 -1 scale
(1.7) t 
GR
GR
GS
[0 -1 1 0 111 385.99969] CT
0.149 GC
N
-50.228 -9.9 M
-50.228 -10.884 L
-48.821 -10.884 -47.493 -11.041 QT
-46.165 -11.197 -46.165 -11.775 QT
-46.165 -27.15 L
-46.165 -27.759 -46.501 -27.9 QT
-46.837 -28.041 -47.587 -28.041 QT
-48.774 -28.041 L
-51.071 -28.041 -52.056 -27.025 QT
-52.556 -26.525 -52.774 -25.408 QT
-52.993 -24.291 -53.149 -22.619 QT
-53.946 -22.619 L
-53.415 -29.025 L
-36.306 -29.025 L
-35.774 -22.619 L
-36.603 -22.619 L
-36.759 -24.416 -36.962 -25.478 QT
-37.165 -26.541 -37.681 -27.025 QT
-38.665 -28.041 -40.962 -28.041 QT
-42.134 -28.041 L
-42.649 -28.041 -42.923 -28.002 QT
-43.196 -27.963 -43.376 -27.767 QT
-43.556 -27.572 -43.556 -27.15 QT
-43.556 -11.775 L
-43.556 -11.197 -42.228 -11.041 QT
-40.899 -10.884 -39.509 -10.884 QT
-39.509 -9.9 L
-50.228 -9.9 L
cp
f
GR
GS
[0 -1 1 0 111 385.99969] CT
0.149 GC
N
-34.241 -9.9 M
-34.241 -10.884 L
-31.351 -10.884 -31.351 -11.775 QT
-31.351 -27.15 L
-31.351 -28.041 -34.241 -28.041 QT
-34.241 -29.025 L
-18.804 -29.025 L
-18.023 -22.619 L
-18.835 -22.619 L
-19.023 -24.384 -19.343 -25.4 QT
-19.663 -26.416 -20.28 -26.994 QT
-20.898 -27.572 -21.929 -27.806 QT
-22.96 -28.041 -24.757 -28.041 QT
-27.32 -28.041 L
-27.82 -28.041 -28.101 -28.002 QT
-28.382 -27.963 -28.562 -27.767 QT
-28.741 -27.572 -28.741 -27.15 QT
-28.741 -19.947 L
-26.757 -19.947 L
-25.32 -19.947 -24.655 -20.205 QT
-23.991 -20.463 -23.734 -21.127 QT
-23.476 -21.791 -23.476 -23.228 QT
-22.679 -23.228 L
-22.679 -15.697 L
-23.476 -15.697 L
-23.476 -17.134 -23.734 -17.806 QT
-23.991 -18.478 -24.655 -18.728 QT
-25.32 -18.978 -26.757 -18.978 QT
-28.741 -18.978 L
-28.741 -11.775 L
-28.741 -10.884 -25.163 -10.884 QT
-25.163 -9.9 L
-34.241 -9.9 L
cp
f
GR
GS
[0 -1 1 0 111 385.99969] CT
0.149 GC
N
-16.29 -9.9 M
-16.29 -10.884 L
-15.337 -10.884 -14.72 -11.033 QT
-14.102 -11.181 -14.102 -11.775 QT
-14.102 -26.478 L
-14.102 -27.228 -14.329 -27.564 QT
-14.556 -27.9 -14.977 -27.97 QT
-15.399 -28.041 -16.29 -28.041 QT
-16.29 -29.025 L
-12.134 -29.322 L
-12.134 -11.775 L
-12.134 -11.181 -11.517 -11.033 QT
-10.899 -10.884 -9.962 -10.884 QT
-9.962 -9.9 L
-16.29 -9.9 L
cp
f
GR
GS
[0 -1 1 0 111 385.99969] CT
0.149 GC
N
-2.51 -9.588 M
-4.198 -9.588 -5.628 -10.439 QT
-7.057 -11.291 -7.893 -12.728 QT
-8.729 -14.166 -8.729 -15.869 QT
-8.729 -17.15 -8.268 -18.338 QT
-7.807 -19.525 -6.956 -20.463 QT
-6.104 -21.4 -4.971 -21.924 QT
-3.839 -22.447 -2.51 -22.447 QT
-0.792 -22.447 0.622 -21.541 QT
2.036 -20.634 2.857 -19.111 QT
3.677 -17.588 3.677 -15.869 QT
3.677 -14.181 2.849 -12.736 QT
2.021 -11.291 0.591 -10.439 QT
-0.839 -9.588 -2.51 -9.588 QT
cp
-2.51 -10.4 M
-0.26 -10.4 0.49 -12.033 QT
1.24 -13.666 1.24 -16.181 QT
1.24 -17.588 1.091 -18.509 QT
0.943 -19.431 0.427 -20.181 QT
0.115 -20.65 -0.37 -20.994 QT
-0.854 -21.338 -1.393 -21.525 QT
-1.932 -21.713 -2.51 -21.713 QT
-3.385 -21.713 -4.174 -21.314 QT
-4.964 -20.916 -5.479 -20.181 QT
-5.995 -19.384 -6.135 -18.439 QT
-6.276 -17.494 -6.276 -16.181 QT
-6.276 -14.603 -6.003 -13.353 QT
-5.729 -12.103 -4.909 -11.252 QT
-4.089 -10.4 -2.51 -10.4 QT
cp
f
GR
GS
[0 -1 1 0 111 385.99969] CT
0.149 GC
N
4.958 -4.478 M
4.958 -5.447 L
5.927 -5.447 6.537 -5.611 QT
7.146 -5.775 7.146 -6.338 QT
7.146 -19.838 L
7.146 -20.603 6.599 -20.799 QT
6.052 -20.994 4.958 -20.994 QT
4.958 -21.978 L
9.115 -22.275 L
9.115 -20.541 L
9.88 -21.384 10.896 -21.83 QT
11.912 -22.275 13.052 -22.275 QT
14.708 -22.275 16.037 -21.377 QT
17.365 -20.478 18.107 -19.025 QT
18.849 -17.572 18.849 -15.947 QT
18.849 -14.244 18.029 -12.783 QT
17.208 -11.322 15.779 -10.455 QT
14.349 -9.588 12.63 -9.588 QT
10.599 -9.588 9.193 -11.244 QT
9.193 -6.338 L
9.193 -5.775 9.81 -5.611 QT
10.427 -5.447 11.38 -5.447 QT
11.38 -4.478 L
4.958 -4.478 L
cp
9.193 -12.619 M
9.677 -11.619 10.552 -10.97 QT
11.427 -10.322 12.474 -10.322 QT
13.443 -10.322 14.185 -10.845 QT
14.927 -11.369 15.435 -12.244 QT
15.943 -13.119 16.185 -14.08 QT
16.427 -15.041 16.427 -15.947 QT
16.427 -17.072 16.021 -18.377 QT
15.615 -19.681 14.787 -20.572 QT
13.958 -21.463 12.787 -21.463 QT
11.646 -21.463 10.701 -20.884 QT
9.755 -20.306 9.193 -19.306 QT
9.193 -12.619 L
cp
f
GR
GS
[0 -1 1 0 111 385.99969] CT
0.149 GC
N
20.455 -9.822 M
20.455 -14.384 L
20.455 -14.603 20.689 -14.603 QT
21.033 -14.603 L
21.205 -14.603 21.252 -14.384 QT
22.033 -10.322 25.033 -10.322 QT
26.361 -10.322 27.252 -10.924 QT
28.142 -11.525 28.142 -12.791 QT
28.142 -13.681 27.447 -14.322 QT
26.752 -14.963 25.799 -15.197 QT
23.924 -15.556 L
22.971 -15.759 22.205 -16.189 QT
21.439 -16.619 20.947 -17.322 QT
20.455 -18.025 20.455 -18.947 QT
20.455 -20.181 21.103 -20.97 QT
21.752 -21.759 22.791 -22.103 QT
23.83 -22.447 25.033 -22.447 QT
26.471 -22.447 27.533 -21.681 QT
28.33 -22.384 L
28.33 -22.447 28.471 -22.447 QT
28.674 -22.447 L
28.767 -22.447 28.83 -22.377 QT
28.892 -22.306 28.892 -22.213 QT
28.892 -18.556 L
28.892 -18.291 28.674 -18.291 QT
28.33 -18.291 L
28.096 -18.291 28.096 -18.556 QT
28.096 -20.025 27.283 -20.908 QT
26.471 -21.791 25.002 -21.791 QT
23.736 -21.791 22.814 -21.33 QT
21.892 -20.869 21.892 -19.728 QT
21.892 -18.947 22.557 -18.447 QT
23.221 -17.947 24.111 -17.728 QT
26.017 -17.384 L
26.971 -17.166 27.799 -16.642 QT
28.627 -16.119 29.111 -15.33 QT
29.596 -14.541 29.596 -13.541 QT
29.596 -12.525 29.244 -11.783 QT
28.892 -11.041 28.275 -10.549 QT
27.658 -10.056 26.807 -9.822 QT
25.955 -9.588 25.033 -9.588 QT
23.283 -9.588 22.033 -10.759 QT
21.002 -9.65 L
21.002 -9.588 20.861 -9.588 QT
20.689 -9.588 L
20.455 -9.588 20.455 -9.822 QT
cp
f
GR
GS
[0 -1 1 0 111 385.99969] CT
0.149 GC
N
31.943 -3.463 M
31.943 -3.541 31.958 -3.572 QT
41.693 -30.556 L
41.755 -30.728 41.888 -30.814 QT
42.021 -30.9 42.208 -30.9 QT
42.458 -30.9 42.615 -30.752 QT
42.771 -30.603 42.771 -30.338 QT
42.771 -30.228 L
33.037 -3.244 L
32.865 -2.9 32.505 -2.9 QT
32.271 -2.9 32.107 -3.064 QT
31.943 -3.228 31.943 -3.463 QT
cp
f
GR
GS
[0 -1 1 0 111 385.99969] CT
0.149 GC
N
45.052 -9.822 M
45.052 -14.384 L
45.052 -14.603 45.287 -14.603 QT
45.63 -14.603 L
45.802 -14.603 45.849 -14.384 QT
46.63 -10.322 49.63 -10.322 QT
50.958 -10.322 51.849 -10.924 QT
52.74 -11.525 52.74 -12.791 QT
52.74 -13.681 52.044 -14.322 QT
51.349 -14.963 50.396 -15.197 QT
48.521 -15.556 L
47.568 -15.759 46.802 -16.189 QT
46.037 -16.619 45.544 -17.322 QT
45.052 -18.025 45.052 -18.947 QT
45.052 -20.181 45.701 -20.97 QT
46.349 -21.759 47.388 -22.103 QT
48.427 -22.447 49.63 -22.447 QT
51.068 -22.447 52.13 -21.681 QT
52.927 -22.384 L
52.927 -22.447 53.068 -22.447 QT
53.271 -22.447 L
53.365 -22.447 53.427 -22.377 QT
53.49 -22.306 53.49 -22.213 QT
53.49 -18.556 L
53.49 -18.291 53.271 -18.291 QT
52.927 -18.291 L
52.693 -18.291 52.693 -18.556 QT
52.693 -20.025 51.88 -20.908 QT
51.068 -21.791 49.599 -21.791 QT
48.333 -21.791 47.412 -21.33 QT
46.49 -20.869 46.49 -19.728 QT
46.49 -18.947 47.154 -18.447 QT
47.818 -17.947 48.708 -17.728 QT
50.615 -17.384 L
51.568 -17.166 52.396 -16.642 QT
53.224 -16.119 53.708 -15.33 QT
54.193 -14.541 54.193 -13.541 QT
54.193 -12.525 53.841 -11.783 QT
53.49 -11.041 52.873 -10.549 QT
52.255 -10.056 51.404 -9.822 QT
50.552 -9.588 49.63 -9.588 QT
47.88 -9.588 46.63 -10.759 QT
45.599 -9.65 L
45.599 -9.588 45.458 -9.588 QT
45.287 -9.588 L
45.052 -9.588 45.052 -9.822 QT
cp
f
GR
GS
0.494 0.184 0.557 RC
1 LJ
1.2 LW
N
301.16 369.592 M
537.421 462.832 L
675.624 561.143 L
773.681 585.079 L
849.74 611.003 L
911.884 601.825 L
964.427 617.007 L
1009.941 603.678 L
1050.088 629.967 L
1086 606.75 L
S
GR
GS
[1 0 0 1 301.16049 369.59241] CT
0.494 0.184 0.557 RC
10.0 ML
1.2 LW
N
-3 -3 M
-3 3 L
3 3 L
3 -3 L
cp
S
GR
GS
[1 0 0 1 537.42072 462.83234] CT
0.494 0.184 0.557 RC
10.0 ML
1.2 LW
N
-3 -3 M
-3 3 L
3 3 L
3 -3 L
cp
S
GR
GS
[1 0 0 1 675.62415 561.14349] CT
0.494 0.184 0.557 RC
10.0 ML
1.2 LW
N
-3 -3 M
-3 3 L
3 3 L
3 -3 L
cp
S
GR
GS
[1 0 0 1 773.68097 585.07916] CT
0.494 0.184 0.557 RC
10.0 ML
1.2 LW
N
-3 -3 M
-3 3 L
3 3 L
3 -3 L
cp
S
GR
GS
[1 0 0 1 849.73975 611.00281] CT
0.494 0.184 0.557 RC
10.0 ML
1.2 LW
N
-3 -3 M
-3 3 L
3 3 L
3 -3 L
cp
S
GR
GS
[1 0 0 1 911.88434 601.82483] CT
0.494 0.184 0.557 RC
10.0 ML
1.2 LW
N
-3 -3 M
-3 3 L
3 3 L
3 -3 L
cp
S
GR
GS
[1 0 0 1 964.42682 617.00739] CT
0.494 0.184 0.557 RC
10.0 ML
1.2 LW
N
-3 -3 M
-3 3 L
3 3 L
3 -3 L
cp
S
GR
GS
[1 0 0 1 1009.94122 603.67761] CT
0.494 0.184 0.557 RC
10.0 ML
1.2 LW
N
-3 -3 M
-3 3 L
3 3 L
3 -3 L
cp
S
GR
GS
[1 0 0 1 1050.08777 629.96692] CT
0.494 0.184 0.557 RC
10.0 ML
1.2 LW
N
-3 -3 M
-3 3 L
3 3 L
3 -3 L
cp
S
GR
GS
[1 0 0 1 1086 606.74951] CT
0.494 0.184 0.557 RC
10.0 ML
1.2 LW
N
-3 -3 M
-3 3 L
3 3 L
3 -3 L
cp
S
GR
GS
0.494 0.184 0.557 RC
1 LJ
1.2 LW
N
301.16 533.357 M
537.421 607.023 L
675.624 611.93 L
773.681 642.452 L
849.74 646.715 L
911.884 647.713 L
964.427 652.823 L
1009.941 656.403 L
1050.088 660.332 L
1086 661.29 L
S
GR
GS
[1 0 0 1 301.16049 533.35675] CT
0.494 0.184 0.557 RC
N
-3 -3 M
-3 3 L
3 3 L
3 -3 L
cp
f
GR
GS
[1 0 0 1 301.16049 533.35675] CT
0.494 0.184 0.557 RC
10.0 ML
1.2 LW
N
-3 -3 M
-3 3 L
3 3 L
3 -3 L
cp
S
GR
GS
[1 0 0 1 537.42072 607.02264] CT
0.494 0.184 0.557 RC
N
/f227889816{-3 -3 M
-3 3 L
3 3 L
3 -3 L
cp}def
f227889816
f
GR
GS
[1 0 0 1 537.42072 607.02264] CT
0.494 0.184 0.557 RC
10.0 ML
1.2 LW
N
-3 -3 M
-3 3 L
3 3 L
3 -3 L
cp
S
GR
GS
[1 0 0 1 675.62415 611.92993] CT
0.494 0.184 0.557 RC
N
f227889816
f
GR
GS
[1 0 0 1 675.62415 611.92993] CT
0.494 0.184 0.557 RC
10.0 ML
1.2 LW
N
-3 -3 M
-3 3 L
3 3 L
3 -3 L
cp
S
GR
GS
[1 0 0 1 773.68097 642.4516] CT
0.494 0.184 0.557 RC
N
f227889816
f
GR
GS
[1 0 0 1 773.68097 642.4516] CT
0.494 0.184 0.557 RC
10.0 ML
1.2 LW
N
-3 -3 M
-3 3 L
3 3 L
3 -3 L
cp
S
GR
GS
[1 0 0 1 849.73975 646.71533] CT
0.494 0.184 0.557 RC
N
f227889816
f
GR
GS
[1 0 0 1 849.73975 646.71533] CT
0.494 0.184 0.557 RC
10.0 ML
1.2 LW
N
-3 -3 M
-3 3 L
3 3 L
3 -3 L
cp
S
GR
GS
[1 0 0 1 911.88434 647.71338] CT
0.494 0.184 0.557 RC
N
f227889816
f
GR
GS
[1 0 0 1 911.88434 647.71338] CT
0.494 0.184 0.557 RC
10.0 ML
1.2 LW
N
-3 -3 M
-3 3 L
3 3 L
3 -3 L
cp
S
GR
GS
[1 0 0 1 964.42682 652.82324] CT
0.494 0.184 0.557 RC
N
f227889816
f
GR
GS
[1 0 0 1 964.42682 652.82324] CT
0.494 0.184 0.557 RC
10.0 ML
1.2 LW
N
-3 -3 M
-3 3 L
3 3 L
3 -3 L
cp
S
GR
GS
[1 0 0 1 1009.94122 656.40302] CT
0.494 0.184 0.557 RC
N
f227889816
f
GR
GS
[1 0 0 1 1009.94122 656.40302] CT
0.494 0.184 0.557 RC
10.0 ML
1.2 LW
N
-3 -3 M
-3 3 L
3 3 L
3 -3 L
cp
S
GR
GS
[1 0 0 1 1050.08777 660.33209] CT
0.494 0.184 0.557 RC
N
f227889816
f
GR
GS
[1 0 0 1 1050.08777 660.33209] CT
0.494 0.184 0.557 RC
10.0 ML
1.2 LW
N
-3 -3 M
-3 3 L
3 3 L
3 -3 L
cp
S
GR
GS
[1 0 0 1 1086 661.28967] CT
0.494 0.184 0.557 RC
N
f227889816
f
GR
GS
[1 0 0 1 1086 661.28967] CT
0.494 0.184 0.557 RC
10.0 ML
1.2 LW
N
-3 -3 M
-3 3 L
3 3 L
3 -3 L
cp
S
GR
GS
0 0.447 0.741 RC
1 LJ
1.2 LW
N
301.16 608.744 M
537.421 472.874 L
675.624 389.623 L
773.681 385.725 L
849.74 416.699 L
911.884 393.082 L
964.427 419.087 L
1009.941 394.055 L
1050.088 424.894 L
1086 406.694 L
S
GR
GS
[1 0 0 1 301.16049 608.74432] CT
0 0.447 0.741 RC
10.0 ML
1.2 LW
N
-3 -3 M
-3 3 L
3 3 L
3 -3 L
cp
S
GR
GS
[1 0 0 1 537.42072 472.87375] CT
0 0.447 0.741 RC
10.0 ML
1.2 LW
N
-3 -3 M
-3 3 L
3 3 L
3 -3 L
cp
S
GR
GS
[1 0 0 1 675.62415 389.62323] CT
0 0.447 0.741 RC
10.0 ML
1.2 LW
N
-3 -3 M
-3 3 L
3 3 L
3 -3 L
cp
S
GR
GS
[1 0 0 1 773.68097 385.72513] CT
0 0.447 0.741 RC
10.0 ML
1.2 LW
N
-3 -3 M
-3 3 L
3 3 L
3 -3 L
cp
S
GR
GS
[1 0 0 1 849.73975 416.69861] CT
0 0.447 0.741 RC
10.0 ML
1.2 LW
N
-3 -3 M
-3 3 L
3 3 L
3 -3 L
cp
S
GR
GS
[1 0 0 1 911.88434 393.0824] CT
0 0.447 0.741 RC
10.0 ML
1.2 LW
N
-3 -3 M
-3 3 L
3 3 L
3 -3 L
cp
S
GR
GS
[1 0 0 1 964.42682 419.08743] CT
0 0.447 0.741 RC
10.0 ML
1.2 LW
N
-3 -3 M
-3 3 L
3 3 L
3 -3 L
cp
S
GR
GS
[1 0 0 1 1009.94122 394.05536] CT
0 0.447 0.741 RC
10.0 ML
1.2 LW
N
-3 -3 M
-3 3 L
3 3 L
3 -3 L
cp
S
GR
GS
[1 0 0 1 1050.08777 424.8941] CT
0 0.447 0.741 RC
10.0 ML
1.2 LW
N
-3 -3 M
-3 3 L
3 3 L
3 -3 L
cp
S
GR
GS
[1 0 0 1 1086 406.69391] CT
0 0.447 0.741 RC
10.0 ML
1.2 LW
N
-3 -3 M
-3 3 L
3 3 L
3 -3 L
cp
S
GR
GS
0 0.447 0.741 RC
1 LJ
1.2 LW
N
301.16 329.826 M
537.421 161.656 L
675.624 123.044 L
773.681 244.597 L
849.74 276.297 L
911.884 262.94 L
964.427 293.189 L
1009.941 287.216 L
1050.088 310.026 L
1086 294.054 L
S
GR
GS
[1 0 0 1 301.16049 329.82581] CT
0 0.447 0.741 RC
N
f227889816
f
GR
GS
[1 0 0 1 301.16049 329.82581] CT
0 0.447 0.741 RC
10.0 ML
1.2 LW
N
-3 -3 M
-3 3 L
3 3 L
3 -3 L
cp
S
GR
GS
[1 0 0 1 537.42072 161.65636] CT
0 0.447 0.741 RC
N
f227889816
f
GR
GS
[1 0 0 1 537.42072 161.65636] CT
0 0.447 0.741 RC
10.0 ML
1.2 LW
N
-3 -3 M
-3 3 L
3 3 L
3 -3 L
cp
S
GR
GS
[1 0 0 1 675.62415 123.0444] CT
0 0.447 0.741 RC
N
f227889816
f
GR
GS
[1 0 0 1 675.62415 123.0444] CT
0 0.447 0.741 RC
10.0 ML
1.2 LW
N
-3 -3 M
-3 3 L
3 3 L
3 -3 L
cp
S
GR
GS
[1 0 0 1 773.68097 244.59749] CT
0 0.447 0.741 RC
N
f227889816
f
GR
GS
[1 0 0 1 773.68097 244.59749] CT
0 0.447 0.741 RC
10.0 ML
1.2 LW
N
-3 -3 M
-3 3 L
3 3 L
3 -3 L
cp
S
GR
GS
[1 0 0 1 849.73975 276.29694] CT
0 0.447 0.741 RC
N
f227889816
f
GR
GS
[1 0 0 1 849.73975 276.29694] CT
0 0.447 0.741 RC
10.0 ML
1.2 LW
N
-3 -3 M
-3 3 L
3 3 L
3 -3 L
cp
S
GR
GS
[1 0 0 1 911.88434 262.94016] CT
0 0.447 0.741 RC
N
f227889816
f
GR
GS
[1 0 0 1 911.88434 262.94016] CT
0 0.447 0.741 RC
10.0 ML
1.2 LW
N
-3 -3 M
-3 3 L
3 3 L
3 -3 L
cp
S
GR
GS
[1 0 0 1 964.42682 293.18854] CT
0 0.447 0.741 RC
N
f227889816
f
GR
GS
[1 0 0 1 964.42682 293.18854] CT
0 0.447 0.741 RC
10.0 ML
1.2 LW
N
-3 -3 M
-3 3 L
3 3 L
3 -3 L
cp
S
GR
GS
[1 0 0 1 1009.94122 287.21579] CT
0 0.447 0.741 RC
N
f227889816
f
GR
GS
[1 0 0 1 1009.94122 287.21579] CT
0 0.447 0.741 RC
10.0 ML
1.2 LW
N
-3 -3 M
-3 3 L
3 3 L
3 -3 L
cp
S
GR
GS
[1 0 0 1 1050.08777 310.02612] CT
0 0.447 0.741 RC
N
f227889816
f
GR
GS
[1 0 0 1 1050.08777 310.02612] CT
0 0.447 0.741 RC
10.0 ML
1.2 LW
N
-3 -3 M
-3 3 L
3 3 L
3 -3 L
cp
S
GR
GS
[1 0 0 1 1086 294.05371] CT
0 0.447 0.741 RC
N
f227889816
f
GR
GS
[1 0 0 1 1086 294.05371] CT
0 0.447 0.741 RC
10.0 ML
1.2 LW
N
-3 -3 M
-3 3 L
3 3 L
3 -3 L
cp
S
GR
GS
0.467 0.675 0.188 RC
1 LJ
1.2 LW
N
301.16 693.308 M
537.421 611.58 L
675.624 568.562 L
773.681 542.422 L
849.74 583.402 L
911.884 542.659 L
964.427 583.562 L
1009.941 536.419 L
1050.088 584.5 L
1086 547.631 L
S
GR
GS
[1 0 0 1 301.16049 693.30804] CT
0.467 0.675 0.188 RC
10.0 ML
1.2 LW
N
-3 -3 M
-3 3 L
3 3 L
3 -3 L
cp
S
GR
GS
[1 0 0 1 537.42072 611.58044] CT
0.467 0.675 0.188 RC
10.0 ML
1.2 LW
N
-3 -3 M
-3 3 L
3 3 L
3 -3 L
cp
S
GR
GS
[1 0 0 1 675.62415 568.56219] CT
0.467 0.675 0.188 RC
10.0 ML
1.2 LW
N
-3 -3 M
-3 3 L
3 3 L
3 -3 L
cp
S
GR
GS
[1 0 0 1 773.68097 542.42163] CT
0.467 0.675 0.188 RC
10.0 ML
1.2 LW
N
-3 -3 M
-3 3 L
3 3 L
3 -3 L
cp
S
GR
GS
[1 0 0 1 849.73975 583.40186] CT
0.467 0.675 0.188 RC
10.0 ML
1.2 LW
N
-3 -3 M
-3 3 L
3 3 L
3 -3 L
cp
S
GR
GS
[1 0 0 1 911.88434 542.659] CT
0.467 0.675 0.188 RC
10.0 ML
1.2 LW
N
-3 -3 M
-3 3 L
3 3 L
3 -3 L
cp
S
GR
GS
[1 0 0 1 964.42682 583.56207] CT
0.467 0.675 0.188 RC
10.0 ML
1.2 LW
N
-3 -3 M
-3 3 L
3 3 L
3 -3 L
cp
S
GR
GS
[1 0 0 1 1009.94122 536.41901] CT
0.467 0.675 0.188 RC
10.0 ML
1.2 LW
N
-3 -3 M
-3 3 L
3 3 L
3 -3 L
cp
S
GR
GS
[1 0 0 1 1050.08777 584.50031] CT
0.467 0.675 0.188 RC
10.0 ML
1.2 LW
N
-3 -3 M
-3 3 L
3 3 L
3 -3 L
cp
S
GR
GS
[1 0 0 1 1086 547.63074] CT
0.467 0.675 0.188 RC
10.0 ML
1.2 LW
N
-3 -3 M
-3 3 L
3 3 L
3 -3 L
cp
S
GR
GS
0.467 0.675 0.188 RC
1 LJ
1.2 LW
N
301.16 513.006 M
537.421 415.81 L
675.624 354.334 L
773.681 338.316 L
849.74 361.545 L
911.884 361.52 L
964.427 358.772 L
1009.941 344.769 L
1050.088 360.737 L
1086 356.6 L
S
GR
GS
[1 0 0 1 301.16049 513.00574] CT
0.467 0.675 0.188 RC
N
f227889816
f
GR
GS
[1 0 0 1 301.16049 513.00574] CT
0.467 0.675 0.188 RC
10.0 ML
1.2 LW
N
-3 -3 M
-3 3 L
3 3 L
3 -3 L
cp
S
GR
GS
[1 0 0 1 537.42072 415.80954] CT
0.467 0.675 0.188 RC
N
f227889816
f
GR
GS
[1 0 0 1 537.42072 415.80954] CT
0.467 0.675 0.188 RC
10.0 ML
1.2 LW
N
-3 -3 M
-3 3 L
3 3 L
3 -3 L
cp
S
GR
GS
[1 0 0 1 675.62415 354.33395] CT
0.467 0.675 0.188 RC
N
f227889816
f
GR
GS
[1 0 0 1 675.62415 354.33395] CT
0.467 0.675 0.188 RC
10.0 ML
1.2 LW
N
-3 -3 M
-3 3 L
3 3 L
3 -3 L
cp
S
GR
GS
[1 0 0 1 773.68097 338.31583] CT
0.467 0.675 0.188 RC
N
f227889816
f
GR
GS
[1 0 0 1 773.68097 338.31583] CT
0.467 0.675 0.188 RC
10.0 ML
1.2 LW
N
-3 -3 M
-3 3 L
3 3 L
3 -3 L
cp
S
GR
GS
[1 0 0 1 849.73975 361.54465] CT
0.467 0.675 0.188 RC
N
f227889816
f
GR
GS
[1 0 0 1 849.73975 361.54465] CT
0.467 0.675 0.188 RC
10.0 ML
1.2 LW
N
-3 -3 M
-3 3 L
3 3 L
3 -3 L
cp
S
GR
GS
[1 0 0 1 911.88434 361.51987] CT
0.467 0.675 0.188 RC
N
f227889816
f
GR
GS
[1 0 0 1 911.88434 361.51987] CT
0.467 0.675 0.188 RC
10.0 ML
1.2 LW
N
-3 -3 M
-3 3 L
3 3 L
3 -3 L
cp
S
GR
GS
[1 0 0 1 964.42682 358.77206] CT
0.467 0.675 0.188 RC
N
f227889816
f
GR
GS
[1 0 0 1 964.42682 358.77206] CT
0.467 0.675 0.188 RC
10.0 ML
1.2 LW
N
-3 -3 M
-3 3 L
3 3 L
3 -3 L
cp
S
GR
GS
[1 0 0 1 1009.94122 344.76892] CT
0.467 0.675 0.188 RC
N
f227889816
f
GR
GS
[1 0 0 1 1009.94122 344.76892] CT
0.467 0.675 0.188 RC
10.0 ML
1.2 LW
N
-3 -3 M
-3 3 L
3 3 L
3 -3 L
cp
S
GR
GS
[1 0 0 1 1050.08777 360.737] CT
0.467 0.675 0.188 RC
N
f227889816
f
GR
GS
[1 0 0 1 1050.08777 360.737] CT
0.467 0.675 0.188 RC
10.0 ML
1.2 LW
N
-3 -3 M
-3 3 L
3 3 L
3 -3 L
cp
S
GR
GS
[1 0 0 1 1086 356.59964] CT
0.467 0.675 0.188 RC
N
f227889816
f
GR
GS
[1 0 0 1 1086 356.59964] CT
0.467 0.675 0.188 RC
10.0 ML
1.2 LW
N
-3 -3 M
-3 3 L
3 3 L
3 -3 L
cp
S
GR
GS
1 GC
N
/f718889070{1078 704 M
1078 517 L
993 517 L
993 704 L
cp}def
f718889070
f
GR
GS
[1 0 0 1 1030.10913 534.04559] CT
N
0.766 6 M
0.766 5.125 L
3.344 5.125 3.344 4.328 QT
3.344 -9.406 L
3.344 -10.203 0.766 -10.203 QT
0.766 -11.078 L
8.25 -11.078 L
8.25 -10.203 L
5.672 -10.203 5.672 -9.406 QT
5.672 -3.328 L
13.047 -3.328 L
13.047 -9.406 L
13.047 -10.203 10.469 -10.203 QT
10.469 -11.078 L
17.938 -11.078 L
17.938 -10.203 L
15.375 -10.203 15.375 -9.406 QT
15.375 4.328 L
15.375 5.125 17.938 5.125 QT
17.938 6 L
10.469 6 L
10.469 5.125 L
13.047 5.125 13.047 4.328 QT
13.047 -2.453 L
5.672 -2.453 L
5.672 4.328 L
5.672 5.125 8.25 5.125 QT
8.25 6 L
0.766 6 L
cp
f
GR
GS
[1 0 0 1 1030.10913 534.04559] CT
N
19.797 2.203 M
19.797 0.703 20.789 -0.453 QT
21.781 -1.609 23.328 -2.375 QT
22.406 -2.969 L
21.547 -3.531 21.008 -4.469 QT
20.469 -5.406 20.469 -6.422 QT
20.469 -7.625 21.102 -8.586 QT
21.734 -9.547 22.773 -10.102 QT
23.813 -10.656 25 -10.656 QT
26.109 -10.656 27.141 -10.203 QT
28.172 -9.75 28.836 -8.906 QT
29.5 -8.063 29.5 -6.906 QT
29.5 -6.063 29.109 -5.344 QT
28.719 -4.625 28.023 -4.047 QT
27.328 -3.469 26.547 -3.063 QT
27.984 -2.156 L
28.969 -1.5 29.57 -0.453 QT
30.172 0.594 30.172 1.75 QT
30.172 3.109 29.445 4.219 QT
28.719 5.328 27.523 5.937 QT
26.328 6.547 25 6.547 QT
23.703 6.547 22.5 6.023 QT
21.297 5.5 20.547 4.508 QT
19.797 3.516 19.797 2.203 QT
cp
21.156 2.203 M
21.156 3.187 21.695 4.008 QT
22.234 4.828 23.133 5.289 QT
24.031 5.75 25 5.75 QT
26.453 5.75 27.641 4.906 QT
28.828 4.062 28.828 2.656 QT
28.828 2.172 28.633 1.703 QT
28.438 1.234 28.102 0.851 QT
27.766 0.469 27.359 0.219 QT
24 -1.953 L
23.219 -1.531 22.563 -0.899 QT
21.906 -0.266 21.531 0.531 QT
21.156 1.328 21.156 2.203 QT
cp
22.875 -5.422 M
25.906 -3.469 L
26.953 -4.078 27.625 -4.945 QT
28.297 -5.813 28.297 -6.906 QT
28.297 -7.75 27.828 -8.453 QT
27.359 -9.156 26.602 -9.547 QT
25.844 -9.938 24.969 -9.938 QT
24.219 -9.938 23.453 -9.641 QT
22.688 -9.344 22.188 -8.766 QT
21.688 -8.188 21.688 -7.406 QT
21.688 -6.234 22.875 -5.422 QT
cp
f
GR
GS
0.494 0.184 0.557 RC
1 LJ
1.2 LW
N
997.012 534.046 M
1027.1 534.046 L
S
GR
GS
[1 0 0 1 1012.05603 534.04559] CT
0.494 0.184 0.557 RC
10.0 ML
1.2 LW
N
-3 -3 M
-3 3 L
3 3 L
3 -3 L
cp
S
GR
GS
[1 0 0 1 1030.10913 564.62732] CT
N
8.797 6.281 M
2.906 -9.406 L
2.688 -9.938 2.063 -10.07 QT
1.438 -10.203 0.469 -10.203 QT
0.469 -11.078 L
7.344 -11.078 L
7.344 -10.203 L
5.281 -10.203 5.281 -9.547 QT
5.281 -9.516 5.289 -9.484 QT
5.297 -9.453 5.297 -9.406 QT
10.094 3.344 L
14.625 -8.719 L
14.672 -8.813 14.672 -9.031 QT
14.672 -9.641 14.109 -9.922 QT
13.547 -10.203 12.859 -10.203 QT
12.859 -11.078 L
18.25 -11.078 L
18.25 -10.203 L
17.313 -10.203 16.594 -9.852 QT
15.875 -9.5 15.578 -8.719 QT
9.922 6.281 L
9.844 6.547 9.516 6.547 QT
9.203 6.547 L
8.875 6.547 8.797 6.281 QT
cp
f
GR
GS
[1 0 0 1 1030.10913 564.62732] CT
N
/f1975149005{19.797 2.203 M
19.797 0.703 20.789 -0.453 QT
21.781 -1.609 23.328 -2.375 QT
22.406 -2.969 L
21.547 -3.531 21.008 -4.469 QT
20.469 -5.406 20.469 -6.422 QT
20.469 -7.625 21.102 -8.586 QT
21.734 -9.547 22.773 -10.102 QT
23.813 -10.656 25 -10.656 QT
26.109 -10.656 27.141 -10.203 QT
28.172 -9.75 28.836 -8.906 QT
29.5 -8.063 29.5 -6.906 QT
29.5 -6.063 29.109 -5.344 QT
28.719 -4.625 28.023 -4.047 QT
27.328 -3.469 26.547 -3.063 QT
27.984 -2.156 L
28.969 -1.5 29.57 -0.453 QT
30.172 0.594 30.172 1.75 QT
30.172 3.109 29.445 4.219 QT
28.719 5.328 27.523 5.937 QT
26.328 6.547 25 6.547 QT
23.703 6.547 22.5 6.023 QT
21.297 5.5 20.547 4.508 QT
19.797 3.516 19.797 2.203 QT
cp
21.156 2.203 M
21.156 3.187 21.695 4.008 QT
22.234 4.828 23.133 5.289 QT
24.031 5.75 25 5.75 QT
26.453 5.75 27.641 4.906 QT
28.828 4.062 28.828 2.656 QT
28.828 2.172 28.633 1.703 QT
28.438 1.234 28.102 0.851 QT
27.766 0.469 27.359 0.219 QT
24 -1.953 L
23.219 -1.531 22.563 -0.899 QT
21.906 -0.266 21.531 0.531 QT
21.156 1.328 21.156 2.203 QT
cp
22.875 -5.422 M
25.906 -3.469 L
26.953 -4.078 27.625 -4.945 QT
28.297 -5.813 28.297 -6.906 QT
28.297 -7.75 27.828 -8.453 QT
27.359 -9.156 26.602 -9.547 QT
25.844 -9.938 24.969 -9.938 QT
24.219 -9.938 23.453 -9.641 QT
22.688 -9.344 22.188 -8.766 QT
21.688 -8.188 21.688 -7.406 QT
21.688 -6.234 22.875 -5.422 QT
cp}def
f1975149005
f
GR
GS
0.494 0.184 0.557 RC
1 LJ
1.2 LW
N
997.012 564.627 M
1027.1 564.627 L
S
GR
GS
[1 0 0 1 1012.05603 564.62732] CT
0.494 0.184 0.557 RC
N
f227889816
f
GR
GS
[1 0 0 1 1012.05603 564.62732] CT
0.494 0.184 0.557 RC
10.0 ML
1.2 LW
N
-3 -3 M
-3 3 L
3 3 L
3 -3 L
cp
S
GR
GS
[1 0 0 1 1030.10913 595.20911] CT
N
/f-1847544493{0.766 6 M
0.766 5.125 L
3.344 5.125 3.344 4.328 QT
3.344 -9.406 L
3.344 -10.203 0.766 -10.203 QT
0.766 -11.078 L
8.25 -11.078 L
8.25 -10.203 L
5.672 -10.203 5.672 -9.406 QT
5.672 -3.328 L
13.047 -3.328 L
13.047 -9.406 L
13.047 -10.203 10.469 -10.203 QT
10.469 -11.078 L
17.938 -11.078 L
17.938 -10.203 L
15.375 -10.203 15.375 -9.406 QT
15.375 4.328 L
15.375 5.125 17.938 5.125 QT
17.938 6 L
10.469 6 L
10.469 5.125 L
13.047 5.125 13.047 4.328 QT
13.047 -2.453 L
5.672 -2.453 L
5.672 4.328 L
5.672 5.125 8.25 5.125 QT
8.25 6 L
0.766 6 L
cp}def
f-1847544493
f
GR
GS
[1 0 0 1 1030.10913 595.20911] CT
N
/f-1273645737{21.063 6 M
21.063 5.125 L
24.188 5.125 24.188 4.328 QT
24.188 -8.797 L
22.906 -8.172 20.922 -8.172 QT
20.922 -9.047 L
23.984 -9.047 25.547 -10.656 QT
25.906 -10.656 L
25.984 -10.656 26.063 -10.586 QT
26.141 -10.516 26.141 -10.438 QT
26.141 4.328 L
26.141 5.125 29.266 5.125 QT
29.266 6 L
21.063 6 L
cp}def
f-1273645737
f
GR
GS
[1 0 0 1 1030.10913 595.20911] CT
N
/f-1170016623{37.5 6.547 M
35.953 6.547 34.914 5.726 QT
33.875 4.906 33.305 3.594 QT
32.734 2.281 32.516 0.836 QT
32.297 -0.609 32.297 -2.078 QT
32.297 -4.063 33.07 -6.047 QT
33.844 -8.031 35.336 -9.344 QT
36.828 -10.656 38.875 -10.656 QT
39.734 -10.656 40.477 -10.328 QT
41.219 -10 41.633 -9.375 QT
42.047 -8.75 42.047 -7.859 QT
42.047 -7.344 41.703 -6.992 QT
41.359 -6.641 40.844 -6.641 QT
40.359 -6.641 40.008 -7 QT
39.656 -7.359 39.656 -7.859 QT
39.656 -8.344 40.008 -8.695 QT
40.359 -9.047 40.844 -9.047 QT
40.984 -9.047 L
40.656 -9.5 40.078 -9.719 QT
39.5 -9.938 38.875 -9.938 QT
38.125 -9.938 37.484 -9.602 QT
36.844 -9.266 36.328 -8.703 QT
35.813 -8.141 35.469 -7.469 QT
35.125 -6.797 34.938 -5.93 QT
34.75 -5.063 34.703 -4.305 QT
34.656 -3.547 34.656 -2.406 QT
35.094 -3.422 35.899 -4.078 QT
36.703 -4.734 37.719 -4.734 QT
38.828 -4.734 39.742 -4.281 QT
40.656 -3.828 41.32 -3.031 QT
41.984 -2.234 42.328 -1.203 QT
42.672 -0.172 42.672 0.875 QT
42.672 2.344 42.024 3.664 QT
41.375 4.984 40.188 5.766 QT
39 6.547 37.5 6.547 QT
cp
37.5 5.75 M
38.469 5.75 39.055 5.312 QT
39.641 4.875 39.914 4.148 QT
40.188 3.422 40.25 2.687 QT
40.313 1.953 40.313 0.875 QT
40.313 -0.547 40.18 -1.547 QT
40.047 -2.547 39.453 -3.313 QT
38.859 -4.078 37.625 -4.078 QT
36.609 -4.078 35.953 -3.391 QT
35.297 -2.703 35 -1.656 QT
34.703 -0.609 34.703 0.344 QT
34.703 0.672 34.734 0.844 QT
34.734 0.891 34.727 0.914 QT
34.719 0.937 34.703 0.969 QT
34.703 2.047 34.922 3.141 QT
35.141 4.234 35.766 4.992 QT
36.391 5.75 37.5 5.75 QT
cp}def
f-1170016623
f
GR
GS
0 0.447 0.741 RC
1 LJ
1.2 LW
N
997.012 595.209 M
1027.1 595.209 L
S
GR
GS
[1 0 0 1 1012.05603 595.20911] CT
0 0.447 0.741 RC
10.0 ML
1.2 LW
N
-3 -3 M
-3 3 L
3 3 L
3 -3 L
cp
S
GR
GS
[1 0 0 1 1030.10913 625.79089] CT
N
/f1075229876{8.797 6.281 M
2.906 -9.406 L
2.688 -9.938 2.063 -10.07 QT
1.438 -10.203 0.469 -10.203 QT
0.469 -11.078 L
7.344 -11.078 L
7.344 -10.203 L
5.281 -10.203 5.281 -9.547 QT
5.281 -9.516 5.289 -9.484 QT
5.297 -9.453 5.297 -9.406 QT
10.094 3.344 L
14.625 -8.719 L
14.672 -8.813 14.672 -9.031 QT
14.672 -9.641 14.109 -9.922 QT
13.547 -10.203 12.859 -10.203 QT
12.859 -11.078 L
18.25 -11.078 L
18.25 -10.203 L
17.313 -10.203 16.594 -9.852 QT
15.875 -9.5 15.578 -8.719 QT
9.922 6.281 L
9.844 6.547 9.516 6.547 QT
9.203 6.547 L
8.875 6.547 8.797 6.281 QT
cp}def
f1075229876
f
GR
GS
[1 0 0 1 1030.10913 625.79089] CT
N
f-1273645737
f
GR
GS
[1 0 0 1 1030.10913 625.79089] CT
N
f-1170016623
f
GR
GS
0 0.447 0.741 RC
1 LJ
1.2 LW
N
997.012 625.791 M
1027.1 625.791 L
S
GR
GS
[1 0 0 1 1012.05603 625.79089] CT
0 0.447 0.741 RC
N
f227889816
f
GR
GS
[1 0 0 1 1012.05603 625.79089] CT
0 0.447 0.741 RC
10.0 ML
1.2 LW
N
-3 -3 M
-3 3 L
3 3 L
3 -3 L
cp
S
GR
GS
[1 0 0 1 1030.10913 656.37268] CT
N
f-1847544493
f
GR
GS
[1 0 0 1 1030.10913 656.37268] CT
N
/f-1994289719{21.125 4.078 M
21.719 4.922 22.703 5.336 QT
23.688 5.75 24.828 5.75 QT
26.281 5.75 26.891 4.516 QT
27.5 3.281 27.5 1.703 QT
27.5 1 27.375 0.289 QT
27.25 -0.422 26.945 -1.031 QT
26.641 -1.641 26.109 -2.008 QT
25.578 -2.375 24.813 -2.375 QT
23.141 -2.375 L
22.922 -2.375 22.922 -2.609 QT
22.922 -2.828 L
22.922 -3.016 23.141 -3.016 QT
24.531 -3.125 L
25.406 -3.125 25.984 -3.789 QT
26.563 -4.453 26.828 -5.399 QT
27.094 -6.344 27.094 -7.203 QT
27.094 -8.391 26.539 -9.164 QT
25.984 -9.938 24.828 -9.938 QT
23.875 -9.938 23.008 -9.57 QT
22.141 -9.203 21.625 -8.484 QT
21.688 -8.484 21.719 -8.492 QT
21.75 -8.5 21.797 -8.5 QT
22.359 -8.5 22.742 -8.109 QT
23.125 -7.719 23.125 -7.172 QT
23.125 -6.641 22.742 -6.25 QT
22.359 -5.859 21.797 -5.859 QT
21.25 -5.859 20.859 -6.25 QT
20.469 -6.641 20.469 -7.172 QT
20.469 -8.25 21.117 -9.039 QT
21.766 -9.828 22.781 -10.242 QT
23.797 -10.656 24.828 -10.656 QT
25.594 -10.656 26.43 -10.43 QT
27.266 -10.203 27.953 -9.781 QT
28.641 -9.359 29.07 -8.695 QT
29.5 -8.031 29.5 -7.203 QT
29.5 -6.141 29.031 -5.25 QT
28.563 -4.359 27.742 -3.711 QT
26.922 -3.063 25.953 -2.75 QT
27.031 -2.547 28.008 -1.938 QT
28.984 -1.328 29.578 -0.375 QT
30.172 0.578 30.172 1.672 QT
30.172 3.062 29.414 4.18 QT
28.656 5.297 27.43 5.922 QT
26.203 6.547 24.828 6.547 QT
23.656 6.547 22.477 6.101 QT
21.297 5.656 20.547 4.766 QT
19.797 3.875 19.797 2.625 QT
19.797 2.016 20.211 1.594 QT
20.625 1.172 21.25 1.172 QT
21.656 1.172 21.992 1.367 QT
22.328 1.562 22.516 1.898 QT
22.703 2.234 22.703 2.625 QT
22.703 3.234 22.273 3.656 QT
21.844 4.078 21.25 4.078 QT
21.125 4.078 L
cp}def
f-1994289719
f
GR
GS
[1 0 0 1 1030.10913 656.37268] CT
N
/f-1915532867{32.5 6 M
32.5 5.328 L
32.5 5.266 32.547 5.187 QT
36.422 0.891 L
37.313 -0.063 37.859 -0.703 QT
38.406 -1.344 38.945 -2.188 QT
39.484 -3.031 39.789 -3.906 QT
40.094 -4.781 40.094 -5.75 QT
40.094 -6.781 39.719 -7.719 QT
39.344 -8.656 38.594 -9.211 QT
37.844 -9.766 36.781 -9.766 QT
35.688 -9.766 34.82 -9.117 QT
33.953 -8.469 33.609 -7.422 QT
33.703 -7.453 33.875 -7.453 QT
34.438 -7.453 34.836 -7.078 QT
35.234 -6.703 35.234 -6.094 QT
35.234 -5.531 34.836 -5.133 QT
34.438 -4.734 33.875 -4.734 QT
33.281 -4.734 32.891 -5.141 QT
32.5 -5.547 32.5 -6.094 QT
32.5 -7.031 32.852 -7.859 QT
33.203 -8.688 33.867 -9.328 QT
34.531 -9.969 35.367 -10.313 QT
36.203 -10.656 37.141 -10.656 QT
38.578 -10.656 39.813 -10.047 QT
41.047 -9.438 41.766 -8.336 QT
42.484 -7.234 42.484 -5.75 QT
42.484 -4.672 42.008 -3.695 QT
41.531 -2.719 40.789 -1.914 QT
40.047 -1.109 38.883 -0.102 QT
37.719 0.906 37.359 1.25 QT
34.516 3.969 L
36.922 3.969 L
38.703 3.969 39.891 3.937 QT
41.078 3.906 41.156 3.844 QT
41.438 3.531 41.75 1.547 QT
42.484 1.547 L
41.766 6 L
32.5 6 L
cp}def
f-1915532867
f
GR
GS
0.467 0.675 0.188 RC
1 LJ
1.2 LW
N
997.012 656.373 M
1027.1 656.373 L
S
GR
GS
[1 0 0 1 1012.05603 656.37268] CT
0.467 0.675 0.188 RC
10.0 ML
1.2 LW
N
-3 -3 M
-3 3 L
3 3 L
3 -3 L
cp
S
GR
GS
[1 0 0 1 1030.10913 686.95441] CT
N
f1075229876
f
GR
GS
[1 0 0 1 1030.10913 686.95441] CT
N
f-1994289719
f
GR
GS
[1 0 0 1 1030.10913 686.95441] CT
N
f-1915532867
f
GR
GS
0.467 0.675 0.188 RC
1 LJ
1.2 LW
N
997.012 686.954 M
1027.1 686.954 L
S
GR
GS
[1 0 0 1 1012.05603 686.95441] CT
0.467 0.675 0.188 RC
N
f227889816
f
GR
GS
[1 0 0 1 1012.05603 686.95441] CT
0.467 0.675 0.188 RC
10.0 ML
1.2 LW
N
-3 -3 M
-3 3 L
3 3 L
3 -3 L
cp
S
GR
GS
0.149 GC
10.0 ML
0.5 LW
N
993 704 M
993 517 L
1078 517 L
1078 704 L
cp
S
GR
%%Trailer
%%Pages: 1
%%EOF
