%!PS-Adobe-3.0 EPSF-3.0
%%Creator: (MATLAB, The Mathworks, Inc. Version 9.5.0.944444 \(R2018b\). Operating System: Mac OS X)
%%Title: ./gpulib.eps
%%CreationDate: 2019-01-25T21:02:30
%%Pages: (atend)
%%BoundingBox:   101    11  1105   749
%%LanguageLevel: 3
%%EndComments
%%BeginProlog
%%BeginResource: procset (Apache XML Graphics Std ProcSet) 1.2 0
%%Version: 1.2 0
%%Copyright: (Copyright 2001-2003,2010 The Apache Software Foundation. License terms: http://www.apache.org/licenses/LICENSE-2.0)
/bd{bind def}bind def
/ld{load def}bd
/GR/grestore ld
/GS/gsave ld
/RM/rmoveto ld
/C/curveto ld
/t/show ld
/L/lineto ld
/ML/setmiterlimit ld
/CT/concat ld
/f/fill ld
/N/newpath ld
/S/stroke ld
/CC/setcmykcolor ld
/A/ashow ld
/cp/closepath ld
/RC/setrgbcolor ld
/LJ/setlinejoin ld
/GC/setgray ld
/LW/setlinewidth ld
/M/moveto ld
/re {4 2 roll M
1 index 0 rlineto
0 exch rlineto
neg 0 rlineto
cp } bd
/_ctm matrix def
/_tm matrix def
/BT { _ctm currentmatrix pop matrix _tm copy pop 0 0 moveto } bd
/ET { _ctm setmatrix } bd
/iTm { _ctm setmatrix _tm concat } bd
/Tm { _tm astore pop iTm 0 0 moveto } bd
/ux 0.0 def
/uy 0.0 def
/F {
  /Tp exch def
  /Tf exch def
  Tf findfont Tp scalefont setfont
  /cf Tf def  /cs Tp def
} bd
/ULS {currentpoint /uy exch def /ux exch def} bd
/ULE {
  /Tcx currentpoint pop def
  gsave
  newpath
  cf findfont cs scalefont dup
  /FontMatrix get 0 get /Ts exch def /FontInfo get dup
  /UnderlinePosition get Ts mul /To exch def
  /UnderlineThickness get Ts mul /Tt exch def
  ux uy To add moveto  Tcx uy To add lineto
  Tt setlinewidth stroke
  grestore
} bd
/OLE {
  /Tcx currentpoint pop def
  gsave
  newpath
  cf findfont cs scalefont dup
  /FontMatrix get 0 get /Ts exch def /FontInfo get dup
  /UnderlinePosition get Ts mul /To exch def
  /UnderlineThickness get Ts mul /Tt exch def
  ux uy To add cs add moveto Tcx uy To add cs add lineto
  Tt setlinewidth stroke
  grestore
} bd
/SOE {
  /Tcx currentpoint pop def
  gsave
  newpath
  cf findfont cs scalefont dup
  /FontMatrix get 0 get /Ts exch def /FontInfo get dup
  /UnderlinePosition get Ts mul /To exch def
  /UnderlineThickness get Ts mul /Tt exch def
  ux uy To add cs 10 mul 26 idiv add moveto Tcx uy To add cs 10 mul 26 idiv add lineto
  Tt setlinewidth stroke
  grestore
} bd
/QT {
/Y22 exch store
/X22 exch store
/Y21 exch store
/X21 exch store
currentpoint
/Y21 load 2 mul add 3 div exch
/X21 load 2 mul add 3 div exch
/X21 load 2 mul /X22 load add 3 div
/Y21 load 2 mul /Y22 load add 3 div
/X22 load /Y22 load curveto
} bd
/SSPD {
dup length /d exch dict def
{
/v exch def
/k exch def
currentpagedevice k known {
/cpdv currentpagedevice k get def
v cpdv ne {
/upd false def
/nullv v type /nulltype eq def
/nullcpdv cpdv type /nulltype eq def
nullv nullcpdv or
{
/upd true def
} {
/sametype v type cpdv type eq def
sametype {
v type /arraytype eq {
/vlen v length def
/cpdvlen cpdv length def
vlen cpdvlen eq {
0 1 vlen 1 sub {
/i exch def
/obj v i get def
/cpdobj cpdv i get def
obj cpdobj ne {
/upd true def
exit
} if
} for
} {
/upd true def
} ifelse
} {
v type /dicttype eq {
v {
/dv exch def
/dk exch def
/cpddv cpdv dk get def
dv cpddv ne {
/upd true def
exit
} if
} forall
} {
/upd true def
} ifelse
} ifelse
} if
} ifelse
upd true eq {
d k v put
} if
} if
} if
} forall
d length 0 gt {
d setpagedevice
} if
} bd
/RE { % /NewFontName [NewEncodingArray] /FontName RE -
  findfont dup length dict begin
  {
    1 index /FID ne
    {def} {pop pop} ifelse
  } forall
  /Encoding exch def
  /FontName 1 index def
  currentdict definefont pop
  end
} bind def
%%EndResource
%%BeginResource: procset (Apache XML Graphics EPS ProcSet) 1.0 0
%%Version: 1.0 0
%%Copyright: (Copyright 2002-2003 The Apache Software Foundation. License terms: http://www.apache.org/licenses/LICENSE-2.0)
/BeginEPSF { %def
/b4_Inc_state save def         % Save state for cleanup
/dict_count countdictstack def % Count objects on dict stack
/op_count count 1 sub def      % Count objects on operand stack
userdict begin                 % Push userdict on dict stack
/showpage { } def              % Redefine showpage, { } = null proc
0 setgray 0 setlinecap         % Prepare graphics state
1 setlinewidth 0 setlinejoin
10 setmiterlimit [ ] 0 setdash newpath
/languagelevel where           % If level not equal to 1 then
{pop languagelevel             % set strokeadjust and
1 ne                           % overprint to their defaults.
{false setstrokeadjust false setoverprint
} if
} if
} bd
/EndEPSF { %def
count op_count sub {pop} repeat            % Clean up stacks
countdictstack dict_count sub {end} repeat
b4_Inc_state restore
} bd
%%EndResource
%FOPBeginFontDict
%%IncludeResource: font Courier-Oblique
%%IncludeResource: font Courier-BoldOblique
%%IncludeResource: font Courier-Bold
%%IncludeResource: font ZapfDingbats
%%IncludeResource: font Symbol
%%IncludeResource: font Helvetica
%%IncludeResource: font Helvetica-Oblique
%%IncludeResource: font Helvetica-Bold
%%IncludeResource: font Helvetica-BoldOblique
%%IncludeResource: font Times-Roman
%%IncludeResource: font Times-Italic
%%IncludeResource: font Times-Bold
%%IncludeResource: font Times-BoldItalic
%%IncludeResource: font Courier
%FOPEndFontDict
%%BeginResource: encoding WinAnsiEncoding
/WinAnsiEncoding [
/.notdef /.notdef /.notdef /.notdef /.notdef
/.notdef /.notdef /.notdef /.notdef /.notdef
/.notdef /.notdef /.notdef /.notdef /.notdef
/.notdef /.notdef /.notdef /.notdef /.notdef
/.notdef /.notdef /.notdef /.notdef /.notdef
/.notdef /.notdef /.notdef /.notdef /.notdef
/.notdef /.notdef /space /exclam /quotedbl
/numbersign /dollar /percent /ampersand /quotesingle
/parenleft /parenright /asterisk /plus /comma
/hyphen /period /slash /zero /one
/two /three /four /five /six
/seven /eight /nine /colon /semicolon
/less /equal /greater /question /at
/A /B /C /D /E
/F /G /H /I /J
/K /L /M /N /O
/P /Q /R /S /T
/U /V /W /X /Y
/Z /bracketleft /backslash /bracketright /asciicircum
/underscore /quoteleft /a /b /c
/d /e /f /g /h
/i /j /k /l /m
/n /o /p /q /r
/s /t /u /v /w
/x /y /z /braceleft /bar
/braceright /asciitilde /bullet /Euro /bullet
/quotesinglbase /florin /quotedblbase /ellipsis /dagger
/daggerdbl /circumflex /perthousand /Scaron /guilsinglleft
/OE /bullet /Zcaron /bullet /bullet
/quoteleft /quoteright /quotedblleft /quotedblright /bullet
/endash /emdash /asciitilde /trademark /scaron
/guilsinglright /oe /bullet /zcaron /Ydieresis
/space /exclamdown /cent /sterling /currency
/yen /brokenbar /section /dieresis /copyright
/ordfeminine /guillemotleft /logicalnot /sfthyphen /registered
/macron /degree /plusminus /twosuperior /threesuperior
/acute /mu /paragraph /middot /cedilla
/onesuperior /ordmasculine /guillemotright /onequarter /onehalf
/threequarters /questiondown /Agrave /Aacute /Acircumflex
/Atilde /Adieresis /Aring /AE /Ccedilla
/Egrave /Eacute /Ecircumflex /Edieresis /Igrave
/Iacute /Icircumflex /Idieresis /Eth /Ntilde
/Ograve /Oacute /Ocircumflex /Otilde /Odieresis
/multiply /Oslash /Ugrave /Uacute /Ucircumflex
/Udieresis /Yacute /Thorn /germandbls /agrave
/aacute /acircumflex /atilde /adieresis /aring
/ae /ccedilla /egrave /eacute /ecircumflex
/edieresis /igrave /iacute /icircumflex /idieresis
/eth /ntilde /ograve /oacute /ocircumflex
/otilde /odieresis /divide /oslash /ugrave
/uacute /ucircumflex /udieresis /yacute /thorn
/ydieresis
] def
%%EndResource
%FOPBeginFontReencode
/Courier-Oblique findfont
dup length dict begin
  {1 index /FID ne {def} {pop pop} ifelse} forall
  /Encoding WinAnsiEncoding def
  currentdict
end
/Courier-Oblique exch definefont pop
/Courier-BoldOblique findfont
dup length dict begin
  {1 index /FID ne {def} {pop pop} ifelse} forall
  /Encoding WinAnsiEncoding def
  currentdict
end
/Courier-BoldOblique exch definefont pop
/Courier-Bold findfont
dup length dict begin
  {1 index /FID ne {def} {pop pop} ifelse} forall
  /Encoding WinAnsiEncoding def
  currentdict
end
/Courier-Bold exch definefont pop
/Helvetica findfont
dup length dict begin
  {1 index /FID ne {def} {pop pop} ifelse} forall
  /Encoding WinAnsiEncoding def
  currentdict
end
/Helvetica exch definefont pop
/Helvetica-Oblique findfont
dup length dict begin
  {1 index /FID ne {def} {pop pop} ifelse} forall
  /Encoding WinAnsiEncoding def
  currentdict
end
/Helvetica-Oblique exch definefont pop
/Helvetica-Bold findfont
dup length dict begin
  {1 index /FID ne {def} {pop pop} ifelse} forall
  /Encoding WinAnsiEncoding def
  currentdict
end
/Helvetica-Bold exch definefont pop
/Helvetica-BoldOblique findfont
dup length dict begin
  {1 index /FID ne {def} {pop pop} ifelse} forall
  /Encoding WinAnsiEncoding def
  currentdict
end
/Helvetica-BoldOblique exch definefont pop
/Times-Roman findfont
dup length dict begin
  {1 index /FID ne {def} {pop pop} ifelse} forall
  /Encoding WinAnsiEncoding def
  currentdict
end
/Times-Roman exch definefont pop
/Times-Italic findfont
dup length dict begin
  {1 index /FID ne {def} {pop pop} ifelse} forall
  /Encoding WinAnsiEncoding def
  currentdict
end
/Times-Italic exch definefont pop
/Times-Bold findfont
dup length dict begin
  {1 index /FID ne {def} {pop pop} ifelse} forall
  /Encoding WinAnsiEncoding def
  currentdict
end
/Times-Bold exch definefont pop
/Times-BoldItalic findfont
dup length dict begin
  {1 index /FID ne {def} {pop pop} ifelse} forall
  /Encoding WinAnsiEncoding def
  currentdict
end
/Times-BoldItalic exch definefont pop
/Courier findfont
dup length dict begin
  {1 index /FID ne {def} {pop pop} ifelse} forall
  /Encoding WinAnsiEncoding def
  currentdict
end
/Courier exch definefont pop
%FOPEndFontReencode
%%EndProlog
%%Page: 1 1
%%PageBoundingBox: 0 0 1200 800
%%BeginPageSetup
[1 0 0 -1 0 800] CT
%%EndPageSetup
GS
1 GC
N
0 0 1200 800 re
f
GR
GS
1 GC
N
0 0 1200 800 re
f
GR
GS
1 GC
N
156 712 M
1086 712 L
1086 60 L
156 60 L
cp
f
GR
GS
0.775 GC
[1 3] 0 setdash
2 LJ
0.5 LW
N
249.319 712 M
249.319 60 L
S
GR
GS
0.775 GC
[1 3] 0 setdash
2 LJ
0.5 LW
N
303.908 712 M
303.908 60 L
S
GR
GS
0.775 GC
[1 3] 0 setdash
2 LJ
0.5 LW
N
342.639 712 M
342.639 60 L
S
GR
GS
0.775 GC
[1 3] 0 setdash
2 LJ
0.5 LW
N
372.681 712 M
372.681 60 L
S
GR
GS
0.775 GC
[1 3] 0 setdash
2 LJ
0.5 LW
N
397.227 712 M
397.227 60 L
S
GR
GS
0.775 GC
[1 3] 0 setdash
2 LJ
0.5 LW
N
417.98 712 M
417.98 60 L
S
GR
GS
0.775 GC
[1 3] 0 setdash
2 LJ
0.5 LW
N
435.958 712 M
435.958 60 L
S
GR
GS
0.775 GC
[1 3] 0 setdash
2 LJ
0.5 LW
N
451.815 712 M
451.815 60 L
S
GR
GS
0.775 GC
[1 3] 0 setdash
2 LJ
0.5 LW
N
559.319 712 M
559.319 60 L
S
GR
GS
0.775 GC
[1 3] 0 setdash
2 LJ
0.5 LW
N
613.908 712 M
613.908 60 L
S
GR
GS
0.775 GC
[1 3] 0 setdash
2 LJ
0.5 LW
N
652.639 712 M
652.639 60 L
S
GR
GS
0.775 GC
[1 3] 0 setdash
2 LJ
0.5 LW
N
682.681 712 M
682.681 60 L
S
GR
GS
0.775 GC
[1 3] 0 setdash
2 LJ
0.5 LW
N
707.227 712 M
707.227 60 L
S
GR
GS
0.775 GC
[1 3] 0 setdash
2 LJ
0.5 LW
N
727.98 712 M
727.98 60 L
S
GR
GS
0.775 GC
[1 3] 0 setdash
2 LJ
0.5 LW
N
745.958 712 M
745.958 60 L
S
GR
GS
0.775 GC
[1 3] 0 setdash
2 LJ
0.5 LW
N
761.815 712 M
761.815 60 L
S
GR
GS
0.775 GC
[1 3] 0 setdash
2 LJ
0.5 LW
N
869.319 712 M
869.319 60 L
S
GR
GS
0.775 GC
[1 3] 0 setdash
2 LJ
0.5 LW
N
923.908 712 M
923.908 60 L
S
GR
GS
0.775 GC
[1 3] 0 setdash
2 LJ
0.5 LW
N
962.639 712 M
962.639 60 L
S
GR
GS
0.775 GC
[1 3] 0 setdash
2 LJ
0.5 LW
N
992.681 712 M
992.681 60 L
S
GR
GS
0.775 GC
[1 3] 0 setdash
2 LJ
0.5 LW
N
1017.227 712 M
1017.227 60 L
S
GR
GS
0.775 GC
[1 3] 0 setdash
2 LJ
0.5 LW
N
1037.98 712 M
1037.98 60 L
S
GR
GS
0.775 GC
[1 3] 0 setdash
2 LJ
0.5 LW
N
1055.958 712 M
1055.958 60 L
S
GR
GS
0.775 GC
[1 3] 0 setdash
2 LJ
0.5 LW
N
1071.815 712 M
1071.815 60 L
S
GR
GS
0.873 GC
1 LJ
0.5 LW
N
156 712 M
156 60 L
S
GR
GS
0.873 GC
1 LJ
0.5 LW
N
466 712 M
466 60 L
S
GR
GS
0.873 GC
1 LJ
0.5 LW
N
776 712 M
776 60 L
S
GR
GS
0.873 GC
1 LJ
0.5 LW
N
1086 712 M
1086 60 L
S
GR
GS
0.873 GC
1 LJ
0.5 LW
N
1086 712 M
156 712 L
S
GR
GS
0.873 GC
1 LJ
0.5 LW
N
1086 603.333 M
156 603.333 L
S
GR
GS
0.873 GC
1 LJ
0.5 LW
N
1086 494.667 M
156 494.667 L
S
GR
GS
0.873 GC
1 LJ
0.5 LW
N
1086 386 M
156 386 L
S
GR
GS
0.873 GC
1 LJ
0.5 LW
N
1086 277.333 M
156 277.333 L
S
GR
GS
0.873 GC
1 LJ
0.5 LW
N
1086 168.667 M
156 168.667 L
S
GR
GS
0.873 GC
1 LJ
0.5 LW
N
1086 60 M
156 60 L
S
GR
GS
0.149 GC
2 setlinecap
1 LJ
0.5 LW
N
156 712 M
1086 712 L
S
GR
GS
0.149 GC
2 setlinecap
1 LJ
0.5 LW
N
156 60 M
1086 60 L
S
GR
GS
0.149 GC
2 setlinecap
1 LJ
0.5 LW
N
156 712 M
156 702.7 L
S
GR
GS
0.149 GC
2 setlinecap
1 LJ
0.5 LW
N
466 712 M
466 702.7 L
S
GR
GS
0.149 GC
2 setlinecap
1 LJ
0.5 LW
N
776 712 M
776 702.7 L
S
GR
GS
0.149 GC
2 setlinecap
1 LJ
0.5 LW
N
1086 712 M
1086 702.7 L
S
GR
GS
0.149 GC
2 setlinecap
1 LJ
0.5 LW
N
156 60 M
156 69.3 L
S
GR
GS
0.149 GC
2 setlinecap
1 LJ
0.5 LW
N
466 60 M
466 69.3 L
S
GR
GS
0.149 GC
2 setlinecap
1 LJ
0.5 LW
N
776 60 M
776 69.3 L
S
GR
GS
0.149 GC
2 setlinecap
1 LJ
0.5 LW
N
1086 60 M
1086 69.3 L
S
GR
GS
0.149 GC
2 setlinecap
1 LJ
0.5 LW
N
156 712 M
156 707.35 L
S
GR
GS
0.149 GC
2 setlinecap
1 LJ
0.5 LW
N
249.319 712 M
249.319 707.35 L
S
GR
GS
0.149 GC
2 setlinecap
1 LJ
0.5 LW
N
303.908 712 M
303.908 707.35 L
S
GR
GS
0.149 GC
2 setlinecap
1 LJ
0.5 LW
N
342.639 712 M
342.639 707.35 L
S
GR
GS
0.149 GC
2 setlinecap
1 LJ
0.5 LW
N
372.681 712 M
372.681 707.35 L
S
GR
GS
0.149 GC
2 setlinecap
1 LJ
0.5 LW
N
397.227 712 M
397.227 707.35 L
S
GR
GS
0.149 GC
2 setlinecap
1 LJ
0.5 LW
N
417.98 712 M
417.98 707.35 L
S
GR
GS
0.149 GC
2 setlinecap
1 LJ
0.5 LW
N
435.958 712 M
435.958 707.35 L
S
GR
GS
0.149 GC
2 setlinecap
1 LJ
0.5 LW
N
451.815 712 M
451.815 707.35 L
S
GR
GS
0.149 GC
2 setlinecap
1 LJ
0.5 LW
N
466 712 M
466 707.35 L
S
GR
GS
0.149 GC
2 setlinecap
1 LJ
0.5 LW
N
559.319 712 M
559.319 707.35 L
S
GR
GS
0.149 GC
2 setlinecap
1 LJ
0.5 LW
N
613.908 712 M
613.908 707.35 L
S
GR
GS
0.149 GC
2 setlinecap
1 LJ
0.5 LW
N
652.639 712 M
652.639 707.35 L
S
GR
GS
0.149 GC
2 setlinecap
1 LJ
0.5 LW
N
682.681 712 M
682.681 707.35 L
S
GR
GS
0.149 GC
2 setlinecap
1 LJ
0.5 LW
N
707.227 712 M
707.227 707.35 L
S
GR
GS
0.149 GC
2 setlinecap
1 LJ
0.5 LW
N
727.98 712 M
727.98 707.35 L
S
GR
GS
0.149 GC
2 setlinecap
1 LJ
0.5 LW
N
745.958 712 M
745.958 707.35 L
S
GR
GS
0.149 GC
2 setlinecap
1 LJ
0.5 LW
N
761.815 712 M
761.815 707.35 L
S
GR
GS
0.149 GC
2 setlinecap
1 LJ
0.5 LW
N
776 712 M
776 707.35 L
S
GR
GS
0.149 GC
2 setlinecap
1 LJ
0.5 LW
N
869.319 712 M
869.319 707.35 L
S
GR
GS
0.149 GC
2 setlinecap
1 LJ
0.5 LW
N
923.908 712 M
923.908 707.35 L
S
GR
GS
0.149 GC
2 setlinecap
1 LJ
0.5 LW
N
962.639 712 M
962.639 707.35 L
S
GR
GS
0.149 GC
2 setlinecap
1 LJ
0.5 LW
N
992.681 712 M
992.681 707.35 L
S
GR
GS
0.149 GC
2 setlinecap
1 LJ
0.5 LW
N
1017.227 712 M
1017.227 707.35 L
S
GR
GS
0.149 GC
2 setlinecap
1 LJ
0.5 LW
N
1037.98 712 M
1037.98 707.35 L
S
GR
GS
0.149 GC
2 setlinecap
1 LJ
0.5 LW
N
1055.958 712 M
1055.958 707.35 L
S
GR
GS
0.149 GC
2 setlinecap
1 LJ
0.5 LW
N
1071.815 712 M
1071.815 707.35 L
S
GR
GS
0.149 GC
2 setlinecap
1 LJ
0.5 LW
N
1086 712 M
1086 707.35 L
S
GR
GS
0.149 GC
2 setlinecap
1 LJ
0.5 LW
N
156 60 M
156 64.65 L
S
GR
GS
0.149 GC
2 setlinecap
1 LJ
0.5 LW
N
249.319 60 M
249.319 64.65 L
S
GR
GS
0.149 GC
2 setlinecap
1 LJ
0.5 LW
N
303.908 60 M
303.908 64.65 L
S
GR
GS
0.149 GC
2 setlinecap
1 LJ
0.5 LW
N
342.639 60 M
342.639 64.65 L
S
GR
GS
0.149 GC
2 setlinecap
1 LJ
0.5 LW
N
372.681 60 M
372.681 64.65 L
S
GR
GS
0.149 GC
2 setlinecap
1 LJ
0.5 LW
N
397.227 60 M
397.227 64.65 L
S
GR
GS
0.149 GC
2 setlinecap
1 LJ
0.5 LW
N
417.98 60 M
417.98 64.65 L
S
GR
GS
0.149 GC
2 setlinecap
1 LJ
0.5 LW
N
435.958 60 M
435.958 64.65 L
S
GR
GS
0.149 GC
2 setlinecap
1 LJ
0.5 LW
N
451.815 60 M
451.815 64.65 L
S
GR
GS
0.149 GC
2 setlinecap
1 LJ
0.5 LW
N
466 60 M
466 64.65 L
S
GR
GS
0.149 GC
2 setlinecap
1 LJ
0.5 LW
N
559.319 60 M
559.319 64.65 L
S
GR
GS
0.149 GC
2 setlinecap
1 LJ
0.5 LW
N
613.908 60 M
613.908 64.65 L
S
GR
GS
0.149 GC
2 setlinecap
1 LJ
0.5 LW
N
652.639 60 M
652.639 64.65 L
S
GR
GS
0.149 GC
2 setlinecap
1 LJ
0.5 LW
N
682.681 60 M
682.681 64.65 L
S
GR
GS
0.149 GC
2 setlinecap
1 LJ
0.5 LW
N
707.227 60 M
707.227 64.65 L
S
GR
GS
0.149 GC
2 setlinecap
1 LJ
0.5 LW
N
727.98 60 M
727.98 64.65 L
S
GR
GS
0.149 GC
2 setlinecap
1 LJ
0.5 LW
N
745.958 60 M
745.958 64.65 L
S
GR
GS
0.149 GC
2 setlinecap
1 LJ
0.5 LW
N
761.815 60 M
761.815 64.65 L
S
GR
GS
0.149 GC
2 setlinecap
1 LJ
0.5 LW
N
776 60 M
776 64.65 L
S
GR
GS
0.149 GC
2 setlinecap
1 LJ
0.5 LW
N
869.319 60 M
869.319 64.65 L
S
GR
GS
0.149 GC
2 setlinecap
1 LJ
0.5 LW
N
923.908 60 M
923.908 64.65 L
S
GR
GS
0.149 GC
2 setlinecap
1 LJ
0.5 LW
N
962.639 60 M
962.639 64.65 L
S
GR
GS
0.149 GC
2 setlinecap
1 LJ
0.5 LW
N
992.681 60 M
992.681 64.65 L
S
GR
GS
0.149 GC
2 setlinecap
1 LJ
0.5 LW
N
1017.227 60 M
1017.227 64.65 L
S
GR
GS
0.149 GC
2 setlinecap
1 LJ
0.5 LW
N
1037.98 60 M
1037.98 64.65 L
S
GR
GS
0.149 GC
2 setlinecap
1 LJ
0.5 LW
N
1055.958 60 M
1055.958 64.65 L
S
GR
GS
0.149 GC
2 setlinecap
1 LJ
0.5 LW
N
1071.815 60 M
1071.815 64.65 L
S
GR
GS
0.149 GC
2 setlinecap
1 LJ
0.5 LW
N
1086 60 M
1086 64.65 L
S
GR
GS
[1 0 0 1 136 751] CT
0.149 GC
/Helvetica 25 F
GS
[1 0 0 1 0 0] CT
0 0 moveto 
1 -1 scale
(10) t 
GR
GR
GS
[1 0 0 1 164 739] CT
0.149 GC
/Helvetica 20 F
GS
[1 0 0 1 0 0] CT
0 0 moveto 
1 -1 scale
(4) t 
GR
GR
GS
[1 0 0 1 446 751] CT
0.149 GC
/Helvetica 25 F
GS
[1 0 0 1 0 0] CT
0 0 moveto 
1 -1 scale
(10) t 
GR
GR
GS
[1 0 0 1 474 739] CT
0.149 GC
/Helvetica 20 F
GS
[1 0 0 1 0 0] CT
0 0 moveto 
1 -1 scale
(5) t 
GR
GR
GS
[1 0 0 1 756 751] CT
0.149 GC
/Helvetica 25 F
GS
[1 0 0 1 0 0] CT
0 0 moveto 
1 -1 scale
(10) t 
GR
GR
GS
[1 0 0 1 784 739] CT
0.149 GC
/Helvetica 20 F
GS
[1 0 0 1 0 0] CT
0 0 moveto 
1 -1 scale
(6) t 
GR
GR
GS
[1 0 0 1 1066 751] CT
0.149 GC
/Helvetica 25 F
GS
[1 0 0 1 0 0] CT
0 0 moveto 
1 -1 scale
(10) t 
GR
GR
GS
[1 0 0 1 1094 739] CT
0.149 GC
/Helvetica 20 F
GS
[1 0 0 1 0 0] CT
0 0 moveto 
1 -1 scale
(7) t 
GR
GR
GS
[1 0 0 1 621.00043 758] CT
0.149 GC
N
-139.266 23.1 M
-139.266 22.116 L
-136.375 22.116 -136.375 20.459 QT
-136.375 5.85 L
-136.375 4.959 -139.266 4.959 QT
-139.266 3.975 L
-133.969 3.975 L
-133.625 3.975 -133.516 4.287 QT
-127.422 20.131 L
-121.328 4.287 L
-121.219 3.975 -120.875 3.975 QT
-115.578 3.975 L
-115.578 4.959 L
-118.469 4.959 -118.469 5.85 QT
-118.469 21.225 L
-118.469 22.116 -115.578 22.116 QT
-115.578 23.1 L
-123.735 23.1 L
-123.735 22.116 L
-120.844 22.116 -120.844 21.225 QT
-120.844 4.928 L
-127.735 22.787 L
-127.86 23.1 -128.203 23.1 QT
-128.563 23.1 -128.688 22.787 QT
-135.485 5.147 L
-135.485 20.459 L
-135.485 22.116 -132.61 22.116 QT
-132.61 23.1 L
-139.266 23.1 L
cp
f
GR
GS
[1 0 0 1 621.00043 758] CT
0.149 GC
N
-108.073 23.412 M
-109.776 23.412 -111.206 22.514 QT
-112.636 21.616 -113.448 20.123 QT
-114.261 18.631 -114.261 16.959 QT
-114.261 15.319 -113.519 13.842 QT
-112.776 12.366 -111.44 11.459 QT
-110.104 10.553 -108.464 10.553 QT
-107.183 10.553 -106.229 10.983 QT
-105.276 11.412 -104.659 12.178 QT
-104.042 12.944 -103.729 13.983 QT
-103.417 15.022 -103.417 16.256 QT
-103.417 16.631 -103.714 16.631 QT
-111.808 16.631 L
-111.808 16.928 L
-111.808 19.256 -110.878 20.928 QT
-109.948 22.6 -107.823 22.6 QT
-106.964 22.6 -106.229 22.217 QT
-105.495 21.834 -104.956 21.147 QT
-104.417 20.459 -104.229 19.678 QT
-104.198 19.584 -104.12 19.506 QT
-104.042 19.428 -103.948 19.428 QT
-103.714 19.428 L
-103.417 19.428 -103.417 19.787 QT
-103.823 21.381 -105.136 22.397 QT
-106.448 23.412 -108.073 23.412 QT
cp
-111.792 15.928 M
-105.401 15.928 L
-105.401 14.881 -105.698 13.803 QT
-105.995 12.725 -106.675 12.006 QT
-107.354 11.287 -108.464 11.287 QT
-110.058 11.287 -110.925 12.772 QT
-111.792 14.256 -111.792 15.928 QT
cp
f
GR
GS
[1 0 0 1 621.00043 758] CT
0.149 GC
N
-101.992 23.1 M
-101.992 22.116 L
-101.023 22.116 -100.413 21.967 QT
-99.804 21.819 -99.804 21.225 QT
-99.804 13.584 L
-99.804 12.834 -100.023 12.498 QT
-100.242 12.162 -100.671 12.084 QT
-101.101 12.006 -101.992 12.006 QT
-101.992 11.022 L
-97.929 10.725 L
-97.929 13.459 L
-97.367 12.256 -96.265 11.491 QT
-95.163 10.725 -93.867 10.725 QT
-90.632 10.725 -90.07 13.35 QT
-89.523 12.178 -88.437 11.451 QT
-87.351 10.725 -86.07 10.725 QT
-84.804 10.725 -83.937 11.139 QT
-83.07 11.553 -82.632 12.389 QT
-82.195 13.225 -82.195 14.506 QT
-82.195 21.225 L
-82.195 21.819 -81.57 21.967 QT
-80.945 22.116 -80.007 22.116 QT
-80.007 23.1 L
-86.413 23.1 L
-86.413 22.116 L
-85.46 22.116 -84.843 21.967 QT
-84.226 21.819 -84.226 21.225 QT
-84.226 14.584 L
-84.226 13.178 -84.624 12.311 QT
-85.023 11.444 -86.242 11.444 QT
-87.867 11.444 -88.913 12.748 QT
-89.96 14.053 -89.96 15.709 QT
-89.96 21.225 L
-89.96 21.819 -89.351 21.967 QT
-88.742 22.116 -87.773 22.116 QT
-87.773 23.1 L
-94.195 23.1 L
-94.195 22.116 L
-93.242 22.116 -92.624 21.967 QT
-92.007 21.819 -92.007 21.225 QT
-92.007 14.584 L
-92.007 13.209 -92.406 12.326 QT
-92.804 11.444 -94.023 11.444 QT
-95.648 11.444 -96.695 12.748 QT
-97.742 14.053 -97.742 15.709 QT
-97.742 21.225 L
-97.742 21.819 -97.132 21.967 QT
-96.523 22.116 -95.57 22.116 QT
-95.57 23.1 L
-101.992 23.1 L
cp
f
GR
GS
[1 0 0 1 621.00043 758] CT
0.149 GC
N
-72.903 23.412 M
-74.59 23.412 -76.02 22.561 QT
-77.45 21.709 -78.286 20.272 QT
-79.122 18.834 -79.122 17.131 QT
-79.122 15.85 -78.661 14.662 QT
-78.2 13.475 -77.348 12.537 QT
-76.497 11.6 -75.364 11.076 QT
-74.231 10.553 -72.903 10.553 QT
-71.184 10.553 -69.77 11.459 QT
-68.356 12.366 -67.536 13.889 QT
-66.715 15.412 -66.715 17.131 QT
-66.715 18.819 -67.544 20.264 QT
-68.372 21.709 -69.801 22.561 QT
-71.231 23.412 -72.903 23.412 QT
cp
-72.903 22.6 M
-70.653 22.6 -69.903 20.967 QT
-69.153 19.334 -69.153 16.819 QT
-69.153 15.412 -69.301 14.491 QT
-69.45 13.569 -69.965 12.819 QT
-70.278 12.35 -70.762 12.006 QT
-71.247 11.662 -71.786 11.475 QT
-72.325 11.287 -72.903 11.287 QT
-73.778 11.287 -74.567 11.686 QT
-75.356 12.084 -75.872 12.819 QT
-76.387 13.616 -76.528 14.561 QT
-76.669 15.506 -76.669 16.819 QT
-76.669 18.397 -76.395 19.647 QT
-76.122 20.897 -75.301 21.748 QT
-74.481 22.6 -72.903 22.6 QT
cp
f
GR
GS
[1 0 0 1 621.00043 758] CT
0.149 GC
N
-65.434 23.1 M
-65.434 22.116 L
-64.465 22.116 -63.856 21.967 QT
-63.247 21.819 -63.247 21.225 QT
-63.247 13.584 L
-63.247 12.834 -63.465 12.498 QT
-63.684 12.162 -64.114 12.084 QT
-64.544 12.006 -65.434 12.006 QT
-65.434 11.022 L
-61.419 10.725 L
-61.419 13.459 L
-60.965 12.241 -60.137 11.483 QT
-59.309 10.725 -58.106 10.725 QT
-57.278 10.725 -56.622 11.217 QT
-55.965 11.709 -55.965 12.522 QT
-55.965 13.022 -56.325 13.397 QT
-56.684 13.772 -57.231 13.772 QT
-57.747 13.772 -58.114 13.405 QT
-58.481 13.037 -58.481 12.522 QT
-58.481 11.772 -57.95 11.444 QT
-58.106 11.444 L
-59.247 11.444 -59.965 12.264 QT
-60.684 13.084 -60.981 14.303 QT
-61.278 15.522 -61.278 16.631 QT
-61.278 21.225 L
-61.278 22.116 -58.559 22.116 QT
-58.559 23.1 L
-65.434 23.1 L
cp
f
GR
GS
[1 0 0 1 621.00043 758] CT
0.149 GC
N
-53.46 27.694 M
-52.913 28.116 -52.273 28.116 QT
-50.507 28.116 -49.398 25.459 QT
-48.429 23.1 L
-52.632 12.819 L
-52.898 12.303 -53.429 12.155 QT
-53.96 12.006 -54.851 12.006 QT
-54.851 11.022 L
-48.976 11.022 L
-48.976 12.006 L
-50.507 12.006 -50.507 12.678 QT
-50.507 12.787 -50.491 12.85 QT
-47.366 20.506 L
-44.57 13.616 L
-44.491 13.397 -44.491 13.131 QT
-44.491 12.787 -44.671 12.537 QT
-44.851 12.287 -45.148 12.147 QT
-45.445 12.006 -45.804 12.006 QT
-45.804 11.022 L
-41.163 11.022 L
-41.163 12.006 L
-42.023 12.006 -42.671 12.405 QT
-43.32 12.803 -43.679 13.584 QT
-48.523 25.459 L
-48.898 26.35 -49.413 27.108 QT
-49.929 27.866 -50.663 28.358 QT
-51.398 28.85 -52.273 28.85 QT
-53.304 28.85 -54.077 28.17 QT
-54.851 27.491 -54.851 26.491 QT
-54.851 25.975 -54.491 25.616 QT
-54.132 25.256 -53.616 25.256 QT
-53.257 25.256 -52.976 25.412 QT
-52.695 25.569 -52.538 25.842 QT
-52.382 26.116 -52.382 26.491 QT
-52.382 26.944 -52.687 27.295 QT
-52.991 27.647 -53.46 27.694 QT
cp
f
GR
GS
[1 0 0 1 621.00043 758] CT
0.149 GC
N
-30.842 23.1 M
-30.842 22.116 L
-27.951 22.116 -27.951 21.225 QT
-27.951 5.85 L
-27.951 4.959 -30.842 4.959 QT
-30.842 3.975 L
-15.405 3.975 L
-14.623 10.381 L
-15.436 10.381 L
-15.623 8.616 -15.944 7.6 QT
-16.264 6.584 -16.881 6.006 QT
-17.498 5.428 -18.53 5.194 QT
-19.561 4.959 -21.358 4.959 QT
-23.92 4.959 L
-24.42 4.959 -24.701 4.998 QT
-24.983 5.037 -25.162 5.233 QT
-25.342 5.428 -25.342 5.85 QT
-25.342 13.053 L
-23.358 13.053 L
-21.92 13.053 -21.256 12.795 QT
-20.592 12.537 -20.334 11.873 QT
-20.076 11.209 -20.076 9.772 QT
-19.28 9.772 L
-19.28 17.303 L
-20.076 17.303 L
-20.076 15.866 -20.334 15.194 QT
-20.592 14.522 -21.256 14.272 QT
-21.92 14.022 -23.358 14.022 QT
-25.342 14.022 L
-25.342 21.225 L
-25.342 22.116 -21.764 22.116 QT
-21.764 23.1 L
-30.842 23.1 L
cp
f
GR
GS
[1 0 0 1 621.00043 758] CT
0.149 GC
N
-9.042 23.412 M
-10.729 23.412 -12.159 22.561 QT
-13.589 21.709 -14.425 20.272 QT
-15.26 18.834 -15.26 17.131 QT
-15.26 15.85 -14.8 14.662 QT
-14.339 13.475 -13.487 12.537 QT
-12.635 11.6 -11.503 11.076 QT
-10.37 10.553 -9.042 10.553 QT
-7.323 10.553 -5.909 11.459 QT
-4.495 12.366 -3.675 13.889 QT
-2.854 15.412 -2.854 17.131 QT
-2.854 18.819 -3.682 20.264 QT
-4.51 21.709 -5.94 22.561 QT
-7.37 23.412 -9.042 23.412 QT
cp
-9.042 22.6 M
-6.792 22.6 -6.042 20.967 QT
-5.292 19.334 -5.292 16.819 QT
-5.292 15.412 -5.44 14.491 QT
-5.589 13.569 -6.104 12.819 QT
-6.417 12.35 -6.901 12.006 QT
-7.385 11.662 -7.925 11.475 QT
-8.464 11.287 -9.042 11.287 QT
-9.917 11.287 -10.706 11.686 QT
-11.495 12.084 -12.01 12.819 QT
-12.526 13.616 -12.667 14.561 QT
-12.807 15.506 -12.807 16.819 QT
-12.807 18.397 -12.534 19.647 QT
-12.26 20.897 -11.44 21.748 QT
-10.62 22.6 -9.042 22.6 QT
cp
f
GR
GS
[1 0 0 1 621.00043 758] CT
0.149 GC
N
5.472 23.412 M
3.785 23.412 2.355 22.561 QT
0.925 21.709 0.089 20.272 QT
-0.747 18.834 -0.747 17.131 QT
-0.747 15.85 -0.286 14.662 QT
0.175 13.475 1.027 12.537 QT
1.878 11.6 3.011 11.076 QT
4.144 10.553 5.472 10.553 QT
7.191 10.553 8.605 11.459 QT
10.019 12.366 10.839 13.889 QT
11.66 15.412 11.66 17.131 QT
11.66 18.819 10.832 20.264 QT
10.003 21.709 8.574 22.561 QT
7.144 23.412 5.472 23.412 QT
cp
5.472 22.6 M
7.722 22.6 8.472 20.967 QT
9.222 19.334 9.222 16.819 QT
9.222 15.412 9.074 14.491 QT
8.925 13.569 8.41 12.819 QT
8.097 12.35 7.613 12.006 QT
7.128 11.662 6.589 11.475 QT
6.05 11.287 5.472 11.287 QT
4.597 11.287 3.808 11.686 QT
3.019 12.084 2.503 12.819 QT
1.988 13.616 1.847 14.561 QT
1.707 15.506 1.707 16.819 QT
1.707 18.397 1.98 19.647 QT
2.253 20.897 3.074 21.748 QT
3.894 22.6 5.472 22.6 QT
cp
f
GR
GS
[1 0 0 1 621.00043 758] CT
0.149 GC
N
15.082 19.741 M
15.082 12.006 L
12.754 12.006 L
12.754 11.287 L
14.582 11.287 15.449 9.576 QT
16.316 7.866 16.316 5.866 QT
17.113 5.866 L
17.113 11.022 L
21.066 11.022 L
21.066 12.006 L
17.113 12.006 L
17.113 19.678 L
17.113 20.85 17.504 21.725 QT
17.894 22.6 18.91 22.6 QT
19.863 22.6 20.285 21.67 QT
20.707 20.741 20.707 19.678 QT
20.707 18.022 L
21.519 18.022 L
21.519 19.741 L
21.519 20.616 21.199 21.467 QT
20.879 22.319 20.246 22.866 QT
19.613 23.412 18.722 23.412 QT
17.035 23.412 16.058 22.405 QT
15.082 21.397 15.082 19.741 QT
cp
f
GR
GS
[1 0 0 1 621.00043 758] CT
0.149 GC
N
23.635 28.522 M
23.635 27.553 L
24.604 27.553 25.214 27.389 QT
25.823 27.225 25.823 26.662 QT
25.823 13.162 L
25.823 12.397 25.276 12.201 QT
24.729 12.006 23.635 12.006 QT
23.635 11.022 L
27.792 10.725 L
27.792 12.459 L
28.557 11.616 29.573 11.17 QT
30.589 10.725 31.729 10.725 QT
33.385 10.725 34.714 11.623 QT
36.042 12.522 36.784 13.975 QT
37.526 15.428 37.526 17.053 QT
37.526 18.756 36.706 20.217 QT
35.885 21.678 34.456 22.545 QT
33.026 23.412 31.307 23.412 QT
29.276 23.412 27.87 21.756 QT
27.87 26.662 L
27.87 27.225 28.487 27.389 QT
29.104 27.553 30.057 27.553 QT
30.057 28.522 L
23.635 28.522 L
cp
27.87 20.381 M
28.354 21.381 29.229 22.03 QT
30.104 22.678 31.151 22.678 QT
32.12 22.678 32.862 22.155 QT
33.604 21.631 34.112 20.756 QT
34.62 19.881 34.862 18.92 QT
35.104 17.959 35.104 17.053 QT
35.104 15.928 34.698 14.623 QT
34.292 13.319 33.464 12.428 QT
32.635 11.537 31.464 11.537 QT
30.323 11.537 29.378 12.116 QT
28.432 12.694 27.87 13.694 QT
27.87 20.381 L
cp
f
GR
GS
[1 0 0 1 621.00043 758] CT
0.149 GC
N
38.913 23.1 M
38.913 22.116 L
39.882 22.116 40.491 21.967 QT
41.101 21.819 41.101 21.225 QT
41.101 13.584 L
41.101 12.834 40.882 12.498 QT
40.663 12.162 40.234 12.084 QT
39.804 12.006 38.913 12.006 QT
38.913 11.022 L
42.929 10.725 L
42.929 13.459 L
43.382 12.241 44.21 11.483 QT
45.038 10.725 46.241 10.725 QT
47.07 10.725 47.726 11.217 QT
48.382 11.709 48.382 12.522 QT
48.382 13.022 48.023 13.397 QT
47.663 13.772 47.116 13.772 QT
46.601 13.772 46.234 13.405 QT
45.866 13.037 45.866 12.522 QT
45.866 11.772 46.398 11.444 QT
46.241 11.444 L
45.101 11.444 44.382 12.264 QT
43.663 13.084 43.366 14.303 QT
43.07 15.522 43.07 16.631 QT
43.07 21.225 L
43.07 22.116 45.788 22.116 QT
45.788 23.1 L
38.913 23.1 L
cp
f
GR
GS
[1 0 0 1 621.00043 758] CT
0.149 GC
N
49.825 23.1 M
49.825 22.116 L
50.778 22.116 51.395 21.967 QT
52.012 21.819 52.012 21.225 QT
52.012 13.584 L
52.012 12.506 51.598 12.256 QT
51.184 12.006 49.95 12.006 QT
49.95 11.022 L
53.981 10.725 L
53.981 21.225 L
53.981 21.819 54.512 21.967 QT
55.044 22.116 55.934 22.116 QT
55.934 23.1 L
49.825 23.1 L
cp
51.012 5.912 M
51.012 5.303 51.481 4.834 QT
51.95 4.366 52.544 4.366 QT
52.95 4.366 53.317 4.569 QT
53.684 4.772 53.887 5.147 QT
54.09 5.522 54.09 5.912 QT
54.09 6.522 53.629 6.983 QT
53.169 7.444 52.544 7.444 QT
51.95 7.444 51.481 6.983 QT
51.012 6.522 51.012 5.912 QT
cp
f
GR
GS
[1 0 0 1 621.00043 758] CT
0.149 GC
N
57.432 23.1 M
57.432 22.116 L
58.401 22.116 59.011 21.967 QT
59.62 21.819 59.62 21.225 QT
59.62 13.584 L
59.62 12.834 59.401 12.498 QT
59.182 12.162 58.753 12.084 QT
58.323 12.006 57.432 12.006 QT
57.432 11.022 L
61.495 10.725 L
61.495 13.459 L
62.057 12.256 63.159 11.491 QT
64.261 10.725 65.557 10.725 QT
67.495 10.725 68.479 11.655 QT
69.464 12.584 69.464 14.506 QT
69.464 21.225 L
69.464 21.819 70.073 21.967 QT
70.682 22.116 71.651 22.116 QT
71.651 23.1 L
65.229 23.1 L
65.229 22.116 L
66.182 22.116 66.8 21.967 QT
67.417 21.819 67.417 21.225 QT
67.417 14.584 L
67.417 13.209 67.018 12.326 QT
66.62 11.444 65.401 11.444 QT
63.776 11.444 62.729 12.748 QT
61.682 14.053 61.682 15.709 QT
61.682 21.225 L
61.682 21.819 62.292 21.967 QT
62.901 22.116 63.854 22.116 QT
63.854 23.1 L
57.432 23.1 L
cp
f
GR
GS
[1 0 0 1 621.00043 758] CT
0.149 GC
N
73.978 19.741 M
73.978 12.006 L
71.649 12.006 L
71.649 11.287 L
73.478 11.287 74.345 9.576 QT
75.212 7.866 75.212 5.866 QT
76.009 5.866 L
76.009 11.022 L
79.962 11.022 L
79.962 12.006 L
76.009 12.006 L
76.009 19.678 L
76.009 20.85 76.399 21.725 QT
76.79 22.6 77.806 22.6 QT
78.759 22.6 79.181 21.67 QT
79.603 20.741 79.603 19.678 QT
79.603 18.022 L
80.415 18.022 L
80.415 19.741 L
80.415 20.616 80.095 21.467 QT
79.774 22.319 79.142 22.866 QT
78.509 23.412 77.618 23.412 QT
75.931 23.412 74.954 22.405 QT
73.978 21.397 73.978 19.741 QT
cp
f
GR
GS
[1 0 0 1 621.00043 758] CT
0.149 GC
N
94.292 30.1 M
94.292 2.1 L
98.12 2.1 L
98.12 3.225 L
95.417 3.225 L
95.417 28.975 L
98.12 28.975 L
98.12 30.1 L
94.292 30.1 L
cp
f
GR
GS
[1 0 0 1 621.00043 758] CT
0.149 GC
N
99.337 23.1 M
99.337 22.116 L
100.306 22.116 100.915 21.967 QT
101.525 21.819 101.525 21.225 QT
101.525 6.522 L
101.525 5.772 101.306 5.436 QT
101.087 5.1 100.657 5.03 QT
100.228 4.959 99.337 4.959 QT
99.337 3.975 L
103.493 3.678 L
103.493 16.959 L
107.243 13.662 L
107.806 13.131 107.806 12.678 QT
107.806 12.35 107.571 12.178 QT
107.337 12.006 107.009 12.006 QT
107.009 11.022 L
112.275 11.022 L
112.275 12.006 L
110.384 12.006 108.478 13.662 QT
106.478 15.397 L
110.056 20.459 L
110.79 21.506 111.29 21.811 QT
111.79 22.116 112.931 22.116 QT
112.931 23.1 L
107.353 23.1 L
107.353 22.116 L
108.306 22.116 108.306 21.522 QT
108.306 21.1 107.806 20.459 QT
105.118 16.631 L
103.4 18.116 L
103.4 21.225 L
103.4 21.819 104.025 21.967 QT
104.65 22.116 105.587 22.116 QT
105.587 23.1 L
99.337 23.1 L
cp
f
GR
GS
[1 0 0 1 621.00043 758] CT
0.149 GC
N
114.085 23.1 M
114.085 22.116 L
116.976 22.116 116.976 21.225 QT
116.976 5.85 L
116.976 4.959 114.085 4.959 QT
114.085 3.975 L
124.382 3.975 L
125.804 3.975 127.257 4.53 QT
128.71 5.084 129.656 6.17 QT
130.601 7.256 130.601 8.725 QT
130.601 10.444 129.203 11.6 QT
127.804 12.756 125.929 13.1 QT
127.148 13.1 128.429 13.772 QT
129.71 14.444 130.531 15.569 QT
131.351 16.694 131.351 17.944 QT
131.351 19.475 130.445 20.655 QT
129.538 21.834 128.093 22.467 QT
126.648 23.1 125.179 23.1 QT
114.085 23.1 L
cp
119.413 21.225 M
119.413 21.834 119.749 21.975 QT
120.085 22.116 120.835 22.116 QT
124.382 22.116 L
125.476 22.116 126.413 21.537 QT
127.351 20.959 127.898 19.998 QT
128.445 19.037 128.445 17.944 QT
128.445 16.881 127.992 15.858 QT
127.538 14.834 126.703 14.178 QT
125.867 13.522 124.788 13.522 QT
119.413 13.522 L
119.413 21.225 L
cp
119.413 12.787 M
123.601 12.787 L
124.46 12.787 125.203 12.483 QT
125.945 12.178 126.538 11.592 QT
127.132 11.006 127.453 10.28 QT
127.773 9.553 127.773 8.725 QT
127.773 8.006 127.538 7.334 QT
127.304 6.662 126.835 6.116 QT
126.367 5.569 125.742 5.264 QT
125.117 4.959 124.382 4.959 QT
120.835 4.959 L
120.32 4.959 120.038 4.998 QT
119.757 5.037 119.585 5.233 QT
119.413 5.428 119.413 5.85 QT
119.413 12.787 L
cp
f
GR
GS
[1 0 0 1 621.00043 758] CT
0.149 GC
N
133.221 30.1 M
133.221 28.975 L
135.955 28.975 L
135.955 3.225 L
133.221 3.225 L
133.221 2.1 L
137.065 2.1 L
137.065 30.1 L
133.221 30.1 L
cp
f
GR
GS
0.149 GC
2 setlinecap
1 LJ
0.5 LW
N
156 712 M
156 60 L
S
GR
GS
0.149 GC
2 setlinecap
1 LJ
0.5 LW
N
1086 712 M
1086 60 L
S
GR
GS
0.149 GC
2 setlinecap
1 LJ
0.5 LW
N
156 712 M
165.3 712 L
S
GR
GS
0.149 GC
2 setlinecap
1 LJ
0.5 LW
N
156 603.333 M
165.3 603.333 L
S
GR
GS
0.149 GC
2 setlinecap
1 LJ
0.5 LW
N
156 494.667 M
165.3 494.667 L
S
GR
GS
0.149 GC
2 setlinecap
1 LJ
0.5 LW
N
156 386 M
165.3 386 L
S
GR
GS
0.149 GC
2 setlinecap
1 LJ
0.5 LW
N
156 277.333 M
165.3 277.333 L
S
GR
GS
0.149 GC
2 setlinecap
1 LJ
0.5 LW
N
156 168.667 M
165.3 168.667 L
S
GR
GS
0.149 GC
2 setlinecap
1 LJ
0.5 LW
N
156 60 M
165.3 60 L
S
GR
GS
0.149 GC
2 setlinecap
1 LJ
0.5 LW
N
1086 712 M
1076.7 712 L
S
GR
GS
0.149 GC
2 setlinecap
1 LJ
0.5 LW
N
1086 603.333 M
1076.7 603.333 L
S
GR
GS
0.149 GC
2 setlinecap
1 LJ
0.5 LW
N
1086 494.667 M
1076.7 494.667 L
S
GR
GS
0.149 GC
2 setlinecap
1 LJ
0.5 LW
N
1086 386 M
1076.7 386 L
S
GR
GS
0.149 GC
2 setlinecap
1 LJ
0.5 LW
N
1086 277.333 M
1076.7 277.333 L
S
GR
GS
0.149 GC
2 setlinecap
1 LJ
0.5 LW
N
1086 168.667 M
1076.7 168.667 L
S
GR
GS
0.149 GC
2 setlinecap
1 LJ
0.5 LW
N
1086 60 M
1076.7 60 L
S
GR
GS
[1 0 0 1 149 712] CT
0.149 GC
/Helvetica 25 F
GS
[1 0 0 1 0 0] CT
-14 9 moveto 
1 -1 scale
(0) t 
GR
GR
GS
[1 0 0 1 149 603.33331] CT
0.149 GC
/Helvetica 25 F
GS
[1 0 0 1 0 0] CT
-14 9 moveto 
1 -1 scale
(1) t 
GR
GR
GS
[1 0 0 1 149 494.66666] CT
0.149 GC
/Helvetica 25 F
GS
[1 0 0 1 0 0] CT
-14 9 moveto 
1 -1 scale
(2) t 
GR
GR
GS
[1 0 0 1 149 386] CT
0.149 GC
/Helvetica 25 F
GS
[1 0 0 1 0 0] CT
-14 9 moveto 
1 -1 scale
(3) t 
GR
GR
GS
[1 0 0 1 149 277.33331] CT
0.149 GC
/Helvetica 25 F
GS
[1 0 0 1 0 0] CT
-14 9 moveto 
1 -1 scale
(4) t 
GR
GR
GS
[1 0 0 1 149 168.66669] CT
0.149 GC
/Helvetica 25 F
GS
[1 0 0 1 0 0] CT
-14 9 moveto 
1 -1 scale
(5) t 
GR
GR
GS
[1 0 0 1 149 60] CT
0.149 GC
/Helvetica 25 F
GS
[1 0 0 1 0 0] CT
-14 9 moveto 
1 -1 scale
(6) t 
GR
GR
GS
[0 -1 1 0 132 385.99969] CT
0.149 GC
N
-50.228 -9.9 M
-50.228 -10.884 L
-48.821 -10.884 -47.493 -11.041 QT
-46.165 -11.197 -46.165 -11.775 QT
-46.165 -27.15 L
-46.165 -27.759 -46.501 -27.9 QT
-46.837 -28.041 -47.587 -28.041 QT
-48.774 -28.041 L
-51.071 -28.041 -52.056 -27.025 QT
-52.556 -26.525 -52.774 -25.408 QT
-52.993 -24.291 -53.149 -22.619 QT
-53.946 -22.619 L
-53.415 -29.025 L
-36.306 -29.025 L
-35.774 -22.619 L
-36.603 -22.619 L
-36.759 -24.416 -36.962 -25.478 QT
-37.165 -26.541 -37.681 -27.025 QT
-38.665 -28.041 -40.962 -28.041 QT
-42.134 -28.041 L
-42.649 -28.041 -42.923 -28.002 QT
-43.196 -27.963 -43.376 -27.767 QT
-43.556 -27.572 -43.556 -27.15 QT
-43.556 -11.775 L
-43.556 -11.197 -42.228 -11.041 QT
-40.899 -10.884 -39.509 -10.884 QT
-39.509 -9.9 L
-50.228 -9.9 L
cp
f
GR
GS
[0 -1 1 0 132 385.99969] CT
0.149 GC
N
-34.241 -9.9 M
-34.241 -10.884 L
-31.351 -10.884 -31.351 -11.775 QT
-31.351 -27.15 L
-31.351 -28.041 -34.241 -28.041 QT
-34.241 -29.025 L
-18.804 -29.025 L
-18.023 -22.619 L
-18.835 -22.619 L
-19.023 -24.384 -19.343 -25.4 QT
-19.663 -26.416 -20.28 -26.994 QT
-20.898 -27.572 -21.929 -27.806 QT
-22.96 -28.041 -24.757 -28.041 QT
-27.32 -28.041 L
-27.82 -28.041 -28.101 -28.002 QT
-28.382 -27.963 -28.562 -27.767 QT
-28.741 -27.572 -28.741 -27.15 QT
-28.741 -19.947 L
-26.757 -19.947 L
-25.32 -19.947 -24.655 -20.205 QT
-23.991 -20.463 -23.734 -21.127 QT
-23.476 -21.791 -23.476 -23.228 QT
-22.679 -23.228 L
-22.679 -15.697 L
-23.476 -15.697 L
-23.476 -17.134 -23.734 -17.806 QT
-23.991 -18.478 -24.655 -18.728 QT
-25.32 -18.978 -26.757 -18.978 QT
-28.741 -18.978 L
-28.741 -11.775 L
-28.741 -10.884 -25.163 -10.884 QT
-25.163 -9.9 L
-34.241 -9.9 L
cp
f
GR
GS
[0 -1 1 0 132 385.99969] CT
0.149 GC
N
-16.29 -9.9 M
-16.29 -10.884 L
-15.337 -10.884 -14.72 -11.033 QT
-14.102 -11.181 -14.102 -11.775 QT
-14.102 -26.478 L
-14.102 -27.228 -14.329 -27.564 QT
-14.556 -27.9 -14.977 -27.97 QT
-15.399 -28.041 -16.29 -28.041 QT
-16.29 -29.025 L
-12.134 -29.322 L
-12.134 -11.775 L
-12.134 -11.181 -11.517 -11.033 QT
-10.899 -10.884 -9.962 -10.884 QT
-9.962 -9.9 L
-16.29 -9.9 L
cp
f
GR
GS
[0 -1 1 0 132 385.99969] CT
0.149 GC
N
-2.51 -9.588 M
-4.198 -9.588 -5.628 -10.439 QT
-7.057 -11.291 -7.893 -12.728 QT
-8.729 -14.166 -8.729 -15.869 QT
-8.729 -17.15 -8.268 -18.338 QT
-7.807 -19.525 -6.956 -20.463 QT
-6.104 -21.4 -4.971 -21.924 QT
-3.839 -22.447 -2.51 -22.447 QT
-0.792 -22.447 0.622 -21.541 QT
2.036 -20.634 2.857 -19.111 QT
3.677 -17.588 3.677 -15.869 QT
3.677 -14.181 2.849 -12.736 QT
2.021 -11.291 0.591 -10.439 QT
-0.839 -9.588 -2.51 -9.588 QT
cp
-2.51 -10.4 M
-0.26 -10.4 0.49 -12.033 QT
1.24 -13.666 1.24 -16.181 QT
1.24 -17.588 1.091 -18.509 QT
0.943 -19.431 0.427 -20.181 QT
0.115 -20.65 -0.37 -20.994 QT
-0.854 -21.338 -1.393 -21.525 QT
-1.932 -21.713 -2.51 -21.713 QT
-3.385 -21.713 -4.174 -21.314 QT
-4.964 -20.916 -5.479 -20.181 QT
-5.995 -19.384 -6.135 -18.439 QT
-6.276 -17.494 -6.276 -16.181 QT
-6.276 -14.603 -6.003 -13.353 QT
-5.729 -12.103 -4.909 -11.252 QT
-4.089 -10.4 -2.51 -10.4 QT
cp
f
GR
GS
[0 -1 1 0 132 385.99969] CT
0.149 GC
N
4.958 -4.478 M
4.958 -5.447 L
5.927 -5.447 6.537 -5.611 QT
7.146 -5.775 7.146 -6.338 QT
7.146 -19.838 L
7.146 -20.603 6.599 -20.799 QT
6.052 -20.994 4.958 -20.994 QT
4.958 -21.978 L
9.115 -22.275 L
9.115 -20.541 L
9.88 -21.384 10.896 -21.83 QT
11.912 -22.275 13.052 -22.275 QT
14.708 -22.275 16.037 -21.377 QT
17.365 -20.478 18.107 -19.025 QT
18.849 -17.572 18.849 -15.947 QT
18.849 -14.244 18.029 -12.783 QT
17.208 -11.322 15.779 -10.455 QT
14.349 -9.588 12.63 -9.588 QT
10.599 -9.588 9.193 -11.244 QT
9.193 -6.338 L
9.193 -5.775 9.81 -5.611 QT
10.427 -5.447 11.38 -5.447 QT
11.38 -4.478 L
4.958 -4.478 L
cp
9.193 -12.619 M
9.677 -11.619 10.552 -10.97 QT
11.427 -10.322 12.474 -10.322 QT
13.443 -10.322 14.185 -10.845 QT
14.927 -11.369 15.435 -12.244 QT
15.943 -13.119 16.185 -14.08 QT
16.427 -15.041 16.427 -15.947 QT
16.427 -17.072 16.021 -18.377 QT
15.615 -19.681 14.787 -20.572 QT
13.958 -21.463 12.787 -21.463 QT
11.646 -21.463 10.701 -20.884 QT
9.755 -20.306 9.193 -19.306 QT
9.193 -12.619 L
cp
f
GR
GS
[0 -1 1 0 132 385.99969] CT
0.149 GC
N
20.455 -9.822 M
20.455 -14.384 L
20.455 -14.603 20.689 -14.603 QT
21.033 -14.603 L
21.205 -14.603 21.252 -14.384 QT
22.033 -10.322 25.033 -10.322 QT
26.361 -10.322 27.252 -10.924 QT
28.142 -11.525 28.142 -12.791 QT
28.142 -13.681 27.447 -14.322 QT
26.752 -14.963 25.799 -15.197 QT
23.924 -15.556 L
22.971 -15.759 22.205 -16.189 QT
21.439 -16.619 20.947 -17.322 QT
20.455 -18.025 20.455 -18.947 QT
20.455 -20.181 21.103 -20.97 QT
21.752 -21.759 22.791 -22.103 QT
23.83 -22.447 25.033 -22.447 QT
26.471 -22.447 27.533 -21.681 QT
28.33 -22.384 L
28.33 -22.447 28.471 -22.447 QT
28.674 -22.447 L
28.767 -22.447 28.83 -22.377 QT
28.892 -22.306 28.892 -22.213 QT
28.892 -18.556 L
28.892 -18.291 28.674 -18.291 QT
28.33 -18.291 L
28.096 -18.291 28.096 -18.556 QT
28.096 -20.025 27.283 -20.908 QT
26.471 -21.791 25.002 -21.791 QT
23.736 -21.791 22.814 -21.33 QT
21.892 -20.869 21.892 -19.728 QT
21.892 -18.947 22.557 -18.447 QT
23.221 -17.947 24.111 -17.728 QT
26.017 -17.384 L
26.971 -17.166 27.799 -16.642 QT
28.627 -16.119 29.111 -15.33 QT
29.596 -14.541 29.596 -13.541 QT
29.596 -12.525 29.244 -11.783 QT
28.892 -11.041 28.275 -10.549 QT
27.658 -10.056 26.807 -9.822 QT
25.955 -9.588 25.033 -9.588 QT
23.283 -9.588 22.033 -10.759 QT
21.002 -9.65 L
21.002 -9.588 20.861 -9.588 QT
20.689 -9.588 L
20.455 -9.588 20.455 -9.822 QT
cp
f
GR
GS
[0 -1 1 0 132 385.99969] CT
0.149 GC
N
31.943 -3.463 M
31.943 -3.541 31.958 -3.572 QT
41.693 -30.556 L
41.755 -30.728 41.888 -30.814 QT
42.021 -30.9 42.208 -30.9 QT
42.458 -30.9 42.615 -30.752 QT
42.771 -30.603 42.771 -30.338 QT
42.771 -30.228 L
33.037 -3.244 L
32.865 -2.9 32.505 -2.9 QT
32.271 -2.9 32.107 -3.064 QT
31.943 -3.228 31.943 -3.463 QT
cp
f
GR
GS
[0 -1 1 0 132 385.99969] CT
0.149 GC
N
45.052 -9.822 M
45.052 -14.384 L
45.052 -14.603 45.287 -14.603 QT
45.63 -14.603 L
45.802 -14.603 45.849 -14.384 QT
46.63 -10.322 49.63 -10.322 QT
50.958 -10.322 51.849 -10.924 QT
52.74 -11.525 52.74 -12.791 QT
52.74 -13.681 52.044 -14.322 QT
51.349 -14.963 50.396 -15.197 QT
48.521 -15.556 L
47.568 -15.759 46.802 -16.189 QT
46.037 -16.619 45.544 -17.322 QT
45.052 -18.025 45.052 -18.947 QT
45.052 -20.181 45.701 -20.97 QT
46.349 -21.759 47.388 -22.103 QT
48.427 -22.447 49.63 -22.447 QT
51.068 -22.447 52.13 -21.681 QT
52.927 -22.384 L
52.927 -22.447 53.068 -22.447 QT
53.271 -22.447 L
53.365 -22.447 53.427 -22.377 QT
53.49 -22.306 53.49 -22.213 QT
53.49 -18.556 L
53.49 -18.291 53.271 -18.291 QT
52.927 -18.291 L
52.693 -18.291 52.693 -18.556 QT
52.693 -20.025 51.88 -20.908 QT
51.068 -21.791 49.599 -21.791 QT
48.333 -21.791 47.412 -21.33 QT
46.49 -20.869 46.49 -19.728 QT
46.49 -18.947 47.154 -18.447 QT
47.818 -17.947 48.708 -17.728 QT
50.615 -17.384 L
51.568 -17.166 52.396 -16.642 QT
53.224 -16.119 53.708 -15.33 QT
54.193 -14.541 54.193 -13.541 QT
54.193 -12.525 53.841 -11.783 QT
53.49 -11.041 52.873 -10.549 QT
52.255 -10.056 51.404 -9.822 QT
50.552 -9.588 49.63 -9.588 QT
47.88 -9.588 46.63 -10.759 QT
45.599 -9.65 L
45.599 -9.588 45.458 -9.588 QT
45.287 -9.588 L
45.052 -9.588 45.052 -9.822 QT
cp
f
GR
GS
0 0.447 0.741 RC
1 LJ
1.2 LW
N
270.672 678.395 M
457.311 592.094 L
566.488 519.032 L
643.95 467.127 L
704.034 424.319 L
753.126 371.471 L
794.633 336.559 L
830.588 308.384 L
862.303 286.162 L
890.673 266.908 L
916.336 244.484 L
939.765 229.232 L
961.317 215.925 L
981.272 201.959 L
999.849 190.837 L
1017.227 177.037 L
1033.551 168.096 L
1048.941 159.942 L
1063.5 151.155 L
1077.311 144.336 L
S
GR
GS
[1 0 0 1 270.67249 678.39471] CT
0 0.447 0.741 RC
N
-3 -3 M
-3 3 L
3 3 L
3 -3 L
cp
f
GR
GS
[1 0 0 1 270.67249 678.39471] CT
0 0.447 0.741 RC
10.0 ML
1.2 LW
N
-3 -3 M
-3 3 L
3 3 L
3 -3 L
cp
S
GR
GS
[1 0 0 1 457.3111 592.0943] CT
0 0.447 0.741 RC
N
/f227889816{-3 -3 M
-3 3 L
3 3 L
3 -3 L
cp}def
f227889816
f
GR
GS
[1 0 0 1 457.3111 592.0943] CT
0 0.447 0.741 RC
10.0 ML
1.2 LW
N
-3 -3 M
-3 3 L
3 3 L
3 -3 L
cp
S
GR
GS
[1 0 0 1 566.48767 519.03217] CT
0 0.447 0.741 RC
N
f227889816
f
GR
GS
[1 0 0 1 566.48767 519.03217] CT
0 0.447 0.741 RC
10.0 ML
1.2 LW
N
-3 -3 M
-3 3 L
3 3 L
3 -3 L
cp
S
GR
GS
[1 0 0 1 643.94971 467.12723] CT
0 0.447 0.741 RC
N
f227889816
f
GR
GS
[1 0 0 1 643.94971 467.12723] CT
0 0.447 0.741 RC
10.0 ML
1.2 LW
N
-3 -3 M
-3 3 L
3 3 L
3 -3 L
cp
S
GR
GS
[1 0 0 1 704.03387 424.31891] CT
0 0.447 0.741 RC
N
f227889816
f
GR
GS
[1 0 0 1 704.03387 424.31891] CT
0 0.447 0.741 RC
10.0 ML
1.2 LW
N
-3 -3 M
-3 3 L
3 3 L
3 -3 L
cp
S
GR
GS
[1 0 0 1 753.12628 371.47147] CT
0 0.447 0.741 RC
N
f227889816
f
GR
GS
[1 0 0 1 753.12628 371.47147] CT
0 0.447 0.741 RC
10.0 ML
1.2 LW
N
-3 -3 M
-3 3 L
3 3 L
3 -3 L
cp
S
GR
GS
[1 0 0 1 794.63324 336.55939] CT
0 0.447 0.741 RC
N
f227889816
f
GR
GS
[1 0 0 1 794.63324 336.55939] CT
0 0.447 0.741 RC
10.0 ML
1.2 LW
N
-3 -3 M
-3 3 L
3 3 L
3 -3 L
cp
S
GR
GS
[1 0 0 1 830.58826 308.38385] CT
0 0.447 0.741 RC
N
f227889816
f
GR
GS
[1 0 0 1 830.58826 308.38385] CT
0 0.447 0.741 RC
10.0 ML
1.2 LW
N
-3 -3 M
-3 3 L
3 3 L
3 -3 L
cp
S
GR
GS
[1 0 0 1 862.30286 286.16235] CT
0 0.447 0.741 RC
N
f227889816
f
GR
GS
[1 0 0 1 862.30286 286.16235] CT
0 0.447 0.741 RC
10.0 ML
1.2 LW
N
-3 -3 M
-3 3 L
3 3 L
3 -3 L
cp
S
GR
GS
[1 0 0 1 890.67255 266.90775] CT
0 0.447 0.741 RC
N
f227889816
f
GR
GS
[1 0 0 1 890.67255 266.90775] CT
0 0.447 0.741 RC
10.0 ML
1.2 LW
N
-3 -3 M
-3 3 L
3 3 L
3 -3 L
cp
S
GR
GS
[1 0 0 1 916.336 244.48378] CT
0 0.447 0.741 RC
N
f227889816
f
GR
GS
[1 0 0 1 916.336 244.48378] CT
0 0.447 0.741 RC
10.0 ML
1.2 LW
N
-3 -3 M
-3 3 L
3 3 L
3 -3 L
cp
S
GR
GS
[1 0 0 1 939.76489 229.23218] CT
0 0.447 0.741 RC
N
f227889816
f
GR
GS
[1 0 0 1 939.76489 229.23218] CT
0 0.447 0.741 RC
10.0 ML
1.2 LW
N
-3 -3 M
-3 3 L
3 3 L
3 -3 L
cp
S
GR
GS
[1 0 0 1 961.31738 215.92545] CT
0 0.447 0.741 RC
N
f227889816
f
GR
GS
[1 0 0 1 961.31738 215.92545] CT
0 0.447 0.741 RC
10.0 ML
1.2 LW
N
-3 -3 M
-3 3 L
3 3 L
3 -3 L
cp
S
GR
GS
[1 0 0 1 981.27191 201.95934] CT
0 0.447 0.741 RC
N
f227889816
f
GR
GS
[1 0 0 1 981.27191 201.95934] CT
0 0.447 0.741 RC
10.0 ML
1.2 LW
N
-3 -3 M
-3 3 L
3 3 L
3 -3 L
cp
S
GR
GS
[1 0 0 1 999.84906 190.83704] CT
0 0.447 0.741 RC
N
f227889816
f
GR
GS
[1 0 0 1 999.84906 190.83704] CT
0 0.447 0.741 RC
10.0 ML
1.2 LW
N
-3 -3 M
-3 3 L
3 3 L
3 -3 L
cp
S
GR
GS
[1 0 0 1 1017.22687 177.03729] CT
0 0.447 0.741 RC
N
f227889816
f
GR
GS
[1 0 0 1 1017.22687 177.03729] CT
0 0.447 0.741 RC
10.0 ML
1.2 LW
N
-3 -3 M
-3 3 L
3 3 L
3 -3 L
cp
S
GR
GS
[1 0 0 1 1033.55078 168.09607] CT
0 0.447 0.741 RC
N
f227889816
f
GR
GS
[1 0 0 1 1033.55078 168.09607] CT
0 0.447 0.741 RC
10.0 ML
1.2 LW
N
-3 -3 M
-3 3 L
3 3 L
3 -3 L
cp
S
GR
GS
[1 0 0 1 1048.94141 159.94238] CT
0 0.447 0.741 RC
N
f227889816
f
GR
GS
[1 0 0 1 1048.94141 159.94238] CT
0 0.447 0.741 RC
10.0 ML
1.2 LW
N
-3 -3 M
-3 3 L
3 3 L
3 -3 L
cp
S
GR
GS
[1 0 0 1 1063.49976 151.15532] CT
0 0.447 0.741 RC
N
f227889816
f
GR
GS
[1 0 0 1 1063.49976 151.15532] CT
0 0.447 0.741 RC
10.0 ML
1.2 LW
N
-3 -3 M
-3 3 L
3 3 L
3 -3 L
cp
S
GR
GS
[1 0 0 1 1077.31104 144.33554] CT
0 0.447 0.741 RC
N
f227889816
f
GR
GS
[1 0 0 1 1077.31104 144.33554] CT
0 0.447 0.741 RC
10.0 ML
1.2 LW
N
-3 -3 M
-3 3 L
3 3 L
3 -3 L
cp
S
GR
GS
0.851 0.325 0.098 RC
1 LJ
1.2 LW
N
270.672 678.472 M
457.311 597.42 L
566.488 517.349 L
643.95 466.968 L
704.034 420.779 L
753.126 368.116 L
794.633 336.977 L
830.588 308.361 L
862.303 286.202 L
890.673 266.416 L
916.336 244.66 L
939.765 229.295 L
961.317 215.714 L
981.272 201.869 L
999.849 190.743 L
1017.227 176.529 L
1033.551 167.987 L
1048.941 160.105 L
1063.5 151.162 L
1077.311 144.327 L
S
GR
GS
[1 0 0 1 270.67249 678.47247] CT
0.851 0.325 0.098 RC
N
f227889816
f
GR
GS
[1 0 0 1 270.67249 678.47247] CT
0.851 0.325 0.098 RC
10.0 ML
1.2 LW
N
-3 -3 M
-3 3 L
3 3 L
3 -3 L
cp
S
GR
GS
[1 0 0 1 457.3111 597.42004] CT
0.851 0.325 0.098 RC
N
f227889816
f
GR
GS
[1 0 0 1 457.3111 597.42004] CT
0.851 0.325 0.098 RC
10.0 ML
1.2 LW
N
-3 -3 M
-3 3 L
3 3 L
3 -3 L
cp
S
GR
GS
[1 0 0 1 566.48767 517.34943] CT
0.851 0.325 0.098 RC
N
f227889816
f
GR
GS
[1 0 0 1 566.48767 517.34943] CT
0.851 0.325 0.098 RC
10.0 ML
1.2 LW
N
-3 -3 M
-3 3 L
3 3 L
3 -3 L
cp
S
GR
GS
[1 0 0 1 643.94971 466.96774] CT
0.851 0.325 0.098 RC
N
f227889816
f
GR
GS
[1 0 0 1 643.94971 466.96774] CT
0.851 0.325 0.098 RC
10.0 ML
1.2 LW
N
-3 -3 M
-3 3 L
3 3 L
3 -3 L
cp
S
GR
GS
[1 0 0 1 704.03387 420.77875] CT
0.851 0.325 0.098 RC
N
f227889816
f
GR
GS
[1 0 0 1 704.03387 420.77875] CT
0.851 0.325 0.098 RC
10.0 ML
1.2 LW
N
-3 -3 M
-3 3 L
3 3 L
3 -3 L
cp
S
GR
GS
[1 0 0 1 753.12628 368.11642] CT
0.851 0.325 0.098 RC
N
f227889816
f
GR
GS
[1 0 0 1 753.12628 368.11642] CT
0.851 0.325 0.098 RC
10.0 ML
1.2 LW
N
-3 -3 M
-3 3 L
3 3 L
3 -3 L
cp
S
GR
GS
[1 0 0 1 794.63324 336.97687] CT
0.851 0.325 0.098 RC
N
f227889816
f
GR
GS
[1 0 0 1 794.63324 336.97687] CT
0.851 0.325 0.098 RC
10.0 ML
1.2 LW
N
-3 -3 M
-3 3 L
3 3 L
3 -3 L
cp
S
GR
GS
[1 0 0 1 830.58826 308.3605] CT
0.851 0.325 0.098 RC
N
f227889816
f
GR
GS
[1 0 0 1 830.58826 308.3605] CT
0.851 0.325 0.098 RC
10.0 ML
1.2 LW
N
-3 -3 M
-3 3 L
3 3 L
3 -3 L
cp
S
GR
GS
[1 0 0 1 862.30286 286.20242] CT
0.851 0.325 0.098 RC
N
f227889816
f
GR
GS
[1 0 0 1 862.30286 286.20242] CT
0.851 0.325 0.098 RC
10.0 ML
1.2 LW
N
-3 -3 M
-3 3 L
3 3 L
3 -3 L
cp
S
GR
GS
[1 0 0 1 890.67255 266.41586] CT
0.851 0.325 0.098 RC
N
f227889816
f
GR
GS
[1 0 0 1 890.67255 266.41586] CT
0.851 0.325 0.098 RC
10.0 ML
1.2 LW
N
-3 -3 M
-3 3 L
3 3 L
3 -3 L
cp
S
GR
GS
[1 0 0 1 916.336 244.65974] CT
0.851 0.325 0.098 RC
N
f227889816
f
GR
GS
[1 0 0 1 916.336 244.65974] CT
0.851 0.325 0.098 RC
10.0 ML
1.2 LW
N
-3 -3 M
-3 3 L
3 3 L
3 -3 L
cp
S
GR
GS
[1 0 0 1 939.76489 229.29549] CT
0.851 0.325 0.098 RC
N
f227889816
f
GR
GS
[1 0 0 1 939.76489 229.29549] CT
0.851 0.325 0.098 RC
10.0 ML
1.2 LW
N
-3 -3 M
-3 3 L
3 3 L
3 -3 L
cp
S
GR
GS
[1 0 0 1 961.31738 215.71353] CT
0.851 0.325 0.098 RC
N
f227889816
f
GR
GS
[1 0 0 1 961.31738 215.71353] CT
0.851 0.325 0.098 RC
10.0 ML
1.2 LW
N
-3 -3 M
-3 3 L
3 3 L
3 -3 L
cp
S
GR
GS
[1 0 0 1 981.27191 201.86902] CT
0.851 0.325 0.098 RC
N
f227889816
f
GR
GS
[1 0 0 1 981.27191 201.86902] CT
0.851 0.325 0.098 RC
10.0 ML
1.2 LW
N
-3 -3 M
-3 3 L
3 3 L
3 -3 L
cp
S
GR
GS
[1 0 0 1 999.84906 190.7426] CT
0.851 0.325 0.098 RC
N
f227889816
f
GR
GS
[1 0 0 1 999.84906 190.7426] CT
0.851 0.325 0.098 RC
10.0 ML
1.2 LW
N
-3 -3 M
-3 3 L
3 3 L
3 -3 L
cp
S
GR
GS
[1 0 0 1 1017.22687 176.52885] CT
0.851 0.325 0.098 RC
N
f227889816
f
GR
GS
[1 0 0 1 1017.22687 176.52885] CT
0.851 0.325 0.098 RC
10.0 ML
1.2 LW
N
-3 -3 M
-3 3 L
3 3 L
3 -3 L
cp
S
GR
GS
[1 0 0 1 1033.55078 167.98744] CT
0.851 0.325 0.098 RC
N
f227889816
f
GR
GS
[1 0 0 1 1033.55078 167.98744] CT
0.851 0.325 0.098 RC
10.0 ML
1.2 LW
N
-3 -3 M
-3 3 L
3 3 L
3 -3 L
cp
S
GR
GS
[1 0 0 1 1048.94141 160.10538] CT
0.851 0.325 0.098 RC
N
f227889816
f
GR
GS
[1 0 0 1 1048.94141 160.10538] CT
0.851 0.325 0.098 RC
10.0 ML
1.2 LW
N
-3 -3 M
-3 3 L
3 3 L
3 -3 L
cp
S
GR
GS
[1 0 0 1 1063.49976 151.1617] CT
0.851 0.325 0.098 RC
N
f227889816
f
GR
GS
[1 0 0 1 1063.49976 151.1617] CT
0.851 0.325 0.098 RC
10.0 ML
1.2 LW
N
-3 -3 M
-3 3 L
3 3 L
3 -3 L
cp
S
GR
GS
[1 0 0 1 1077.31104 144.32669] CT
0.851 0.325 0.098 RC
N
f227889816
f
GR
GS
[1 0 0 1 1077.31104 144.32669] CT
0.851 0.325 0.098 RC
10.0 ML
1.2 LW
N
-3 -3 M
-3 3 L
3 3 L
3 -3 L
cp
S
GR
GS
0.467 0.675 0.188 RC
1 LJ
1.2 LW
N
270.672 677.256 M
457.311 597.782 L
566.488 518.473 L
643.95 466.838 L
704.034 424.185 L
753.126 374.73 L
794.633 337.02 L
830.588 309.107 L
862.303 286.438 L
890.673 266.661 L
916.336 244.627 L
939.765 229.173 L
961.317 215.654 L
981.272 201.84 L
999.849 190.691 L
1017.227 176.545 L
1033.551 168.076 L
1048.941 160.176 L
1063.5 151.147 L
1077.311 144.365 L
S
GR
GS
[1 0 0 1 270.67249 677.25598] CT
0.467 0.675 0.188 RC
N
f227889816
f
GR
GS
[1 0 0 1 270.67249 677.25598] CT
0.467 0.675 0.188 RC
10.0 ML
1.2 LW
N
-3 -3 M
-3 3 L
3 3 L
3 -3 L
cp
S
GR
GS
[1 0 0 1 457.3111 597.7818] CT
0.467 0.675 0.188 RC
N
f227889816
f
GR
GS
[1 0 0 1 457.3111 597.7818] CT
0.467 0.675 0.188 RC
10.0 ML
1.2 LW
N
-3 -3 M
-3 3 L
3 3 L
3 -3 L
cp
S
GR
GS
[1 0 0 1 566.48767 518.47278] CT
0.467 0.675 0.188 RC
N
f227889816
f
GR
GS
[1 0 0 1 566.48767 518.47278] CT
0.467 0.675 0.188 RC
10.0 ML
1.2 LW
N
-3 -3 M
-3 3 L
3 3 L
3 -3 L
cp
S
GR
GS
[1 0 0 1 643.94971 466.83823] CT
0.467 0.675 0.188 RC
N
f227889816
f
GR
GS
[1 0 0 1 643.94971 466.83823] CT
0.467 0.675 0.188 RC
10.0 ML
1.2 LW
N
-3 -3 M
-3 3 L
3 3 L
3 -3 L
cp
S
GR
GS
[1 0 0 1 704.03387 424.18481] CT
0.467 0.675 0.188 RC
N
f227889816
f
GR
GS
[1 0 0 1 704.03387 424.18481] CT
0.467 0.675 0.188 RC
10.0 ML
1.2 LW
N
-3 -3 M
-3 3 L
3 3 L
3 -3 L
cp
S
GR
GS
[1 0 0 1 753.12628 374.73022] CT
0.467 0.675 0.188 RC
N
f227889816
f
GR
GS
[1 0 0 1 753.12628 374.73022] CT
0.467 0.675 0.188 RC
10.0 ML
1.2 LW
N
-3 -3 M
-3 3 L
3 3 L
3 -3 L
cp
S
GR
GS
[1 0 0 1 794.63324 337.02029] CT
0.467 0.675 0.188 RC
N
f227889816
f
GR
GS
[1 0 0 1 794.63324 337.02029] CT
0.467 0.675 0.188 RC
10.0 ML
1.2 LW
N
-3 -3 M
-3 3 L
3 3 L
3 -3 L
cp
S
GR
GS
[1 0 0 1 830.58826 309.10724] CT
0.467 0.675 0.188 RC
N
f227889816
f
GR
GS
[1 0 0 1 830.58826 309.10724] CT
0.467 0.675 0.188 RC
10.0 ML
1.2 LW
N
-3 -3 M
-3 3 L
3 3 L
3 -3 L
cp
S
GR
GS
[1 0 0 1 862.30286 286.43805] CT
0.467 0.675 0.188 RC
N
f227889816
f
GR
GS
[1 0 0 1 862.30286 286.43805] CT
0.467 0.675 0.188 RC
10.0 ML
1.2 LW
N
-3 -3 M
-3 3 L
3 3 L
3 -3 L
cp
S
GR
GS
[1 0 0 1 890.67255 266.66058] CT
0.467 0.675 0.188 RC
N
f227889816
f
GR
GS
[1 0 0 1 890.67255 266.66058] CT
0.467 0.675 0.188 RC
10.0 ML
1.2 LW
N
-3 -3 M
-3 3 L
3 3 L
3 -3 L
cp
S
GR
GS
[1 0 0 1 916.336 244.62729] CT
0.467 0.675 0.188 RC
N
f227889816
f
GR
GS
[1 0 0 1 916.336 244.62729] CT
0.467 0.675 0.188 RC
10.0 ML
1.2 LW
N
-3 -3 M
-3 3 L
3 3 L
3 -3 L
cp
S
GR
GS
[1 0 0 1 939.76489 229.17319] CT
0.467 0.675 0.188 RC
N
f227889816
f
GR
GS
[1 0 0 1 939.76489 229.17319] CT
0.467 0.675 0.188 RC
10.0 ML
1.2 LW
N
-3 -3 M
-3 3 L
3 3 L
3 -3 L
cp
S
GR
GS
[1 0 0 1 961.31738 215.65367] CT
0.467 0.675 0.188 RC
N
f227889816
f
GR
GS
[1 0 0 1 961.31738 215.65367] CT
0.467 0.675 0.188 RC
10.0 ML
1.2 LW
N
-3 -3 M
-3 3 L
3 3 L
3 -3 L
cp
S
GR
GS
[1 0 0 1 981.27191 201.83978] CT
0.467 0.675 0.188 RC
N
f227889816
f
GR
GS
[1 0 0 1 981.27191 201.83978] CT
0.467 0.675 0.188 RC
10.0 ML
1.2 LW
N
-3 -3 M
-3 3 L
3 3 L
3 -3 L
cp
S
GR
GS
[1 0 0 1 999.84906 190.69112] CT
0.467 0.675 0.188 RC
N
f227889816
f
GR
GS
[1 0 0 1 999.84906 190.69112] CT
0.467 0.675 0.188 RC
10.0 ML
1.2 LW
N
-3 -3 M
-3 3 L
3 3 L
3 -3 L
cp
S
GR
GS
[1 0 0 1 1017.22687 176.54526] CT
0.467 0.675 0.188 RC
N
f227889816
f
GR
GS
[1 0 0 1 1017.22687 176.54526] CT
0.467 0.675 0.188 RC
10.0 ML
1.2 LW
N
-3 -3 M
-3 3 L
3 3 L
3 -3 L
cp
S
GR
GS
[1 0 0 1 1033.55078 168.07555] CT
0.467 0.675 0.188 RC
N
f227889816
f
GR
GS
[1 0 0 1 1033.55078 168.07555] CT
0.467 0.675 0.188 RC
10.0 ML
1.2 LW
N
-3 -3 M
-3 3 L
3 3 L
3 -3 L
cp
S
GR
GS
[1 0 0 1 1048.94141 160.17603] CT
0.467 0.675 0.188 RC
N
f227889816
f
GR
GS
[1 0 0 1 1048.94141 160.17603] CT
0.467 0.675 0.188 RC
10.0 ML
1.2 LW
N
-3 -3 M
-3 3 L
3 3 L
3 -3 L
cp
S
GR
GS
[1 0 0 1 1063.49976 151.14713] CT
0.467 0.675 0.188 RC
N
f227889816
f
GR
GS
[1 0 0 1 1063.49976 151.14713] CT
0.467 0.675 0.188 RC
10.0 ML
1.2 LW
N
-3 -3 M
-3 3 L
3 3 L
3 -3 L
cp
S
GR
GS
[1 0 0 1 1077.31104 144.36485] CT
0.467 0.675 0.188 RC
N
f227889816
f
GR
GS
[1 0 0 1 1077.31104 144.36485] CT
0.467 0.675 0.188 RC
10.0 ML
1.2 LW
N
-3 -3 M
-3 3 L
3 3 L
3 -3 L
cp
S
GR
GS
1 GC
N
/f1186393124{1078 704 M
1078 609 L
895 609 L
895 704 L
cp}def
f1186393124
f
GR
GS
[1 0 0 1 931.96912 626] CT
N
0.859 6 M
0.859 5.125 L
3.438 5.125 3.438 4.328 QT
3.438 -9.406 L
3.438 -10.203 0.859 -10.203 QT
0.859 -11.078 L
10.047 -11.078 L
11.313 -11.078 12.609 -10.586 QT
13.906 -10.094 14.75 -9.117 QT
15.594 -8.141 15.594 -6.828 QT
15.594 -5.297 14.344 -4.266 QT
13.094 -3.234 11.422 -2.922 QT
12.516 -2.922 13.664 -2.328 QT
14.813 -1.734 15.539 -0.727 QT
16.266 0.281 16.266 1.391 QT
16.266 2.766 15.461 3.812 QT
14.656 4.859 13.359 5.43 QT
12.063 6 10.75 6 QT
0.859 6 L
cp
5.609 4.328 M
5.609 4.859 5.914 4.992 QT
6.219 5.125 6.875 5.125 QT
10.047 5.125 L
11.016 5.125 11.859 4.609 QT
12.703 4.094 13.188 3.234 QT
13.672 2.375 13.672 1.391 QT
13.672 0.453 13.266 -0.461 QT
12.859 -1.375 12.109 -1.961 QT
11.359 -2.547 10.406 -2.547 QT
5.609 -2.547 L
5.609 4.328 L
cp
5.609 -3.203 M
9.344 -3.203 L
10.109 -3.203 10.773 -3.477 QT
11.438 -3.75 11.969 -4.274 QT
12.5 -4.797 12.789 -5.445 QT
13.078 -6.094 13.078 -6.828 QT
13.078 -7.484 12.859 -8.078 QT
12.641 -8.672 12.227 -9.164 QT
11.813 -9.656 11.25 -9.93 QT
10.688 -10.203 10.047 -10.203 QT
6.875 -10.203 L
6.422 -10.203 6.172 -10.164 QT
5.922 -10.125 5.766 -9.945 QT
5.609 -9.766 5.609 -9.406 QT
5.609 -3.203 L
cp
f
GR
GS
[1 0 0 1 931.96912 626] CT
N
18.474 6 M
18.474 5.125 L
19.333 5.125 19.88 4.992 QT
20.427 4.859 20.427 4.328 QT
20.427 -8.797 L
20.427 -9.469 20.224 -9.766 QT
20.021 -10.063 19.646 -10.133 QT
19.271 -10.203 18.474 -10.203 QT
18.474 -11.078 L
22.193 -11.344 L
22.193 4.328 L
22.193 4.859 22.74 4.992 QT
23.287 5.125 24.13 5.125 QT
24.13 6 L
18.474 6 L
cp
f
GR
GS
[1 0 0 1 931.96912 626] CT
N
30.903 6.281 M
29.403 6.281 28.122 5.516 QT
26.84 4.75 26.098 3.469 QT
25.356 2.187 25.356 0.672 QT
25.356 -0.469 25.762 -1.531 QT
26.168 -2.594 26.934 -3.43 QT
27.7 -4.266 28.708 -4.734 QT
29.715 -5.203 30.903 -5.203 QT
32.434 -5.203 33.7 -4.391 QT
34.965 -3.578 35.7 -2.219 QT
36.434 -0.859 36.434 0.672 QT
36.434 2.172 35.692 3.461 QT
34.95 4.75 33.668 5.516 QT
32.387 6.281 30.903 6.281 QT
cp
30.903 5.547 M
32.903 5.547 33.575 4.094 QT
34.247 2.641 34.247 0.391 QT
34.247 -0.859 34.114 -1.688 QT
33.981 -2.516 33.528 -3.188 QT
33.247 -3.594 32.817 -3.906 QT
32.387 -4.219 31.903 -4.383 QT
31.418 -4.547 30.903 -4.547 QT
30.122 -4.547 29.418 -4.195 QT
28.715 -3.844 28.247 -3.188 QT
27.793 -2.469 27.661 -1.625 QT
27.528 -0.781 27.528 0.391 QT
27.528 1.797 27.778 2.914 QT
28.028 4.031 28.762 4.789 QT
29.497 5.547 30.903 5.547 QT
cp
f
GR
GS
[1 0 0 1 931.96912 626] CT
N
44.066 6.281 M
42.566 6.281 41.332 5.492 QT
40.097 4.703 39.386 3.391 QT
38.675 2.078 38.675 0.609 QT
38.675 -0.875 39.379 -2.227 QT
40.082 -3.578 41.324 -4.391 QT
42.566 -5.203 44.066 -5.203 QT
45.535 -5.203 46.738 -4.633 QT
47.941 -4.063 47.941 -2.75 QT
47.941 -2.266 47.597 -1.906 QT
47.254 -1.547 46.754 -1.547 QT
46.254 -1.547 45.902 -1.906 QT
45.55 -2.266 45.55 -2.75 QT
45.55 -3.188 45.832 -3.516 QT
46.113 -3.844 46.519 -3.922 QT
45.66 -4.469 44.097 -4.469 QT
42.894 -4.469 42.168 -3.68 QT
41.441 -2.891 41.144 -1.719 QT
40.847 -0.547 40.847 0.609 QT
40.847 1.812 41.207 2.945 QT
41.566 4.078 42.371 4.812 QT
43.175 5.547 44.379 5.547 QT
45.566 5.547 46.394 4.82 QT
47.222 4.094 47.535 2.922 QT
47.535 2.781 47.722 2.781 QT
48.035 2.781 L
48.097 2.781 48.16 2.844 QT
48.222 2.906 48.222 3 QT
48.222 3.062 L
47.847 4.547 46.722 5.414 QT
45.597 6.281 44.066 6.281 QT
cp
f
GR
GS
[1 0 0 1 931.96912 626] CT
N
48.905 6 M
48.905 5.125 L
49.764 5.125 50.311 4.992 QT
50.858 4.859 50.858 4.328 QT
50.858 -8.797 L
50.858 -9.469 50.662 -9.766 QT
50.467 -10.063 50.084 -10.133 QT
49.702 -10.203 48.905 -10.203 QT
48.905 -11.078 L
52.608 -11.344 L
52.608 0.516 L
55.967 -2.422 L
56.467 -2.906 56.467 -3.297 QT
56.467 -3.594 56.256 -3.75 QT
56.045 -3.906 55.764 -3.906 QT
55.764 -4.781 L
60.452 -4.781 L
60.452 -3.906 L
58.764 -3.906 57.061 -2.422 QT
55.28 -0.875 L
58.467 3.641 L
59.123 4.578 59.569 4.851 QT
60.014 5.125 61.045 5.125 QT
61.045 6 L
56.061 6 L
56.061 5.125 L
56.92 5.125 56.92 4.594 QT
56.92 4.219 56.467 3.641 QT
54.061 0.219 L
52.53 1.547 L
52.53 4.328 L
52.53 4.859 53.092 4.992 QT
53.655 5.125 54.483 5.125 QT
54.483 6 L
48.905 6 L
cp
f
GR
GS
[1 0 0 1 931.96912 626] CT
N
70.62 6.078 M
70.62 2 L
70.62 1.797 70.839 1.797 QT
71.151 1.797 L
71.292 1.797 71.339 2 QT
72.042 5.625 74.714 5.625 QT
75.901 5.625 76.698 5.086 QT
77.495 4.547 77.495 3.422 QT
77.495 2.625 76.87 2.055 QT
76.245 1.484 75.401 1.281 QT
73.729 0.953 L
72.886 0.766 72.19 0.383 QT
71.495 0 71.057 -0.625 QT
70.62 -1.25 70.62 -2.078 QT
70.62 -3.188 71.198 -3.883 QT
71.776 -4.578 72.706 -4.891 QT
73.636 -5.203 74.714 -5.203 QT
75.995 -5.203 76.948 -4.516 QT
77.667 -5.141 L
77.667 -5.203 77.792 -5.203 QT
77.964 -5.203 L
78.042 -5.203 78.104 -5.141 QT
78.167 -5.078 78.167 -5 QT
78.167 -1.734 L
78.167 -1.5 77.964 -1.5 QT
77.667 -1.5 L
77.448 -1.5 77.448 -1.734 QT
77.448 -3.031 76.722 -3.828 QT
75.995 -4.625 74.682 -4.625 QT
73.557 -4.625 72.737 -4.211 QT
71.917 -3.797 71.917 -2.781 QT
71.917 -2.078 72.511 -1.633 QT
73.104 -1.188 73.901 -1 QT
75.589 -0.672 L
76.448 -0.484 77.182 -0.016 QT
77.917 0.453 78.354 1.156 QT
78.792 1.859 78.792 2.75 QT
78.792 3.656 78.479 4.32 QT
78.167 4.984 77.612 5.422 QT
77.057 5.859 76.3 6.07 QT
75.542 6.281 74.714 6.281 QT
73.151 6.281 72.042 5.234 QT
71.12 6.219 L
71.12 6.281 70.995 6.281 QT
70.839 6.281 L
70.62 6.281 70.62 6.078 QT
cp
f
GR
GS
[1 0 0 1 931.96912 626] CT
N
80.419 6 M
80.419 5.125 L
81.278 5.125 81.825 4.992 QT
82.372 4.859 82.372 4.328 QT
82.372 -2.5 L
82.372 -3.453 82.005 -3.68 QT
81.637 -3.906 80.528 -3.906 QT
80.528 -4.781 L
84.137 -5.047 L
84.137 4.328 L
84.137 4.859 84.614 4.992 QT
85.09 5.125 85.872 5.125 QT
85.872 6 L
80.419 6 L
cp
81.481 -9.344 M
81.481 -9.891 81.895 -10.305 QT
82.309 -10.719 82.856 -10.719 QT
83.2 -10.719 83.536 -10.539 QT
83.872 -10.359 84.051 -10.031 QT
84.231 -9.703 84.231 -9.344 QT
84.231 -8.813 83.817 -8.399 QT
83.403 -7.984 82.856 -7.984 QT
82.309 -7.984 81.895 -8.399 QT
81.481 -8.813 81.481 -9.344 QT
cp
f
GR
GS
[1 0 0 1 931.96912 626] CT
N
87.582 6 M
87.301 6 87.301 5.719 QT
87.301 5.531 L
87.301 5.422 87.363 5.359 QT
94.347 -4.125 L
92.097 -4.125 L
91.035 -4.125 90.347 -3.984 QT
89.66 -3.844 89.215 -3.477 QT
88.769 -3.109 88.566 -2.453 QT
88.363 -1.797 88.363 -0.656 QT
87.644 -0.656 L
87.926 -4.781 L
96.301 -4.781 L
96.41 -4.781 96.488 -4.703 QT
96.566 -4.625 96.566 -4.5 QT
96.566 -4.359 L
96.566 -4.281 96.519 -4.188 QT
89.535 5.281 L
91.926 5.281 L
93.004 5.281 93.73 5.148 QT
94.457 5.016 94.972 4.5 QT
95.441 4.016 95.621 3.211 QT
95.801 2.406 95.894 1.234 QT
96.613 1.234 L
96.191 6 L
87.582 6 L
cp
f
GR
GS
[1 0 0 1 931.96912 626] CT
N
103.927 6.281 M
102.412 6.281 101.138 5.484 QT
99.865 4.687 99.138 3.351 QT
98.412 2.016 98.412 0.516 QT
98.412 -0.953 99.076 -2.266 QT
99.74 -3.578 100.927 -4.391 QT
102.115 -5.203 103.584 -5.203 QT
104.724 -5.203 105.576 -4.82 QT
106.427 -4.438 106.974 -3.75 QT
107.521 -3.063 107.802 -2.141 QT
108.084 -1.219 108.084 -0.109 QT
108.084 0.219 107.834 0.219 QT
100.584 0.219 L
100.584 0.5 L
100.584 2.562 101.419 4.055 QT
102.255 5.547 104.162 5.547 QT
104.927 5.547 105.576 5.203 QT
106.224 4.859 106.709 4.25 QT
107.193 3.641 107.365 2.953 QT
107.396 2.859 107.459 2.797 QT
107.521 2.734 107.615 2.734 QT
107.834 2.734 L
108.084 2.734 108.084 3.047 QT
107.724 4.469 106.552 5.375 QT
105.38 6.281 103.927 6.281 QT
cp
100.615 -0.391 M
106.318 -0.391 L
106.318 -1.344 106.052 -2.305 QT
105.787 -3.266 105.177 -3.906 QT
104.568 -4.547 103.584 -4.547 QT
102.162 -4.547 101.388 -3.219 QT
100.615 -1.891 100.615 -0.391 QT
cp
f
GR
GS
[1 0 0 1 931.96912 626] CT
N
118.2 2.203 M
118.2 0.703 119.192 -0.453 QT
120.184 -1.609 121.731 -2.375 QT
120.809 -2.969 L
119.95 -3.531 119.411 -4.469 QT
118.872 -5.406 118.872 -6.422 QT
118.872 -7.625 119.505 -8.586 QT
120.137 -9.547 121.176 -10.102 QT
122.215 -10.656 123.403 -10.656 QT
124.512 -10.656 125.544 -10.203 QT
126.575 -9.75 127.239 -8.906 QT
127.903 -8.063 127.903 -6.906 QT
127.903 -6.063 127.512 -5.344 QT
127.122 -4.625 126.426 -4.047 QT
125.731 -3.469 124.95 -3.063 QT
126.387 -2.156 L
127.372 -1.5 127.973 -0.453 QT
128.575 0.594 128.575 1.75 QT
128.575 3.109 127.848 4.219 QT
127.122 5.328 125.926 5.937 QT
124.731 6.547 123.403 6.547 QT
122.106 6.547 120.903 6.023 QT
119.7 5.5 118.95 4.508 QT
118.2 3.516 118.2 2.203 QT
cp
119.559 2.203 M
119.559 3.187 120.098 4.008 QT
120.637 4.828 121.536 5.289 QT
122.434 5.75 123.403 5.75 QT
124.856 5.75 126.044 4.906 QT
127.231 4.062 127.231 2.656 QT
127.231 2.172 127.036 1.703 QT
126.84 1.234 126.505 0.851 QT
126.169 0.469 125.762 0.219 QT
122.403 -1.953 L
121.622 -1.531 120.965 -0.899 QT
120.309 -0.266 119.934 0.531 QT
119.559 1.328 119.559 2.203 QT
cp
121.278 -5.422 M
124.309 -3.469 L
125.356 -4.078 126.028 -4.945 QT
126.7 -5.813 126.7 -6.906 QT
126.7 -7.75 126.231 -8.453 QT
125.762 -9.156 125.005 -9.547 QT
124.247 -9.938 123.372 -9.938 QT
122.622 -9.938 121.856 -9.641 QT
121.09 -9.344 120.59 -8.766 QT
120.09 -8.188 120.09 -7.406 QT
120.09 -6.234 121.278 -5.422 QT
cp
f
GR
GS
0 0.447 0.741 RC
1 LJ
1.2 LW
N
898.997 626 M
928.972 626 L
S
GR
GS
[1 0 0 1 913.98413 626] CT
0 0.447 0.741 RC
N
f227889816
f
GR
GS
[1 0 0 1 913.98413 626] CT
0 0.447 0.741 RC
10.0 ML
1.2 LW
N
-3 -3 M
-3 3 L
3 3 L
3 -3 L
cp
S
GR
GS
[1 0 0 1 931.96912 656.5] CT
N
/f1532383821{0.859 6 M
0.859 5.125 L
3.438 5.125 3.438 4.328 QT
3.438 -9.406 L
3.438 -10.203 0.859 -10.203 QT
0.859 -11.078 L
10.047 -11.078 L
11.313 -11.078 12.609 -10.586 QT
13.906 -10.094 14.75 -9.117 QT
15.594 -8.141 15.594 -6.828 QT
15.594 -5.297 14.344 -4.266 QT
13.094 -3.234 11.422 -2.922 QT
12.516 -2.922 13.664 -2.328 QT
14.813 -1.734 15.539 -0.727 QT
16.266 0.281 16.266 1.391 QT
16.266 2.766 15.461 3.812 QT
14.656 4.859 13.359 5.43 QT
12.063 6 10.75 6 QT
0.859 6 L
cp
5.609 4.328 M
5.609 4.859 5.914 4.992 QT
6.219 5.125 6.875 5.125 QT
10.047 5.125 L
11.016 5.125 11.859 4.609 QT
12.703 4.094 13.188 3.234 QT
13.672 2.375 13.672 1.391 QT
13.672 0.453 13.266 -0.461 QT
12.859 -1.375 12.109 -1.961 QT
11.359 -2.547 10.406 -2.547 QT
5.609 -2.547 L
5.609 4.328 L
cp
5.609 -3.203 M
9.344 -3.203 L
10.109 -3.203 10.773 -3.477 QT
11.438 -3.75 11.969 -4.274 QT
12.5 -4.797 12.789 -5.445 QT
13.078 -6.094 13.078 -6.828 QT
13.078 -7.484 12.859 -8.078 QT
12.641 -8.672 12.227 -9.164 QT
11.813 -9.656 11.25 -9.93 QT
10.688 -10.203 10.047 -10.203 QT
6.875 -10.203 L
6.422 -10.203 6.172 -10.164 QT
5.922 -10.125 5.766 -9.945 QT
5.609 -9.766 5.609 -9.406 QT
5.609 -3.203 L
cp}def
f1532383821
f
GR
GS
[1 0 0 1 931.96912 656.5] CT
N
/f1790679491{18.474 6 M
18.474 5.125 L
19.333 5.125 19.88 4.992 QT
20.427 4.859 20.427 4.328 QT
20.427 -8.797 L
20.427 -9.469 20.224 -9.766 QT
20.021 -10.063 19.646 -10.133 QT
19.271 -10.203 18.474 -10.203 QT
18.474 -11.078 L
22.193 -11.344 L
22.193 4.328 L
22.193 4.859 22.74 4.992 QT
23.287 5.125 24.13 5.125 QT
24.13 6 L
18.474 6 L
cp}def
f1790679491
f
GR
GS
[1 0 0 1 931.96912 656.5] CT
N
/f1291015099{30.903 6.281 M
29.403 6.281 28.122 5.516 QT
26.84 4.75 26.098 3.469 QT
25.356 2.187 25.356 0.672 QT
25.356 -0.469 25.762 -1.531 QT
26.168 -2.594 26.934 -3.43 QT
27.7 -4.266 28.708 -4.734 QT
29.715 -5.203 30.903 -5.203 QT
32.434 -5.203 33.7 -4.391 QT
34.965 -3.578 35.7 -2.219 QT
36.434 -0.859 36.434 0.672 QT
36.434 2.172 35.692 3.461 QT
34.95 4.75 33.668 5.516 QT
32.387 6.281 30.903 6.281 QT
cp
30.903 5.547 M
32.903 5.547 33.575 4.094 QT
34.247 2.641 34.247 0.391 QT
34.247 -0.859 34.114 -1.688 QT
33.981 -2.516 33.528 -3.188 QT
33.247 -3.594 32.817 -3.906 QT
32.387 -4.219 31.903 -4.383 QT
31.418 -4.547 30.903 -4.547 QT
30.122 -4.547 29.418 -4.195 QT
28.715 -3.844 28.247 -3.188 QT
27.793 -2.469 27.661 -1.625 QT
27.528 -0.781 27.528 0.391 QT
27.528 1.797 27.778 2.914 QT
28.028 4.031 28.762 4.789 QT
29.497 5.547 30.903 5.547 QT
cp}def
f1291015099
f
GR
GS
[1 0 0 1 931.96912 656.5] CT
N
/f1051699895{44.066 6.281 M
42.566 6.281 41.332 5.492 QT
40.097 4.703 39.386 3.391 QT
38.675 2.078 38.675 0.609 QT
38.675 -0.875 39.379 -2.227 QT
40.082 -3.578 41.324 -4.391 QT
42.566 -5.203 44.066 -5.203 QT
45.535 -5.203 46.738 -4.633 QT
47.941 -4.063 47.941 -2.75 QT
47.941 -2.266 47.597 -1.906 QT
47.254 -1.547 46.754 -1.547 QT
46.254 -1.547 45.902 -1.906 QT
45.55 -2.266 45.55 -2.75 QT
45.55 -3.188 45.832 -3.516 QT
46.113 -3.844 46.519 -3.922 QT
45.66 -4.469 44.097 -4.469 QT
42.894 -4.469 42.168 -3.68 QT
41.441 -2.891 41.144 -1.719 QT
40.847 -0.547 40.847 0.609 QT
40.847 1.812 41.207 2.945 QT
41.566 4.078 42.371 4.812 QT
43.175 5.547 44.379 5.547 QT
45.566 5.547 46.394 4.82 QT
47.222 4.094 47.535 2.922 QT
47.535 2.781 47.722 2.781 QT
48.035 2.781 L
48.097 2.781 48.16 2.844 QT
48.222 2.906 48.222 3 QT
48.222 3.062 L
47.847 4.547 46.722 5.414 QT
45.597 6.281 44.066 6.281 QT
cp}def
f1051699895
f
GR
GS
[1 0 0 1 931.96912 656.5] CT
N
/f1271157933{48.905 6 M
48.905 5.125 L
49.764 5.125 50.311 4.992 QT
50.858 4.859 50.858 4.328 QT
50.858 -8.797 L
50.858 -9.469 50.662 -9.766 QT
50.467 -10.063 50.084 -10.133 QT
49.702 -10.203 48.905 -10.203 QT
48.905 -11.078 L
52.608 -11.344 L
52.608 0.516 L
55.967 -2.422 L
56.467 -2.906 56.467 -3.297 QT
56.467 -3.594 56.256 -3.75 QT
56.045 -3.906 55.764 -3.906 QT
55.764 -4.781 L
60.452 -4.781 L
60.452 -3.906 L
58.764 -3.906 57.061 -2.422 QT
55.28 -0.875 L
58.467 3.641 L
59.123 4.578 59.569 4.851 QT
60.014 5.125 61.045 5.125 QT
61.045 6 L
56.061 6 L
56.061 5.125 L
56.92 5.125 56.92 4.594 QT
56.92 4.219 56.467 3.641 QT
54.061 0.219 L
52.53 1.547 L
52.53 4.328 L
52.53 4.859 53.092 4.992 QT
53.655 5.125 54.483 5.125 QT
54.483 6 L
48.905 6 L
cp}def
f1271157933
f
GR
GS
[1 0 0 1 931.96912 656.5] CT
N
/f-1491945996{70.62 6.078 M
70.62 2 L
70.62 1.797 70.839 1.797 QT
71.151 1.797 L
71.292 1.797 71.339 2 QT
72.042 5.625 74.714 5.625 QT
75.901 5.625 76.698 5.086 QT
77.495 4.547 77.495 3.422 QT
77.495 2.625 76.87 2.055 QT
76.245 1.484 75.401 1.281 QT
73.729 0.953 L
72.886 0.766 72.19 0.383 QT
71.495 0 71.057 -0.625 QT
70.62 -1.25 70.62 -2.078 QT
70.62 -3.188 71.198 -3.883 QT
71.776 -4.578 72.706 -4.891 QT
73.636 -5.203 74.714 -5.203 QT
75.995 -5.203 76.948 -4.516 QT
77.667 -5.141 L
77.667 -5.203 77.792 -5.203 QT
77.964 -5.203 L
78.042 -5.203 78.104 -5.141 QT
78.167 -5.078 78.167 -5 QT
78.167 -1.734 L
78.167 -1.5 77.964 -1.5 QT
77.667 -1.5 L
77.448 -1.5 77.448 -1.734 QT
77.448 -3.031 76.722 -3.828 QT
75.995 -4.625 74.682 -4.625 QT
73.557 -4.625 72.737 -4.211 QT
71.917 -3.797 71.917 -2.781 QT
71.917 -2.078 72.511 -1.633 QT
73.104 -1.188 73.901 -1 QT
75.589 -0.672 L
76.448 -0.484 77.182 -0.016 QT
77.917 0.453 78.354 1.156 QT
78.792 1.859 78.792 2.75 QT
78.792 3.656 78.479 4.32 QT
78.167 4.984 77.612 5.422 QT
77.057 5.859 76.3 6.07 QT
75.542 6.281 74.714 6.281 QT
73.151 6.281 72.042 5.234 QT
71.12 6.219 L
71.12 6.281 70.995 6.281 QT
70.839 6.281 L
70.62 6.281 70.62 6.078 QT
cp}def
f-1491945996
f
GR
GS
[1 0 0 1 931.96912 656.5] CT
N
/f1780384135{80.419 6 M
80.419 5.125 L
81.278 5.125 81.825 4.992 QT
82.372 4.859 82.372 4.328 QT
82.372 -2.5 L
82.372 -3.453 82.005 -3.68 QT
81.637 -3.906 80.528 -3.906 QT
80.528 -4.781 L
84.137 -5.047 L
84.137 4.328 L
84.137 4.859 84.614 4.992 QT
85.09 5.125 85.872 5.125 QT
85.872 6 L
80.419 6 L
cp
81.481 -9.344 M
81.481 -9.891 81.895 -10.305 QT
82.309 -10.719 82.856 -10.719 QT
83.2 -10.719 83.536 -10.539 QT
83.872 -10.359 84.051 -10.031 QT
84.231 -9.703 84.231 -9.344 QT
84.231 -8.813 83.817 -8.399 QT
83.403 -7.984 82.856 -7.984 QT
82.309 -7.984 81.895 -8.399 QT
81.481 -8.813 81.481 -9.344 QT
cp}def
f1780384135
f
GR
GS
[1 0 0 1 931.96912 656.5] CT
N
/f-184416101{87.582 6 M
87.301 6 87.301 5.719 QT
87.301 5.531 L
87.301 5.422 87.363 5.359 QT
94.347 -4.125 L
92.097 -4.125 L
91.035 -4.125 90.347 -3.984 QT
89.66 -3.844 89.215 -3.477 QT
88.769 -3.109 88.566 -2.453 QT
88.363 -1.797 88.363 -0.656 QT
87.644 -0.656 L
87.926 -4.781 L
96.301 -4.781 L
96.41 -4.781 96.488 -4.703 QT
96.566 -4.625 96.566 -4.5 QT
96.566 -4.359 L
96.566 -4.281 96.519 -4.188 QT
89.535 5.281 L
91.926 5.281 L
93.004 5.281 93.73 5.148 QT
94.457 5.016 94.972 4.5 QT
95.441 4.016 95.621 3.211 QT
95.801 2.406 95.894 1.234 QT
96.613 1.234 L
96.191 6 L
87.582 6 L
cp}def
f-184416101
f
GR
GS
[1 0 0 1 931.96912 656.5] CT
N
/f273976647{103.927 6.281 M
102.412 6.281 101.138 5.484 QT
99.865 4.687 99.138 3.351 QT
98.412 2.016 98.412 0.516 QT
98.412 -0.953 99.076 -2.266 QT
99.74 -3.578 100.927 -4.391 QT
102.115 -5.203 103.584 -5.203 QT
104.724 -5.203 105.576 -4.82 QT
106.427 -4.438 106.974 -3.75 QT
107.521 -3.063 107.802 -2.141 QT
108.084 -1.219 108.084 -0.109 QT
108.084 0.219 107.834 0.219 QT
100.584 0.219 L
100.584 0.5 L
100.584 2.562 101.419 4.055 QT
102.255 5.547 104.162 5.547 QT
104.927 5.547 105.576 5.203 QT
106.224 4.859 106.709 4.25 QT
107.193 3.641 107.365 2.953 QT
107.396 2.859 107.459 2.797 QT
107.521 2.734 107.615 2.734 QT
107.834 2.734 L
108.084 2.734 108.084 3.047 QT
107.724 4.469 106.552 5.375 QT
105.38 6.281 103.927 6.281 QT
cp
100.615 -0.391 M
106.318 -0.391 L
106.318 -1.344 106.052 -2.305 QT
105.787 -3.266 105.177 -3.906 QT
104.568 -4.547 103.584 -4.547 QT
102.162 -4.547 101.388 -3.219 QT
100.615 -1.891 100.615 -0.391 QT
cp}def
f273976647
f
GR
GS
[1 0 0 1 931.96912 656.5] CT
N
/f313694679{119.465 6 M
119.465 5.125 L
122.59 5.125 122.59 4.328 QT
122.59 -8.797 L
121.309 -8.172 119.325 -8.172 QT
119.325 -9.047 L
122.387 -9.047 123.95 -10.656 QT
124.309 -10.656 L
124.387 -10.656 124.465 -10.586 QT
124.544 -10.516 124.544 -10.438 QT
124.544 4.328 L
124.544 5.125 127.669 5.125 QT
127.669 6 L
119.465 6 L
cp}def
f313694679
f
GR
GS
[1 0 0 1 931.96912 656.5] CT
N
/f828739263{135.903 6.547 M
134.356 6.547 133.317 5.726 QT
132.278 4.906 131.708 3.594 QT
131.137 2.281 130.919 0.836 QT
130.7 -0.609 130.7 -2.078 QT
130.7 -4.063 131.473 -6.047 QT
132.247 -8.031 133.739 -9.344 QT
135.231 -10.656 137.278 -10.656 QT
138.137 -10.656 138.88 -10.328 QT
139.622 -10 140.036 -9.375 QT
140.45 -8.75 140.45 -7.859 QT
140.45 -7.344 140.106 -6.992 QT
139.762 -6.641 139.247 -6.641 QT
138.762 -6.641 138.411 -7 QT
138.059 -7.359 138.059 -7.859 QT
138.059 -8.344 138.411 -8.695 QT
138.762 -9.047 139.247 -9.047 QT
139.387 -9.047 L
139.059 -9.5 138.481 -9.719 QT
137.903 -9.938 137.278 -9.938 QT
136.528 -9.938 135.887 -9.602 QT
135.247 -9.266 134.731 -8.703 QT
134.215 -8.141 133.872 -7.469 QT
133.528 -6.797 133.34 -5.93 QT
133.153 -5.063 133.106 -4.305 QT
133.059 -3.547 133.059 -2.406 QT
133.497 -3.422 134.301 -4.078 QT
135.106 -4.734 136.122 -4.734 QT
137.231 -4.734 138.145 -4.281 QT
139.059 -3.828 139.723 -3.031 QT
140.387 -2.234 140.731 -1.203 QT
141.075 -0.172 141.075 0.875 QT
141.075 2.344 140.426 3.664 QT
139.778 4.984 138.59 5.766 QT
137.403 6.547 135.903 6.547 QT
cp
135.903 5.75 M
136.872 5.75 137.458 5.312 QT
138.044 4.875 138.317 4.148 QT
138.59 3.422 138.653 2.687 QT
138.715 1.953 138.715 0.875 QT
138.715 -0.547 138.583 -1.547 QT
138.45 -2.547 137.856 -3.313 QT
137.262 -4.078 136.028 -4.078 QT
135.012 -4.078 134.356 -3.391 QT
133.7 -2.703 133.403 -1.656 QT
133.106 -0.609 133.106 0.344 QT
133.106 0.672 133.137 0.844 QT
133.137 0.891 133.13 0.914 QT
133.122 0.937 133.106 0.969 QT
133.106 2.047 133.325 3.141 QT
133.544 4.234 134.169 4.992 QT
134.794 5.75 135.903 5.75 QT
cp}def
f828739263
f
GR
GS
0.851 0.325 0.098 RC
1 LJ
1.2 LW
N
898.997 656.5 M
928.972 656.5 L
S
GR
GS
[1 0 0 1 913.98413 656.5] CT
0.851 0.325 0.098 RC
N
f227889816
f
GR
GS
[1 0 0 1 913.98413 656.5] CT
0.851 0.325 0.098 RC
10.0 ML
1.2 LW
N
-3 -3 M
-3 3 L
3 3 L
3 -3 L
cp
S
GR
GS
[1 0 0 1 931.96912 687] CT
N
f1532383821
f
GR
GS
[1 0 0 1 931.96912 687] CT
N
f1790679491
f
GR
GS
[1 0 0 1 931.96912 687] CT
N
f1291015099
f
GR
GS
[1 0 0 1 931.96912 687] CT
N
f1051699895
f
GR
GS
[1 0 0 1 931.96912 687] CT
N
f1271157933
f
GR
GS
[1 0 0 1 931.96912 687] CT
N
f-1491945996
f
GR
GS
[1 0 0 1 931.96912 687] CT
N
f1780384135
f
GR
GS
[1 0 0 1 931.96912 687] CT
N
f-184416101
f
GR
GS
[1 0 0 1 931.96912 687] CT
N
f273976647
f
GR
GS
[1 0 0 1 931.96912 687] CT
N
/f238823599{119.528 4.078 M
120.122 4.922 121.106 5.336 QT
122.09 5.75 123.231 5.75 QT
124.684 5.75 125.294 4.516 QT
125.903 3.281 125.903 1.703 QT
125.903 1 125.778 0.289 QT
125.653 -0.422 125.348 -1.031 QT
125.044 -1.641 124.512 -2.008 QT
123.981 -2.375 123.215 -2.375 QT
121.544 -2.375 L
121.325 -2.375 121.325 -2.609 QT
121.325 -2.828 L
121.325 -3.016 121.544 -3.016 QT
122.934 -3.125 L
123.809 -3.125 124.387 -3.789 QT
124.965 -4.453 125.231 -5.399 QT
125.497 -6.344 125.497 -7.203 QT
125.497 -8.391 124.942 -9.164 QT
124.387 -9.938 123.231 -9.938 QT
122.278 -9.938 121.411 -9.57 QT
120.544 -9.203 120.028 -8.484 QT
120.09 -8.484 120.122 -8.492 QT
120.153 -8.5 120.2 -8.5 QT
120.762 -8.5 121.145 -8.109 QT
121.528 -7.719 121.528 -7.172 QT
121.528 -6.641 121.145 -6.25 QT
120.762 -5.859 120.2 -5.859 QT
119.653 -5.859 119.262 -6.25 QT
118.872 -6.641 118.872 -7.172 QT
118.872 -8.25 119.52 -9.039 QT
120.169 -9.828 121.184 -10.242 QT
122.2 -10.656 123.231 -10.656 QT
123.997 -10.656 124.833 -10.43 QT
125.669 -10.203 126.356 -9.781 QT
127.044 -9.359 127.473 -8.695 QT
127.903 -8.031 127.903 -7.203 QT
127.903 -6.141 127.434 -5.25 QT
126.965 -4.359 126.145 -3.711 QT
125.325 -3.063 124.356 -2.75 QT
125.434 -2.547 126.411 -1.938 QT
127.387 -1.328 127.981 -0.375 QT
128.575 0.578 128.575 1.672 QT
128.575 3.062 127.817 4.18 QT
127.059 5.297 125.833 5.922 QT
124.606 6.547 123.231 6.547 QT
122.059 6.547 120.88 6.101 QT
119.7 5.656 118.95 4.766 QT
118.2 3.875 118.2 2.625 QT
118.2 2.016 118.614 1.594 QT
119.028 1.172 119.653 1.172 QT
120.059 1.172 120.395 1.367 QT
120.731 1.562 120.919 1.898 QT
121.106 2.234 121.106 2.625 QT
121.106 3.234 120.676 3.656 QT
120.247 4.078 119.653 4.078 QT
119.528 4.078 L
cp}def
f238823599
f
GR
GS
[1 0 0 1 931.96912 687] CT
N
/f568089572{130.903 6 M
130.903 5.328 L
130.903 5.266 130.95 5.187 QT
134.825 0.891 L
135.715 -0.063 136.262 -0.703 QT
136.809 -1.344 137.348 -2.188 QT
137.887 -3.031 138.192 -3.906 QT
138.497 -4.781 138.497 -5.75 QT
138.497 -6.781 138.122 -7.719 QT
137.747 -8.656 136.997 -9.211 QT
136.247 -9.766 135.184 -9.766 QT
134.09 -9.766 133.223 -9.117 QT
132.356 -8.469 132.012 -7.422 QT
132.106 -7.453 132.278 -7.453 QT
132.84 -7.453 133.239 -7.078 QT
133.637 -6.703 133.637 -6.094 QT
133.637 -5.531 133.239 -5.133 QT
132.84 -4.734 132.278 -4.734 QT
131.684 -4.734 131.294 -5.141 QT
130.903 -5.547 130.903 -6.094 QT
130.903 -7.031 131.255 -7.859 QT
131.606 -8.688 132.27 -9.328 QT
132.934 -9.969 133.77 -10.313 QT
134.606 -10.656 135.544 -10.656 QT
136.981 -10.656 138.215 -10.047 QT
139.45 -9.438 140.169 -8.336 QT
140.887 -7.234 140.887 -5.75 QT
140.887 -4.672 140.411 -3.695 QT
139.934 -2.719 139.192 -1.914 QT
138.45 -1.109 137.286 -0.102 QT
136.122 0.906 135.762 1.25 QT
132.919 3.969 L
135.325 3.969 L
137.106 3.969 138.294 3.937 QT
139.481 3.906 139.559 3.844 QT
139.84 3.531 140.153 1.547 QT
140.887 1.547 L
140.169 6 L
130.903 6 L
cp}def
f568089572
f
GR
GS
0.467 0.675 0.188 RC
1 LJ
1.2 LW
N
898.997 687 M
928.972 687 L
S
GR
GS
[1 0 0 1 913.98413 687] CT
0.467 0.675 0.188 RC
N
f227889816
f
GR
GS
[1 0 0 1 913.98413 687] CT
0.467 0.675 0.188 RC
10.0 ML
1.2 LW
N
-3 -3 M
-3 3 L
3 3 L
3 -3 L
cp
S
GR
GS
0.149 GC
10.0 ML
0.5 LW
N
895 704 M
895 609 L
1078 609 L
1078 704 L
cp
S
GR
%%Trailer
%%Pages: 1
%%EOF
