%!PS-Adobe-3.0 EPSF-3.0
%%Creator: (MATLAB, The Mathworks, Inc. Version 9.5.0.944444 \(R2018b\). Operating System: Mac OS X)
%%Title: ./pois9_band.eps
%%CreationDate: 2019-01-25T19:07:46
%%Pages: (atend)
%%BoundingBox:    87    12  1090   749
%%LanguageLevel: 3
%%EndComments
%%BeginProlog
%%BeginResource: procset (Apache XML Graphics Std ProcSet) 1.2 0
%%Version: 1.2 0
%%Copyright: (Copyright 2001-2003,2010 The Apache Software Foundation. License terms: http://www.apache.org/licenses/LICENSE-2.0)
/bd{bind def}bind def
/ld{load def}bd
/GR/grestore ld
/GS/gsave ld
/RM/rmoveto ld
/C/curveto ld
/t/show ld
/L/lineto ld
/ML/setmiterlimit ld
/CT/concat ld
/f/fill ld
/N/newpath ld
/S/stroke ld
/CC/setcmykcolor ld
/A/ashow ld
/cp/closepath ld
/RC/setrgbcolor ld
/LJ/setlinejoin ld
/GC/setgray ld
/LW/setlinewidth ld
/M/moveto ld
/re {4 2 roll M
1 index 0 rlineto
0 exch rlineto
neg 0 rlineto
cp } bd
/_ctm matrix def
/_tm matrix def
/BT { _ctm currentmatrix pop matrix _tm copy pop 0 0 moveto } bd
/ET { _ctm setmatrix } bd
/iTm { _ctm setmatrix _tm concat } bd
/Tm { _tm astore pop iTm 0 0 moveto } bd
/ux 0.0 def
/uy 0.0 def
/F {
  /Tp exch def
  /Tf exch def
  Tf findfont Tp scalefont setfont
  /cf Tf def  /cs Tp def
} bd
/ULS {currentpoint /uy exch def /ux exch def} bd
/ULE {
  /Tcx currentpoint pop def
  gsave
  newpath
  cf findfont cs scalefont dup
  /FontMatrix get 0 get /Ts exch def /FontInfo get dup
  /UnderlinePosition get Ts mul /To exch def
  /UnderlineThickness get Ts mul /Tt exch def
  ux uy To add moveto  Tcx uy To add lineto
  Tt setlinewidth stroke
  grestore
} bd
/OLE {
  /Tcx currentpoint pop def
  gsave
  newpath
  cf findfont cs scalefont dup
  /FontMatrix get 0 get /Ts exch def /FontInfo get dup
  /UnderlinePosition get Ts mul /To exch def
  /UnderlineThickness get Ts mul /Tt exch def
  ux uy To add cs add moveto Tcx uy To add cs add lineto
  Tt setlinewidth stroke
  grestore
} bd
/SOE {
  /Tcx currentpoint pop def
  gsave
  newpath
  cf findfont cs scalefont dup
  /FontMatrix get 0 get /Ts exch def /FontInfo get dup
  /UnderlinePosition get Ts mul /To exch def
  /UnderlineThickness get Ts mul /Tt exch def
  ux uy To add cs 10 mul 26 idiv add moveto Tcx uy To add cs 10 mul 26 idiv add lineto
  Tt setlinewidth stroke
  grestore
} bd
/QT {
/Y22 exch store
/X22 exch store
/Y21 exch store
/X21 exch store
currentpoint
/Y21 load 2 mul add 3 div exch
/X21 load 2 mul add 3 div exch
/X21 load 2 mul /X22 load add 3 div
/Y21 load 2 mul /Y22 load add 3 div
/X22 load /Y22 load curveto
} bd
/SSPD {
dup length /d exch dict def
{
/v exch def
/k exch def
currentpagedevice k known {
/cpdv currentpagedevice k get def
v cpdv ne {
/upd false def
/nullv v type /nulltype eq def
/nullcpdv cpdv type /nulltype eq def
nullv nullcpdv or
{
/upd true def
} {
/sametype v type cpdv type eq def
sametype {
v type /arraytype eq {
/vlen v length def
/cpdvlen cpdv length def
vlen cpdvlen eq {
0 1 vlen 1 sub {
/i exch def
/obj v i get def
/cpdobj cpdv i get def
obj cpdobj ne {
/upd true def
exit
} if
} for
} {
/upd true def
} ifelse
} {
v type /dicttype eq {
v {
/dv exch def
/dk exch def
/cpddv cpdv dk get def
dv cpddv ne {
/upd true def
exit
} if
} forall
} {
/upd true def
} ifelse
} ifelse
} if
} ifelse
upd true eq {
d k v put
} if
} if
} if
} forall
d length 0 gt {
d setpagedevice
} if
} bd
/RE { % /NewFontName [NewEncodingArray] /FontName RE -
  findfont dup length dict begin
  {
    1 index /FID ne
    {def} {pop pop} ifelse
  } forall
  /Encoding exch def
  /FontName 1 index def
  currentdict definefont pop
  end
} bind def
%%EndResource
%%BeginResource: procset (Apache XML Graphics EPS ProcSet) 1.0 0
%%Version: 1.0 0
%%Copyright: (Copyright 2002-2003 The Apache Software Foundation. License terms: http://www.apache.org/licenses/LICENSE-2.0)
/BeginEPSF { %def
/b4_Inc_state save def         % Save state for cleanup
/dict_count countdictstack def % Count objects on dict stack
/op_count count 1 sub def      % Count objects on operand stack
userdict begin                 % Push userdict on dict stack
/showpage { } def              % Redefine showpage, { } = null proc
0 setgray 0 setlinecap         % Prepare graphics state
1 setlinewidth 0 setlinejoin
10 setmiterlimit [ ] 0 setdash newpath
/languagelevel where           % If level not equal to 1 then
{pop languagelevel             % set strokeadjust and
1 ne                           % overprint to their defaults.
{false setstrokeadjust false setoverprint
} if
} if
} bd
/EndEPSF { %def
count op_count sub {pop} repeat            % Clean up stacks
countdictstack dict_count sub {end} repeat
b4_Inc_state restore
} bd
%%EndResource
%FOPBeginFontDict
%%IncludeResource: font Courier-Oblique
%%IncludeResource: font Courier-BoldOblique
%%IncludeResource: font Courier-Bold
%%IncludeResource: font ZapfDingbats
%%IncludeResource: font Symbol
%%IncludeResource: font Helvetica
%%IncludeResource: font Helvetica-Oblique
%%IncludeResource: font Helvetica-Bold
%%IncludeResource: font Helvetica-BoldOblique
%%IncludeResource: font Times-Roman
%%IncludeResource: font Times-Italic
%%IncludeResource: font Times-Bold
%%IncludeResource: font Times-BoldItalic
%%IncludeResource: font Courier
%FOPEndFontDict
%%BeginResource: encoding WinAnsiEncoding
/WinAnsiEncoding [
/.notdef /.notdef /.notdef /.notdef /.notdef
/.notdef /.notdef /.notdef /.notdef /.notdef
/.notdef /.notdef /.notdef /.notdef /.notdef
/.notdef /.notdef /.notdef /.notdef /.notdef
/.notdef /.notdef /.notdef /.notdef /.notdef
/.notdef /.notdef /.notdef /.notdef /.notdef
/.notdef /.notdef /space /exclam /quotedbl
/numbersign /dollar /percent /ampersand /quotesingle
/parenleft /parenright /asterisk /plus /comma
/hyphen /period /slash /zero /one
/two /three /four /five /six
/seven /eight /nine /colon /semicolon
/less /equal /greater /question /at
/A /B /C /D /E
/F /G /H /I /J
/K /L /M /N /O
/P /Q /R /S /T
/U /V /W /X /Y
/Z /bracketleft /backslash /bracketright /asciicircum
/underscore /quoteleft /a /b /c
/d /e /f /g /h
/i /j /k /l /m
/n /o /p /q /r
/s /t /u /v /w
/x /y /z /braceleft /bar
/braceright /asciitilde /bullet /Euro /bullet
/quotesinglbase /florin /quotedblbase /ellipsis /dagger
/daggerdbl /circumflex /perthousand /Scaron /guilsinglleft
/OE /bullet /Zcaron /bullet /bullet
/quoteleft /quoteright /quotedblleft /quotedblright /bullet
/endash /emdash /asciitilde /trademark /scaron
/guilsinglright /oe /bullet /zcaron /Ydieresis
/space /exclamdown /cent /sterling /currency
/yen /brokenbar /section /dieresis /copyright
/ordfeminine /guillemotleft /logicalnot /sfthyphen /registered
/macron /degree /plusminus /twosuperior /threesuperior
/acute /mu /paragraph /middot /cedilla
/onesuperior /ordmasculine /guillemotright /onequarter /onehalf
/threequarters /questiondown /Agrave /Aacute /Acircumflex
/Atilde /Adieresis /Aring /AE /Ccedilla
/Egrave /Eacute /Ecircumflex /Edieresis /Igrave
/Iacute /Icircumflex /Idieresis /Eth /Ntilde
/Ograve /Oacute /Ocircumflex /Otilde /Odieresis
/multiply /Oslash /Ugrave /Uacute /Ucircumflex
/Udieresis /Yacute /Thorn /germandbls /agrave
/aacute /acircumflex /atilde /adieresis /aring
/ae /ccedilla /egrave /eacute /ecircumflex
/edieresis /igrave /iacute /icircumflex /idieresis
/eth /ntilde /ograve /oacute /ocircumflex
/otilde /odieresis /divide /oslash /ugrave
/uacute /ucircumflex /udieresis /yacute /thorn
/ydieresis
] def
%%EndResource
%FOPBeginFontReencode
/Courier-Oblique findfont
dup length dict begin
  {1 index /FID ne {def} {pop pop} ifelse} forall
  /Encoding WinAnsiEncoding def
  currentdict
end
/Courier-Oblique exch definefont pop
/Courier-BoldOblique findfont
dup length dict begin
  {1 index /FID ne {def} {pop pop} ifelse} forall
  /Encoding WinAnsiEncoding def
  currentdict
end
/Courier-BoldOblique exch definefont pop
/Courier-Bold findfont
dup length dict begin
  {1 index /FID ne {def} {pop pop} ifelse} forall
  /Encoding WinAnsiEncoding def
  currentdict
end
/Courier-Bold exch definefont pop
/Helvetica findfont
dup length dict begin
  {1 index /FID ne {def} {pop pop} ifelse} forall
  /Encoding WinAnsiEncoding def
  currentdict
end
/Helvetica exch definefont pop
/Helvetica-Oblique findfont
dup length dict begin
  {1 index /FID ne {def} {pop pop} ifelse} forall
  /Encoding WinAnsiEncoding def
  currentdict
end
/Helvetica-Oblique exch definefont pop
/Helvetica-Bold findfont
dup length dict begin
  {1 index /FID ne {def} {pop pop} ifelse} forall
  /Encoding WinAnsiEncoding def
  currentdict
end
/Helvetica-Bold exch definefont pop
/Helvetica-BoldOblique findfont
dup length dict begin
  {1 index /FID ne {def} {pop pop} ifelse} forall
  /Encoding WinAnsiEncoding def
  currentdict
end
/Helvetica-BoldOblique exch definefont pop
/Times-Roman findfont
dup length dict begin
  {1 index /FID ne {def} {pop pop} ifelse} forall
  /Encoding WinAnsiEncoding def
  currentdict
end
/Times-Roman exch definefont pop
/Times-Italic findfont
dup length dict begin
  {1 index /FID ne {def} {pop pop} ifelse} forall
  /Encoding WinAnsiEncoding def
  currentdict
end
/Times-Italic exch definefont pop
/Times-Bold findfont
dup length dict begin
  {1 index /FID ne {def} {pop pop} ifelse} forall
  /Encoding WinAnsiEncoding def
  currentdict
end
/Times-Bold exch definefont pop
/Times-BoldItalic findfont
dup length dict begin
  {1 index /FID ne {def} {pop pop} ifelse} forall
  /Encoding WinAnsiEncoding def
  currentdict
end
/Times-BoldItalic exch definefont pop
/Courier findfont
dup length dict begin
  {1 index /FID ne {def} {pop pop} ifelse} forall
  /Encoding WinAnsiEncoding def
  currentdict
end
/Courier exch definefont pop
%FOPEndFontReencode
%%EndProlog
%%Page: 1 1
%%PageBoundingBox: 0 0 1200 800
%%BeginPageSetup
[1 0 0 -1 0 800] CT
%%EndPageSetup
GS
1 GC
N
0 0 1200 800 re
f
GR
GS
1 GC
N
0 0 1200 800 re
f
GR
GS
1 GC
N
156 712 M
1086 712 L
1086 60 L
156 60 L
cp
f
GR
GS
0.775 GC
[1 3] 0 setdash
2 LJ
0.5 LW
N
274.121 712 M
274.121 60 L
S
GR
GS
0.775 GC
[1 3] 0 setdash
2 LJ
0.5 LW
N
343.218 712 M
343.218 60 L
S
GR
GS
0.775 GC
[1 3] 0 setdash
2 LJ
0.5 LW
N
392.243 712 M
392.243 60 L
S
GR
GS
0.775 GC
[1 3] 0 setdash
2 LJ
0.5 LW
N
430.27 712 M
430.27 60 L
S
GR
GS
0.775 GC
[1 3] 0 setdash
2 LJ
0.5 LW
N
461.34 712 M
461.34 60 L
S
GR
GS
0.775 GC
[1 3] 0 setdash
2 LJ
0.5 LW
N
487.609 712 M
487.609 60 L
S
GR
GS
0.775 GC
[1 3] 0 setdash
2 LJ
0.5 LW
N
510.364 712 M
510.364 60 L
S
GR
GS
0.775 GC
[1 3] 0 setdash
2 LJ
0.5 LW
N
530.436 712 M
530.436 60 L
S
GR
GS
0.775 GC
[1 3] 0 setdash
2 LJ
0.5 LW
N
666.512 712 M
666.512 60 L
S
GR
GS
0.775 GC
[1 3] 0 setdash
2 LJ
0.5 LW
N
735.609 712 M
735.609 60 L
S
GR
GS
0.775 GC
[1 3] 0 setdash
2 LJ
0.5 LW
N
784.634 712 M
784.634 60 L
S
GR
GS
0.775 GC
[1 3] 0 setdash
2 LJ
0.5 LW
N
822.661 712 M
822.661 60 L
S
GR
GS
0.775 GC
[1 3] 0 setdash
2 LJ
0.5 LW
N
853.731 712 M
853.731 60 L
S
GR
GS
0.775 GC
[1 3] 0 setdash
2 LJ
0.5 LW
N
880 712 M
880 60 L
S
GR
GS
0.775 GC
[1 3] 0 setdash
2 LJ
0.5 LW
N
902.755 712 M
902.755 60 L
S
GR
GS
0.775 GC
[1 3] 0 setdash
2 LJ
0.5 LW
N
922.827 712 M
922.827 60 L
S
GR
GS
0.775 GC
[1 3] 0 setdash
2 LJ
0.5 LW
N
1058.903 712 M
1058.903 60 L
S
GR
GS
0.873 GC
1 LJ
0.5 LW
N
156 712 M
156 60 L
S
GR
GS
0.873 GC
1 LJ
0.5 LW
N
548.391 712 M
548.391 60 L
S
GR
GS
0.873 GC
1 LJ
0.5 LW
N
940.782 712 M
940.782 60 L
S
GR
GS
0.873 GC
1 LJ
0.5 LW
N
1086 712 M
156 712 L
S
GR
GS
0.873 GC
1 LJ
0.5 LW
N
1086 630.5 M
156 630.5 L
S
GR
GS
0.873 GC
1 LJ
0.5 LW
N
1086 549 M
156 549 L
S
GR
GS
0.873 GC
1 LJ
0.5 LW
N
1086 467.5 M
156 467.5 L
S
GR
GS
0.873 GC
1 LJ
0.5 LW
N
1086 386 M
156 386 L
S
GR
GS
0.873 GC
1 LJ
0.5 LW
N
1086 304.5 M
156 304.5 L
S
GR
GS
0.873 GC
1 LJ
0.5 LW
N
1086 223 M
156 223 L
S
GR
GS
0.873 GC
1 LJ
0.5 LW
N
1086 141.5 M
156 141.5 L
S
GR
GS
0.873 GC
1 LJ
0.5 LW
N
1086 60 M
156 60 L
S
GR
GS
0.149 GC
2 setlinecap
1 LJ
0.5 LW
N
156 712 M
1086 712 L
S
GR
GS
0.149 GC
2 setlinecap
1 LJ
0.5 LW
N
156 60 M
1086 60 L
S
GR
GS
0.149 GC
2 setlinecap
1 LJ
0.5 LW
N
156 712 M
156 702.7 L
S
GR
GS
0.149 GC
2 setlinecap
1 LJ
0.5 LW
N
548.391 712 M
548.391 702.7 L
S
GR
GS
0.149 GC
2 setlinecap
1 LJ
0.5 LW
N
940.782 712 M
940.782 702.7 L
S
GR
GS
0.149 GC
2 setlinecap
1 LJ
0.5 LW
N
156 60 M
156 69.3 L
S
GR
GS
0.149 GC
2 setlinecap
1 LJ
0.5 LW
N
548.391 60 M
548.391 69.3 L
S
GR
GS
0.149 GC
2 setlinecap
1 LJ
0.5 LW
N
940.782 60 M
940.782 69.3 L
S
GR
GS
0.149 GC
2 setlinecap
1 LJ
0.5 LW
N
156 712 M
156 707.35 L
S
GR
GS
0.149 GC
2 setlinecap
1 LJ
0.5 LW
N
274.121 712 M
274.121 707.35 L
S
GR
GS
0.149 GC
2 setlinecap
1 LJ
0.5 LW
N
343.218 712 M
343.218 707.35 L
S
GR
GS
0.149 GC
2 setlinecap
1 LJ
0.5 LW
N
392.243 712 M
392.243 707.35 L
S
GR
GS
0.149 GC
2 setlinecap
1 LJ
0.5 LW
N
430.27 712 M
430.27 707.35 L
S
GR
GS
0.149 GC
2 setlinecap
1 LJ
0.5 LW
N
461.34 712 M
461.34 707.35 L
S
GR
GS
0.149 GC
2 setlinecap
1 LJ
0.5 LW
N
487.609 712 M
487.609 707.35 L
S
GR
GS
0.149 GC
2 setlinecap
1 LJ
0.5 LW
N
510.364 712 M
510.364 707.35 L
S
GR
GS
0.149 GC
2 setlinecap
1 LJ
0.5 LW
N
530.436 712 M
530.436 707.35 L
S
GR
GS
0.149 GC
2 setlinecap
1 LJ
0.5 LW
N
548.391 712 M
548.391 707.35 L
S
GR
GS
0.149 GC
2 setlinecap
1 LJ
0.5 LW
N
666.512 712 M
666.512 707.35 L
S
GR
GS
0.149 GC
2 setlinecap
1 LJ
0.5 LW
N
735.609 712 M
735.609 707.35 L
S
GR
GS
0.149 GC
2 setlinecap
1 LJ
0.5 LW
N
784.634 712 M
784.634 707.35 L
S
GR
GS
0.149 GC
2 setlinecap
1 LJ
0.5 LW
N
822.661 712 M
822.661 707.35 L
S
GR
GS
0.149 GC
2 setlinecap
1 LJ
0.5 LW
N
853.731 712 M
853.731 707.35 L
S
GR
GS
0.149 GC
2 setlinecap
1 LJ
0.5 LW
N
880 712 M
880 707.35 L
S
GR
GS
0.149 GC
2 setlinecap
1 LJ
0.5 LW
N
902.755 712 M
902.755 707.35 L
S
GR
GS
0.149 GC
2 setlinecap
1 LJ
0.5 LW
N
922.827 712 M
922.827 707.35 L
S
GR
GS
0.149 GC
2 setlinecap
1 LJ
0.5 LW
N
940.782 712 M
940.782 707.35 L
S
GR
GS
0.149 GC
2 setlinecap
1 LJ
0.5 LW
N
1058.903 712 M
1058.903 707.35 L
S
GR
GS
0.149 GC
2 setlinecap
1 LJ
0.5 LW
N
156 60 M
156 64.65 L
S
GR
GS
0.149 GC
2 setlinecap
1 LJ
0.5 LW
N
274.121 60 M
274.121 64.65 L
S
GR
GS
0.149 GC
2 setlinecap
1 LJ
0.5 LW
N
343.218 60 M
343.218 64.65 L
S
GR
GS
0.149 GC
2 setlinecap
1 LJ
0.5 LW
N
392.243 60 M
392.243 64.65 L
S
GR
GS
0.149 GC
2 setlinecap
1 LJ
0.5 LW
N
430.27 60 M
430.27 64.65 L
S
GR
GS
0.149 GC
2 setlinecap
1 LJ
0.5 LW
N
461.34 60 M
461.34 64.65 L
S
GR
GS
0.149 GC
2 setlinecap
1 LJ
0.5 LW
N
487.609 60 M
487.609 64.65 L
S
GR
GS
0.149 GC
2 setlinecap
1 LJ
0.5 LW
N
510.364 60 M
510.364 64.65 L
S
GR
GS
0.149 GC
2 setlinecap
1 LJ
0.5 LW
N
530.436 60 M
530.436 64.65 L
S
GR
GS
0.149 GC
2 setlinecap
1 LJ
0.5 LW
N
548.391 60 M
548.391 64.65 L
S
GR
GS
0.149 GC
2 setlinecap
1 LJ
0.5 LW
N
666.512 60 M
666.512 64.65 L
S
GR
GS
0.149 GC
2 setlinecap
1 LJ
0.5 LW
N
735.609 60 M
735.609 64.65 L
S
GR
GS
0.149 GC
2 setlinecap
1 LJ
0.5 LW
N
784.634 60 M
784.634 64.65 L
S
GR
GS
0.149 GC
2 setlinecap
1 LJ
0.5 LW
N
822.661 60 M
822.661 64.65 L
S
GR
GS
0.149 GC
2 setlinecap
1 LJ
0.5 LW
N
853.731 60 M
853.731 64.65 L
S
GR
GS
0.149 GC
2 setlinecap
1 LJ
0.5 LW
N
880 60 M
880 64.65 L
S
GR
GS
0.149 GC
2 setlinecap
1 LJ
0.5 LW
N
902.755 60 M
902.755 64.65 L
S
GR
GS
0.149 GC
2 setlinecap
1 LJ
0.5 LW
N
922.827 60 M
922.827 64.65 L
S
GR
GS
0.149 GC
2 setlinecap
1 LJ
0.5 LW
N
940.782 60 M
940.782 64.65 L
S
GR
GS
0.149 GC
2 setlinecap
1 LJ
0.5 LW
N
1058.903 60 M
1058.903 64.65 L
S
GR
GS
[1 0 0 1 136 751] CT
0.149 GC
/Helvetica 25 F
GS
[1 0 0 1 0 0] CT
0 0 moveto 
1 -1 scale
(10) t 
GR
GR
GS
[1 0 0 1 164 739] CT
0.149 GC
/Helvetica 20 F
GS
[1 0 0 1 0 0] CT
0 0 moveto 
1 -1 scale
(4) t 
GR
GR
GS
[1 0 0 1 528 751] CT
0.149 GC
/Helvetica 25 F
GS
[1 0 0 1 0 0] CT
0 0 moveto 
1 -1 scale
(10) t 
GR
GR
GS
[1 0 0 1 556 739] CT
0.149 GC
/Helvetica 20 F
GS
[1 0 0 1 0 0] CT
0 0 moveto 
1 -1 scale
(5) t 
GR
GR
GS
[1 0 0 1 921 751] CT
0.149 GC
/Helvetica 25 F
GS
[1 0 0 1 0 0] CT
0 0 moveto 
1 -1 scale
(10) t 
GR
GR
GS
[1 0 0 1 949 739] CT
0.149 GC
/Helvetica 20 F
GS
[1 0 0 1 0 0] CT
0 0 moveto 
1 -1 scale
(6) t 
GR
GR
GS
[1 0 0 1 621.00043 757.5] CT
0.149 GC
N
-139.266 23.1 M
-139.266 22.116 L
-136.375 22.116 -136.375 20.459 QT
-136.375 5.85 L
-136.375 4.959 -139.266 4.959 QT
-139.266 3.975 L
-133.969 3.975 L
-133.625 3.975 -133.516 4.287 QT
-127.422 20.131 L
-121.328 4.287 L
-121.219 3.975 -120.875 3.975 QT
-115.578 3.975 L
-115.578 4.959 L
-118.469 4.959 -118.469 5.85 QT
-118.469 21.225 L
-118.469 22.116 -115.578 22.116 QT
-115.578 23.1 L
-123.735 23.1 L
-123.735 22.116 L
-120.844 22.116 -120.844 21.225 QT
-120.844 4.928 L
-127.735 22.787 L
-127.86 23.1 -128.203 23.1 QT
-128.563 23.1 -128.688 22.787 QT
-135.485 5.147 L
-135.485 20.459 L
-135.485 22.116 -132.61 22.116 QT
-132.61 23.1 L
-139.266 23.1 L
cp
f
GR
GS
[1 0 0 1 621.00043 757.5] CT
0.149 GC
N
-108.073 23.412 M
-109.776 23.412 -111.206 22.514 QT
-112.636 21.616 -113.448 20.123 QT
-114.261 18.631 -114.261 16.959 QT
-114.261 15.319 -113.519 13.842 QT
-112.776 12.366 -111.44 11.459 QT
-110.104 10.553 -108.464 10.553 QT
-107.183 10.553 -106.229 10.983 QT
-105.276 11.412 -104.659 12.178 QT
-104.042 12.944 -103.729 13.983 QT
-103.417 15.022 -103.417 16.256 QT
-103.417 16.631 -103.714 16.631 QT
-111.808 16.631 L
-111.808 16.928 L
-111.808 19.256 -110.878 20.928 QT
-109.948 22.6 -107.823 22.6 QT
-106.964 22.6 -106.229 22.217 QT
-105.495 21.834 -104.956 21.147 QT
-104.417 20.459 -104.229 19.678 QT
-104.198 19.584 -104.12 19.506 QT
-104.042 19.428 -103.948 19.428 QT
-103.714 19.428 L
-103.417 19.428 -103.417 19.787 QT
-103.823 21.381 -105.136 22.397 QT
-106.448 23.412 -108.073 23.412 QT
cp
-111.792 15.928 M
-105.401 15.928 L
-105.401 14.881 -105.698 13.803 QT
-105.995 12.725 -106.675 12.006 QT
-107.354 11.287 -108.464 11.287 QT
-110.058 11.287 -110.925 12.772 QT
-111.792 14.256 -111.792 15.928 QT
cp
f
GR
GS
[1 0 0 1 621.00043 757.5] CT
0.149 GC
N
-101.992 23.1 M
-101.992 22.116 L
-101.023 22.116 -100.413 21.967 QT
-99.804 21.819 -99.804 21.225 QT
-99.804 13.584 L
-99.804 12.834 -100.023 12.498 QT
-100.242 12.162 -100.671 12.084 QT
-101.101 12.006 -101.992 12.006 QT
-101.992 11.022 L
-97.929 10.725 L
-97.929 13.459 L
-97.367 12.256 -96.265 11.491 QT
-95.163 10.725 -93.867 10.725 QT
-90.632 10.725 -90.07 13.35 QT
-89.523 12.178 -88.437 11.451 QT
-87.351 10.725 -86.07 10.725 QT
-84.804 10.725 -83.937 11.139 QT
-83.07 11.553 -82.632 12.389 QT
-82.195 13.225 -82.195 14.506 QT
-82.195 21.225 L
-82.195 21.819 -81.57 21.967 QT
-80.945 22.116 -80.007 22.116 QT
-80.007 23.1 L
-86.413 23.1 L
-86.413 22.116 L
-85.46 22.116 -84.843 21.967 QT
-84.226 21.819 -84.226 21.225 QT
-84.226 14.584 L
-84.226 13.178 -84.624 12.311 QT
-85.023 11.444 -86.242 11.444 QT
-87.867 11.444 -88.913 12.748 QT
-89.96 14.053 -89.96 15.709 QT
-89.96 21.225 L
-89.96 21.819 -89.351 21.967 QT
-88.742 22.116 -87.773 22.116 QT
-87.773 23.1 L
-94.195 23.1 L
-94.195 22.116 L
-93.242 22.116 -92.624 21.967 QT
-92.007 21.819 -92.007 21.225 QT
-92.007 14.584 L
-92.007 13.209 -92.406 12.326 QT
-92.804 11.444 -94.023 11.444 QT
-95.648 11.444 -96.695 12.748 QT
-97.742 14.053 -97.742 15.709 QT
-97.742 21.225 L
-97.742 21.819 -97.132 21.967 QT
-96.523 22.116 -95.57 22.116 QT
-95.57 23.1 L
-101.992 23.1 L
cp
f
GR
GS
[1 0 0 1 621.00043 757.5] CT
0.149 GC
N
-72.903 23.412 M
-74.59 23.412 -76.02 22.561 QT
-77.45 21.709 -78.286 20.272 QT
-79.122 18.834 -79.122 17.131 QT
-79.122 15.85 -78.661 14.662 QT
-78.2 13.475 -77.348 12.537 QT
-76.497 11.6 -75.364 11.076 QT
-74.231 10.553 -72.903 10.553 QT
-71.184 10.553 -69.77 11.459 QT
-68.356 12.366 -67.536 13.889 QT
-66.715 15.412 -66.715 17.131 QT
-66.715 18.819 -67.544 20.264 QT
-68.372 21.709 -69.801 22.561 QT
-71.231 23.412 -72.903 23.412 QT
cp
-72.903 22.6 M
-70.653 22.6 -69.903 20.967 QT
-69.153 19.334 -69.153 16.819 QT
-69.153 15.412 -69.301 14.491 QT
-69.45 13.569 -69.965 12.819 QT
-70.278 12.35 -70.762 12.006 QT
-71.247 11.662 -71.786 11.475 QT
-72.325 11.287 -72.903 11.287 QT
-73.778 11.287 -74.567 11.686 QT
-75.356 12.084 -75.872 12.819 QT
-76.387 13.616 -76.528 14.561 QT
-76.669 15.506 -76.669 16.819 QT
-76.669 18.397 -76.395 19.647 QT
-76.122 20.897 -75.301 21.748 QT
-74.481 22.6 -72.903 22.6 QT
cp
f
GR
GS
[1 0 0 1 621.00043 757.5] CT
0.149 GC
N
-65.434 23.1 M
-65.434 22.116 L
-64.465 22.116 -63.856 21.967 QT
-63.247 21.819 -63.247 21.225 QT
-63.247 13.584 L
-63.247 12.834 -63.465 12.498 QT
-63.684 12.162 -64.114 12.084 QT
-64.544 12.006 -65.434 12.006 QT
-65.434 11.022 L
-61.419 10.725 L
-61.419 13.459 L
-60.965 12.241 -60.137 11.483 QT
-59.309 10.725 -58.106 10.725 QT
-57.278 10.725 -56.622 11.217 QT
-55.965 11.709 -55.965 12.522 QT
-55.965 13.022 -56.325 13.397 QT
-56.684 13.772 -57.231 13.772 QT
-57.747 13.772 -58.114 13.405 QT
-58.481 13.037 -58.481 12.522 QT
-58.481 11.772 -57.95 11.444 QT
-58.106 11.444 L
-59.247 11.444 -59.965 12.264 QT
-60.684 13.084 -60.981 14.303 QT
-61.278 15.522 -61.278 16.631 QT
-61.278 21.225 L
-61.278 22.116 -58.559 22.116 QT
-58.559 23.1 L
-65.434 23.1 L
cp
f
GR
GS
[1 0 0 1 621.00043 757.5] CT
0.149 GC
N
-53.46 27.694 M
-52.913 28.116 -52.273 28.116 QT
-50.507 28.116 -49.398 25.459 QT
-48.429 23.1 L
-52.632 12.819 L
-52.898 12.303 -53.429 12.155 QT
-53.96 12.006 -54.851 12.006 QT
-54.851 11.022 L
-48.976 11.022 L
-48.976 12.006 L
-50.507 12.006 -50.507 12.678 QT
-50.507 12.787 -50.491 12.85 QT
-47.366 20.506 L
-44.57 13.616 L
-44.491 13.397 -44.491 13.131 QT
-44.491 12.787 -44.671 12.537 QT
-44.851 12.287 -45.148 12.147 QT
-45.445 12.006 -45.804 12.006 QT
-45.804 11.022 L
-41.163 11.022 L
-41.163 12.006 L
-42.023 12.006 -42.671 12.405 QT
-43.32 12.803 -43.679 13.584 QT
-48.523 25.459 L
-48.898 26.35 -49.413 27.108 QT
-49.929 27.866 -50.663 28.358 QT
-51.398 28.85 -52.273 28.85 QT
-53.304 28.85 -54.077 28.17 QT
-54.851 27.491 -54.851 26.491 QT
-54.851 25.975 -54.491 25.616 QT
-54.132 25.256 -53.616 25.256 QT
-53.257 25.256 -52.976 25.412 QT
-52.695 25.569 -52.538 25.842 QT
-52.382 26.116 -52.382 26.491 QT
-52.382 26.944 -52.687 27.295 QT
-52.991 27.647 -53.46 27.694 QT
cp
f
GR
GS
[1 0 0 1 621.00043 757.5] CT
0.149 GC
N
-30.842 23.1 M
-30.842 22.116 L
-27.951 22.116 -27.951 21.225 QT
-27.951 5.85 L
-27.951 4.959 -30.842 4.959 QT
-30.842 3.975 L
-15.405 3.975 L
-14.623 10.381 L
-15.436 10.381 L
-15.623 8.616 -15.944 7.6 QT
-16.264 6.584 -16.881 6.006 QT
-17.498 5.428 -18.53 5.194 QT
-19.561 4.959 -21.358 4.959 QT
-23.92 4.959 L
-24.42 4.959 -24.701 4.998 QT
-24.983 5.037 -25.162 5.233 QT
-25.342 5.428 -25.342 5.85 QT
-25.342 13.053 L
-23.358 13.053 L
-21.92 13.053 -21.256 12.795 QT
-20.592 12.537 -20.334 11.873 QT
-20.076 11.209 -20.076 9.772 QT
-19.28 9.772 L
-19.28 17.303 L
-20.076 17.303 L
-20.076 15.866 -20.334 15.194 QT
-20.592 14.522 -21.256 14.272 QT
-21.92 14.022 -23.358 14.022 QT
-25.342 14.022 L
-25.342 21.225 L
-25.342 22.116 -21.764 22.116 QT
-21.764 23.1 L
-30.842 23.1 L
cp
f
GR
GS
[1 0 0 1 621.00043 757.5] CT
0.149 GC
N
-9.042 23.412 M
-10.729 23.412 -12.159 22.561 QT
-13.589 21.709 -14.425 20.272 QT
-15.26 18.834 -15.26 17.131 QT
-15.26 15.85 -14.8 14.662 QT
-14.339 13.475 -13.487 12.537 QT
-12.635 11.6 -11.503 11.076 QT
-10.37 10.553 -9.042 10.553 QT
-7.323 10.553 -5.909 11.459 QT
-4.495 12.366 -3.675 13.889 QT
-2.854 15.412 -2.854 17.131 QT
-2.854 18.819 -3.682 20.264 QT
-4.51 21.709 -5.94 22.561 QT
-7.37 23.412 -9.042 23.412 QT
cp
-9.042 22.6 M
-6.792 22.6 -6.042 20.967 QT
-5.292 19.334 -5.292 16.819 QT
-5.292 15.412 -5.44 14.491 QT
-5.589 13.569 -6.104 12.819 QT
-6.417 12.35 -6.901 12.006 QT
-7.385 11.662 -7.925 11.475 QT
-8.464 11.287 -9.042 11.287 QT
-9.917 11.287 -10.706 11.686 QT
-11.495 12.084 -12.01 12.819 QT
-12.526 13.616 -12.667 14.561 QT
-12.807 15.506 -12.807 16.819 QT
-12.807 18.397 -12.534 19.647 QT
-12.26 20.897 -11.44 21.748 QT
-10.62 22.6 -9.042 22.6 QT
cp
f
GR
GS
[1 0 0 1 621.00043 757.5] CT
0.149 GC
N
5.472 23.412 M
3.785 23.412 2.355 22.561 QT
0.925 21.709 0.089 20.272 QT
-0.747 18.834 -0.747 17.131 QT
-0.747 15.85 -0.286 14.662 QT
0.175 13.475 1.027 12.537 QT
1.878 11.6 3.011 11.076 QT
4.144 10.553 5.472 10.553 QT
7.191 10.553 8.605 11.459 QT
10.019 12.366 10.839 13.889 QT
11.66 15.412 11.66 17.131 QT
11.66 18.819 10.832 20.264 QT
10.003 21.709 8.574 22.561 QT
7.144 23.412 5.472 23.412 QT
cp
5.472 22.6 M
7.722 22.6 8.472 20.967 QT
9.222 19.334 9.222 16.819 QT
9.222 15.412 9.074 14.491 QT
8.925 13.569 8.41 12.819 QT
8.097 12.35 7.613 12.006 QT
7.128 11.662 6.589 11.475 QT
6.05 11.287 5.472 11.287 QT
4.597 11.287 3.808 11.686 QT
3.019 12.084 2.503 12.819 QT
1.988 13.616 1.847 14.561 QT
1.707 15.506 1.707 16.819 QT
1.707 18.397 1.98 19.647 QT
2.253 20.897 3.074 21.748 QT
3.894 22.6 5.472 22.6 QT
cp
f
GR
GS
[1 0 0 1 621.00043 757.5] CT
0.149 GC
N
15.082 19.741 M
15.082 12.006 L
12.754 12.006 L
12.754 11.287 L
14.582 11.287 15.449 9.576 QT
16.316 7.866 16.316 5.866 QT
17.113 5.866 L
17.113 11.022 L
21.066 11.022 L
21.066 12.006 L
17.113 12.006 L
17.113 19.678 L
17.113 20.85 17.504 21.725 QT
17.894 22.6 18.91 22.6 QT
19.863 22.6 20.285 21.67 QT
20.707 20.741 20.707 19.678 QT
20.707 18.022 L
21.519 18.022 L
21.519 19.741 L
21.519 20.616 21.199 21.467 QT
20.879 22.319 20.246 22.866 QT
19.613 23.412 18.722 23.412 QT
17.035 23.412 16.058 22.405 QT
15.082 21.397 15.082 19.741 QT
cp
f
GR
GS
[1 0 0 1 621.00043 757.5] CT
0.149 GC
N
23.635 28.522 M
23.635 27.553 L
24.604 27.553 25.214 27.389 QT
25.823 27.225 25.823 26.662 QT
25.823 13.162 L
25.823 12.397 25.276 12.201 QT
24.729 12.006 23.635 12.006 QT
23.635 11.022 L
27.792 10.725 L
27.792 12.459 L
28.557 11.616 29.573 11.17 QT
30.589 10.725 31.729 10.725 QT
33.385 10.725 34.714 11.623 QT
36.042 12.522 36.784 13.975 QT
37.526 15.428 37.526 17.053 QT
37.526 18.756 36.706 20.217 QT
35.885 21.678 34.456 22.545 QT
33.026 23.412 31.307 23.412 QT
29.276 23.412 27.87 21.756 QT
27.87 26.662 L
27.87 27.225 28.487 27.389 QT
29.104 27.553 30.057 27.553 QT
30.057 28.522 L
23.635 28.522 L
cp
27.87 20.381 M
28.354 21.381 29.229 22.03 QT
30.104 22.678 31.151 22.678 QT
32.12 22.678 32.862 22.155 QT
33.604 21.631 34.112 20.756 QT
34.62 19.881 34.862 18.92 QT
35.104 17.959 35.104 17.053 QT
35.104 15.928 34.698 14.623 QT
34.292 13.319 33.464 12.428 QT
32.635 11.537 31.464 11.537 QT
30.323 11.537 29.378 12.116 QT
28.432 12.694 27.87 13.694 QT
27.87 20.381 L
cp
f
GR
GS
[1 0 0 1 621.00043 757.5] CT
0.149 GC
N
38.913 23.1 M
38.913 22.116 L
39.882 22.116 40.491 21.967 QT
41.101 21.819 41.101 21.225 QT
41.101 13.584 L
41.101 12.834 40.882 12.498 QT
40.663 12.162 40.234 12.084 QT
39.804 12.006 38.913 12.006 QT
38.913 11.022 L
42.929 10.725 L
42.929 13.459 L
43.382 12.241 44.21 11.483 QT
45.038 10.725 46.241 10.725 QT
47.07 10.725 47.726 11.217 QT
48.382 11.709 48.382 12.522 QT
48.382 13.022 48.023 13.397 QT
47.663 13.772 47.116 13.772 QT
46.601 13.772 46.234 13.405 QT
45.866 13.037 45.866 12.522 QT
45.866 11.772 46.398 11.444 QT
46.241 11.444 L
45.101 11.444 44.382 12.264 QT
43.663 13.084 43.366 14.303 QT
43.07 15.522 43.07 16.631 QT
43.07 21.225 L
43.07 22.116 45.788 22.116 QT
45.788 23.1 L
38.913 23.1 L
cp
f
GR
GS
[1 0 0 1 621.00043 757.5] CT
0.149 GC
N
49.825 23.1 M
49.825 22.116 L
50.778 22.116 51.395 21.967 QT
52.012 21.819 52.012 21.225 QT
52.012 13.584 L
52.012 12.506 51.598 12.256 QT
51.184 12.006 49.95 12.006 QT
49.95 11.022 L
53.981 10.725 L
53.981 21.225 L
53.981 21.819 54.512 21.967 QT
55.044 22.116 55.934 22.116 QT
55.934 23.1 L
49.825 23.1 L
cp
51.012 5.912 M
51.012 5.303 51.481 4.834 QT
51.95 4.366 52.544 4.366 QT
52.95 4.366 53.317 4.569 QT
53.684 4.772 53.887 5.147 QT
54.09 5.522 54.09 5.912 QT
54.09 6.522 53.629 6.983 QT
53.169 7.444 52.544 7.444 QT
51.95 7.444 51.481 6.983 QT
51.012 6.522 51.012 5.912 QT
cp
f
GR
GS
[1 0 0 1 621.00043 757.5] CT
0.149 GC
N
57.432 23.1 M
57.432 22.116 L
58.401 22.116 59.011 21.967 QT
59.62 21.819 59.62 21.225 QT
59.62 13.584 L
59.62 12.834 59.401 12.498 QT
59.182 12.162 58.753 12.084 QT
58.323 12.006 57.432 12.006 QT
57.432 11.022 L
61.495 10.725 L
61.495 13.459 L
62.057 12.256 63.159 11.491 QT
64.261 10.725 65.557 10.725 QT
67.495 10.725 68.479 11.655 QT
69.464 12.584 69.464 14.506 QT
69.464 21.225 L
69.464 21.819 70.073 21.967 QT
70.682 22.116 71.651 22.116 QT
71.651 23.1 L
65.229 23.1 L
65.229 22.116 L
66.182 22.116 66.8 21.967 QT
67.417 21.819 67.417 21.225 QT
67.417 14.584 L
67.417 13.209 67.018 12.326 QT
66.62 11.444 65.401 11.444 QT
63.776 11.444 62.729 12.748 QT
61.682 14.053 61.682 15.709 QT
61.682 21.225 L
61.682 21.819 62.292 21.967 QT
62.901 22.116 63.854 22.116 QT
63.854 23.1 L
57.432 23.1 L
cp
f
GR
GS
[1 0 0 1 621.00043 757.5] CT
0.149 GC
N
73.978 19.741 M
73.978 12.006 L
71.649 12.006 L
71.649 11.287 L
73.478 11.287 74.345 9.576 QT
75.212 7.866 75.212 5.866 QT
76.009 5.866 L
76.009 11.022 L
79.962 11.022 L
79.962 12.006 L
76.009 12.006 L
76.009 19.678 L
76.009 20.85 76.399 21.725 QT
76.79 22.6 77.806 22.6 QT
78.759 22.6 79.181 21.67 QT
79.603 20.741 79.603 19.678 QT
79.603 18.022 L
80.415 18.022 L
80.415 19.741 L
80.415 20.616 80.095 21.467 QT
79.774 22.319 79.142 22.866 QT
78.509 23.412 77.618 23.412 QT
75.931 23.412 74.954 22.405 QT
73.978 21.397 73.978 19.741 QT
cp
f
GR
GS
[1 0 0 1 621.00043 757.5] CT
0.149 GC
N
94.292 30.1 M
94.292 2.1 L
98.12 2.1 L
98.12 3.225 L
95.417 3.225 L
95.417 28.975 L
98.12 28.975 L
98.12 30.1 L
94.292 30.1 L
cp
f
GR
GS
[1 0 0 1 621.00043 757.5] CT
0.149 GC
N
99.337 23.1 M
99.337 22.116 L
100.306 22.116 100.915 21.967 QT
101.525 21.819 101.525 21.225 QT
101.525 6.522 L
101.525 5.772 101.306 5.436 QT
101.087 5.1 100.657 5.03 QT
100.228 4.959 99.337 4.959 QT
99.337 3.975 L
103.493 3.678 L
103.493 16.959 L
107.243 13.662 L
107.806 13.131 107.806 12.678 QT
107.806 12.35 107.571 12.178 QT
107.337 12.006 107.009 12.006 QT
107.009 11.022 L
112.275 11.022 L
112.275 12.006 L
110.384 12.006 108.478 13.662 QT
106.478 15.397 L
110.056 20.459 L
110.79 21.506 111.29 21.811 QT
111.79 22.116 112.931 22.116 QT
112.931 23.1 L
107.353 23.1 L
107.353 22.116 L
108.306 22.116 108.306 21.522 QT
108.306 21.1 107.806 20.459 QT
105.118 16.631 L
103.4 18.116 L
103.4 21.225 L
103.4 21.819 104.025 21.967 QT
104.65 22.116 105.587 22.116 QT
105.587 23.1 L
99.337 23.1 L
cp
f
GR
GS
[1 0 0 1 621.00043 757.5] CT
0.149 GC
N
114.085 23.1 M
114.085 22.116 L
116.976 22.116 116.976 21.225 QT
116.976 5.85 L
116.976 4.959 114.085 4.959 QT
114.085 3.975 L
124.382 3.975 L
125.804 3.975 127.257 4.53 QT
128.71 5.084 129.656 6.17 QT
130.601 7.256 130.601 8.725 QT
130.601 10.444 129.203 11.6 QT
127.804 12.756 125.929 13.1 QT
127.148 13.1 128.429 13.772 QT
129.71 14.444 130.531 15.569 QT
131.351 16.694 131.351 17.944 QT
131.351 19.475 130.445 20.655 QT
129.538 21.834 128.093 22.467 QT
126.648 23.1 125.179 23.1 QT
114.085 23.1 L
cp
119.413 21.225 M
119.413 21.834 119.749 21.975 QT
120.085 22.116 120.835 22.116 QT
124.382 22.116 L
125.476 22.116 126.413 21.537 QT
127.351 20.959 127.898 19.998 QT
128.445 19.037 128.445 17.944 QT
128.445 16.881 127.992 15.858 QT
127.538 14.834 126.703 14.178 QT
125.867 13.522 124.788 13.522 QT
119.413 13.522 L
119.413 21.225 L
cp
119.413 12.787 M
123.601 12.787 L
124.46 12.787 125.203 12.483 QT
125.945 12.178 126.538 11.592 QT
127.132 11.006 127.453 10.28 QT
127.773 9.553 127.773 8.725 QT
127.773 8.006 127.538 7.334 QT
127.304 6.662 126.835 6.116 QT
126.367 5.569 125.742 5.264 QT
125.117 4.959 124.382 4.959 QT
120.835 4.959 L
120.32 4.959 120.038 4.998 QT
119.757 5.037 119.585 5.233 QT
119.413 5.428 119.413 5.85 QT
119.413 12.787 L
cp
f
GR
GS
[1 0 0 1 621.00043 757.5] CT
0.149 GC
N
133.221 30.1 M
133.221 28.975 L
135.955 28.975 L
135.955 3.225 L
133.221 3.225 L
133.221 2.1 L
137.065 2.1 L
137.065 30.1 L
133.221 30.1 L
cp
f
GR
GS
0.149 GC
2 setlinecap
1 LJ
0.5 LW
N
156 712 M
156 60 L
S
GR
GS
0.149 GC
2 setlinecap
1 LJ
0.5 LW
N
1086 712 M
1086 60 L
S
GR
GS
0.149 GC
2 setlinecap
1 LJ
0.5 LW
N
156 712 M
165.3 712 L
S
GR
GS
0.149 GC
2 setlinecap
1 LJ
0.5 LW
N
156 630.5 M
165.3 630.5 L
S
GR
GS
0.149 GC
2 setlinecap
1 LJ
0.5 LW
N
156 549 M
165.3 549 L
S
GR
GS
0.149 GC
2 setlinecap
1 LJ
0.5 LW
N
156 467.5 M
165.3 467.5 L
S
GR
GS
0.149 GC
2 setlinecap
1 LJ
0.5 LW
N
156 386 M
165.3 386 L
S
GR
GS
0.149 GC
2 setlinecap
1 LJ
0.5 LW
N
156 304.5 M
165.3 304.5 L
S
GR
GS
0.149 GC
2 setlinecap
1 LJ
0.5 LW
N
156 223 M
165.3 223 L
S
GR
GS
0.149 GC
2 setlinecap
1 LJ
0.5 LW
N
156 141.5 M
165.3 141.5 L
S
GR
GS
0.149 GC
2 setlinecap
1 LJ
0.5 LW
N
156 60 M
165.3 60 L
S
GR
GS
0.149 GC
2 setlinecap
1 LJ
0.5 LW
N
1086 712 M
1076.7 712 L
S
GR
GS
0.149 GC
2 setlinecap
1 LJ
0.5 LW
N
1086 630.5 M
1076.7 630.5 L
S
GR
GS
0.149 GC
2 setlinecap
1 LJ
0.5 LW
N
1086 549 M
1076.7 549 L
S
GR
GS
0.149 GC
2 setlinecap
1 LJ
0.5 LW
N
1086 467.5 M
1076.7 467.5 L
S
GR
GS
0.149 GC
2 setlinecap
1 LJ
0.5 LW
N
1086 386 M
1076.7 386 L
S
GR
GS
0.149 GC
2 setlinecap
1 LJ
0.5 LW
N
1086 304.5 M
1076.7 304.5 L
S
GR
GS
0.149 GC
2 setlinecap
1 LJ
0.5 LW
N
1086 223 M
1076.7 223 L
S
GR
GS
0.149 GC
2 setlinecap
1 LJ
0.5 LW
N
1086 141.5 M
1076.7 141.5 L
S
GR
GS
0.149 GC
2 setlinecap
1 LJ
0.5 LW
N
1086 60 M
1076.7 60 L
S
GR
GS
[1 0 0 1 149 712] CT
0.149 GC
/Helvetica 25 F
GS
[1 0 0 1 0 0] CT
-28 9 moveto 
1 -1 scale
(10) t 
GR
GR
GS
[1 0 0 1 149 630.5] CT
0.149 GC
/Helvetica 25 F
GS
[1 0 0 1 0 0] CT
-28 9 moveto 
1 -1 scale
(20) t 
GR
GR
GS
[1 0 0 1 149 549] CT
0.149 GC
/Helvetica 25 F
GS
[1 0 0 1 0 0] CT
-28 9 moveto 
1 -1 scale
(30) t 
GR
GR
GS
[1 0 0 1 149 467.5] CT
0.149 GC
/Helvetica 25 F
GS
[1 0 0 1 0 0] CT
-28 9 moveto 
1 -1 scale
(40) t 
GR
GR
GS
[1 0 0 1 149 386] CT
0.149 GC
/Helvetica 25 F
GS
[1 0 0 1 0 0] CT
-28 9 moveto 
1 -1 scale
(50) t 
GR
GR
GS
[1 0 0 1 149 304.5] CT
0.149 GC
/Helvetica 25 F
GS
[1 0 0 1 0 0] CT
-28 9 moveto 
1 -1 scale
(60) t 
GR
GR
GS
[1 0 0 1 149 223] CT
0.149 GC
/Helvetica 25 F
GS
[1 0 0 1 0 0] CT
-28 9 moveto 
1 -1 scale
(70) t 
GR
GR
GS
[1 0 0 1 149 141.5] CT
0.149 GC
/Helvetica 25 F
GS
[1 0 0 1 0 0] CT
-28 9 moveto 
1 -1 scale
(80) t 
GR
GR
GS
[1 0 0 1 149 60] CT
0.149 GC
/Helvetica 25 F
GS
[1 0 0 1 0 0] CT
-28 9 moveto 
1 -1 scale
(90) t 
GR
GR
GS
[0 -1 1 0 118 385.99969] CT
0.149 GC
N
-138.082 -9.9 M
-138.082 -10.884 L
-135.191 -10.884 -135.191 -12.541 QT
-135.191 -27.15 L
-135.191 -28.041 -138.082 -28.041 QT
-138.082 -29.025 L
-132.785 -29.025 L
-132.441 -29.025 -132.332 -28.713 QT
-126.238 -12.869 L
-120.144 -28.713 L
-120.035 -29.025 -119.691 -29.025 QT
-114.394 -29.025 L
-114.394 -28.041 L
-117.285 -28.041 -117.285 -27.15 QT
-117.285 -11.775 L
-117.285 -10.884 -114.394 -10.884 QT
-114.394 -9.9 L
-122.551 -9.9 L
-122.551 -10.884 L
-119.66 -10.884 -119.66 -11.775 QT
-119.66 -28.072 L
-126.551 -10.213 L
-126.676 -9.9 -127.019 -9.9 QT
-127.379 -9.9 -127.504 -10.213 QT
-134.301 -27.853 L
-134.301 -12.541 L
-134.301 -10.884 -131.426 -10.884 QT
-131.426 -9.9 L
-138.082 -9.9 L
cp
f
GR
GS
[0 -1 1 0 118 385.99969] CT
0.149 GC
N
-106.889 -9.588 M
-108.592 -9.588 -110.022 -10.486 QT
-111.452 -11.384 -112.264 -12.877 QT
-113.077 -14.369 -113.077 -16.041 QT
-113.077 -17.681 -112.334 -19.158 QT
-111.592 -20.634 -110.256 -21.541 QT
-108.92 -22.447 -107.28 -22.447 QT
-105.999 -22.447 -105.045 -22.017 QT
-104.092 -21.588 -103.475 -20.822 QT
-102.858 -20.056 -102.545 -19.017 QT
-102.233 -17.978 -102.233 -16.744 QT
-102.233 -16.369 -102.53 -16.369 QT
-110.624 -16.369 L
-110.624 -16.072 L
-110.624 -13.744 -109.694 -12.072 QT
-108.764 -10.4 -106.639 -10.4 QT
-105.78 -10.4 -105.045 -10.783 QT
-104.311 -11.166 -103.772 -11.853 QT
-103.233 -12.541 -103.045 -13.322 QT
-103.014 -13.416 -102.936 -13.494 QT
-102.858 -13.572 -102.764 -13.572 QT
-102.53 -13.572 L
-102.233 -13.572 -102.233 -13.213 QT
-102.639 -11.619 -103.952 -10.603 QT
-105.264 -9.588 -106.889 -9.588 QT
cp
-110.608 -17.072 M
-104.217 -17.072 L
-104.217 -18.119 -104.514 -19.197 QT
-104.811 -20.275 -105.491 -20.994 QT
-106.17 -21.713 -107.28 -21.713 QT
-108.874 -21.713 -109.741 -20.228 QT
-110.608 -18.744 -110.608 -17.072 QT
cp
f
GR
GS
[0 -1 1 0 118 385.99969] CT
0.149 GC
N
-100.808 -9.9 M
-100.808 -10.884 L
-99.839 -10.884 -99.229 -11.033 QT
-98.62 -11.181 -98.62 -11.775 QT
-98.62 -19.416 L
-98.62 -20.166 -98.839 -20.502 QT
-99.058 -20.838 -99.487 -20.916 QT
-99.917 -20.994 -100.808 -20.994 QT
-100.808 -21.978 L
-96.745 -22.275 L
-96.745 -19.541 L
-96.183 -20.744 -95.081 -21.509 QT
-93.979 -22.275 -92.683 -22.275 QT
-89.448 -22.275 -88.886 -19.65 QT
-88.339 -20.822 -87.253 -21.549 QT
-86.167 -22.275 -84.886 -22.275 QT
-83.62 -22.275 -82.753 -21.861 QT
-81.886 -21.447 -81.448 -20.611 QT
-81.011 -19.775 -81.011 -18.494 QT
-81.011 -11.775 L
-81.011 -11.181 -80.386 -11.033 QT
-79.761 -10.884 -78.823 -10.884 QT
-78.823 -9.9 L
-85.229 -9.9 L
-85.229 -10.884 L
-84.276 -10.884 -83.659 -11.033 QT
-83.042 -11.181 -83.042 -11.775 QT
-83.042 -18.416 L
-83.042 -19.822 -83.44 -20.689 QT
-83.839 -21.556 -85.058 -21.556 QT
-86.683 -21.556 -87.729 -20.252 QT
-88.776 -18.947 -88.776 -17.291 QT
-88.776 -11.775 L
-88.776 -11.181 -88.167 -11.033 QT
-87.558 -10.884 -86.589 -10.884 QT
-86.589 -9.9 L
-93.011 -9.9 L
-93.011 -10.884 L
-92.058 -10.884 -91.44 -11.033 QT
-90.823 -11.181 -90.823 -11.775 QT
-90.823 -18.416 L
-90.823 -19.791 -91.222 -20.674 QT
-91.62 -21.556 -92.839 -21.556 QT
-94.464 -21.556 -95.511 -20.252 QT
-96.558 -18.947 -96.558 -17.291 QT
-96.558 -11.775 L
-96.558 -11.181 -95.948 -11.033 QT
-95.339 -10.884 -94.386 -10.884 QT
-94.386 -9.9 L
-100.808 -9.9 L
cp
f
GR
GS
[0 -1 1 0 118 385.99969] CT
0.149 GC
N
-71.719 -9.588 M
-73.406 -9.588 -74.836 -10.439 QT
-76.266 -11.291 -77.102 -12.728 QT
-77.938 -14.166 -77.938 -15.869 QT
-77.938 -17.15 -77.477 -18.338 QT
-77.016 -19.525 -76.164 -20.463 QT
-75.313 -21.4 -74.18 -21.924 QT
-73.047 -22.447 -71.719 -22.447 QT
-70 -22.447 -68.586 -21.541 QT
-67.172 -20.634 -66.352 -19.111 QT
-65.531 -17.588 -65.531 -15.869 QT
-65.531 -14.181 -66.36 -12.736 QT
-67.188 -11.291 -68.617 -10.439 QT
-70.047 -9.588 -71.719 -9.588 QT
cp
-71.719 -10.4 M
-69.469 -10.4 -68.719 -12.033 QT
-67.969 -13.666 -67.969 -16.181 QT
-67.969 -17.588 -68.117 -18.509 QT
-68.266 -19.431 -68.781 -20.181 QT
-69.094 -20.65 -69.578 -20.994 QT
-70.063 -21.338 -70.602 -21.525 QT
-71.141 -21.713 -71.719 -21.713 QT
-72.594 -21.713 -73.383 -21.314 QT
-74.172 -20.916 -74.688 -20.181 QT
-75.203 -19.384 -75.344 -18.439 QT
-75.485 -17.494 -75.485 -16.181 QT
-75.485 -14.603 -75.211 -13.353 QT
-74.938 -12.103 -74.117 -11.252 QT
-73.297 -10.4 -71.719 -10.4 QT
cp
f
GR
GS
[0 -1 1 0 118 385.99969] CT
0.149 GC
N
-64.25 -9.9 M
-64.25 -10.884 L
-63.281 -10.884 -62.672 -11.033 QT
-62.063 -11.181 -62.063 -11.775 QT
-62.063 -19.416 L
-62.063 -20.166 -62.281 -20.502 QT
-62.5 -20.838 -62.93 -20.916 QT
-63.36 -20.994 -64.25 -20.994 QT
-64.25 -21.978 L
-60.235 -22.275 L
-60.235 -19.541 L
-59.781 -20.759 -58.953 -21.517 QT
-58.125 -22.275 -56.922 -22.275 QT
-56.094 -22.275 -55.438 -21.783 QT
-54.781 -21.291 -54.781 -20.478 QT
-54.781 -19.978 -55.141 -19.603 QT
-55.5 -19.228 -56.047 -19.228 QT
-56.563 -19.228 -56.93 -19.595 QT
-57.297 -19.963 -57.297 -20.478 QT
-57.297 -21.228 -56.766 -21.556 QT
-56.922 -21.556 L
-58.063 -21.556 -58.781 -20.736 QT
-59.5 -19.916 -59.797 -18.697 QT
-60.094 -17.478 -60.094 -16.369 QT
-60.094 -11.775 L
-60.094 -10.884 -57.375 -10.884 QT
-57.375 -9.9 L
-64.25 -9.9 L
cp
f
GR
GS
[0 -1 1 0 118 385.99969] CT
0.149 GC
N
-52.276 -5.306 M
-51.729 -4.884 -51.089 -4.884 QT
-49.323 -4.884 -48.214 -7.541 QT
-47.245 -9.9 L
-51.448 -20.181 L
-51.714 -20.697 -52.245 -20.845 QT
-52.776 -20.994 -53.667 -20.994 QT
-53.667 -21.978 L
-47.792 -21.978 L
-47.792 -20.994 L
-49.323 -20.994 -49.323 -20.322 QT
-49.323 -20.213 -49.307 -20.15 QT
-46.182 -12.494 L
-43.386 -19.384 L
-43.307 -19.603 -43.307 -19.869 QT
-43.307 -20.213 -43.487 -20.463 QT
-43.667 -20.713 -43.964 -20.853 QT
-44.261 -20.994 -44.62 -20.994 QT
-44.62 -21.978 L
-39.979 -21.978 L
-39.979 -20.994 L
-40.839 -20.994 -41.487 -20.595 QT
-42.136 -20.197 -42.495 -19.416 QT
-47.339 -7.541 L
-47.714 -6.65 -48.229 -5.892 QT
-48.745 -5.134 -49.479 -4.642 QT
-50.214 -4.15 -51.089 -4.15 QT
-52.12 -4.15 -52.893 -4.83 QT
-53.667 -5.509 -53.667 -6.509 QT
-53.667 -7.025 -53.307 -7.384 QT
-52.948 -7.744 -52.432 -7.744 QT
-52.073 -7.744 -51.792 -7.588 QT
-51.511 -7.431 -51.354 -7.158 QT
-51.198 -6.884 -51.198 -6.509 QT
-51.198 -6.056 -51.503 -5.705 QT
-51.807 -5.353 -52.276 -5.306 QT
cp
f
GR
GS
[0 -1 1 0 118 385.99969] CT
0.149 GC
N
-27.502 -13.244 M
-27.502 -19.416 L
-27.502 -20.166 -27.721 -20.502 QT
-27.939 -20.838 -28.369 -20.916 QT
-28.799 -20.994 -29.689 -20.994 QT
-29.689 -21.978 L
-25.439 -22.275 L
-25.439 -13.244 L
-25.439 -12.15 -25.283 -11.541 QT
-25.127 -10.931 -24.619 -10.627 QT
-24.111 -10.322 -22.986 -10.322 QT
-21.486 -10.322 -20.596 -11.58 QT
-19.705 -12.838 -19.705 -14.447 QT
-19.705 -19.416 L
-19.705 -20.166 -19.939 -20.502 QT
-20.174 -20.838 -20.588 -20.916 QT
-21.002 -20.994 -21.892 -20.994 QT
-21.892 -21.978 L
-17.658 -22.275 L
-17.658 -12.447 L
-17.658 -11.713 -17.439 -11.377 QT
-17.221 -11.041 -16.791 -10.963 QT
-16.361 -10.884 -15.471 -10.884 QT
-15.471 -9.9 L
-19.627 -9.588 L
-19.627 -11.947 L
-20.142 -10.9 -21.072 -10.244 QT
-22.002 -9.588 -23.127 -9.588 QT
-25.127 -9.588 -26.314 -10.439 QT
-27.502 -11.291 -27.502 -13.244 QT
cp
f
GR
GS
[0 -1 1 0 118 385.99969] CT
0.149 GC
N
-12.38 -13.259 M
-12.38 -20.994 L
-14.708 -20.994 L
-14.708 -21.713 L
-12.88 -21.713 -12.013 -23.424 QT
-11.146 -25.134 -11.146 -27.134 QT
-10.349 -27.134 L
-10.349 -21.978 L
-6.396 -21.978 L
-6.396 -20.994 L
-10.349 -20.994 L
-10.349 -13.322 L
-10.349 -12.15 -9.958 -11.275 QT
-9.568 -10.4 -8.552 -10.4 QT
-7.599 -10.4 -7.177 -11.33 QT
-6.755 -12.259 -6.755 -13.322 QT
-6.755 -14.978 L
-5.943 -14.978 L
-5.943 -13.259 L
-5.943 -12.384 -6.263 -11.533 QT
-6.583 -10.681 -7.216 -10.134 QT
-7.849 -9.588 -8.74 -9.588 QT
-10.427 -9.588 -11.404 -10.595 QT
-12.38 -11.603 -12.38 -13.259 QT
cp
f
GR
GS
[0 -1 1 0 118 385.99969] CT
0.149 GC
N
-3.686 -9.9 M
-3.686 -10.884 L
-2.733 -10.884 -2.115 -11.033 QT
-1.498 -11.181 -1.498 -11.775 QT
-1.498 -19.416 L
-1.498 -20.494 -1.912 -20.744 QT
-2.326 -20.994 -3.561 -20.994 QT
-3.561 -21.978 L
0.47 -22.275 L
0.47 -11.775 L
0.47 -11.181 1.002 -11.033 QT
1.533 -10.884 2.424 -10.884 QT
2.424 -9.9 L
-3.686 -9.9 L
cp
-2.498 -27.088 M
-2.498 -27.697 -2.03 -28.166 QT
-1.561 -28.634 -0.967 -28.634 QT
-0.561 -28.634 -0.194 -28.431 QT
0.174 -28.228 0.377 -27.853 QT
0.58 -27.478 0.58 -27.088 QT
0.58 -26.478 0.119 -26.017 QT
-0.342 -25.556 -0.967 -25.556 QT
-1.561 -25.556 -2.03 -26.017 QT
-2.498 -26.478 -2.498 -27.088 QT
cp
f
GR
GS
[0 -1 1 0 118 385.99969] CT
0.149 GC
N
3.953 -9.9 M
3.953 -10.884 L
4.906 -10.884 5.523 -11.033 QT
6.141 -11.181 6.141 -11.775 QT
6.141 -26.478 L
6.141 -27.228 5.914 -27.564 QT
5.688 -27.9 5.266 -27.97 QT
4.844 -28.041 3.953 -28.041 QT
3.953 -29.025 L
8.109 -29.322 L
8.109 -11.775 L
8.109 -11.181 8.727 -11.033 QT
9.344 -10.884 10.281 -10.884 QT
10.281 -9.9 L
3.953 -9.9 L
cp
f
GR
GS
[0 -1 1 0 118 385.99969] CT
0.149 GC
N
11.592 -9.9 M
11.592 -10.884 L
12.545 -10.884 13.162 -11.033 QT
13.78 -11.181 13.78 -11.775 QT
13.78 -19.416 L
13.78 -20.494 13.365 -20.744 QT
12.951 -20.994 11.717 -20.994 QT
11.717 -21.978 L
15.748 -22.275 L
15.748 -11.775 L
15.748 -11.181 16.28 -11.033 QT
16.811 -10.884 17.701 -10.884 QT
17.701 -9.9 L
11.592 -9.9 L
cp
12.78 -27.088 M
12.78 -27.697 13.248 -28.166 QT
13.717 -28.634 14.311 -28.634 QT
14.717 -28.634 15.084 -28.431 QT
15.451 -28.228 15.655 -27.853 QT
15.858 -27.478 15.858 -27.088 QT
15.858 -26.478 15.397 -26.017 QT
14.936 -25.556 14.311 -25.556 QT
13.717 -25.556 13.248 -26.017 QT
12.78 -26.478 12.78 -27.088 QT
cp
f
GR
GS
[0 -1 1 0 118 385.99969] CT
0.149 GC
N
19.465 -9.9 M
19.153 -9.9 19.153 -10.213 QT
19.153 -10.431 L
19.153 -10.541 19.231 -10.619 QT
27.059 -21.228 L
24.543 -21.228 L
23.356 -21.228 22.583 -21.08 QT
21.809 -20.931 21.309 -20.517 QT
20.809 -20.103 20.583 -19.369 QT
20.356 -18.634 20.356 -17.353 QT
19.543 -17.353 L
19.856 -21.978 L
29.247 -21.978 L
29.372 -21.978 29.458 -21.884 QT
29.543 -21.791 29.543 -21.666 QT
29.543 -21.494 L
29.543 -21.416 29.481 -21.306 QT
21.653 -10.713 L
24.34 -10.713 L
25.543 -10.713 26.364 -10.861 QT
27.184 -11.009 27.747 -11.588 QT
28.278 -12.119 28.481 -13.017 QT
28.684 -13.916 28.793 -15.244 QT
29.59 -15.244 L
29.122 -9.9 L
19.465 -9.9 L
cp
f
GR
GS
[0 -1 1 0 118 385.99969] CT
0.149 GC
N
31.719 -12.65 M
31.719 -14.322 33.031 -15.369 QT
34.344 -16.416 36.18 -16.845 QT
38.016 -17.275 39.672 -17.275 QT
39.672 -18.416 L
39.672 -19.228 39.32 -19.986 QT
38.969 -20.744 38.297 -21.228 QT
37.625 -21.713 36.813 -21.713 QT
34.953 -21.713 33.984 -20.884 QT
34.516 -20.884 34.867 -20.478 QT
35.219 -20.072 35.219 -19.541 QT
35.219 -18.978 34.82 -18.58 QT
34.422 -18.181 33.875 -18.181 QT
33.313 -18.181 32.914 -18.58 QT
32.516 -18.978 32.516 -19.541 QT
32.516 -21.009 33.859 -21.728 QT
35.203 -22.447 36.813 -22.447 QT
37.953 -22.447 39.102 -21.963 QT
40.25 -21.478 40.977 -20.58 QT
41.703 -19.681 41.703 -18.478 QT
41.703 -12.166 L
41.703 -11.619 41.938 -11.166 QT
42.172 -10.713 42.672 -10.713 QT
43.125 -10.713 43.352 -11.174 QT
43.578 -11.634 43.578 -12.166 QT
43.578 -13.963 L
44.406 -13.963 L
44.406 -12.166 L
44.406 -11.541 44.078 -10.97 QT
43.75 -10.4 43.195 -10.064 QT
42.641 -9.728 42 -9.728 QT
41.172 -9.728 40.578 -10.369 QT
39.984 -11.009 39.922 -11.884 QT
39.406 -10.838 38.391 -10.213 QT
37.375 -9.588 36.234 -9.588 QT
35.156 -9.588 34.125 -9.9 QT
33.094 -10.213 32.406 -10.892 QT
31.719 -11.572 31.719 -12.65 QT
cp
33.984 -12.65 M
33.984 -11.666 34.711 -10.994 QT
35.438 -10.322 36.422 -10.322 QT
37.328 -10.322 38.063 -10.775 QT
38.797 -11.228 39.234 -12.009 QT
39.672 -12.791 39.672 -13.65 QT
39.672 -16.556 L
38.406 -16.556 37.07 -16.142 QT
35.734 -15.728 34.859 -14.838 QT
33.984 -13.947 33.984 -12.65 QT
cp
f
GR
GS
[0 -1 1 0 118 385.99969] CT
0.149 GC
N
47.203 -13.259 M
47.203 -20.994 L
44.875 -20.994 L
44.875 -21.713 L
46.703 -21.713 47.57 -23.424 QT
48.438 -25.134 48.438 -27.134 QT
49.234 -27.134 L
49.234 -21.978 L
53.188 -21.978 L
53.188 -20.994 L
49.234 -20.994 L
49.234 -13.322 L
49.234 -12.15 49.625 -11.275 QT
50.016 -10.4 51.031 -10.4 QT
51.984 -10.4 52.406 -11.33 QT
52.828 -12.259 52.828 -13.322 QT
52.828 -14.978 L
53.641 -14.978 L
53.641 -13.259 L
53.641 -12.384 53.32 -11.533 QT
53 -10.681 52.367 -10.134 QT
51.734 -9.588 50.844 -9.588 QT
49.156 -9.588 48.18 -10.595 QT
47.203 -11.603 47.203 -13.259 QT
cp
f
GR
GS
[0 -1 1 0 118 385.99969] CT
0.149 GC
N
55.898 -9.9 M
55.898 -10.884 L
56.851 -10.884 57.468 -11.033 QT
58.085 -11.181 58.085 -11.775 QT
58.085 -19.416 L
58.085 -20.494 57.671 -20.744 QT
57.257 -20.994 56.023 -20.994 QT
56.023 -21.978 L
60.054 -22.275 L
60.054 -11.775 L
60.054 -11.181 60.585 -11.033 QT
61.116 -10.884 62.007 -10.884 QT
62.007 -9.9 L
55.898 -9.9 L
cp
57.085 -27.088 M
57.085 -27.697 57.554 -28.166 QT
58.023 -28.634 58.616 -28.634 QT
59.023 -28.634 59.39 -28.431 QT
59.757 -28.228 59.96 -27.853 QT
60.163 -27.478 60.163 -27.088 QT
60.163 -26.478 59.702 -26.017 QT
59.241 -25.556 58.616 -25.556 QT
58.023 -25.556 57.554 -26.017 QT
57.085 -26.478 57.085 -27.088 QT
cp
f
GR
GS
[0 -1 1 0 118 385.99969] CT
0.149 GC
N
69.677 -9.588 M
67.99 -9.588 66.56 -10.439 QT
65.13 -11.291 64.294 -12.728 QT
63.458 -14.166 63.458 -15.869 QT
63.458 -17.15 63.919 -18.338 QT
64.38 -19.525 65.232 -20.463 QT
66.083 -21.4 67.216 -21.924 QT
68.349 -22.447 69.677 -22.447 QT
71.396 -22.447 72.81 -21.541 QT
74.224 -20.634 75.044 -19.111 QT
75.865 -17.588 75.865 -15.869 QT
75.865 -14.181 75.037 -12.736 QT
74.208 -11.291 72.779 -10.439 QT
71.349 -9.588 69.677 -9.588 QT
cp
69.677 -10.4 M
71.927 -10.4 72.677 -12.033 QT
73.427 -13.666 73.427 -16.181 QT
73.427 -17.588 73.279 -18.509 QT
73.13 -19.431 72.615 -20.181 QT
72.302 -20.65 71.818 -20.994 QT
71.333 -21.338 70.794 -21.525 QT
70.255 -21.713 69.677 -21.713 QT
68.802 -21.713 68.013 -21.314 QT
67.224 -20.916 66.708 -20.181 QT
66.193 -19.384 66.052 -18.439 QT
65.912 -17.494 65.912 -16.181 QT
65.912 -14.603 66.185 -13.353 QT
66.458 -12.103 67.279 -11.252 QT
68.099 -10.4 69.677 -10.4 QT
cp
f
GR
GS
[0 -1 1 0 118 385.99969] CT
0.149 GC
N
77.255 -9.9 M
77.255 -10.884 L
78.224 -10.884 78.834 -11.033 QT
79.443 -11.181 79.443 -11.775 QT
79.443 -19.416 L
79.443 -20.166 79.224 -20.502 QT
79.005 -20.838 78.576 -20.916 QT
78.146 -20.994 77.255 -20.994 QT
77.255 -21.978 L
81.318 -22.275 L
81.318 -19.541 L
81.88 -20.744 82.982 -21.509 QT
84.084 -22.275 85.38 -22.275 QT
87.318 -22.275 88.302 -21.345 QT
89.287 -20.416 89.287 -18.494 QT
89.287 -11.775 L
89.287 -11.181 89.896 -11.033 QT
90.505 -10.884 91.474 -10.884 QT
91.474 -9.9 L
85.052 -9.9 L
85.052 -10.884 L
86.005 -10.884 86.623 -11.033 QT
87.24 -11.181 87.24 -11.775 QT
87.24 -18.416 L
87.24 -19.791 86.841 -20.674 QT
86.443 -21.556 85.224 -21.556 QT
83.599 -21.556 82.552 -20.252 QT
81.505 -18.947 81.505 -17.291 QT
81.505 -11.775 L
81.505 -11.181 82.115 -11.033 QT
82.724 -10.884 83.677 -10.884 QT
83.677 -9.9 L
77.255 -9.9 L
cp
f
GR
GS
[0 -1 1 0 118 385.99969] CT
0.149 GC
N
104.184 -2.9 M
104.184 -30.9 L
108.012 -30.9 L
108.012 -29.775 L
105.309 -29.775 L
105.309 -4.025 L
108.012 -4.025 L
108.012 -2.9 L
104.184 -2.9 L
cp
f
GR
GS
[0 -1 1 0 118 385.99969] CT
0.149 GC
N
112.401 -8.884 M
112.401 -9.056 112.495 -9.181 QT
125.183 -28.072 L
123.495 -27.134 121.479 -27.134 QT
119.292 -27.134 117.276 -28.259 QT
117.839 -26.916 117.839 -25.275 QT
117.839 -24.369 117.628 -23.4 QT
117.417 -22.431 116.979 -21.58 QT
116.542 -20.728 115.847 -20.174 QT
115.151 -19.619 114.229 -19.619 QT
112.917 -19.619 111.972 -20.494 QT
111.026 -21.369 110.558 -22.681 QT
110.089 -23.994 110.089 -25.275 QT
110.089 -26.509 110.558 -27.83 QT
111.026 -29.15 111.972 -30.025 QT
112.917 -30.9 114.229 -30.9 QT
115.261 -30.9 116.12 -30.072 QT
118.386 -27.853 121.479 -27.853 QT
123.12 -27.853 124.558 -28.588 QT
125.995 -29.322 126.917 -30.681 QT
127.058 -30.9 127.354 -30.9 QT
127.604 -30.9 127.761 -30.752 QT
127.917 -30.603 127.917 -30.338 QT
127.917 -30.197 127.823 -30.072 QT
113.386 -8.509 L
113.261 -8.322 112.964 -8.322 QT
112.729 -8.322 112.565 -8.502 QT
112.401 -8.681 112.401 -8.884 QT
cp
114.229 -20.353 M
115.604 -20.353 116.315 -21.994 QT
117.026 -23.634 117.026 -25.275 QT
117.026 -26.181 116.737 -27.353 QT
116.448 -28.525 115.815 -29.353 QT
115.183 -30.181 114.229 -30.181 QT
112.839 -30.181 112.386 -28.627 QT
111.933 -27.072 111.933 -25.244 QT
111.933 -23.478 112.393 -21.916 QT
112.854 -20.353 114.229 -20.353 QT
cp
126.62 -8.322 M
125.308 -8.322 124.37 -9.197 QT
123.433 -10.072 122.956 -11.392 QT
122.479 -12.713 122.479 -13.994 QT
122.479 -15.228 122.956 -16.549 QT
123.433 -17.869 124.37 -18.744 QT
125.308 -19.619 126.62 -19.619 QT
127.839 -19.619 128.659 -18.697 QT
129.479 -17.775 129.854 -16.478 QT
130.229 -15.181 130.229 -13.994 QT
130.229 -13.088 130.018 -12.127 QT
129.808 -11.166 129.378 -10.299 QT
128.948 -9.431 128.261 -8.877 QT
127.573 -8.322 126.62 -8.322 QT
cp
126.62 -9.072 M
127.573 -9.072 128.214 -9.908 QT
128.854 -10.744 129.143 -11.908 QT
129.433 -13.072 129.433 -13.994 QT
129.433 -15.603 128.722 -17.244 QT
128.011 -18.884 126.62 -18.884 QT
125.229 -18.884 124.776 -17.33 QT
124.323 -15.775 124.323 -13.963 QT
124.323 -12.181 124.792 -10.627 QT
125.261 -9.072 126.62 -9.072 QT
cp
f
GR
GS
[0 -1 1 0 118 385.99969] CT
0.149 GC
N
132.037 -2.9 M
132.037 -4.025 L
134.771 -4.025 L
134.771 -29.775 L
132.037 -29.775 L
132.037 -30.9 L
135.881 -30.9 L
135.881 -2.9 L
132.037 -2.9 L
cp
f
GR
GS
0 0.447 0.741 RC
1 LJ
1.2 LW
N
301.831 651.873 M
537.733 458.673 L
675.813 484.717 L
773.806 486.216 L
849.825 520.077 L
911.943 525.488 L
964.465 541.991 L
1009.964 544.223 L
1050.098 544.771 L
1086 529.404 L
S
GR
GS
[1 0 0 1 301.83084 651.8728] CT
0 0.447 0.741 RC
N
-3 -3 M
-3 3 L
3 3 L
3 -3 L
cp
f
GR
GS
[1 0 0 1 301.83084 651.8728] CT
0 0.447 0.741 RC
10.0 ML
1.2 LW
N
-3 -3 M
-3 3 L
3 3 L
3 -3 L
cp
S
GR
GS
[1 0 0 1 537.7334 458.67273] CT
0 0.447 0.741 RC
N
/f227889816{-3 -3 M
-3 3 L
3 3 L
3 -3 L
cp}def
f227889816
f
GR
GS
[1 0 0 1 537.7334 458.67273] CT
0 0.447 0.741 RC
10.0 ML
1.2 LW
N
-3 -3 M
-3 3 L
3 3 L
3 -3 L
cp
S
GR
GS
[1 0 0 1 675.81311 484.71701] CT
0 0.447 0.741 RC
N
f227889816
f
GR
GS
[1 0 0 1 675.81311 484.71701] CT
0 0.447 0.741 RC
10.0 ML
1.2 LW
N
-3 -3 M
-3 3 L
3 3 L
3 -3 L
cp
S
GR
GS
[1 0 0 1 773.80609 486.21637] CT
0 0.447 0.741 RC
N
f227889816
f
GR
GS
[1 0 0 1 773.80609 486.21637] CT
0 0.447 0.741 RC
10.0 ML
1.2 LW
N
-3 -3 M
-3 3 L
3 3 L
3 -3 L
cp
S
GR
GS
[1 0 0 1 849.8252 520.07678] CT
0 0.447 0.741 RC
N
f227889816
f
GR
GS
[1 0 0 1 849.8252 520.07678] CT
0 0.447 0.741 RC
10.0 ML
1.2 LW
N
-3 -3 M
-3 3 L
3 3 L
3 -3 L
cp
S
GR
GS
[1 0 0 1 911.9425 525.48804] CT
0 0.447 0.741 RC
N
f227889816
f
GR
GS
[1 0 0 1 911.9425 525.48804] CT
0 0.447 0.741 RC
10.0 ML
1.2 LW
N
-3 -3 M
-3 3 L
3 3 L
3 -3 L
cp
S
GR
GS
[1 0 0 1 964.4649 541.99133] CT
0 0.447 0.741 RC
N
f227889816
f
GR
GS
[1 0 0 1 964.4649 541.99133] CT
0 0.447 0.741 RC
10.0 ML
1.2 LW
N
-3 -3 M
-3 3 L
3 3 L
3 -3 L
cp
S
GR
GS
[1 0 0 1 1009.96381 544.22339] CT
0 0.447 0.741 RC
N
f227889816
f
GR
GS
[1 0 0 1 1009.96381 544.22339] CT
0 0.447 0.741 RC
10.0 ML
1.2 LW
N
-3 -3 M
-3 3 L
3 3 L
3 -3 L
cp
S
GR
GS
[1 0 0 1 1050.0979 544.77075] CT
0 0.447 0.741 RC
N
f227889816
f
GR
GS
[1 0 0 1 1050.0979 544.77075] CT
0 0.447 0.741 RC
10.0 ML
1.2 LW
N
-3 -3 M
-3 3 L
3 3 L
3 -3 L
cp
S
GR
GS
[1 0 0 1 1086 529.40411] CT
0 0.447 0.741 RC
N
f227889816
f
GR
GS
[1 0 0 1 1086 529.40411] CT
0 0.447 0.741 RC
10.0 ML
1.2 LW
N
-3 -3 M
-3 3 L
3 3 L
3 -3 L
cp
S
GR
GS
0.851 0.325 0.098 RC
1 LJ
1.2 LW
N
301.831 540.787 M
537.733 489.537 L
675.813 475.968 L
773.806 471.525 L
849.825 470.087 L
911.943 469.659 L
964.465 469.418 L
1009.964 468.971 L
1050.098 469.778 L
1086 470.376 L
S
GR
GS
[1 0 0 1 301.83084 540.7868] CT
0.851 0.325 0.098 RC
N
f227889816
f
GR
GS
[1 0 0 1 301.83084 540.7868] CT
0.851 0.325 0.098 RC
10.0 ML
1.2 LW
N
-3 -3 M
-3 3 L
3 3 L
3 -3 L
cp
S
GR
GS
[1 0 0 1 537.7334 489.53729] CT
0.851 0.325 0.098 RC
N
f227889816
f
GR
GS
[1 0 0 1 537.7334 489.53729] CT
0.851 0.325 0.098 RC
10.0 ML
1.2 LW
N
-3 -3 M
-3 3 L
3 3 L
3 -3 L
cp
S
GR
GS
[1 0 0 1 675.81311 475.96753] CT
0.851 0.325 0.098 RC
N
f227889816
f
GR
GS
[1 0 0 1 675.81311 475.96753] CT
0.851 0.325 0.098 RC
10.0 ML
1.2 LW
N
-3 -3 M
-3 3 L
3 3 L
3 -3 L
cp
S
GR
GS
[1 0 0 1 773.80609 471.52469] CT
0.851 0.325 0.098 RC
N
f227889816
f
GR
GS
[1 0 0 1 773.80609 471.52469] CT
0.851 0.325 0.098 RC
10.0 ML
1.2 LW
N
-3 -3 M
-3 3 L
3 3 L
3 -3 L
cp
S
GR
GS
[1 0 0 1 849.8252 470.08731] CT
0.851 0.325 0.098 RC
N
f227889816
f
GR
GS
[1 0 0 1 849.8252 470.08731] CT
0.851 0.325 0.098 RC
10.0 ML
1.2 LW
N
-3 -3 M
-3 3 L
3 3 L
3 -3 L
cp
S
GR
GS
[1 0 0 1 911.9425 469.65894] CT
0.851 0.325 0.098 RC
N
f227889816
f
GR
GS
[1 0 0 1 911.9425 469.65894] CT
0.851 0.325 0.098 RC
10.0 ML
1.2 LW
N
-3 -3 M
-3 3 L
3 3 L
3 -3 L
cp
S
GR
GS
[1 0 0 1 964.4649 469.41806] CT
0.851 0.325 0.098 RC
N
f227889816
f
GR
GS
[1 0 0 1 964.4649 469.41806] CT
0.851 0.325 0.098 RC
10.0 ML
1.2 LW
N
-3 -3 M
-3 3 L
3 3 L
3 -3 L
cp
S
GR
GS
[1 0 0 1 1009.96381 468.97052] CT
0.851 0.325 0.098 RC
N
f227889816
f
GR
GS
[1 0 0 1 1009.96381 468.97052] CT
0.851 0.325 0.098 RC
10.0 ML
1.2 LW
N
-3 -3 M
-3 3 L
3 3 L
3 -3 L
cp
S
GR
GS
[1 0 0 1 1050.0979 469.77805] CT
0.851 0.325 0.098 RC
N
f227889816
f
GR
GS
[1 0 0 1 1050.0979 469.77805] CT
0.851 0.325 0.098 RC
10.0 ML
1.2 LW
N
-3 -3 M
-3 3 L
3 3 L
3 -3 L
cp
S
GR
GS
[1 0 0 1 1086 470.37579] CT
0.851 0.325 0.098 RC
N
f227889816
f
GR
GS
[1 0 0 1 1086 470.37579] CT
0.851 0.325 0.098 RC
10.0 ML
1.2 LW
N
-3 -3 M
-3 3 L
3 3 L
3 -3 L
cp
S
GR
GS
0.929 0.694 0.125 RC
1 LJ
1.2 LW
N
301.831 431.278 M
537.733 213.944 L
675.813 141.5 L
773.806 114.333 L
849.825 98.7 L
911.943 92.425 L
964.465 89.179 L
1009.964 86.006 L
1050.098 89.903 L
1086 90.156 L
S
GR
GS
[1 0 0 1 301.83084 431.27777] CT
0.929 0.694 0.125 RC
N
f227889816
f
GR
GS
[1 0 0 1 301.83084 431.27777] CT
0.929 0.694 0.125 RC
10.0 ML
1.2 LW
N
-3 -3 M
-3 3 L
3 3 L
3 -3 L
cp
S
GR
GS
[1 0 0 1 537.7334 213.94444] CT
0.929 0.694 0.125 RC
N
f227889816
f
GR
GS
[1 0 0 1 537.7334 213.94444] CT
0.929 0.694 0.125 RC
10.0 ML
1.2 LW
N
-3 -3 M
-3 3 L
3 3 L
3 -3 L
cp
S
GR
GS
[1 0 0 1 675.81311 141.5] CT
0.929 0.694 0.125 RC
N
f227889816
f
GR
GS
[1 0 0 1 675.81311 141.5] CT
0.929 0.694 0.125 RC
10.0 ML
1.2 LW
N
-3 -3 M
-3 3 L
3 3 L
3 -3 L
cp
S
GR
GS
[1 0 0 1 773.80609 114.33332] CT
0.929 0.694 0.125 RC
N
f227889816
f
GR
GS
[1 0 0 1 773.80609 114.33332] CT
0.929 0.694 0.125 RC
10.0 ML
1.2 LW
N
-3 -3 M
-3 3 L
3 3 L
3 -3 L
cp
S
GR
GS
[1 0 0 1 849.8252 98.70033] CT
0.929 0.694 0.125 RC
N
f227889816
f
GR
GS
[1 0 0 1 849.8252 98.70033] CT
0.929 0.694 0.125 RC
10.0 ML
1.2 LW
N
-3 -3 M
-3 3 L
3 3 L
3 -3 L
cp
S
GR
GS
[1 0 0 1 911.9425 92.42474] CT
0.929 0.694 0.125 RC
N
f227889816
f
GR
GS
[1 0 0 1 911.9425 92.42474] CT
0.929 0.694 0.125 RC
10.0 ML
1.2 LW
N
-3 -3 M
-3 3 L
3 3 L
3 -3 L
cp
S
GR
GS
[1 0 0 1 964.4649 89.179] CT
0.929 0.694 0.125 RC
N
f227889816
f
GR
GS
[1 0 0 1 964.4649 89.179] CT
0.929 0.694 0.125 RC
10.0 ML
1.2 LW
N
-3 -3 M
-3 3 L
3 3 L
3 -3 L
cp
S
GR
GS
[1 0 0 1 1009.96381 86.00594] CT
0.929 0.694 0.125 RC
N
f227889816
f
GR
GS
[1 0 0 1 1009.96381 86.00594] CT
0.929 0.694 0.125 RC
10.0 ML
1.2 LW
N
-3 -3 M
-3 3 L
3 3 L
3 -3 L
cp
S
GR
GS
[1 0 0 1 1050.0979 89.90289] CT
0.929 0.694 0.125 RC
N
f227889816
f
GR
GS
[1 0 0 1 1050.0979 89.90289] CT
0.929 0.694 0.125 RC
10.0 ML
1.2 LW
N
-3 -3 M
-3 3 L
3 3 L
3 -3 L
cp
S
GR
GS
[1 0 0 1 1086 90.15588] CT
0.929 0.694 0.125 RC
N
f227889816
f
GR
GS
[1 0 0 1 1086 90.15588] CT
0.929 0.694 0.125 RC
10.0 ML
1.2 LW
N
-3 -3 M
-3 3 L
3 3 L
3 -3 L
cp
S
GR
GS
0.467 0.675 0.188 RC
1 LJ
1.2 LW
N
301.831 391.031 M
537.733 206.113 L
675.813 128.194 L
773.806 103.553 L
849.825 87.872 L
911.943 82.227 L
964.465 86.373 L
1009.964 82.389 L
1050.098 99.336 L
1086 87.414 L
S
GR
GS
[1 0 0 1 301.83084 391.03088] CT
0.467 0.675 0.188 RC
N
f227889816
f
GR
GS
[1 0 0 1 301.83084 391.03088] CT
0.467 0.675 0.188 RC
10.0 ML
1.2 LW
N
-3 -3 M
-3 3 L
3 3 L
3 -3 L
cp
S
GR
GS
[1 0 0 1 537.7334 206.11261] CT
0.467 0.675 0.188 RC
N
f227889816
f
GR
GS
[1 0 0 1 537.7334 206.11261] CT
0.467 0.675 0.188 RC
10.0 ML
1.2 LW
N
-3 -3 M
-3 3 L
3 3 L
3 -3 L
cp
S
GR
GS
[1 0 0 1 675.81311 128.19388] CT
0.467 0.675 0.188 RC
N
f227889816
f
GR
GS
[1 0 0 1 675.81311 128.19388] CT
0.467 0.675 0.188 RC
10.0 ML
1.2 LW
N
-3 -3 M
-3 3 L
3 3 L
3 -3 L
cp
S
GR
GS
[1 0 0 1 773.80609 103.5529] CT
0.467 0.675 0.188 RC
N
f227889816
f
GR
GS
[1 0 0 1 773.80609 103.5529] CT
0.467 0.675 0.188 RC
10.0 ML
1.2 LW
N
-3 -3 M
-3 3 L
3 3 L
3 -3 L
cp
S
GR
GS
[1 0 0 1 849.8252 87.8723] CT
0.467 0.675 0.188 RC
N
f227889816
f
GR
GS
[1 0 0 1 849.8252 87.8723] CT
0.467 0.675 0.188 RC
10.0 ML
1.2 LW
N
-3 -3 M
-3 3 L
3 3 L
3 -3 L
cp
S
GR
GS
[1 0 0 1 911.9425 82.22729] CT
0.467 0.675 0.188 RC
N
f227889816
f
GR
GS
[1 0 0 1 911.9425 82.22729] CT
0.467 0.675 0.188 RC
10.0 ML
1.2 LW
N
-3 -3 M
-3 3 L
3 3 L
3 -3 L
cp
S
GR
GS
[1 0 0 1 964.4649 86.37296] CT
0.467 0.675 0.188 RC
N
f227889816
f
GR
GS
[1 0 0 1 964.4649 86.37296] CT
0.467 0.675 0.188 RC
10.0 ML
1.2 LW
N
-3 -3 M
-3 3 L
3 3 L
3 -3 L
cp
S
GR
GS
[1 0 0 1 1009.96381 82.38888] CT
0.467 0.675 0.188 RC
N
f227889816
f
GR
GS
[1 0 0 1 1009.96381 82.38888] CT
0.467 0.675 0.188 RC
10.0 ML
1.2 LW
N
-3 -3 M
-3 3 L
3 3 L
3 -3 L
cp
S
GR
GS
[1 0 0 1 1050.0979 99.33596] CT
0.467 0.675 0.188 RC
N
f227889816
f
GR
GS
[1 0 0 1 1050.0979 99.33596] CT
0.467 0.675 0.188 RC
10.0 ML
1.2 LW
N
-3 -3 M
-3 3 L
3 3 L
3 -3 L
cp
S
GR
GS
[1 0 0 1 1086 87.4138] CT
0.467 0.675 0.188 RC
N
f227889816
f
GR
GS
[1 0 0 1 1086 87.4138] CT
0.467 0.675 0.188 RC
10.0 ML
1.2 LW
N
-3 -3 M
-3 3 L
3 3 L
3 -3 L
cp
S
GR
GS
1 GC
N
/f-1753347764{1057 367.5 M
1057 241.5 L
882.5 241.5 L
882.5 367.5 L
cp}def
f-1753347764
f
GR
GS
[1 0 0 1 919.43231 258.56772] CT
N
9.734 6.547 M
7.344 6.547 5.445 5.281 QT
3.547 4.016 2.477 1.922 QT
1.406 -0.172 1.406 -2.469 QT
1.406 -4.188 2.023 -5.859 QT
2.641 -7.531 3.742 -8.82 QT
4.844 -10.109 6.398 -10.867 QT
7.953 -11.625 9.734 -11.625 QT
11.5 -11.625 13.055 -10.859 QT
14.609 -10.094 15.719 -8.789 QT
16.828 -7.484 17.43 -5.859 QT
18.031 -4.234 18.031 -2.469 QT
18.031 -0.172 16.953 1.922 QT
15.875 4.016 13.977 5.281 QT
12.078 6.547 9.734 6.547 QT
cp
5.578 3.297 M
6.313 4.453 7.383 5.125 QT
8.453 5.797 9.734 5.797 QT
10.547 5.797 11.336 5.469 QT
12.125 5.141 12.766 4.57 QT
13.406 4 13.859 3.297 QT
15.344 1.062 15.344 -2.875 QT
15.344 -6.469 13.859 -8.578 QT
13.125 -9.625 12.031 -10.258 QT
10.938 -10.891 9.734 -10.891 QT
8.516 -10.891 7.414 -10.258 QT
6.313 -9.625 5.578 -8.578 QT
5 -7.75 4.672 -6.836 QT
4.344 -5.922 4.211 -4.93 QT
4.078 -3.938 4.078 -2.875 QT
4.078 -1.734 4.203 -0.656 QT
4.328 0.422 4.68 1.461 QT
5.031 2.5 5.578 3.297 QT
cp
f
GR
GS
[1 0 0 1 919.43231 258.56772] CT
N
20.085 10.844 M
20.085 9.984 L
20.945 9.984 21.491 9.836 QT
22.038 9.687 22.038 9.172 QT
22.038 -2.875 L
22.038 -3.563 21.554 -3.734 QT
21.07 -3.906 20.085 -3.906 QT
20.085 -4.781 L
23.788 -5.047 L
23.788 -3.5 L
24.476 -4.25 25.382 -4.649 QT
26.288 -5.047 27.32 -5.047 QT
28.788 -5.047 29.976 -4.25 QT
31.163 -3.453 31.827 -2.149 QT
32.491 -0.844 32.491 0.609 QT
32.491 2.125 31.757 3.43 QT
31.023 4.734 29.741 5.508 QT
28.46 6.281 26.945 6.281 QT
25.116 6.281 23.866 4.797 QT
23.866 9.172 L
23.866 9.687 24.421 9.836 QT
24.976 9.984 25.82 9.984 QT
25.82 10.844 L
20.085 10.844 L
cp
23.866 3.578 M
24.304 4.469 25.085 5.047 QT
25.866 5.625 26.788 5.625 QT
27.663 5.625 28.327 5.156 QT
28.991 4.687 29.445 3.906 QT
29.898 3.125 30.109 2.266 QT
30.32 1.406 30.32 0.609 QT
30.32 -0.391 29.96 -1.563 QT
29.601 -2.734 28.859 -3.531 QT
28.116 -4.328 27.07 -4.328 QT
26.054 -4.328 25.21 -3.813 QT
24.366 -3.297 23.866 -2.406 QT
23.866 3.578 L
cp
f
GR
GS
[1 0 0 1 919.43231 258.56772] CT
N
40.247 6.281 M
38.731 6.281 37.458 5.484 QT
36.184 4.687 35.458 3.351 QT
34.731 2.016 34.731 0.516 QT
34.731 -0.953 35.395 -2.266 QT
36.059 -3.578 37.247 -4.391 QT
38.434 -5.203 39.903 -5.203 QT
41.044 -5.203 41.895 -4.82 QT
42.747 -4.438 43.294 -3.75 QT
43.84 -3.063 44.122 -2.141 QT
44.403 -1.219 44.403 -0.109 QT
44.403 0.219 44.153 0.219 QT
36.903 0.219 L
36.903 0.5 L
36.903 2.562 37.739 4.055 QT
38.575 5.547 40.481 5.547 QT
41.247 5.547 41.895 5.203 QT
42.544 4.859 43.028 4.25 QT
43.512 3.641 43.684 2.953 QT
43.715 2.859 43.778 2.797 QT
43.84 2.734 43.934 2.734 QT
44.153 2.734 L
44.403 2.734 44.403 3.047 QT
44.044 4.469 42.872 5.375 QT
41.7 6.281 40.247 6.281 QT
cp
36.934 -0.391 M
42.637 -0.391 L
42.637 -1.344 42.372 -2.305 QT
42.106 -3.266 41.497 -3.906 QT
40.887 -4.547 39.903 -4.547 QT
38.481 -4.547 37.708 -3.219 QT
36.934 -1.891 36.934 -0.391 QT
cp
f
GR
GS
[1 0 0 1 919.43231 258.56772] CT
N
45.889 6 M
45.889 5.125 L
46.733 5.125 47.287 4.992 QT
47.842 4.859 47.842 4.328 QT
47.842 -2.5 L
47.842 -3.172 47.639 -3.469 QT
47.436 -3.766 47.053 -3.836 QT
46.67 -3.906 45.889 -3.906 QT
45.889 -4.781 L
49.514 -5.047 L
49.514 -2.609 L
50.014 -3.688 50.998 -4.367 QT
51.983 -5.047 53.139 -5.047 QT
54.873 -5.047 55.741 -4.219 QT
56.608 -3.391 56.608 -1.672 QT
56.608 4.328 L
56.608 4.859 57.162 4.992 QT
57.717 5.125 58.561 5.125 QT
58.561 6 L
52.842 6 L
52.842 5.125 L
53.702 5.125 54.248 4.992 QT
54.795 4.859 54.795 4.328 QT
54.795 -1.609 L
54.795 -2.828 54.444 -3.617 QT
54.092 -4.406 52.983 -4.406 QT
51.53 -4.406 50.6 -3.242 QT
49.67 -2.078 49.67 -0.609 QT
49.67 4.328 L
49.67 4.859 50.217 4.992 QT
50.764 5.125 51.608 5.125 QT
51.608 6 L
45.889 6 L
cp
f
GR
GS
[1 0 0 1 919.43231 258.56772] CT
N
59.903 6 M
59.903 5.125 L
62.481 5.125 62.481 3.641 QT
62.481 -9.406 L
62.481 -10.203 59.903 -10.203 QT
59.903 -11.078 L
64.637 -11.078 L
64.934 -11.078 65.028 -10.797 QT
70.481 3.344 L
75.919 -10.797 L
76.028 -11.078 76.325 -11.078 QT
81.044 -11.078 L
81.044 -10.203 L
78.481 -10.203 78.481 -9.406 QT
78.481 4.328 L
78.481 5.125 81.044 5.125 QT
81.044 6 L
73.778 6 L
73.778 5.125 L
76.356 5.125 76.356 4.328 QT
76.356 -10.219 L
70.2 5.719 L
70.09 6 69.778 6 QT
69.465 6 69.356 5.719 QT
63.278 -10.031 L
63.278 3.641 L
63.278 5.125 65.856 5.125 QT
65.856 6 L
59.903 6 L
cp
f
GR
GS
[1 0 0 1 919.43231 258.56772] CT
N
82.773 6 M
82.773 5.125 L
85.351 5.125 85.351 4.328 QT
85.351 -9.406 L
85.351 -10.203 82.773 -10.203 QT
82.773 -11.078 L
91.679 -11.078 L
93.038 -11.078 94.406 -10.516 QT
95.773 -9.953 96.656 -8.883 QT
97.538 -7.813 97.538 -6.375 QT
97.538 -4.984 96.648 -3.938 QT
95.757 -2.891 94.406 -2.344 QT
93.054 -1.797 91.679 -1.797 QT
87.663 -1.797 L
87.663 4.328 L
87.663 5.125 90.242 5.125 QT
90.242 6 L
82.773 6 L
cp
87.601 -2.547 M
90.992 -2.547 L
92.367 -2.547 93.226 -2.945 QT
94.085 -3.344 94.476 -4.18 QT
94.867 -5.016 94.867 -6.375 QT
94.867 -8.422 93.976 -9.313 QT
93.085 -10.203 90.992 -10.203 QT
88.867 -10.203 L
88.413 -10.203 88.163 -10.164 QT
87.913 -10.125 87.757 -9.945 QT
87.601 -9.766 87.601 -9.406 QT
87.601 -2.547 L
cp
f
GR
GS
0 0.447 0.741 RC
1 LJ
1.2 LW
N
886.493 258.568 M
916.438 258.568 L
S
GR
GS
[1 0 0 1 901.46527 258.56772] CT
0 0.447 0.741 RC
N
f227889816
f
GR
GS
[1 0 0 1 901.46527 258.56772] CT
0 0.447 0.741 RC
10.0 ML
1.2 LW
N
-3 -3 M
-3 3 L
3 3 L
3 -3 L
cp
S
GR
GS
[1 0 0 1 919.43231 289.18924] CT
N
0.859 6 M
0.859 5.125 L
3.438 5.125 3.438 4.328 QT
3.438 -9.406 L
3.438 -10.203 0.859 -10.203 QT
0.859 -11.078 L
10.047 -11.078 L
11.313 -11.078 12.609 -10.586 QT
13.906 -10.094 14.75 -9.117 QT
15.594 -8.141 15.594 -6.828 QT
15.594 -5.297 14.344 -4.266 QT
13.094 -3.234 11.422 -2.922 QT
12.516 -2.922 13.664 -2.328 QT
14.813 -1.734 15.539 -0.727 QT
16.266 0.281 16.266 1.391 QT
16.266 2.766 15.461 3.812 QT
14.656 4.859 13.359 5.43 QT
12.063 6 10.75 6 QT
0.859 6 L
cp
5.609 4.328 M
5.609 4.859 5.914 4.992 QT
6.219 5.125 6.875 5.125 QT
10.047 5.125 L
11.016 5.125 11.859 4.609 QT
12.703 4.094 13.188 3.234 QT
13.672 2.375 13.672 1.391 QT
13.672 0.453 13.266 -0.461 QT
12.859 -1.375 12.109 -1.961 QT
11.359 -2.547 10.406 -2.547 QT
5.609 -2.547 L
5.609 4.328 L
cp
5.609 -3.203 M
9.344 -3.203 L
10.109 -3.203 10.773 -3.477 QT
11.438 -3.75 11.969 -4.274 QT
12.5 -4.797 12.789 -5.445 QT
13.078 -6.094 13.078 -6.828 QT
13.078 -7.484 12.859 -8.078 QT
12.641 -8.672 12.227 -9.164 QT
11.813 -9.656 11.25 -9.93 QT
10.688 -10.203 10.047 -10.203 QT
6.875 -10.203 L
6.422 -10.203 6.172 -10.164 QT
5.922 -10.125 5.766 -9.945 QT
5.609 -9.766 5.609 -9.406 QT
5.609 -3.203 L
cp
f
GR
GS
[1 0 0 1 919.43231 289.18924] CT
N
18.474 6 M
18.474 5.125 L
19.333 5.125 19.88 4.992 QT
20.427 4.859 20.427 4.328 QT
20.427 -8.797 L
20.427 -9.469 20.224 -9.766 QT
20.021 -10.063 19.646 -10.133 QT
19.271 -10.203 18.474 -10.203 QT
18.474 -11.078 L
22.193 -11.344 L
22.193 4.328 L
22.193 4.859 22.74 4.992 QT
23.287 5.125 24.13 5.125 QT
24.13 6 L
18.474 6 L
cp
f
GR
GS
[1 0 0 1 919.43231 289.18924] CT
N
30.903 6.281 M
29.403 6.281 28.122 5.516 QT
26.84 4.75 26.098 3.469 QT
25.356 2.187 25.356 0.672 QT
25.356 -0.469 25.762 -1.531 QT
26.168 -2.594 26.934 -3.43 QT
27.7 -4.266 28.708 -4.734 QT
29.715 -5.203 30.903 -5.203 QT
32.434 -5.203 33.7 -4.391 QT
34.965 -3.578 35.7 -2.219 QT
36.434 -0.859 36.434 0.672 QT
36.434 2.172 35.692 3.461 QT
34.95 4.75 33.668 5.516 QT
32.387 6.281 30.903 6.281 QT
cp
30.903 5.547 M
32.903 5.547 33.575 4.094 QT
34.247 2.641 34.247 0.391 QT
34.247 -0.859 34.114 -1.688 QT
33.981 -2.516 33.528 -3.188 QT
33.247 -3.594 32.817 -3.906 QT
32.387 -4.219 31.903 -4.383 QT
31.418 -4.547 30.903 -4.547 QT
30.122 -4.547 29.418 -4.195 QT
28.715 -3.844 28.247 -3.188 QT
27.793 -2.469 27.661 -1.625 QT
27.528 -0.781 27.528 0.391 QT
27.528 1.797 27.778 2.914 QT
28.028 4.031 28.762 4.789 QT
29.497 5.547 30.903 5.547 QT
cp
f
GR
GS
[1 0 0 1 919.43231 289.18924] CT
N
44.066 6.281 M
42.566 6.281 41.332 5.492 QT
40.097 4.703 39.386 3.391 QT
38.675 2.078 38.675 0.609 QT
38.675 -0.875 39.379 -2.227 QT
40.082 -3.578 41.324 -4.391 QT
42.566 -5.203 44.066 -5.203 QT
45.535 -5.203 46.738 -4.633 QT
47.941 -4.063 47.941 -2.75 QT
47.941 -2.266 47.597 -1.906 QT
47.254 -1.547 46.754 -1.547 QT
46.254 -1.547 45.902 -1.906 QT
45.55 -2.266 45.55 -2.75 QT
45.55 -3.188 45.832 -3.516 QT
46.113 -3.844 46.519 -3.922 QT
45.66 -4.469 44.097 -4.469 QT
42.894 -4.469 42.168 -3.68 QT
41.441 -2.891 41.144 -1.719 QT
40.847 -0.547 40.847 0.609 QT
40.847 1.812 41.207 2.945 QT
41.566 4.078 42.371 4.812 QT
43.175 5.547 44.379 5.547 QT
45.566 5.547 46.394 4.82 QT
47.222 4.094 47.535 2.922 QT
47.535 2.781 47.722 2.781 QT
48.035 2.781 L
48.097 2.781 48.16 2.844 QT
48.222 2.906 48.222 3 QT
48.222 3.062 L
47.847 4.547 46.722 5.414 QT
45.597 6.281 44.066 6.281 QT
cp
f
GR
GS
[1 0 0 1 919.43231 289.18924] CT
N
48.905 6 M
48.905 5.125 L
49.764 5.125 50.311 4.992 QT
50.858 4.859 50.858 4.328 QT
50.858 -8.797 L
50.858 -9.469 50.662 -9.766 QT
50.467 -10.063 50.084 -10.133 QT
49.702 -10.203 48.905 -10.203 QT
48.905 -11.078 L
52.608 -11.344 L
52.608 0.516 L
55.967 -2.422 L
56.467 -2.906 56.467 -3.297 QT
56.467 -3.594 56.256 -3.75 QT
56.045 -3.906 55.764 -3.906 QT
55.764 -4.781 L
60.452 -4.781 L
60.452 -3.906 L
58.764 -3.906 57.061 -2.422 QT
55.28 -0.875 L
58.467 3.641 L
59.123 4.578 59.569 4.851 QT
60.014 5.125 61.045 5.125 QT
61.045 6 L
56.061 6 L
56.061 5.125 L
56.92 5.125 56.92 4.594 QT
56.92 4.219 56.467 3.641 QT
54.061 0.219 L
52.53 1.547 L
52.53 4.328 L
52.53 4.859 53.092 4.992 QT
53.655 5.125 54.483 5.125 QT
54.483 6 L
48.905 6 L
cp
f
GR
GS
[1 0 0 1 919.43231 289.18924] CT
N
62.287 6.078 M
62.287 2 L
62.287 1.797 62.505 1.797 QT
62.818 1.797 L
62.959 1.797 63.005 2 QT
63.709 5.625 66.38 5.625 QT
67.568 5.625 68.365 5.086 QT
69.162 4.547 69.162 3.422 QT
69.162 2.625 68.537 2.055 QT
67.912 1.484 67.068 1.281 QT
65.396 0.953 L
64.552 0.766 63.857 0.383 QT
63.162 0 62.724 -0.625 QT
62.287 -1.25 62.287 -2.078 QT
62.287 -3.188 62.865 -3.883 QT
63.443 -4.578 64.373 -4.891 QT
65.302 -5.203 66.38 -5.203 QT
67.662 -5.203 68.615 -4.516 QT
69.334 -5.141 L
69.334 -5.203 69.459 -5.203 QT
69.63 -5.203 L
69.709 -5.203 69.771 -5.141 QT
69.834 -5.078 69.834 -5 QT
69.834 -1.734 L
69.834 -1.5 69.63 -1.5 QT
69.334 -1.5 L
69.115 -1.5 69.115 -1.734 QT
69.115 -3.031 68.388 -3.828 QT
67.662 -4.625 66.349 -4.625 QT
65.224 -4.625 64.404 -4.211 QT
63.584 -3.797 63.584 -2.781 QT
63.584 -2.078 64.177 -1.633 QT
64.771 -1.188 65.568 -1 QT
67.255 -0.672 L
68.115 -0.484 68.849 -0.016 QT
69.584 0.453 70.021 1.156 QT
70.459 1.859 70.459 2.75 QT
70.459 3.656 70.146 4.32 QT
69.834 4.984 69.279 5.422 QT
68.724 5.859 67.966 6.07 QT
67.209 6.281 66.38 6.281 QT
64.818 6.281 63.709 5.234 QT
62.787 6.219 L
62.787 6.281 62.662 6.281 QT
62.505 6.281 L
62.287 6.281 62.287 6.078 QT
cp
f
GR
GS
[1 0 0 1 919.43231 289.18924] CT
N
72.085 6 M
72.085 5.125 L
72.945 5.125 73.491 4.992 QT
74.038 4.859 74.038 4.328 QT
74.038 -2.5 L
74.038 -3.453 73.671 -3.68 QT
73.304 -3.906 72.195 -3.906 QT
72.195 -4.781 L
75.804 -5.047 L
75.804 4.328 L
75.804 4.859 76.281 4.992 QT
76.757 5.125 77.538 5.125 QT
77.538 6 L
72.085 6 L
cp
73.148 -9.344 M
73.148 -9.891 73.562 -10.305 QT
73.976 -10.719 74.523 -10.719 QT
74.866 -10.719 75.202 -10.539 QT
75.538 -10.359 75.718 -10.031 QT
75.898 -9.703 75.898 -9.344 QT
75.898 -8.813 75.484 -8.399 QT
75.07 -7.984 74.523 -7.984 QT
73.976 -7.984 73.562 -8.399 QT
73.148 -8.813 73.148 -9.344 QT
cp
f
GR
GS
[1 0 0 1 919.43231 289.18924] CT
N
79.248 6 M
78.967 6 78.967 5.719 QT
78.967 5.531 L
78.967 5.422 79.03 5.359 QT
86.014 -4.125 L
83.764 -4.125 L
82.702 -4.125 82.014 -3.984 QT
81.327 -3.844 80.881 -3.477 QT
80.436 -3.109 80.233 -2.453 QT
80.03 -1.797 80.03 -0.656 QT
79.311 -0.656 L
79.592 -4.781 L
87.967 -4.781 L
88.077 -4.781 88.155 -4.703 QT
88.233 -4.625 88.233 -4.5 QT
88.233 -4.359 L
88.233 -4.281 88.186 -4.188 QT
81.202 5.281 L
83.592 5.281 L
84.67 5.281 85.397 5.148 QT
86.123 5.016 86.639 4.5 QT
87.108 4.016 87.288 3.211 QT
87.467 2.406 87.561 1.234 QT
88.28 1.234 L
87.858 6 L
79.248 6 L
cp
f
GR
GS
[1 0 0 1 919.43231 289.18924] CT
N
95.594 6.281 M
94.078 6.281 92.805 5.484 QT
91.531 4.687 90.805 3.351 QT
90.078 2.016 90.078 0.516 QT
90.078 -0.953 90.742 -2.266 QT
91.406 -3.578 92.594 -4.391 QT
93.781 -5.203 95.25 -5.203 QT
96.391 -5.203 97.242 -4.82 QT
98.094 -4.438 98.641 -3.75 QT
99.188 -3.063 99.469 -2.141 QT
99.75 -1.219 99.75 -0.109 QT
99.75 0.219 99.5 0.219 QT
92.25 0.219 L
92.25 0.5 L
92.25 2.562 93.086 4.055 QT
93.922 5.547 95.828 5.547 QT
96.594 5.547 97.242 5.203 QT
97.891 4.859 98.375 4.25 QT
98.86 3.641 99.031 2.953 QT
99.063 2.859 99.125 2.797 QT
99.188 2.734 99.281 2.734 QT
99.5 2.734 L
99.75 2.734 99.75 3.047 QT
99.391 4.469 98.219 5.375 QT
97.047 6.281 95.594 6.281 QT
cp
92.281 -0.391 M
97.985 -0.391 L
97.985 -1.344 97.719 -2.305 QT
97.453 -3.266 96.844 -3.906 QT
96.235 -4.547 95.25 -4.547 QT
93.828 -4.547 93.055 -3.219 QT
92.281 -1.891 92.281 -0.391 QT
cp
f
GR
GS
[1 0 0 1 919.43231 289.18924] CT
N
109.866 2.203 M
109.866 0.703 110.859 -0.453 QT
111.851 -1.609 113.398 -2.375 QT
112.476 -2.969 L
111.616 -3.531 111.077 -4.469 QT
110.538 -5.406 110.538 -6.422 QT
110.538 -7.625 111.171 -8.586 QT
111.804 -9.547 112.843 -10.102 QT
113.882 -10.656 115.07 -10.656 QT
116.179 -10.656 117.21 -10.203 QT
118.241 -9.75 118.906 -8.906 QT
119.57 -8.063 119.57 -6.906 QT
119.57 -6.063 119.179 -5.344 QT
118.788 -4.625 118.093 -4.047 QT
117.398 -3.469 116.616 -3.063 QT
118.054 -2.156 L
119.038 -1.5 119.64 -0.453 QT
120.241 0.594 120.241 1.75 QT
120.241 3.109 119.515 4.219 QT
118.788 5.328 117.593 5.937 QT
116.398 6.547 115.07 6.547 QT
113.773 6.547 112.57 6.023 QT
111.366 5.5 110.616 4.508 QT
109.866 3.516 109.866 2.203 QT
cp
111.226 2.203 M
111.226 3.187 111.765 4.008 QT
112.304 4.828 113.202 5.289 QT
114.101 5.75 115.07 5.75 QT
116.523 5.75 117.71 4.906 QT
118.898 4.062 118.898 2.656 QT
118.898 2.172 118.702 1.703 QT
118.507 1.234 118.171 0.851 QT
117.835 0.469 117.429 0.219 QT
114.07 -1.953 L
113.288 -1.531 112.632 -0.899 QT
111.976 -0.266 111.601 0.531 QT
111.226 1.328 111.226 2.203 QT
cp
112.945 -5.422 M
115.976 -3.469 L
117.023 -4.078 117.695 -4.945 QT
118.366 -5.813 118.366 -6.906 QT
118.366 -7.75 117.898 -8.453 QT
117.429 -9.156 116.671 -9.547 QT
115.913 -9.938 115.038 -9.938 QT
114.288 -9.938 113.523 -9.641 QT
112.757 -9.344 112.257 -8.766 QT
111.757 -8.188 111.757 -7.406 QT
111.757 -6.234 112.945 -5.422 QT
cp
f
GR
GS
0.851 0.325 0.098 RC
1 LJ
1.2 LW
N
886.493 289.189 M
916.438 289.189 L
S
GR
GS
[1 0 0 1 901.46527 289.18924] CT
0.851 0.325 0.098 RC
N
f227889816
f
GR
GS
[1 0 0 1 901.46527 289.18924] CT
0.851 0.325 0.098 RC
10.0 ML
1.2 LW
N
-3 -3 M
-3 3 L
3 3 L
3 -3 L
cp
S
GR
GS
[1 0 0 1 919.43231 319.81076] CT
N
/f1532383821{0.859 6 M
0.859 5.125 L
3.438 5.125 3.438 4.328 QT
3.438 -9.406 L
3.438 -10.203 0.859 -10.203 QT
0.859 -11.078 L
10.047 -11.078 L
11.313 -11.078 12.609 -10.586 QT
13.906 -10.094 14.75 -9.117 QT
15.594 -8.141 15.594 -6.828 QT
15.594 -5.297 14.344 -4.266 QT
13.094 -3.234 11.422 -2.922 QT
12.516 -2.922 13.664 -2.328 QT
14.813 -1.734 15.539 -0.727 QT
16.266 0.281 16.266 1.391 QT
16.266 2.766 15.461 3.812 QT
14.656 4.859 13.359 5.43 QT
12.063 6 10.75 6 QT
0.859 6 L
cp
5.609 4.328 M
5.609 4.859 5.914 4.992 QT
6.219 5.125 6.875 5.125 QT
10.047 5.125 L
11.016 5.125 11.859 4.609 QT
12.703 4.094 13.188 3.234 QT
13.672 2.375 13.672 1.391 QT
13.672 0.453 13.266 -0.461 QT
12.859 -1.375 12.109 -1.961 QT
11.359 -2.547 10.406 -2.547 QT
5.609 -2.547 L
5.609 4.328 L
cp
5.609 -3.203 M
9.344 -3.203 L
10.109 -3.203 10.773 -3.477 QT
11.438 -3.75 11.969 -4.274 QT
12.5 -4.797 12.789 -5.445 QT
13.078 -6.094 13.078 -6.828 QT
13.078 -7.484 12.859 -8.078 QT
12.641 -8.672 12.227 -9.164 QT
11.813 -9.656 11.25 -9.93 QT
10.688 -10.203 10.047 -10.203 QT
6.875 -10.203 L
6.422 -10.203 6.172 -10.164 QT
5.922 -10.125 5.766 -9.945 QT
5.609 -9.766 5.609 -9.406 QT
5.609 -3.203 L
cp}def
f1532383821
f
GR
GS
[1 0 0 1 919.43231 319.81076] CT
N
/f1790679491{18.474 6 M
18.474 5.125 L
19.333 5.125 19.88 4.992 QT
20.427 4.859 20.427 4.328 QT
20.427 -8.797 L
20.427 -9.469 20.224 -9.766 QT
20.021 -10.063 19.646 -10.133 QT
19.271 -10.203 18.474 -10.203 QT
18.474 -11.078 L
22.193 -11.344 L
22.193 4.328 L
22.193 4.859 22.74 4.992 QT
23.287 5.125 24.13 5.125 QT
24.13 6 L
18.474 6 L
cp}def
f1790679491
f
GR
GS
[1 0 0 1 919.43231 319.81076] CT
N
/f1291015099{30.903 6.281 M
29.403 6.281 28.122 5.516 QT
26.84 4.75 26.098 3.469 QT
25.356 2.187 25.356 0.672 QT
25.356 -0.469 25.762 -1.531 QT
26.168 -2.594 26.934 -3.43 QT
27.7 -4.266 28.708 -4.734 QT
29.715 -5.203 30.903 -5.203 QT
32.434 -5.203 33.7 -4.391 QT
34.965 -3.578 35.7 -2.219 QT
36.434 -0.859 36.434 0.672 QT
36.434 2.172 35.692 3.461 QT
34.95 4.75 33.668 5.516 QT
32.387 6.281 30.903 6.281 QT
cp
30.903 5.547 M
32.903 5.547 33.575 4.094 QT
34.247 2.641 34.247 0.391 QT
34.247 -0.859 34.114 -1.688 QT
33.981 -2.516 33.528 -3.188 QT
33.247 -3.594 32.817 -3.906 QT
32.387 -4.219 31.903 -4.383 QT
31.418 -4.547 30.903 -4.547 QT
30.122 -4.547 29.418 -4.195 QT
28.715 -3.844 28.247 -3.188 QT
27.793 -2.469 27.661 -1.625 QT
27.528 -0.781 27.528 0.391 QT
27.528 1.797 27.778 2.914 QT
28.028 4.031 28.762 4.789 QT
29.497 5.547 30.903 5.547 QT
cp}def
f1291015099
f
GR
GS
[1 0 0 1 919.43231 319.81076] CT
N
/f1051699895{44.066 6.281 M
42.566 6.281 41.332 5.492 QT
40.097 4.703 39.386 3.391 QT
38.675 2.078 38.675 0.609 QT
38.675 -0.875 39.379 -2.227 QT
40.082 -3.578 41.324 -4.391 QT
42.566 -5.203 44.066 -5.203 QT
45.535 -5.203 46.738 -4.633 QT
47.941 -4.063 47.941 -2.75 QT
47.941 -2.266 47.597 -1.906 QT
47.254 -1.547 46.754 -1.547 QT
46.254 -1.547 45.902 -1.906 QT
45.55 -2.266 45.55 -2.75 QT
45.55 -3.188 45.832 -3.516 QT
46.113 -3.844 46.519 -3.922 QT
45.66 -4.469 44.097 -4.469 QT
42.894 -4.469 42.168 -3.68 QT
41.441 -2.891 41.144 -1.719 QT
40.847 -0.547 40.847 0.609 QT
40.847 1.812 41.207 2.945 QT
41.566 4.078 42.371 4.812 QT
43.175 5.547 44.379 5.547 QT
45.566 5.547 46.394 4.82 QT
47.222 4.094 47.535 2.922 QT
47.535 2.781 47.722 2.781 QT
48.035 2.781 L
48.097 2.781 48.16 2.844 QT
48.222 2.906 48.222 3 QT
48.222 3.062 L
47.847 4.547 46.722 5.414 QT
45.597 6.281 44.066 6.281 QT
cp}def
f1051699895
f
GR
GS
[1 0 0 1 919.43231 319.81076] CT
N
/f1271157933{48.905 6 M
48.905 5.125 L
49.764 5.125 50.311 4.992 QT
50.858 4.859 50.858 4.328 QT
50.858 -8.797 L
50.858 -9.469 50.662 -9.766 QT
50.467 -10.063 50.084 -10.133 QT
49.702 -10.203 48.905 -10.203 QT
48.905 -11.078 L
52.608 -11.344 L
52.608 0.516 L
55.967 -2.422 L
56.467 -2.906 56.467 -3.297 QT
56.467 -3.594 56.256 -3.75 QT
56.045 -3.906 55.764 -3.906 QT
55.764 -4.781 L
60.452 -4.781 L
60.452 -3.906 L
58.764 -3.906 57.061 -2.422 QT
55.28 -0.875 L
58.467 3.641 L
59.123 4.578 59.569 4.851 QT
60.014 5.125 61.045 5.125 QT
61.045 6 L
56.061 6 L
56.061 5.125 L
56.92 5.125 56.92 4.594 QT
56.92 4.219 56.467 3.641 QT
54.061 0.219 L
52.53 1.547 L
52.53 4.328 L
52.53 4.859 53.092 4.992 QT
53.655 5.125 54.483 5.125 QT
54.483 6 L
48.905 6 L
cp}def
f1271157933
f
GR
GS
[1 0 0 1 919.43231 319.81076] CT
N
/f-1123791965{62.287 6.078 M
62.287 2 L
62.287 1.797 62.505 1.797 QT
62.818 1.797 L
62.959 1.797 63.005 2 QT
63.709 5.625 66.38 5.625 QT
67.568 5.625 68.365 5.086 QT
69.162 4.547 69.162 3.422 QT
69.162 2.625 68.537 2.055 QT
67.912 1.484 67.068 1.281 QT
65.396 0.953 L
64.552 0.766 63.857 0.383 QT
63.162 0 62.724 -0.625 QT
62.287 -1.25 62.287 -2.078 QT
62.287 -3.188 62.865 -3.883 QT
63.443 -4.578 64.373 -4.891 QT
65.302 -5.203 66.38 -5.203 QT
67.662 -5.203 68.615 -4.516 QT
69.334 -5.141 L
69.334 -5.203 69.459 -5.203 QT
69.63 -5.203 L
69.709 -5.203 69.771 -5.141 QT
69.834 -5.078 69.834 -5 QT
69.834 -1.734 L
69.834 -1.5 69.63 -1.5 QT
69.334 -1.5 L
69.115 -1.5 69.115 -1.734 QT
69.115 -3.031 68.388 -3.828 QT
67.662 -4.625 66.349 -4.625 QT
65.224 -4.625 64.404 -4.211 QT
63.584 -3.797 63.584 -2.781 QT
63.584 -2.078 64.177 -1.633 QT
64.771 -1.188 65.568 -1 QT
67.255 -0.672 L
68.115 -0.484 68.849 -0.016 QT
69.584 0.453 70.021 1.156 QT
70.459 1.859 70.459 2.75 QT
70.459 3.656 70.146 4.32 QT
69.834 4.984 69.279 5.422 QT
68.724 5.859 67.966 6.07 QT
67.209 6.281 66.38 6.281 QT
64.818 6.281 63.709 5.234 QT
62.787 6.219 L
62.787 6.281 62.662 6.281 QT
62.505 6.281 L
62.287 6.281 62.287 6.078 QT
cp}def
f-1123791965
f
GR
GS
[1 0 0 1 919.43231 319.81076] CT
N
/f2056637847{72.085 6 M
72.085 5.125 L
72.945 5.125 73.491 4.992 QT
74.038 4.859 74.038 4.328 QT
74.038 -2.5 L
74.038 -3.453 73.671 -3.68 QT
73.304 -3.906 72.195 -3.906 QT
72.195 -4.781 L
75.804 -5.047 L
75.804 4.328 L
75.804 4.859 76.281 4.992 QT
76.757 5.125 77.538 5.125 QT
77.538 6 L
72.085 6 L
cp
73.148 -9.344 M
73.148 -9.891 73.562 -10.305 QT
73.976 -10.719 74.523 -10.719 QT
74.866 -10.719 75.202 -10.539 QT
75.538 -10.359 75.718 -10.031 QT
75.898 -9.703 75.898 -9.344 QT
75.898 -8.813 75.484 -8.399 QT
75.07 -7.984 74.523 -7.984 QT
73.976 -7.984 73.562 -8.399 QT
73.148 -8.813 73.148 -9.344 QT
cp}def
f2056637847
f
GR
GS
[1 0 0 1 919.43231 319.81076] CT
N
/f-1815123443{79.248 6 M
78.967 6 78.967 5.719 QT
78.967 5.531 L
78.967 5.422 79.03 5.359 QT
86.014 -4.125 L
83.764 -4.125 L
82.702 -4.125 82.014 -3.984 QT
81.327 -3.844 80.881 -3.477 QT
80.436 -3.109 80.233 -2.453 QT
80.03 -1.797 80.03 -0.656 QT
79.311 -0.656 L
79.592 -4.781 L
87.967 -4.781 L
88.077 -4.781 88.155 -4.703 QT
88.233 -4.625 88.233 -4.5 QT
88.233 -4.359 L
88.233 -4.281 88.186 -4.188 QT
81.202 5.281 L
83.592 5.281 L
84.67 5.281 85.397 5.148 QT
86.123 5.016 86.639 4.5 QT
87.108 4.016 87.288 3.211 QT
87.467 2.406 87.561 1.234 QT
88.28 1.234 L
87.858 6 L
79.248 6 L
cp}def
f-1815123443
f
GR
GS
[1 0 0 1 919.43231 319.81076] CT
N
/f-1845925654{95.594 6.281 M
94.078 6.281 92.805 5.484 QT
91.531 4.687 90.805 3.351 QT
90.078 2.016 90.078 0.516 QT
90.078 -0.953 90.742 -2.266 QT
91.406 -3.578 92.594 -4.391 QT
93.781 -5.203 95.25 -5.203 QT
96.391 -5.203 97.242 -4.82 QT
98.094 -4.438 98.641 -3.75 QT
99.188 -3.063 99.469 -2.141 QT
99.75 -1.219 99.75 -0.109 QT
99.75 0.219 99.5 0.219 QT
92.25 0.219 L
92.25 0.5 L
92.25 2.562 93.086 4.055 QT
93.922 5.547 95.828 5.547 QT
96.594 5.547 97.242 5.203 QT
97.891 4.859 98.375 4.25 QT
98.86 3.641 99.031 2.953 QT
99.063 2.859 99.125 2.797 QT
99.188 2.734 99.281 2.734 QT
99.5 2.734 L
99.75 2.734 99.75 3.047 QT
99.391 4.469 98.219 5.375 QT
97.047 6.281 95.594 6.281 QT
cp
92.281 -0.391 M
97.985 -0.391 L
97.985 -1.344 97.719 -2.305 QT
97.453 -3.266 96.844 -3.906 QT
96.235 -4.547 95.25 -4.547 QT
93.828 -4.547 93.055 -3.219 QT
92.281 -1.891 92.281 -0.391 QT
cp}def
f-1845925654
f
GR
GS
[1 0 0 1 919.43231 319.81076] CT
N
/f632968179{111.132 6 M
111.132 5.125 L
114.257 5.125 114.257 4.328 QT
114.257 -8.797 L
112.976 -8.172 110.991 -8.172 QT
110.991 -9.047 L
114.054 -9.047 115.616 -10.656 QT
115.976 -10.656 L
116.054 -10.656 116.132 -10.586 QT
116.21 -10.516 116.21 -10.438 QT
116.21 4.328 L
116.21 5.125 119.335 5.125 QT
119.335 6 L
111.132 6 L
cp}def
f632968179
f
GR
GS
[1 0 0 1 919.43231 319.81076] CT
N
/f-1568071889{127.57 6.547 M
126.023 6.547 124.984 5.726 QT
123.945 4.906 123.374 3.594 QT
122.804 2.281 122.585 0.836 QT
122.367 -0.609 122.367 -2.078 QT
122.367 -4.063 123.14 -6.047 QT
123.913 -8.031 125.406 -9.344 QT
126.898 -10.656 128.945 -10.656 QT
129.804 -10.656 130.546 -10.328 QT
131.288 -10 131.702 -9.375 QT
132.117 -8.75 132.117 -7.859 QT
132.117 -7.344 131.773 -6.992 QT
131.429 -6.641 130.913 -6.641 QT
130.429 -6.641 130.077 -7 QT
129.726 -7.359 129.726 -7.859 QT
129.726 -8.344 130.077 -8.695 QT
130.429 -9.047 130.913 -9.047 QT
131.054 -9.047 L
130.726 -9.5 130.148 -9.719 QT
129.57 -9.938 128.945 -9.938 QT
128.195 -9.938 127.554 -9.602 QT
126.913 -9.266 126.398 -8.703 QT
125.882 -8.141 125.538 -7.469 QT
125.195 -6.797 125.007 -5.93 QT
124.82 -5.063 124.773 -4.305 QT
124.726 -3.547 124.726 -2.406 QT
125.163 -3.422 125.968 -4.078 QT
126.773 -4.734 127.788 -4.734 QT
128.898 -4.734 129.812 -4.281 QT
130.726 -3.828 131.39 -3.031 QT
132.054 -2.234 132.398 -1.203 QT
132.742 -0.172 132.742 0.875 QT
132.742 2.344 132.093 3.664 QT
131.445 4.984 130.257 5.766 QT
129.07 6.547 127.57 6.547 QT
cp
127.57 5.75 M
128.538 5.75 129.124 5.312 QT
129.71 4.875 129.984 4.148 QT
130.257 3.422 130.32 2.687 QT
130.382 1.953 130.382 0.875 QT
130.382 -0.547 130.249 -1.547 QT
130.117 -2.547 129.523 -3.313 QT
128.929 -4.078 127.695 -4.078 QT
126.679 -4.078 126.023 -3.391 QT
125.367 -2.703 125.07 -1.656 QT
124.773 -0.609 124.773 0.344 QT
124.773 0.672 124.804 0.844 QT
124.804 0.891 124.796 0.914 QT
124.788 0.937 124.773 0.969 QT
124.773 2.047 124.992 3.141 QT
125.21 4.234 125.835 4.992 QT
126.46 5.75 127.57 5.75 QT
cp}def
f-1568071889
f
GR
GS
0.929 0.694 0.125 RC
1 LJ
1.2 LW
N
886.493 319.811 M
916.438 319.811 L
S
GR
GS
[1 0 0 1 901.46527 319.81076] CT
0.929 0.694 0.125 RC
N
f227889816
f
GR
GS
[1 0 0 1 901.46527 319.81076] CT
0.929 0.694 0.125 RC
10.0 ML
1.2 LW
N
-3 -3 M
-3 3 L
3 3 L
3 -3 L
cp
S
GR
GS
[1 0 0 1 919.43231 350.43228] CT
N
f1532383821
f
GR
GS
[1 0 0 1 919.43231 350.43228] CT
N
f1790679491
f
GR
GS
[1 0 0 1 919.43231 350.43228] CT
N
f1291015099
f
GR
GS
[1 0 0 1 919.43231 350.43228] CT
N
f1051699895
f
GR
GS
[1 0 0 1 919.43231 350.43228] CT
N
f1271157933
f
GR
GS
[1 0 0 1 919.43231 350.43228] CT
N
f-1123791965
f
GR
GS
[1 0 0 1 919.43231 350.43228] CT
N
f2056637847
f
GR
GS
[1 0 0 1 919.43231 350.43228] CT
N
f-1815123443
f
GR
GS
[1 0 0 1 919.43231 350.43228] CT
N
f-1845925654
f
GR
GS
[1 0 0 1 919.43231 350.43228] CT
N
/f-38062295{111.195 4.078 M
111.788 4.922 112.773 5.336 QT
113.757 5.75 114.898 5.75 QT
116.351 5.75 116.96 4.516 QT
117.57 3.281 117.57 1.703 QT
117.57 1 117.445 0.289 QT
117.32 -0.422 117.015 -1.031 QT
116.71 -1.641 116.179 -2.008 QT
115.648 -2.375 114.882 -2.375 QT
113.21 -2.375 L
112.991 -2.375 112.991 -2.609 QT
112.991 -2.828 L
112.991 -3.016 113.21 -3.016 QT
114.601 -3.125 L
115.476 -3.125 116.054 -3.789 QT
116.632 -4.453 116.898 -5.399 QT
117.163 -6.344 117.163 -7.203 QT
117.163 -8.391 116.609 -9.164 QT
116.054 -9.938 114.898 -9.938 QT
113.945 -9.938 113.077 -9.57 QT
112.21 -9.203 111.695 -8.484 QT
111.757 -8.484 111.788 -8.492 QT
111.82 -8.5 111.866 -8.5 QT
112.429 -8.5 112.812 -8.109 QT
113.195 -7.719 113.195 -7.172 QT
113.195 -6.641 112.812 -6.25 QT
112.429 -5.859 111.866 -5.859 QT
111.32 -5.859 110.929 -6.25 QT
110.538 -6.641 110.538 -7.172 QT
110.538 -8.25 111.187 -9.039 QT
111.835 -9.828 112.851 -10.242 QT
113.866 -10.656 114.898 -10.656 QT
115.663 -10.656 116.499 -10.43 QT
117.335 -10.203 118.023 -9.781 QT
118.71 -9.359 119.14 -8.695 QT
119.57 -8.031 119.57 -7.203 QT
119.57 -6.141 119.101 -5.25 QT
118.632 -4.359 117.812 -3.711 QT
116.991 -3.063 116.023 -2.75 QT
117.101 -2.547 118.077 -1.938 QT
119.054 -1.328 119.648 -0.375 QT
120.241 0.578 120.241 1.672 QT
120.241 3.062 119.484 4.18 QT
118.726 5.297 117.499 5.922 QT
116.273 6.547 114.898 6.547 QT
113.726 6.547 112.546 6.101 QT
111.366 5.656 110.616 4.766 QT
109.866 3.875 109.866 2.625 QT
109.866 2.016 110.281 1.594 QT
110.695 1.172 111.32 1.172 QT
111.726 1.172 112.062 1.367 QT
112.398 1.562 112.585 1.898 QT
112.773 2.234 112.773 2.625 QT
112.773 3.234 112.343 3.656 QT
111.913 4.078 111.32 4.078 QT
111.195 4.078 L
cp}def
f-38062295
f
GR
GS
[1 0 0 1 919.43231 350.43228] CT
N
/f1349161638{122.57 6 M
122.57 5.328 L
122.57 5.266 122.617 5.187 QT
126.492 0.891 L
127.382 -0.063 127.929 -0.703 QT
128.476 -1.344 129.015 -2.188 QT
129.554 -3.031 129.859 -3.906 QT
130.163 -4.781 130.163 -5.75 QT
130.163 -6.781 129.788 -7.719 QT
129.413 -8.656 128.663 -9.211 QT
127.913 -9.766 126.851 -9.766 QT
125.757 -9.766 124.89 -9.117 QT
124.023 -8.469 123.679 -7.422 QT
123.773 -7.453 123.945 -7.453 QT
124.507 -7.453 124.906 -7.078 QT
125.304 -6.703 125.304 -6.094 QT
125.304 -5.531 124.906 -5.133 QT
124.507 -4.734 123.945 -4.734 QT
123.351 -4.734 122.96 -5.141 QT
122.57 -5.547 122.57 -6.094 QT
122.57 -7.031 122.921 -7.859 QT
123.273 -8.688 123.937 -9.328 QT
124.601 -9.969 125.437 -10.313 QT
126.273 -10.656 127.21 -10.656 QT
128.648 -10.656 129.882 -10.047 QT
131.117 -9.438 131.835 -8.336 QT
132.554 -7.234 132.554 -5.75 QT
132.554 -4.672 132.077 -3.695 QT
131.601 -2.719 130.859 -1.914 QT
130.117 -1.109 128.952 -0.102 QT
127.788 0.906 127.429 1.25 QT
124.585 3.969 L
126.992 3.969 L
128.773 3.969 129.96 3.937 QT
131.148 3.906 131.226 3.844 QT
131.507 3.531 131.82 1.547 QT
132.554 1.547 L
131.835 6 L
122.57 6 L
cp}def
f1349161638
f
GR
GS
0.467 0.675 0.188 RC
1 LJ
1.2 LW
N
886.493 350.432 M
916.438 350.432 L
S
GR
GS
[1 0 0 1 901.46527 350.43228] CT
0.467 0.675 0.188 RC
N
f227889816
f
GR
GS
[1 0 0 1 901.46527 350.43228] CT
0.467 0.675 0.188 RC
10.0 ML
1.2 LW
N
-3 -3 M
-3 3 L
3 3 L
3 -3 L
cp
S
GR
GS
0.149 GC
10.0 ML
0.5 LW
N
882.5 367.5 M
882.5 241.5 L
1057 241.5 L
1057 367.5 L
cp
S
GR
%%Trailer
%%Pages: 1
%%EOF
