%!PS-Adobe-3.0 EPSF-3.0
%%Creator: (MATLAB, The Mathworks, Inc. Version 9.5.0.944444 \(R2018b\). Operating System: Mac OS X)
%%Title: ./pois9.eps
%%CreationDate: 2019-01-25T19:07:44
%%Pages: (atend)
%%BoundingBox:    73    12  1090   749
%%LanguageLevel: 3
%%EndComments
%%BeginProlog
%%BeginResource: procset (Apache XML Graphics Std ProcSet) 1.2 0
%%Version: 1.2 0
%%Copyright: (Copyright 2001-2003,2010 The Apache Software Foundation. License terms: http://www.apache.org/licenses/LICENSE-2.0)
/bd{bind def}bind def
/ld{load def}bd
/GR/grestore ld
/GS/gsave ld
/RM/rmoveto ld
/C/curveto ld
/t/show ld
/L/lineto ld
/ML/setmiterlimit ld
/CT/concat ld
/f/fill ld
/N/newpath ld
/S/stroke ld
/CC/setcmykcolor ld
/A/ashow ld
/cp/closepath ld
/RC/setrgbcolor ld
/LJ/setlinejoin ld
/GC/setgray ld
/LW/setlinewidth ld
/M/moveto ld
/re {4 2 roll M
1 index 0 rlineto
0 exch rlineto
neg 0 rlineto
cp } bd
/_ctm matrix def
/_tm matrix def
/BT { _ctm currentmatrix pop matrix _tm copy pop 0 0 moveto } bd
/ET { _ctm setmatrix } bd
/iTm { _ctm setmatrix _tm concat } bd
/Tm { _tm astore pop iTm 0 0 moveto } bd
/ux 0.0 def
/uy 0.0 def
/F {
  /Tp exch def
  /Tf exch def
  Tf findfont Tp scalefont setfont
  /cf Tf def  /cs Tp def
} bd
/ULS {currentpoint /uy exch def /ux exch def} bd
/ULE {
  /Tcx currentpoint pop def
  gsave
  newpath
  cf findfont cs scalefont dup
  /FontMatrix get 0 get /Ts exch def /FontInfo get dup
  /UnderlinePosition get Ts mul /To exch def
  /UnderlineThickness get Ts mul /Tt exch def
  ux uy To add moveto  Tcx uy To add lineto
  Tt setlinewidth stroke
  grestore
} bd
/OLE {
  /Tcx currentpoint pop def
  gsave
  newpath
  cf findfont cs scalefont dup
  /FontMatrix get 0 get /Ts exch def /FontInfo get dup
  /UnderlinePosition get Ts mul /To exch def
  /UnderlineThickness get Ts mul /Tt exch def
  ux uy To add cs add moveto Tcx uy To add cs add lineto
  Tt setlinewidth stroke
  grestore
} bd
/SOE {
  /Tcx currentpoint pop def
  gsave
  newpath
  cf findfont cs scalefont dup
  /FontMatrix get 0 get /Ts exch def /FontInfo get dup
  /UnderlinePosition get Ts mul /To exch def
  /UnderlineThickness get Ts mul /Tt exch def
  ux uy To add cs 10 mul 26 idiv add moveto Tcx uy To add cs 10 mul 26 idiv add lineto
  Tt setlinewidth stroke
  grestore
} bd
/QT {
/Y22 exch store
/X22 exch store
/Y21 exch store
/X21 exch store
currentpoint
/Y21 load 2 mul add 3 div exch
/X21 load 2 mul add 3 div exch
/X21 load 2 mul /X22 load add 3 div
/Y21 load 2 mul /Y22 load add 3 div
/X22 load /Y22 load curveto
} bd
/SSPD {
dup length /d exch dict def
{
/v exch def
/k exch def
currentpagedevice k known {
/cpdv currentpagedevice k get def
v cpdv ne {
/upd false def
/nullv v type /nulltype eq def
/nullcpdv cpdv type /nulltype eq def
nullv nullcpdv or
{
/upd true def
} {
/sametype v type cpdv type eq def
sametype {
v type /arraytype eq {
/vlen v length def
/cpdvlen cpdv length def
vlen cpdvlen eq {
0 1 vlen 1 sub {
/i exch def
/obj v i get def
/cpdobj cpdv i get def
obj cpdobj ne {
/upd true def
exit
} if
} for
} {
/upd true def
} ifelse
} {
v type /dicttype eq {
v {
/dv exch def
/dk exch def
/cpddv cpdv dk get def
dv cpddv ne {
/upd true def
exit
} if
} forall
} {
/upd true def
} ifelse
} ifelse
} if
} ifelse
upd true eq {
d k v put
} if
} if
} if
} forall
d length 0 gt {
d setpagedevice
} if
} bd
/RE { % /NewFontName [NewEncodingArray] /FontName RE -
  findfont dup length dict begin
  {
    1 index /FID ne
    {def} {pop pop} ifelse
  } forall
  /Encoding exch def
  /FontName 1 index def
  currentdict definefont pop
  end
} bind def
%%EndResource
%%BeginResource: procset (Apache XML Graphics EPS ProcSet) 1.0 0
%%Version: 1.0 0
%%Copyright: (Copyright 2002-2003 The Apache Software Foundation. License terms: http://www.apache.org/licenses/LICENSE-2.0)
/BeginEPSF { %def
/b4_Inc_state save def         % Save state for cleanup
/dict_count countdictstack def % Count objects on dict stack
/op_count count 1 sub def      % Count objects on operand stack
userdict begin                 % Push userdict on dict stack
/showpage { } def              % Redefine showpage, { } = null proc
0 setgray 0 setlinecap         % Prepare graphics state
1 setlinewidth 0 setlinejoin
10 setmiterlimit [ ] 0 setdash newpath
/languagelevel where           % If level not equal to 1 then
{pop languagelevel             % set strokeadjust and
1 ne                           % overprint to their defaults.
{false setstrokeadjust false setoverprint
} if
} if
} bd
/EndEPSF { %def
count op_count sub {pop} repeat            % Clean up stacks
countdictstack dict_count sub {end} repeat
b4_Inc_state restore
} bd
%%EndResource
%FOPBeginFontDict
%%IncludeResource: font Courier-Oblique
%%IncludeResource: font Courier-BoldOblique
%%IncludeResource: font Courier-Bold
%%IncludeResource: font ZapfDingbats
%%IncludeResource: font Symbol
%%IncludeResource: font Helvetica
%%IncludeResource: font Helvetica-Oblique
%%IncludeResource: font Helvetica-Bold
%%IncludeResource: font Helvetica-BoldOblique
%%IncludeResource: font Times-Roman
%%IncludeResource: font Times-Italic
%%IncludeResource: font Times-Bold
%%IncludeResource: font Times-BoldItalic
%%IncludeResource: font Courier
%FOPEndFontDict
%%BeginResource: encoding WinAnsiEncoding
/WinAnsiEncoding [
/.notdef /.notdef /.notdef /.notdef /.notdef
/.notdef /.notdef /.notdef /.notdef /.notdef
/.notdef /.notdef /.notdef /.notdef /.notdef
/.notdef /.notdef /.notdef /.notdef /.notdef
/.notdef /.notdef /.notdef /.notdef /.notdef
/.notdef /.notdef /.notdef /.notdef /.notdef
/.notdef /.notdef /space /exclam /quotedbl
/numbersign /dollar /percent /ampersand /quotesingle
/parenleft /parenright /asterisk /plus /comma
/hyphen /period /slash /zero /one
/two /three /four /five /six
/seven /eight /nine /colon /semicolon
/less /equal /greater /question /at
/A /B /C /D /E
/F /G /H /I /J
/K /L /M /N /O
/P /Q /R /S /T
/U /V /W /X /Y
/Z /bracketleft /backslash /bracketright /asciicircum
/underscore /quoteleft /a /b /c
/d /e /f /g /h
/i /j /k /l /m
/n /o /p /q /r
/s /t /u /v /w
/x /y /z /braceleft /bar
/braceright /asciitilde /bullet /Euro /bullet
/quotesinglbase /florin /quotedblbase /ellipsis /dagger
/daggerdbl /circumflex /perthousand /Scaron /guilsinglleft
/OE /bullet /Zcaron /bullet /bullet
/quoteleft /quoteright /quotedblleft /quotedblright /bullet
/endash /emdash /asciitilde /trademark /scaron
/guilsinglright /oe /bullet /zcaron /Ydieresis
/space /exclamdown /cent /sterling /currency
/yen /brokenbar /section /dieresis /copyright
/ordfeminine /guillemotleft /logicalnot /sfthyphen /registered
/macron /degree /plusminus /twosuperior /threesuperior
/acute /mu /paragraph /middot /cedilla
/onesuperior /ordmasculine /guillemotright /onequarter /onehalf
/threequarters /questiondown /Agrave /Aacute /Acircumflex
/Atilde /Adieresis /Aring /AE /Ccedilla
/Egrave /Eacute /Ecircumflex /Edieresis /Igrave
/Iacute /Icircumflex /Idieresis /Eth /Ntilde
/Ograve /Oacute /Ocircumflex /Otilde /Odieresis
/multiply /Oslash /Ugrave /Uacute /Ucircumflex
/Udieresis /Yacute /Thorn /germandbls /agrave
/aacute /acircumflex /atilde /adieresis /aring
/ae /ccedilla /egrave /eacute /ecircumflex
/edieresis /igrave /iacute /icircumflex /idieresis
/eth /ntilde /ograve /oacute /ocircumflex
/otilde /odieresis /divide /oslash /ugrave
/uacute /ucircumflex /udieresis /yacute /thorn
/ydieresis
] def
%%EndResource
%FOPBeginFontReencode
/Courier-Oblique findfont
dup length dict begin
  {1 index /FID ne {def} {pop pop} ifelse} forall
  /Encoding WinAnsiEncoding def
  currentdict
end
/Courier-Oblique exch definefont pop
/Courier-BoldOblique findfont
dup length dict begin
  {1 index /FID ne {def} {pop pop} ifelse} forall
  /Encoding WinAnsiEncoding def
  currentdict
end
/Courier-BoldOblique exch definefont pop
/Courier-Bold findfont
dup length dict begin
  {1 index /FID ne {def} {pop pop} ifelse} forall
  /Encoding WinAnsiEncoding def
  currentdict
end
/Courier-Bold exch definefont pop
/Helvetica findfont
dup length dict begin
  {1 index /FID ne {def} {pop pop} ifelse} forall
  /Encoding WinAnsiEncoding def
  currentdict
end
/Helvetica exch definefont pop
/Helvetica-Oblique findfont
dup length dict begin
  {1 index /FID ne {def} {pop pop} ifelse} forall
  /Encoding WinAnsiEncoding def
  currentdict
end
/Helvetica-Oblique exch definefont pop
/Helvetica-Bold findfont
dup length dict begin
  {1 index /FID ne {def} {pop pop} ifelse} forall
  /Encoding WinAnsiEncoding def
  currentdict
end
/Helvetica-Bold exch definefont pop
/Helvetica-BoldOblique findfont
dup length dict begin
  {1 index /FID ne {def} {pop pop} ifelse} forall
  /Encoding WinAnsiEncoding def
  currentdict
end
/Helvetica-BoldOblique exch definefont pop
/Times-Roman findfont
dup length dict begin
  {1 index /FID ne {def} {pop pop} ifelse} forall
  /Encoding WinAnsiEncoding def
  currentdict
end
/Times-Roman exch definefont pop
/Times-Italic findfont
dup length dict begin
  {1 index /FID ne {def} {pop pop} ifelse} forall
  /Encoding WinAnsiEncoding def
  currentdict
end
/Times-Italic exch definefont pop
/Times-Bold findfont
dup length dict begin
  {1 index /FID ne {def} {pop pop} ifelse} forall
  /Encoding WinAnsiEncoding def
  currentdict
end
/Times-Bold exch definefont pop
/Times-BoldItalic findfont
dup length dict begin
  {1 index /FID ne {def} {pop pop} ifelse} forall
  /Encoding WinAnsiEncoding def
  currentdict
end
/Times-BoldItalic exch definefont pop
/Courier findfont
dup length dict begin
  {1 index /FID ne {def} {pop pop} ifelse} forall
  /Encoding WinAnsiEncoding def
  currentdict
end
/Courier exch definefont pop
%FOPEndFontReencode
%%EndProlog
%%Page: 1 1
%%PageBoundingBox: 0 0 1200 800
%%BeginPageSetup
[1 0 0 -1 0 800] CT
%%EndPageSetup
GS
1 GC
N
0 0 1200 800 re
f
GR
GS
1 GC
N
0 0 1200 800 re
f
GR
GS
1 GC
N
156 712 M
1086 712 L
1086 60 L
156 60 L
cp
f
GR
GS
0.775 GC
[1 3] 0 setdash
2 LJ
0.5 LW
N
274.121 712 M
274.121 60 L
S
GR
GS
0.775 GC
[1 3] 0 setdash
2 LJ
0.5 LW
N
343.218 712 M
343.218 60 L
S
GR
GS
0.775 GC
[1 3] 0 setdash
2 LJ
0.5 LW
N
392.243 712 M
392.243 60 L
S
GR
GS
0.775 GC
[1 3] 0 setdash
2 LJ
0.5 LW
N
430.27 712 M
430.27 60 L
S
GR
GS
0.775 GC
[1 3] 0 setdash
2 LJ
0.5 LW
N
461.34 712 M
461.34 60 L
S
GR
GS
0.775 GC
[1 3] 0 setdash
2 LJ
0.5 LW
N
487.609 712 M
487.609 60 L
S
GR
GS
0.775 GC
[1 3] 0 setdash
2 LJ
0.5 LW
N
510.364 712 M
510.364 60 L
S
GR
GS
0.775 GC
[1 3] 0 setdash
2 LJ
0.5 LW
N
530.436 712 M
530.436 60 L
S
GR
GS
0.775 GC
[1 3] 0 setdash
2 LJ
0.5 LW
N
666.512 712 M
666.512 60 L
S
GR
GS
0.775 GC
[1 3] 0 setdash
2 LJ
0.5 LW
N
735.609 712 M
735.609 60 L
S
GR
GS
0.775 GC
[1 3] 0 setdash
2 LJ
0.5 LW
N
784.634 712 M
784.634 60 L
S
GR
GS
0.775 GC
[1 3] 0 setdash
2 LJ
0.5 LW
N
822.661 712 M
822.661 60 L
S
GR
GS
0.775 GC
[1 3] 0 setdash
2 LJ
0.5 LW
N
853.731 712 M
853.731 60 L
S
GR
GS
0.775 GC
[1 3] 0 setdash
2 LJ
0.5 LW
N
880 712 M
880 60 L
S
GR
GS
0.775 GC
[1 3] 0 setdash
2 LJ
0.5 LW
N
902.755 712 M
902.755 60 L
S
GR
GS
0.775 GC
[1 3] 0 setdash
2 LJ
0.5 LW
N
922.827 712 M
922.827 60 L
S
GR
GS
0.775 GC
[1 3] 0 setdash
2 LJ
0.5 LW
N
1058.903 712 M
1058.903 60 L
S
GR
GS
0.873 GC
1 LJ
0.5 LW
N
156 712 M
156 60 L
S
GR
GS
0.873 GC
1 LJ
0.5 LW
N
548.391 712 M
548.391 60 L
S
GR
GS
0.873 GC
1 LJ
0.5 LW
N
940.782 712 M
940.782 60 L
S
GR
GS
0.873 GC
1 LJ
0.5 LW
N
1086 712 M
156 712 L
S
GR
GS
0.873 GC
1 LJ
0.5 LW
N
1086 630.5 M
156 630.5 L
S
GR
GS
0.873 GC
1 LJ
0.5 LW
N
1086 549 M
156 549 L
S
GR
GS
0.873 GC
1 LJ
0.5 LW
N
1086 467.5 M
156 467.5 L
S
GR
GS
0.873 GC
1 LJ
0.5 LW
N
1086 386 M
156 386 L
S
GR
GS
0.873 GC
1 LJ
0.5 LW
N
1086 304.5 M
156 304.5 L
S
GR
GS
0.873 GC
1 LJ
0.5 LW
N
1086 223 M
156 223 L
S
GR
GS
0.873 GC
1 LJ
0.5 LW
N
1086 141.5 M
156 141.5 L
S
GR
GS
0.873 GC
1 LJ
0.5 LW
N
1086 60 M
156 60 L
S
GR
GS
0.149 GC
2 setlinecap
1 LJ
0.5 LW
N
156 712 M
1086 712 L
S
GR
GS
0.149 GC
2 setlinecap
1 LJ
0.5 LW
N
156 60 M
1086 60 L
S
GR
GS
0.149 GC
2 setlinecap
1 LJ
0.5 LW
N
156 712 M
156 702.7 L
S
GR
GS
0.149 GC
2 setlinecap
1 LJ
0.5 LW
N
548.391 712 M
548.391 702.7 L
S
GR
GS
0.149 GC
2 setlinecap
1 LJ
0.5 LW
N
940.782 712 M
940.782 702.7 L
S
GR
GS
0.149 GC
2 setlinecap
1 LJ
0.5 LW
N
156 60 M
156 69.3 L
S
GR
GS
0.149 GC
2 setlinecap
1 LJ
0.5 LW
N
548.391 60 M
548.391 69.3 L
S
GR
GS
0.149 GC
2 setlinecap
1 LJ
0.5 LW
N
940.782 60 M
940.782 69.3 L
S
GR
GS
0.149 GC
2 setlinecap
1 LJ
0.5 LW
N
156 712 M
156 707.35 L
S
GR
GS
0.149 GC
2 setlinecap
1 LJ
0.5 LW
N
274.121 712 M
274.121 707.35 L
S
GR
GS
0.149 GC
2 setlinecap
1 LJ
0.5 LW
N
343.218 712 M
343.218 707.35 L
S
GR
GS
0.149 GC
2 setlinecap
1 LJ
0.5 LW
N
392.243 712 M
392.243 707.35 L
S
GR
GS
0.149 GC
2 setlinecap
1 LJ
0.5 LW
N
430.27 712 M
430.27 707.35 L
S
GR
GS
0.149 GC
2 setlinecap
1 LJ
0.5 LW
N
461.34 712 M
461.34 707.35 L
S
GR
GS
0.149 GC
2 setlinecap
1 LJ
0.5 LW
N
487.609 712 M
487.609 707.35 L
S
GR
GS
0.149 GC
2 setlinecap
1 LJ
0.5 LW
N
510.364 712 M
510.364 707.35 L
S
GR
GS
0.149 GC
2 setlinecap
1 LJ
0.5 LW
N
530.436 712 M
530.436 707.35 L
S
GR
GS
0.149 GC
2 setlinecap
1 LJ
0.5 LW
N
548.391 712 M
548.391 707.35 L
S
GR
GS
0.149 GC
2 setlinecap
1 LJ
0.5 LW
N
666.512 712 M
666.512 707.35 L
S
GR
GS
0.149 GC
2 setlinecap
1 LJ
0.5 LW
N
735.609 712 M
735.609 707.35 L
S
GR
GS
0.149 GC
2 setlinecap
1 LJ
0.5 LW
N
784.634 712 M
784.634 707.35 L
S
GR
GS
0.149 GC
2 setlinecap
1 LJ
0.5 LW
N
822.661 712 M
822.661 707.35 L
S
GR
GS
0.149 GC
2 setlinecap
1 LJ
0.5 LW
N
853.731 712 M
853.731 707.35 L
S
GR
GS
0.149 GC
2 setlinecap
1 LJ
0.5 LW
N
880 712 M
880 707.35 L
S
GR
GS
0.149 GC
2 setlinecap
1 LJ
0.5 LW
N
902.755 712 M
902.755 707.35 L
S
GR
GS
0.149 GC
2 setlinecap
1 LJ
0.5 LW
N
922.827 712 M
922.827 707.35 L
S
GR
GS
0.149 GC
2 setlinecap
1 LJ
0.5 LW
N
940.782 712 M
940.782 707.35 L
S
GR
GS
0.149 GC
2 setlinecap
1 LJ
0.5 LW
N
1058.903 712 M
1058.903 707.35 L
S
GR
GS
0.149 GC
2 setlinecap
1 LJ
0.5 LW
N
156 60 M
156 64.65 L
S
GR
GS
0.149 GC
2 setlinecap
1 LJ
0.5 LW
N
274.121 60 M
274.121 64.65 L
S
GR
GS
0.149 GC
2 setlinecap
1 LJ
0.5 LW
N
343.218 60 M
343.218 64.65 L
S
GR
GS
0.149 GC
2 setlinecap
1 LJ
0.5 LW
N
392.243 60 M
392.243 64.65 L
S
GR
GS
0.149 GC
2 setlinecap
1 LJ
0.5 LW
N
430.27 60 M
430.27 64.65 L
S
GR
GS
0.149 GC
2 setlinecap
1 LJ
0.5 LW
N
461.34 60 M
461.34 64.65 L
S
GR
GS
0.149 GC
2 setlinecap
1 LJ
0.5 LW
N
487.609 60 M
487.609 64.65 L
S
GR
GS
0.149 GC
2 setlinecap
1 LJ
0.5 LW
N
510.364 60 M
510.364 64.65 L
S
GR
GS
0.149 GC
2 setlinecap
1 LJ
0.5 LW
N
530.436 60 M
530.436 64.65 L
S
GR
GS
0.149 GC
2 setlinecap
1 LJ
0.5 LW
N
548.391 60 M
548.391 64.65 L
S
GR
GS
0.149 GC
2 setlinecap
1 LJ
0.5 LW
N
666.512 60 M
666.512 64.65 L
S
GR
GS
0.149 GC
2 setlinecap
1 LJ
0.5 LW
N
735.609 60 M
735.609 64.65 L
S
GR
GS
0.149 GC
2 setlinecap
1 LJ
0.5 LW
N
784.634 60 M
784.634 64.65 L
S
GR
GS
0.149 GC
2 setlinecap
1 LJ
0.5 LW
N
822.661 60 M
822.661 64.65 L
S
GR
GS
0.149 GC
2 setlinecap
1 LJ
0.5 LW
N
853.731 60 M
853.731 64.65 L
S
GR
GS
0.149 GC
2 setlinecap
1 LJ
0.5 LW
N
880 60 M
880 64.65 L
S
GR
GS
0.149 GC
2 setlinecap
1 LJ
0.5 LW
N
902.755 60 M
902.755 64.65 L
S
GR
GS
0.149 GC
2 setlinecap
1 LJ
0.5 LW
N
922.827 60 M
922.827 64.65 L
S
GR
GS
0.149 GC
2 setlinecap
1 LJ
0.5 LW
N
940.782 60 M
940.782 64.65 L
S
GR
GS
0.149 GC
2 setlinecap
1 LJ
0.5 LW
N
1058.903 60 M
1058.903 64.65 L
S
GR
GS
[1 0 0 1 136 751] CT
0.149 GC
/Helvetica 25 F
GS
[1 0 0 1 0 0] CT
0 0 moveto 
1 -1 scale
(10) t 
GR
GR
GS
[1 0 0 1 164 739] CT
0.149 GC
/Helvetica 20 F
GS
[1 0 0 1 0 0] CT
0 0 moveto 
1 -1 scale
(4) t 
GR
GR
GS
[1 0 0 1 528 751] CT
0.149 GC
/Helvetica 25 F
GS
[1 0 0 1 0 0] CT
0 0 moveto 
1 -1 scale
(10) t 
GR
GR
GS
[1 0 0 1 556 739] CT
0.149 GC
/Helvetica 20 F
GS
[1 0 0 1 0 0] CT
0 0 moveto 
1 -1 scale
(5) t 
GR
GR
GS
[1 0 0 1 921 751] CT
0.149 GC
/Helvetica 25 F
GS
[1 0 0 1 0 0] CT
0 0 moveto 
1 -1 scale
(10) t 
GR
GR
GS
[1 0 0 1 949 739] CT
0.149 GC
/Helvetica 20 F
GS
[1 0 0 1 0 0] CT
0 0 moveto 
1 -1 scale
(6) t 
GR
GR
GS
[1 0 0 1 621.00043 757.5] CT
0.149 GC
N
-139.266 23.1 M
-139.266 22.116 L
-136.375 22.116 -136.375 20.459 QT
-136.375 5.85 L
-136.375 4.959 -139.266 4.959 QT
-139.266 3.975 L
-133.969 3.975 L
-133.625 3.975 -133.516 4.287 QT
-127.422 20.131 L
-121.328 4.287 L
-121.219 3.975 -120.875 3.975 QT
-115.578 3.975 L
-115.578 4.959 L
-118.469 4.959 -118.469 5.85 QT
-118.469 21.225 L
-118.469 22.116 -115.578 22.116 QT
-115.578 23.1 L
-123.735 23.1 L
-123.735 22.116 L
-120.844 22.116 -120.844 21.225 QT
-120.844 4.928 L
-127.735 22.787 L
-127.86 23.1 -128.203 23.1 QT
-128.563 23.1 -128.688 22.787 QT
-135.485 5.147 L
-135.485 20.459 L
-135.485 22.116 -132.61 22.116 QT
-132.61 23.1 L
-139.266 23.1 L
cp
f
GR
GS
[1 0 0 1 621.00043 757.5] CT
0.149 GC
N
-108.073 23.412 M
-109.776 23.412 -111.206 22.514 QT
-112.636 21.616 -113.448 20.123 QT
-114.261 18.631 -114.261 16.959 QT
-114.261 15.319 -113.519 13.842 QT
-112.776 12.366 -111.44 11.459 QT
-110.104 10.553 -108.464 10.553 QT
-107.183 10.553 -106.229 10.983 QT
-105.276 11.412 -104.659 12.178 QT
-104.042 12.944 -103.729 13.983 QT
-103.417 15.022 -103.417 16.256 QT
-103.417 16.631 -103.714 16.631 QT
-111.808 16.631 L
-111.808 16.928 L
-111.808 19.256 -110.878 20.928 QT
-109.948 22.6 -107.823 22.6 QT
-106.964 22.6 -106.229 22.217 QT
-105.495 21.834 -104.956 21.147 QT
-104.417 20.459 -104.229 19.678 QT
-104.198 19.584 -104.12 19.506 QT
-104.042 19.428 -103.948 19.428 QT
-103.714 19.428 L
-103.417 19.428 -103.417 19.787 QT
-103.823 21.381 -105.136 22.397 QT
-106.448 23.412 -108.073 23.412 QT
cp
-111.792 15.928 M
-105.401 15.928 L
-105.401 14.881 -105.698 13.803 QT
-105.995 12.725 -106.675 12.006 QT
-107.354 11.287 -108.464 11.287 QT
-110.058 11.287 -110.925 12.772 QT
-111.792 14.256 -111.792 15.928 QT
cp
f
GR
GS
[1 0 0 1 621.00043 757.5] CT
0.149 GC
N
-101.992 23.1 M
-101.992 22.116 L
-101.023 22.116 -100.413 21.967 QT
-99.804 21.819 -99.804 21.225 QT
-99.804 13.584 L
-99.804 12.834 -100.023 12.498 QT
-100.242 12.162 -100.671 12.084 QT
-101.101 12.006 -101.992 12.006 QT
-101.992 11.022 L
-97.929 10.725 L
-97.929 13.459 L
-97.367 12.256 -96.265 11.491 QT
-95.163 10.725 -93.867 10.725 QT
-90.632 10.725 -90.07 13.35 QT
-89.523 12.178 -88.437 11.451 QT
-87.351 10.725 -86.07 10.725 QT
-84.804 10.725 -83.937 11.139 QT
-83.07 11.553 -82.632 12.389 QT
-82.195 13.225 -82.195 14.506 QT
-82.195 21.225 L
-82.195 21.819 -81.57 21.967 QT
-80.945 22.116 -80.007 22.116 QT
-80.007 23.1 L
-86.413 23.1 L
-86.413 22.116 L
-85.46 22.116 -84.843 21.967 QT
-84.226 21.819 -84.226 21.225 QT
-84.226 14.584 L
-84.226 13.178 -84.624 12.311 QT
-85.023 11.444 -86.242 11.444 QT
-87.867 11.444 -88.913 12.748 QT
-89.96 14.053 -89.96 15.709 QT
-89.96 21.225 L
-89.96 21.819 -89.351 21.967 QT
-88.742 22.116 -87.773 22.116 QT
-87.773 23.1 L
-94.195 23.1 L
-94.195 22.116 L
-93.242 22.116 -92.624 21.967 QT
-92.007 21.819 -92.007 21.225 QT
-92.007 14.584 L
-92.007 13.209 -92.406 12.326 QT
-92.804 11.444 -94.023 11.444 QT
-95.648 11.444 -96.695 12.748 QT
-97.742 14.053 -97.742 15.709 QT
-97.742 21.225 L
-97.742 21.819 -97.132 21.967 QT
-96.523 22.116 -95.57 22.116 QT
-95.57 23.1 L
-101.992 23.1 L
cp
f
GR
GS
[1 0 0 1 621.00043 757.5] CT
0.149 GC
N
-72.903 23.412 M
-74.59 23.412 -76.02 22.561 QT
-77.45 21.709 -78.286 20.272 QT
-79.122 18.834 -79.122 17.131 QT
-79.122 15.85 -78.661 14.662 QT
-78.2 13.475 -77.348 12.537 QT
-76.497 11.6 -75.364 11.076 QT
-74.231 10.553 -72.903 10.553 QT
-71.184 10.553 -69.77 11.459 QT
-68.356 12.366 -67.536 13.889 QT
-66.715 15.412 -66.715 17.131 QT
-66.715 18.819 -67.544 20.264 QT
-68.372 21.709 -69.801 22.561 QT
-71.231 23.412 -72.903 23.412 QT
cp
-72.903 22.6 M
-70.653 22.6 -69.903 20.967 QT
-69.153 19.334 -69.153 16.819 QT
-69.153 15.412 -69.301 14.491 QT
-69.45 13.569 -69.965 12.819 QT
-70.278 12.35 -70.762 12.006 QT
-71.247 11.662 -71.786 11.475 QT
-72.325 11.287 -72.903 11.287 QT
-73.778 11.287 -74.567 11.686 QT
-75.356 12.084 -75.872 12.819 QT
-76.387 13.616 -76.528 14.561 QT
-76.669 15.506 -76.669 16.819 QT
-76.669 18.397 -76.395 19.647 QT
-76.122 20.897 -75.301 21.748 QT
-74.481 22.6 -72.903 22.6 QT
cp
f
GR
GS
[1 0 0 1 621.00043 757.5] CT
0.149 GC
N
-65.434 23.1 M
-65.434 22.116 L
-64.465 22.116 -63.856 21.967 QT
-63.247 21.819 -63.247 21.225 QT
-63.247 13.584 L
-63.247 12.834 -63.465 12.498 QT
-63.684 12.162 -64.114 12.084 QT
-64.544 12.006 -65.434 12.006 QT
-65.434 11.022 L
-61.419 10.725 L
-61.419 13.459 L
-60.965 12.241 -60.137 11.483 QT
-59.309 10.725 -58.106 10.725 QT
-57.278 10.725 -56.622 11.217 QT
-55.965 11.709 -55.965 12.522 QT
-55.965 13.022 -56.325 13.397 QT
-56.684 13.772 -57.231 13.772 QT
-57.747 13.772 -58.114 13.405 QT
-58.481 13.037 -58.481 12.522 QT
-58.481 11.772 -57.95 11.444 QT
-58.106 11.444 L
-59.247 11.444 -59.965 12.264 QT
-60.684 13.084 -60.981 14.303 QT
-61.278 15.522 -61.278 16.631 QT
-61.278 21.225 L
-61.278 22.116 -58.559 22.116 QT
-58.559 23.1 L
-65.434 23.1 L
cp
f
GR
GS
[1 0 0 1 621.00043 757.5] CT
0.149 GC
N
-53.46 27.694 M
-52.913 28.116 -52.273 28.116 QT
-50.507 28.116 -49.398 25.459 QT
-48.429 23.1 L
-52.632 12.819 L
-52.898 12.303 -53.429 12.155 QT
-53.96 12.006 -54.851 12.006 QT
-54.851 11.022 L
-48.976 11.022 L
-48.976 12.006 L
-50.507 12.006 -50.507 12.678 QT
-50.507 12.787 -50.491 12.85 QT
-47.366 20.506 L
-44.57 13.616 L
-44.491 13.397 -44.491 13.131 QT
-44.491 12.787 -44.671 12.537 QT
-44.851 12.287 -45.148 12.147 QT
-45.445 12.006 -45.804 12.006 QT
-45.804 11.022 L
-41.163 11.022 L
-41.163 12.006 L
-42.023 12.006 -42.671 12.405 QT
-43.32 12.803 -43.679 13.584 QT
-48.523 25.459 L
-48.898 26.35 -49.413 27.108 QT
-49.929 27.866 -50.663 28.358 QT
-51.398 28.85 -52.273 28.85 QT
-53.304 28.85 -54.077 28.17 QT
-54.851 27.491 -54.851 26.491 QT
-54.851 25.975 -54.491 25.616 QT
-54.132 25.256 -53.616 25.256 QT
-53.257 25.256 -52.976 25.412 QT
-52.695 25.569 -52.538 25.842 QT
-52.382 26.116 -52.382 26.491 QT
-52.382 26.944 -52.687 27.295 QT
-52.991 27.647 -53.46 27.694 QT
cp
f
GR
GS
[1 0 0 1 621.00043 757.5] CT
0.149 GC
N
-30.842 23.1 M
-30.842 22.116 L
-27.951 22.116 -27.951 21.225 QT
-27.951 5.85 L
-27.951 4.959 -30.842 4.959 QT
-30.842 3.975 L
-15.405 3.975 L
-14.623 10.381 L
-15.436 10.381 L
-15.623 8.616 -15.944 7.6 QT
-16.264 6.584 -16.881 6.006 QT
-17.498 5.428 -18.53 5.194 QT
-19.561 4.959 -21.358 4.959 QT
-23.92 4.959 L
-24.42 4.959 -24.701 4.998 QT
-24.983 5.037 -25.162 5.233 QT
-25.342 5.428 -25.342 5.85 QT
-25.342 13.053 L
-23.358 13.053 L
-21.92 13.053 -21.256 12.795 QT
-20.592 12.537 -20.334 11.873 QT
-20.076 11.209 -20.076 9.772 QT
-19.28 9.772 L
-19.28 17.303 L
-20.076 17.303 L
-20.076 15.866 -20.334 15.194 QT
-20.592 14.522 -21.256 14.272 QT
-21.92 14.022 -23.358 14.022 QT
-25.342 14.022 L
-25.342 21.225 L
-25.342 22.116 -21.764 22.116 QT
-21.764 23.1 L
-30.842 23.1 L
cp
f
GR
GS
[1 0 0 1 621.00043 757.5] CT
0.149 GC
N
-9.042 23.412 M
-10.729 23.412 -12.159 22.561 QT
-13.589 21.709 -14.425 20.272 QT
-15.26 18.834 -15.26 17.131 QT
-15.26 15.85 -14.8 14.662 QT
-14.339 13.475 -13.487 12.537 QT
-12.635 11.6 -11.503 11.076 QT
-10.37 10.553 -9.042 10.553 QT
-7.323 10.553 -5.909 11.459 QT
-4.495 12.366 -3.675 13.889 QT
-2.854 15.412 -2.854 17.131 QT
-2.854 18.819 -3.682 20.264 QT
-4.51 21.709 -5.94 22.561 QT
-7.37 23.412 -9.042 23.412 QT
cp
-9.042 22.6 M
-6.792 22.6 -6.042 20.967 QT
-5.292 19.334 -5.292 16.819 QT
-5.292 15.412 -5.44 14.491 QT
-5.589 13.569 -6.104 12.819 QT
-6.417 12.35 -6.901 12.006 QT
-7.385 11.662 -7.925 11.475 QT
-8.464 11.287 -9.042 11.287 QT
-9.917 11.287 -10.706 11.686 QT
-11.495 12.084 -12.01 12.819 QT
-12.526 13.616 -12.667 14.561 QT
-12.807 15.506 -12.807 16.819 QT
-12.807 18.397 -12.534 19.647 QT
-12.26 20.897 -11.44 21.748 QT
-10.62 22.6 -9.042 22.6 QT
cp
f
GR
GS
[1 0 0 1 621.00043 757.5] CT
0.149 GC
N
5.472 23.412 M
3.785 23.412 2.355 22.561 QT
0.925 21.709 0.089 20.272 QT
-0.747 18.834 -0.747 17.131 QT
-0.747 15.85 -0.286 14.662 QT
0.175 13.475 1.027 12.537 QT
1.878 11.6 3.011 11.076 QT
4.144 10.553 5.472 10.553 QT
7.191 10.553 8.605 11.459 QT
10.019 12.366 10.839 13.889 QT
11.66 15.412 11.66 17.131 QT
11.66 18.819 10.832 20.264 QT
10.003 21.709 8.574 22.561 QT
7.144 23.412 5.472 23.412 QT
cp
5.472 22.6 M
7.722 22.6 8.472 20.967 QT
9.222 19.334 9.222 16.819 QT
9.222 15.412 9.074 14.491 QT
8.925 13.569 8.41 12.819 QT
8.097 12.35 7.613 12.006 QT
7.128 11.662 6.589 11.475 QT
6.05 11.287 5.472 11.287 QT
4.597 11.287 3.808 11.686 QT
3.019 12.084 2.503 12.819 QT
1.988 13.616 1.847 14.561 QT
1.707 15.506 1.707 16.819 QT
1.707 18.397 1.98 19.647 QT
2.253 20.897 3.074 21.748 QT
3.894 22.6 5.472 22.6 QT
cp
f
GR
GS
[1 0 0 1 621.00043 757.5] CT
0.149 GC
N
15.082 19.741 M
15.082 12.006 L
12.754 12.006 L
12.754 11.287 L
14.582 11.287 15.449 9.576 QT
16.316 7.866 16.316 5.866 QT
17.113 5.866 L
17.113 11.022 L
21.066 11.022 L
21.066 12.006 L
17.113 12.006 L
17.113 19.678 L
17.113 20.85 17.504 21.725 QT
17.894 22.6 18.91 22.6 QT
19.863 22.6 20.285 21.67 QT
20.707 20.741 20.707 19.678 QT
20.707 18.022 L
21.519 18.022 L
21.519 19.741 L
21.519 20.616 21.199 21.467 QT
20.879 22.319 20.246 22.866 QT
19.613 23.412 18.722 23.412 QT
17.035 23.412 16.058 22.405 QT
15.082 21.397 15.082 19.741 QT
cp
f
GR
GS
[1 0 0 1 621.00043 757.5] CT
0.149 GC
N
23.635 28.522 M
23.635 27.553 L
24.604 27.553 25.214 27.389 QT
25.823 27.225 25.823 26.662 QT
25.823 13.162 L
25.823 12.397 25.276 12.201 QT
24.729 12.006 23.635 12.006 QT
23.635 11.022 L
27.792 10.725 L
27.792 12.459 L
28.557 11.616 29.573 11.17 QT
30.589 10.725 31.729 10.725 QT
33.385 10.725 34.714 11.623 QT
36.042 12.522 36.784 13.975 QT
37.526 15.428 37.526 17.053 QT
37.526 18.756 36.706 20.217 QT
35.885 21.678 34.456 22.545 QT
33.026 23.412 31.307 23.412 QT
29.276 23.412 27.87 21.756 QT
27.87 26.662 L
27.87 27.225 28.487 27.389 QT
29.104 27.553 30.057 27.553 QT
30.057 28.522 L
23.635 28.522 L
cp
27.87 20.381 M
28.354 21.381 29.229 22.03 QT
30.104 22.678 31.151 22.678 QT
32.12 22.678 32.862 22.155 QT
33.604 21.631 34.112 20.756 QT
34.62 19.881 34.862 18.92 QT
35.104 17.959 35.104 17.053 QT
35.104 15.928 34.698 14.623 QT
34.292 13.319 33.464 12.428 QT
32.635 11.537 31.464 11.537 QT
30.323 11.537 29.378 12.116 QT
28.432 12.694 27.87 13.694 QT
27.87 20.381 L
cp
f
GR
GS
[1 0 0 1 621.00043 757.5] CT
0.149 GC
N
38.913 23.1 M
38.913 22.116 L
39.882 22.116 40.491 21.967 QT
41.101 21.819 41.101 21.225 QT
41.101 13.584 L
41.101 12.834 40.882 12.498 QT
40.663 12.162 40.234 12.084 QT
39.804 12.006 38.913 12.006 QT
38.913 11.022 L
42.929 10.725 L
42.929 13.459 L
43.382 12.241 44.21 11.483 QT
45.038 10.725 46.241 10.725 QT
47.07 10.725 47.726 11.217 QT
48.382 11.709 48.382 12.522 QT
48.382 13.022 48.023 13.397 QT
47.663 13.772 47.116 13.772 QT
46.601 13.772 46.234 13.405 QT
45.866 13.037 45.866 12.522 QT
45.866 11.772 46.398 11.444 QT
46.241 11.444 L
45.101 11.444 44.382 12.264 QT
43.663 13.084 43.366 14.303 QT
43.07 15.522 43.07 16.631 QT
43.07 21.225 L
43.07 22.116 45.788 22.116 QT
45.788 23.1 L
38.913 23.1 L
cp
f
GR
GS
[1 0 0 1 621.00043 757.5] CT
0.149 GC
N
49.825 23.1 M
49.825 22.116 L
50.778 22.116 51.395 21.967 QT
52.012 21.819 52.012 21.225 QT
52.012 13.584 L
52.012 12.506 51.598 12.256 QT
51.184 12.006 49.95 12.006 QT
49.95 11.022 L
53.981 10.725 L
53.981 21.225 L
53.981 21.819 54.512 21.967 QT
55.044 22.116 55.934 22.116 QT
55.934 23.1 L
49.825 23.1 L
cp
51.012 5.912 M
51.012 5.303 51.481 4.834 QT
51.95 4.366 52.544 4.366 QT
52.95 4.366 53.317 4.569 QT
53.684 4.772 53.887 5.147 QT
54.09 5.522 54.09 5.912 QT
54.09 6.522 53.629 6.983 QT
53.169 7.444 52.544 7.444 QT
51.95 7.444 51.481 6.983 QT
51.012 6.522 51.012 5.912 QT
cp
f
GR
GS
[1 0 0 1 621.00043 757.5] CT
0.149 GC
N
57.432 23.1 M
57.432 22.116 L
58.401 22.116 59.011 21.967 QT
59.62 21.819 59.62 21.225 QT
59.62 13.584 L
59.62 12.834 59.401 12.498 QT
59.182 12.162 58.753 12.084 QT
58.323 12.006 57.432 12.006 QT
57.432 11.022 L
61.495 10.725 L
61.495 13.459 L
62.057 12.256 63.159 11.491 QT
64.261 10.725 65.557 10.725 QT
67.495 10.725 68.479 11.655 QT
69.464 12.584 69.464 14.506 QT
69.464 21.225 L
69.464 21.819 70.073 21.967 QT
70.682 22.116 71.651 22.116 QT
71.651 23.1 L
65.229 23.1 L
65.229 22.116 L
66.182 22.116 66.8 21.967 QT
67.417 21.819 67.417 21.225 QT
67.417 14.584 L
67.417 13.209 67.018 12.326 QT
66.62 11.444 65.401 11.444 QT
63.776 11.444 62.729 12.748 QT
61.682 14.053 61.682 15.709 QT
61.682 21.225 L
61.682 21.819 62.292 21.967 QT
62.901 22.116 63.854 22.116 QT
63.854 23.1 L
57.432 23.1 L
cp
f
GR
GS
[1 0 0 1 621.00043 757.5] CT
0.149 GC
N
73.978 19.741 M
73.978 12.006 L
71.649 12.006 L
71.649 11.287 L
73.478 11.287 74.345 9.576 QT
75.212 7.866 75.212 5.866 QT
76.009 5.866 L
76.009 11.022 L
79.962 11.022 L
79.962 12.006 L
76.009 12.006 L
76.009 19.678 L
76.009 20.85 76.399 21.725 QT
76.79 22.6 77.806 22.6 QT
78.759 22.6 79.181 21.67 QT
79.603 20.741 79.603 19.678 QT
79.603 18.022 L
80.415 18.022 L
80.415 19.741 L
80.415 20.616 80.095 21.467 QT
79.774 22.319 79.142 22.866 QT
78.509 23.412 77.618 23.412 QT
75.931 23.412 74.954 22.405 QT
73.978 21.397 73.978 19.741 QT
cp
f
GR
GS
[1 0 0 1 621.00043 757.5] CT
0.149 GC
N
94.292 30.1 M
94.292 2.1 L
98.12 2.1 L
98.12 3.225 L
95.417 3.225 L
95.417 28.975 L
98.12 28.975 L
98.12 30.1 L
94.292 30.1 L
cp
f
GR
GS
[1 0 0 1 621.00043 757.5] CT
0.149 GC
N
99.337 23.1 M
99.337 22.116 L
100.306 22.116 100.915 21.967 QT
101.525 21.819 101.525 21.225 QT
101.525 6.522 L
101.525 5.772 101.306 5.436 QT
101.087 5.1 100.657 5.03 QT
100.228 4.959 99.337 4.959 QT
99.337 3.975 L
103.493 3.678 L
103.493 16.959 L
107.243 13.662 L
107.806 13.131 107.806 12.678 QT
107.806 12.35 107.571 12.178 QT
107.337 12.006 107.009 12.006 QT
107.009 11.022 L
112.275 11.022 L
112.275 12.006 L
110.384 12.006 108.478 13.662 QT
106.478 15.397 L
110.056 20.459 L
110.79 21.506 111.29 21.811 QT
111.79 22.116 112.931 22.116 QT
112.931 23.1 L
107.353 23.1 L
107.353 22.116 L
108.306 22.116 108.306 21.522 QT
108.306 21.1 107.806 20.459 QT
105.118 16.631 L
103.4 18.116 L
103.4 21.225 L
103.4 21.819 104.025 21.967 QT
104.65 22.116 105.587 22.116 QT
105.587 23.1 L
99.337 23.1 L
cp
f
GR
GS
[1 0 0 1 621.00043 757.5] CT
0.149 GC
N
114.085 23.1 M
114.085 22.116 L
116.976 22.116 116.976 21.225 QT
116.976 5.85 L
116.976 4.959 114.085 4.959 QT
114.085 3.975 L
124.382 3.975 L
125.804 3.975 127.257 4.53 QT
128.71 5.084 129.656 6.17 QT
130.601 7.256 130.601 8.725 QT
130.601 10.444 129.203 11.6 QT
127.804 12.756 125.929 13.1 QT
127.148 13.1 128.429 13.772 QT
129.71 14.444 130.531 15.569 QT
131.351 16.694 131.351 17.944 QT
131.351 19.475 130.445 20.655 QT
129.538 21.834 128.093 22.467 QT
126.648 23.1 125.179 23.1 QT
114.085 23.1 L
cp
119.413 21.225 M
119.413 21.834 119.749 21.975 QT
120.085 22.116 120.835 22.116 QT
124.382 22.116 L
125.476 22.116 126.413 21.537 QT
127.351 20.959 127.898 19.998 QT
128.445 19.037 128.445 17.944 QT
128.445 16.881 127.992 15.858 QT
127.538 14.834 126.703 14.178 QT
125.867 13.522 124.788 13.522 QT
119.413 13.522 L
119.413 21.225 L
cp
119.413 12.787 M
123.601 12.787 L
124.46 12.787 125.203 12.483 QT
125.945 12.178 126.538 11.592 QT
127.132 11.006 127.453 10.28 QT
127.773 9.553 127.773 8.725 QT
127.773 8.006 127.538 7.334 QT
127.304 6.662 126.835 6.116 QT
126.367 5.569 125.742 5.264 QT
125.117 4.959 124.382 4.959 QT
120.835 4.959 L
120.32 4.959 120.038 4.998 QT
119.757 5.037 119.585 5.233 QT
119.413 5.428 119.413 5.85 QT
119.413 12.787 L
cp
f
GR
GS
[1 0 0 1 621.00043 757.5] CT
0.149 GC
N
133.221 30.1 M
133.221 28.975 L
135.955 28.975 L
135.955 3.225 L
133.221 3.225 L
133.221 2.1 L
137.065 2.1 L
137.065 30.1 L
133.221 30.1 L
cp
f
GR
GS
0.149 GC
2 setlinecap
1 LJ
0.5 LW
N
156 712 M
156 60 L
S
GR
GS
0.149 GC
2 setlinecap
1 LJ
0.5 LW
N
1086 712 M
1086 60 L
S
GR
GS
0.149 GC
2 setlinecap
1 LJ
0.5 LW
N
156 712 M
165.3 712 L
S
GR
GS
0.149 GC
2 setlinecap
1 LJ
0.5 LW
N
156 630.5 M
165.3 630.5 L
S
GR
GS
0.149 GC
2 setlinecap
1 LJ
0.5 LW
N
156 549 M
165.3 549 L
S
GR
GS
0.149 GC
2 setlinecap
1 LJ
0.5 LW
N
156 467.5 M
165.3 467.5 L
S
GR
GS
0.149 GC
2 setlinecap
1 LJ
0.5 LW
N
156 386 M
165.3 386 L
S
GR
GS
0.149 GC
2 setlinecap
1 LJ
0.5 LW
N
156 304.5 M
165.3 304.5 L
S
GR
GS
0.149 GC
2 setlinecap
1 LJ
0.5 LW
N
156 223 M
165.3 223 L
S
GR
GS
0.149 GC
2 setlinecap
1 LJ
0.5 LW
N
156 141.5 M
165.3 141.5 L
S
GR
GS
0.149 GC
2 setlinecap
1 LJ
0.5 LW
N
156 60 M
165.3 60 L
S
GR
GS
0.149 GC
2 setlinecap
1 LJ
0.5 LW
N
1086 712 M
1076.7 712 L
S
GR
GS
0.149 GC
2 setlinecap
1 LJ
0.5 LW
N
1086 630.5 M
1076.7 630.5 L
S
GR
GS
0.149 GC
2 setlinecap
1 LJ
0.5 LW
N
1086 549 M
1076.7 549 L
S
GR
GS
0.149 GC
2 setlinecap
1 LJ
0.5 LW
N
1086 467.5 M
1076.7 467.5 L
S
GR
GS
0.149 GC
2 setlinecap
1 LJ
0.5 LW
N
1086 386 M
1076.7 386 L
S
GR
GS
0.149 GC
2 setlinecap
1 LJ
0.5 LW
N
1086 304.5 M
1076.7 304.5 L
S
GR
GS
0.149 GC
2 setlinecap
1 LJ
0.5 LW
N
1086 223 M
1076.7 223 L
S
GR
GS
0.149 GC
2 setlinecap
1 LJ
0.5 LW
N
1086 141.5 M
1076.7 141.5 L
S
GR
GS
0.149 GC
2 setlinecap
1 LJ
0.5 LW
N
1086 60 M
1076.7 60 L
S
GR
GS
[1 0 0 1 149 712] CT
0.149 GC
/Helvetica 25 F
GS
[1 0 0 1 0 0] CT
-14 9 moveto 
1 -1 scale
(0) t 
GR
GR
GS
[1 0 0 1 149 630.5] CT
0.149 GC
/Helvetica 25 F
GS
[1 0 0 1 0 0] CT
-42 9 moveto 
1 -1 scale
(100) t 
GR
GR
GS
[1 0 0 1 149 549] CT
0.149 GC
/Helvetica 25 F
GS
[1 0 0 1 0 0] CT
-42 9 moveto 
1 -1 scale
(200) t 
GR
GR
GS
[1 0 0 1 149 467.5] CT
0.149 GC
/Helvetica 25 F
GS
[1 0 0 1 0 0] CT
-42 9 moveto 
1 -1 scale
(300) t 
GR
GR
GS
[1 0 0 1 149 386] CT
0.149 GC
/Helvetica 25 F
GS
[1 0 0 1 0 0] CT
-42 9 moveto 
1 -1 scale
(400) t 
GR
GR
GS
[1 0 0 1 149 304.5] CT
0.149 GC
/Helvetica 25 F
GS
[1 0 0 1 0 0] CT
-42 9 moveto 
1 -1 scale
(500) t 
GR
GR
GS
[1 0 0 1 149 223] CT
0.149 GC
/Helvetica 25 F
GS
[1 0 0 1 0 0] CT
-42 9 moveto 
1 -1 scale
(600) t 
GR
GR
GS
[1 0 0 1 149 141.5] CT
0.149 GC
/Helvetica 25 F
GS
[1 0 0 1 0 0] CT
-42 9 moveto 
1 -1 scale
(700) t 
GR
GR
GS
[1 0 0 1 149 60] CT
0.149 GC
/Helvetica 25 F
GS
[1 0 0 1 0 0] CT
-42 9 moveto 
1 -1 scale
(800) t 
GR
GR
GS
[0 -1 1 0 104 385.99969] CT
0.149 GC
N
-49.384 -12.9 M
-48.368 -11.666 -46.915 -10.97 QT
-45.462 -10.275 -43.868 -10.275 QT
-42.306 -10.275 -41.04 -11.064 QT
-39.774 -11.853 -39.774 -13.322 QT
-39.774 -15.666 L
-39.774 -16.556 -43.274 -16.556 QT
-43.274 -17.541 L
-35.243 -17.541 L
-35.243 -16.556 L
-36.134 -16.556 -36.649 -16.408 QT
-37.165 -16.259 -37.165 -15.666 QT
-37.165 -10.15 L
-37.165 -10.056 -37.243 -9.978 QT
-37.321 -9.9 -37.415 -9.9 QT
-37.681 -9.9 -38.29 -10.517 QT
-38.899 -11.134 -39.243 -11.603 QT
-39.931 -10.431 -41.392 -9.861 QT
-42.853 -9.291 -44.462 -9.291 QT
-47.181 -9.291 -49.415 -10.689 QT
-51.649 -12.088 -52.946 -14.431 QT
-54.243 -16.775 -54.243 -19.478 QT
-54.243 -21.447 -53.493 -23.322 QT
-52.743 -25.197 -51.399 -26.619 QT
-50.056 -28.041 -48.259 -28.845 QT
-46.462 -29.65 -44.462 -29.65 QT
-43.009 -29.65 -41.72 -29.025 QT
-40.431 -28.4 -39.415 -27.259 QT
-37.79 -29.556 L
-37.618 -29.65 -37.603 -29.65 QT
-37.384 -29.65 L
-37.306 -29.65 -37.235 -29.58 QT
-37.165 -29.509 -37.165 -29.416 QT
-37.165 -21.853 L
-37.165 -21.603 -37.384 -21.603 QT
-37.899 -21.603 L
-38.149 -21.603 -38.149 -21.853 QT
-38.149 -22.65 -38.478 -23.65 QT
-38.806 -24.65 -39.298 -25.549 QT
-39.79 -26.447 -40.446 -27.134 QT
-42.024 -28.666 -44.056 -28.666 QT
-45.618 -28.666 -47.04 -27.963 QT
-48.462 -27.259 -49.431 -26.041 QT
-50.462 -24.728 -50.86 -23.049 QT
-51.259 -21.369 -51.259 -19.478 QT
-51.259 -15.181 -49.384 -12.9 QT
cp
f
GR
GS
[0 -1 1 0 104 385.99969] CT
0.149 GC
N
-33.382 -9.9 M
-33.382 -10.884 L
-30.491 -10.884 -30.491 -11.775 QT
-30.491 -27.15 L
-30.491 -28.041 -33.382 -28.041 QT
-33.382 -29.025 L
-17.945 -29.025 L
-17.163 -22.619 L
-17.976 -22.619 L
-18.163 -24.384 -18.484 -25.4 QT
-18.804 -26.416 -19.421 -26.994 QT
-20.038 -27.572 -21.07 -27.806 QT
-22.101 -28.041 -23.898 -28.041 QT
-26.46 -28.041 L
-26.96 -28.041 -27.241 -28.002 QT
-27.523 -27.963 -27.702 -27.767 QT
-27.882 -27.572 -27.882 -27.15 QT
-27.882 -19.947 L
-25.898 -19.947 L
-24.46 -19.947 -23.796 -20.205 QT
-23.132 -20.463 -22.874 -21.127 QT
-22.616 -21.791 -22.616 -23.228 QT
-21.82 -23.228 L
-21.82 -15.697 L
-22.616 -15.697 L
-22.616 -17.134 -22.874 -17.806 QT
-23.132 -18.478 -23.796 -18.728 QT
-24.46 -18.978 -25.898 -18.978 QT
-27.882 -18.978 L
-27.882 -11.775 L
-27.882 -10.884 -24.304 -10.884 QT
-24.304 -9.9 L
-33.382 -9.9 L
cp
f
GR
GS
[0 -1 1 0 104 385.99969] CT
0.149 GC
N
-15.431 -9.9 M
-15.431 -10.884 L
-14.477 -10.884 -13.86 -11.033 QT
-13.243 -11.181 -13.243 -11.775 QT
-13.243 -26.478 L
-13.243 -27.228 -13.47 -27.564 QT
-13.696 -27.9 -14.118 -27.97 QT
-14.54 -28.041 -15.431 -28.041 QT
-15.431 -29.025 L
-11.274 -29.322 L
-11.274 -11.775 L
-11.274 -11.181 -10.657 -11.033 QT
-10.04 -10.884 -9.102 -10.884 QT
-9.102 -9.9 L
-15.431 -9.9 L
cp
f
GR
GS
[0 -1 1 0 104 385.99969] CT
0.149 GC
N
-1.651 -9.588 M
-3.339 -9.588 -4.768 -10.439 QT
-6.198 -11.291 -7.034 -12.728 QT
-7.87 -14.166 -7.87 -15.869 QT
-7.87 -17.15 -7.409 -18.338 QT
-6.948 -19.525 -6.096 -20.463 QT
-5.245 -21.4 -4.112 -21.924 QT
-2.979 -22.447 -1.651 -22.447 QT
0.068 -22.447 1.482 -21.541 QT
2.896 -20.634 3.716 -19.111 QT
4.536 -17.588 4.536 -15.869 QT
4.536 -14.181 3.708 -12.736 QT
2.88 -11.291 1.451 -10.439 QT
0.021 -9.588 -1.651 -9.588 QT
cp
-1.651 -10.4 M
0.599 -10.4 1.349 -12.033 QT
2.099 -13.666 2.099 -16.181 QT
2.099 -17.588 1.951 -18.509 QT
1.802 -19.431 1.286 -20.181 QT
0.974 -20.65 0.49 -20.994 QT
0.005 -21.338 -0.534 -21.525 QT
-1.073 -21.713 -1.651 -21.713 QT
-2.526 -21.713 -3.315 -21.314 QT
-4.104 -20.916 -4.62 -20.181 QT
-5.135 -19.384 -5.276 -18.439 QT
-5.417 -17.494 -5.417 -16.181 QT
-5.417 -14.603 -5.143 -13.353 QT
-4.87 -12.103 -4.049 -11.252 QT
-3.229 -10.4 -1.651 -10.4 QT
cp
f
GR
GS
[0 -1 1 0 104 385.99969] CT
0.149 GC
N
5.818 -4.478 M
5.818 -5.447 L
6.787 -5.447 7.396 -5.611 QT
8.005 -5.775 8.005 -6.338 QT
8.005 -19.838 L
8.005 -20.603 7.458 -20.799 QT
6.912 -20.994 5.818 -20.994 QT
5.818 -21.978 L
9.974 -22.275 L
9.974 -20.541 L
10.74 -21.384 11.755 -21.83 QT
12.771 -22.275 13.912 -22.275 QT
15.568 -22.275 16.896 -21.377 QT
18.224 -20.478 18.966 -19.025 QT
19.708 -17.572 19.708 -15.947 QT
19.708 -14.244 18.888 -12.783 QT
18.068 -11.322 16.638 -10.455 QT
15.208 -9.588 13.49 -9.588 QT
11.458 -9.588 10.052 -11.244 QT
10.052 -6.338 L
10.052 -5.775 10.669 -5.611 QT
11.287 -5.447 12.24 -5.447 QT
12.24 -4.478 L
5.818 -4.478 L
cp
10.052 -12.619 M
10.537 -11.619 11.412 -10.97 QT
12.287 -10.322 13.333 -10.322 QT
14.302 -10.322 15.044 -10.845 QT
15.787 -11.369 16.294 -12.244 QT
16.802 -13.119 17.044 -14.08 QT
17.287 -15.041 17.287 -15.947 QT
17.287 -17.072 16.88 -18.377 QT
16.474 -19.681 15.646 -20.572 QT
14.818 -21.463 13.646 -21.463 QT
12.505 -21.463 11.56 -20.884 QT
10.615 -20.306 10.052 -19.306 QT
10.052 -12.619 L
cp
f
GR
GS
[0 -1 1 0 104 385.99969] CT
0.149 GC
N
21.314 -9.822 M
21.314 -14.384 L
21.314 -14.603 21.549 -14.603 QT
21.892 -14.603 L
22.064 -14.603 22.111 -14.384 QT
22.892 -10.322 25.892 -10.322 QT
27.221 -10.322 28.111 -10.924 QT
29.002 -11.525 29.002 -12.791 QT
29.002 -13.681 28.307 -14.322 QT
27.611 -14.963 26.658 -15.197 QT
24.783 -15.556 L
23.83 -15.759 23.064 -16.189 QT
22.299 -16.619 21.807 -17.322 QT
21.314 -18.025 21.314 -18.947 QT
21.314 -20.181 21.963 -20.97 QT
22.611 -21.759 23.65 -22.103 QT
24.689 -22.447 25.892 -22.447 QT
27.33 -22.447 28.392 -21.681 QT
29.189 -22.384 L
29.189 -22.447 29.33 -22.447 QT
29.533 -22.447 L
29.627 -22.447 29.689 -22.377 QT
29.752 -22.306 29.752 -22.213 QT
29.752 -18.556 L
29.752 -18.291 29.533 -18.291 QT
29.189 -18.291 L
28.955 -18.291 28.955 -18.556 QT
28.955 -20.025 28.142 -20.908 QT
27.33 -21.791 25.861 -21.791 QT
24.596 -21.791 23.674 -21.33 QT
22.752 -20.869 22.752 -19.728 QT
22.752 -18.947 23.416 -18.447 QT
24.08 -17.947 24.971 -17.728 QT
26.877 -17.384 L
27.83 -17.166 28.658 -16.642 QT
29.486 -16.119 29.971 -15.33 QT
30.455 -14.541 30.455 -13.541 QT
30.455 -12.525 30.103 -11.783 QT
29.752 -11.041 29.135 -10.549 QT
28.517 -10.056 27.666 -9.822 QT
26.814 -9.588 25.892 -9.588 QT
24.142 -9.588 22.892 -10.759 QT
21.861 -9.65 L
21.861 -9.588 21.721 -9.588 QT
21.549 -9.588 L
21.314 -9.588 21.314 -9.822 QT
cp
f
GR
GS
[0 -1 1 0 104 385.99969] CT
0.149 GC
N
32.802 -3.463 M
32.802 -3.541 32.818 -3.572 QT
42.552 -30.556 L
42.615 -30.728 42.747 -30.814 QT
42.88 -30.9 43.068 -30.9 QT
43.318 -30.9 43.474 -30.752 QT
43.63 -30.603 43.63 -30.338 QT
43.63 -30.228 L
33.896 -3.244 L
33.724 -2.9 33.365 -2.9 QT
33.13 -2.9 32.966 -3.064 QT
32.802 -3.228 32.802 -3.463 QT
cp
f
GR
GS
[0 -1 1 0 104 385.99969] CT
0.149 GC
N
45.912 -9.822 M
45.912 -14.384 L
45.912 -14.603 46.146 -14.603 QT
46.49 -14.603 L
46.662 -14.603 46.708 -14.384 QT
47.49 -10.322 50.49 -10.322 QT
51.818 -10.322 52.708 -10.924 QT
53.599 -11.525 53.599 -12.791 QT
53.599 -13.681 52.904 -14.322 QT
52.208 -14.963 51.255 -15.197 QT
49.38 -15.556 L
48.427 -15.759 47.662 -16.189 QT
46.896 -16.619 46.404 -17.322 QT
45.912 -18.025 45.912 -18.947 QT
45.912 -20.181 46.56 -20.97 QT
47.208 -21.759 48.248 -22.103 QT
49.287 -22.447 50.49 -22.447 QT
51.927 -22.447 52.99 -21.681 QT
53.787 -22.384 L
53.787 -22.447 53.927 -22.447 QT
54.13 -22.447 L
54.224 -22.447 54.287 -22.377 QT
54.349 -22.306 54.349 -22.213 QT
54.349 -18.556 L
54.349 -18.291 54.13 -18.291 QT
53.787 -18.291 L
53.552 -18.291 53.552 -18.556 QT
53.552 -20.025 52.74 -20.908 QT
51.927 -21.791 50.458 -21.791 QT
49.193 -21.791 48.271 -21.33 QT
47.349 -20.869 47.349 -19.728 QT
47.349 -18.947 48.013 -18.447 QT
48.677 -17.947 49.568 -17.728 QT
51.474 -17.384 L
52.427 -17.166 53.255 -16.642 QT
54.083 -16.119 54.568 -15.33 QT
55.052 -14.541 55.052 -13.541 QT
55.052 -12.525 54.701 -11.783 QT
54.349 -11.041 53.732 -10.549 QT
53.115 -10.056 52.263 -9.822 QT
51.412 -9.588 50.49 -9.588 QT
48.74 -9.588 47.49 -10.759 QT
46.458 -9.65 L
46.458 -9.588 46.318 -9.588 QT
46.146 -9.588 L
45.912 -9.588 45.912 -9.822 QT
cp
f
GR
GS
0 0.447 0.741 RC
1 LJ
1.2 LW
N
301.831 697.837 M
537.733 678.517 L
675.813 681.122 L
773.806 681.272 L
849.825 684.658 L
911.943 685.199 L
964.465 686.849 L
1009.964 687.072 L
1050.098 687.127 L
1086 685.59 L
S
GR
GS
[1 0 0 1 301.83084 697.83728] CT
0 0.447 0.741 RC
N
-3 -3 M
-3 3 L
3 3 L
3 -3 L
cp
f
GR
GS
[1 0 0 1 301.83084 697.83728] CT
0 0.447 0.741 RC
10.0 ML
1.2 LW
N
-3 -3 M
-3 3 L
3 3 L
3 -3 L
cp
S
GR
GS
[1 0 0 1 537.7334 678.51727] CT
0 0.447 0.741 RC
N
/f227889816{-3 -3 M
-3 3 L
3 3 L
3 -3 L
cp}def
f227889816
f
GR
GS
[1 0 0 1 537.7334 678.51727] CT
0 0.447 0.741 RC
10.0 ML
1.2 LW
N
-3 -3 M
-3 3 L
3 3 L
3 -3 L
cp
S
GR
GS
[1 0 0 1 675.81311 681.1217] CT
0 0.447 0.741 RC
N
f227889816
f
GR
GS
[1 0 0 1 675.81311 681.1217] CT
0 0.447 0.741 RC
10.0 ML
1.2 LW
N
-3 -3 M
-3 3 L
3 3 L
3 -3 L
cp
S
GR
GS
[1 0 0 1 773.80609 681.27161] CT
0 0.447 0.741 RC
N
f227889816
f
GR
GS
[1 0 0 1 773.80609 681.27161] CT
0 0.447 0.741 RC
10.0 ML
1.2 LW
N
-3 -3 M
-3 3 L
3 3 L
3 -3 L
cp
S
GR
GS
[1 0 0 1 849.8252 684.65765] CT
0 0.447 0.741 RC
N
f227889816
f
GR
GS
[1 0 0 1 849.8252 684.65765] CT
0 0.447 0.741 RC
10.0 ML
1.2 LW
N
-3 -3 M
-3 3 L
3 3 L
3 -3 L
cp
S
GR
GS
[1 0 0 1 911.9425 685.19879] CT
0 0.447 0.741 RC
N
f227889816
f
GR
GS
[1 0 0 1 911.9425 685.19879] CT
0 0.447 0.741 RC
10.0 ML
1.2 LW
N
-3 -3 M
-3 3 L
3 3 L
3 -3 L
cp
S
GR
GS
[1 0 0 1 964.4649 686.84912] CT
0 0.447 0.741 RC
N
f227889816
f
GR
GS
[1 0 0 1 964.4649 686.84912] CT
0 0.447 0.741 RC
10.0 ML
1.2 LW
N
-3 -3 M
-3 3 L
3 3 L
3 -3 L
cp
S
GR
GS
[1 0 0 1 1009.96381 687.07233] CT
0 0.447 0.741 RC
N
f227889816
f
GR
GS
[1 0 0 1 1009.96381 687.07233] CT
0 0.447 0.741 RC
10.0 ML
1.2 LW
N
-3 -3 M
-3 3 L
3 3 L
3 -3 L
cp
S
GR
GS
[1 0 0 1 1050.0979 687.12708] CT
0 0.447 0.741 RC
N
f227889816
f
GR
GS
[1 0 0 1 1050.0979 687.12708] CT
0 0.447 0.741 RC
10.0 ML
1.2 LW
N
-3 -3 M
-3 3 L
3 3 L
3 -3 L
cp
S
GR
GS
[1 0 0 1 1086 685.59039] CT
0 0.447 0.741 RC
N
f227889816
f
GR
GS
[1 0 0 1 1086 685.59039] CT
0 0.447 0.741 RC
10.0 ML
1.2 LW
N
-3 -3 M
-3 3 L
3 3 L
3 -3 L
cp
S
GR
GS
0.851 0.325 0.098 RC
1 LJ
1.2 LW
N
301.831 503.512 M
537.733 461.231 L
675.813 450.036 L
773.806 446.37 L
849.825 445.185 L
911.943 444.831 L
964.465 444.632 L
1009.964 444.263 L
1050.098 444.929 L
1086 445.423 L
S
GR
GS
[1 0 0 1 301.83084 503.51163] CT
0.851 0.325 0.098 RC
N
f227889816
f
GR
GS
[1 0 0 1 301.83084 503.51163] CT
0.851 0.325 0.098 RC
10.0 ML
1.2 LW
N
-3 -3 M
-3 3 L
3 3 L
3 -3 L
cp
S
GR
GS
[1 0 0 1 537.7334 461.23077] CT
0.851 0.325 0.098 RC
N
f227889816
f
GR
GS
[1 0 0 1 537.7334 461.23077] CT
0.851 0.325 0.098 RC
10.0 ML
1.2 LW
N
-3 -3 M
-3 3 L
3 3 L
3 -3 L
cp
S
GR
GS
[1 0 0 1 675.81311 450.03574] CT
0.851 0.325 0.098 RC
N
f227889816
f
GR
GS
[1 0 0 1 675.81311 450.03574] CT
0.851 0.325 0.098 RC
10.0 ML
1.2 LW
N
-3 -3 M
-3 3 L
3 3 L
3 -3 L
cp
S
GR
GS
[1 0 0 1 773.80609 446.37036] CT
0.851 0.325 0.098 RC
N
f227889816
f
GR
GS
[1 0 0 1 773.80609 446.37036] CT
0.851 0.325 0.098 RC
10.0 ML
1.2 LW
N
-3 -3 M
-3 3 L
3 3 L
3 -3 L
cp
S
GR
GS
[1 0 0 1 849.8252 445.18454] CT
0.851 0.325 0.098 RC
N
f227889816
f
GR
GS
[1 0 0 1 849.8252 445.18454] CT
0.851 0.325 0.098 RC
10.0 ML
1.2 LW
N
-3 -3 M
-3 3 L
3 3 L
3 -3 L
cp
S
GR
GS
[1 0 0 1 911.9425 444.83112] CT
0.851 0.325 0.098 RC
N
f227889816
f
GR
GS
[1 0 0 1 911.9425 444.83112] CT
0.851 0.325 0.098 RC
10.0 ML
1.2 LW
N
-3 -3 M
-3 3 L
3 3 L
3 -3 L
cp
S
GR
GS
[1 0 0 1 964.4649 444.63239] CT
0.851 0.325 0.098 RC
N
f227889816
f
GR
GS
[1 0 0 1 964.4649 444.63239] CT
0.851 0.325 0.098 RC
10.0 ML
1.2 LW
N
-3 -3 M
-3 3 L
3 3 L
3 -3 L
cp
S
GR
GS
[1 0 0 1 1009.96381 444.26318] CT
0.851 0.325 0.098 RC
N
f227889816
f
GR
GS
[1 0 0 1 1009.96381 444.26318] CT
0.851 0.325 0.098 RC
10.0 ML
1.2 LW
N
-3 -3 M
-3 3 L
3 3 L
3 -3 L
cp
S
GR
GS
[1 0 0 1 1050.0979 444.92938] CT
0.851 0.325 0.098 RC
N
f227889816
f
GR
GS
[1 0 0 1 1050.0979 444.92938] CT
0.851 0.325 0.098 RC
10.0 ML
1.2 LW
N
-3 -3 M
-3 3 L
3 3 L
3 -3 L
cp
S
GR
GS
[1 0 0 1 1086 445.42255] CT
0.851 0.325 0.098 RC
N
f227889816
f
GR
GS
[1 0 0 1 1086 445.42255] CT
0.851 0.325 0.098 RC
10.0 ML
1.2 LW
N
-3 -3 M
-3 3 L
3 3 L
3 -3 L
cp
S
GR
GS
0.929 0.694 0.125 RC
1 LJ
1.2 LW
N
301.831 413.167 M
537.733 233.867 L
675.813 174.1 L
773.806 151.688 L
849.825 138.79 L
911.943 133.613 L
964.465 130.935 L
1009.964 128.317 L
1050.098 131.532 L
1086 131.741 L
S
GR
GS
[1 0 0 1 301.83084 413.16666] CT
0.929 0.694 0.125 RC
N
f227889816
f
GR
GS
[1 0 0 1 301.83084 413.16666] CT
0.929 0.694 0.125 RC
10.0 ML
1.2 LW
N
-3 -3 M
-3 3 L
3 3 L
3 -3 L
cp
S
GR
GS
[1 0 0 1 537.7334 233.86665] CT
0.929 0.694 0.125 RC
N
f227889816
f
GR
GS
[1 0 0 1 537.7334 233.86665] CT
0.929 0.694 0.125 RC
10.0 ML
1.2 LW
N
-3 -3 M
-3 3 L
3 3 L
3 -3 L
cp
S
GR
GS
[1 0 0 1 675.81311 174.10001] CT
0.929 0.694 0.125 RC
N
f227889816
f
GR
GS
[1 0 0 1 675.81311 174.10001] CT
0.929 0.694 0.125 RC
10.0 ML
1.2 LW
N
-3 -3 M
-3 3 L
3 3 L
3 -3 L
cp
S
GR
GS
[1 0 0 1 773.80609 151.6875] CT
0.929 0.694 0.125 RC
N
f227889816
f
GR
GS
[1 0 0 1 773.80609 151.6875] CT
0.929 0.694 0.125 RC
10.0 ML
1.2 LW
N
-3 -3 M
-3 3 L
3 3 L
3 -3 L
cp
S
GR
GS
[1 0 0 1 849.8252 138.7903] CT
0.929 0.694 0.125 RC
N
f227889816
f
GR
GS
[1 0 0 1 849.8252 138.7903] CT
0.929 0.694 0.125 RC
10.0 ML
1.2 LW
N
-3 -3 M
-3 3 L
3 3 L
3 -3 L
cp
S
GR
GS
[1 0 0 1 911.9425 133.61292] CT
0.929 0.694 0.125 RC
N
f227889816
f
GR
GS
[1 0 0 1 911.9425 133.61292] CT
0.929 0.694 0.125 RC
10.0 ML
1.2 LW
N
-3 -3 M
-3 3 L
3 3 L
3 -3 L
cp
S
GR
GS
[1 0 0 1 964.4649 130.93518] CT
0.929 0.694 0.125 RC
N
f227889816
f
GR
GS
[1 0 0 1 964.4649 130.93518] CT
0.929 0.694 0.125 RC
10.0 ML
1.2 LW
N
-3 -3 M
-3 3 L
3 3 L
3 -3 L
cp
S
GR
GS
[1 0 0 1 1009.96381 128.31738] CT
0.929 0.694 0.125 RC
N
f227889816
f
GR
GS
[1 0 0 1 1009.96381 128.31738] CT
0.929 0.694 0.125 RC
10.0 ML
1.2 LW
N
-3 -3 M
-3 3 L
3 3 L
3 -3 L
cp
S
GR
GS
[1 0 0 1 1050.0979 131.53238] CT
0.929 0.694 0.125 RC
N
f227889816
f
GR
GS
[1 0 0 1 1050.0979 131.53238] CT
0.929 0.694 0.125 RC
10.0 ML
1.2 LW
N
-3 -3 M
-3 3 L
3 3 L
3 -3 L
cp
S
GR
GS
[1 0 0 1 1086 131.7411] CT
0.929 0.694 0.125 RC
N
f227889816
f
GR
GS
[1 0 0 1 1086 131.7411] CT
0.929 0.694 0.125 RC
10.0 ML
1.2 LW
N
-3 -3 M
-3 3 L
3 3 L
3 -3 L
cp
S
GR
GS
0.467 0.675 0.188 RC
1 LJ
1.2 LW
N
301.831 379.963 M
537.733 227.405 L
675.813 163.122 L
773.806 142.794 L
849.825 129.857 L
911.943 125.2 L
964.465 128.62 L
1009.964 125.333 L
1050.098 139.315 L
1086 129.479 L
S
GR
GS
[1 0 0 1 301.83084 379.96295] CT
0.467 0.675 0.188 RC
N
f227889816
f
GR
GS
[1 0 0 1 301.83084 379.96295] CT
0.467 0.675 0.188 RC
10.0 ML
1.2 LW
N
-3 -3 M
-3 3 L
3 3 L
3 -3 L
cp
S
GR
GS
[1 0 0 1 537.7334 227.40543] CT
0.467 0.675 0.188 RC
N
f227889816
f
GR
GS
[1 0 0 1 537.7334 227.40543] CT
0.467 0.675 0.188 RC
10.0 ML
1.2 LW
N
-3 -3 M
-3 3 L
3 3 L
3 -3 L
cp
S
GR
GS
[1 0 0 1 675.81311 163.12244] CT
0.467 0.675 0.188 RC
N
f227889816
f
GR
GS
[1 0 0 1 675.81311 163.12244] CT
0.467 0.675 0.188 RC
10.0 ML
1.2 LW
N
-3 -3 M
-3 3 L
3 3 L
3 -3 L
cp
S
GR
GS
[1 0 0 1 773.80609 142.79364] CT
0.467 0.675 0.188 RC
N
f227889816
f
GR
GS
[1 0 0 1 773.80609 142.79364] CT
0.467 0.675 0.188 RC
10.0 ML
1.2 LW
N
-3 -3 M
-3 3 L
3 3 L
3 -3 L
cp
S
GR
GS
[1 0 0 1 849.8252 129.85715] CT
0.467 0.675 0.188 RC
N
f227889816
f
GR
GS
[1 0 0 1 849.8252 129.85715] CT
0.467 0.675 0.188 RC
10.0 ML
1.2 LW
N
-3 -3 M
-3 3 L
3 3 L
3 -3 L
cp
S
GR
GS
[1 0 0 1 911.9425 125.20001] CT
0.467 0.675 0.188 RC
N
f227889816
f
GR
GS
[1 0 0 1 911.9425 125.20001] CT
0.467 0.675 0.188 RC
10.0 ML
1.2 LW
N
-3 -3 M
-3 3 L
3 3 L
3 -3 L
cp
S
GR
GS
[1 0 0 1 964.4649 128.62021] CT
0.467 0.675 0.188 RC
N
f227889816
f
GR
GS
[1 0 0 1 964.4649 128.62021] CT
0.467 0.675 0.188 RC
10.0 ML
1.2 LW
N
-3 -3 M
-3 3 L
3 3 L
3 -3 L
cp
S
GR
GS
[1 0 0 1 1009.96381 125.33335] CT
0.467 0.675 0.188 RC
N
f227889816
f
GR
GS
[1 0 0 1 1009.96381 125.33335] CT
0.467 0.675 0.188 RC
10.0 ML
1.2 LW
N
-3 -3 M
-3 3 L
3 3 L
3 -3 L
cp
S
GR
GS
[1 0 0 1 1050.0979 139.31467] CT
0.467 0.675 0.188 RC
N
f227889816
f
GR
GS
[1 0 0 1 1050.0979 139.31467] CT
0.467 0.675 0.188 RC
10.0 ML
1.2 LW
N
-3 -3 M
-3 3 L
3 3 L
3 -3 L
cp
S
GR
GS
[1 0 0 1 1086 129.47887] CT
0.467 0.675 0.188 RC
N
f227889816
f
GR
GS
[1 0 0 1 1086 129.47887] CT
0.467 0.675 0.188 RC
10.0 ML
1.2 LW
N
-3 -3 M
-3 3 L
3 3 L
3 -3 L
cp
S
GR
GS
1 GC
N
/f-1753347764{1057 367.5 M
1057 241.5 L
882.5 241.5 L
882.5 367.5 L
cp}def
f-1753347764
f
GR
GS
[1 0 0 1 919.43231 258.56772] CT
N
9.734 6.547 M
7.344 6.547 5.445 5.281 QT
3.547 4.016 2.477 1.922 QT
1.406 -0.172 1.406 -2.469 QT
1.406 -4.188 2.023 -5.859 QT
2.641 -7.531 3.742 -8.82 QT
4.844 -10.109 6.398 -10.867 QT
7.953 -11.625 9.734 -11.625 QT
11.5 -11.625 13.055 -10.859 QT
14.609 -10.094 15.719 -8.789 QT
16.828 -7.484 17.43 -5.859 QT
18.031 -4.234 18.031 -2.469 QT
18.031 -0.172 16.953 1.922 QT
15.875 4.016 13.977 5.281 QT
12.078 6.547 9.734 6.547 QT
cp
5.578 3.297 M
6.313 4.453 7.383 5.125 QT
8.453 5.797 9.734 5.797 QT
10.547 5.797 11.336 5.469 QT
12.125 5.141 12.766 4.57 QT
13.406 4 13.859 3.297 QT
15.344 1.062 15.344 -2.875 QT
15.344 -6.469 13.859 -8.578 QT
13.125 -9.625 12.031 -10.258 QT
10.938 -10.891 9.734 -10.891 QT
8.516 -10.891 7.414 -10.258 QT
6.313 -9.625 5.578 -8.578 QT
5 -7.75 4.672 -6.836 QT
4.344 -5.922 4.211 -4.93 QT
4.078 -3.938 4.078 -2.875 QT
4.078 -1.734 4.203 -0.656 QT
4.328 0.422 4.68 1.461 QT
5.031 2.5 5.578 3.297 QT
cp
f
GR
GS
[1 0 0 1 919.43231 258.56772] CT
N
20.085 10.844 M
20.085 9.984 L
20.945 9.984 21.491 9.836 QT
22.038 9.687 22.038 9.172 QT
22.038 -2.875 L
22.038 -3.563 21.554 -3.734 QT
21.07 -3.906 20.085 -3.906 QT
20.085 -4.781 L
23.788 -5.047 L
23.788 -3.5 L
24.476 -4.25 25.382 -4.649 QT
26.288 -5.047 27.32 -5.047 QT
28.788 -5.047 29.976 -4.25 QT
31.163 -3.453 31.827 -2.149 QT
32.491 -0.844 32.491 0.609 QT
32.491 2.125 31.757 3.43 QT
31.023 4.734 29.741 5.508 QT
28.46 6.281 26.945 6.281 QT
25.116 6.281 23.866 4.797 QT
23.866 9.172 L
23.866 9.687 24.421 9.836 QT
24.976 9.984 25.82 9.984 QT
25.82 10.844 L
20.085 10.844 L
cp
23.866 3.578 M
24.304 4.469 25.085 5.047 QT
25.866 5.625 26.788 5.625 QT
27.663 5.625 28.327 5.156 QT
28.991 4.687 29.445 3.906 QT
29.898 3.125 30.109 2.266 QT
30.32 1.406 30.32 0.609 QT
30.32 -0.391 29.96 -1.563 QT
29.601 -2.734 28.859 -3.531 QT
28.116 -4.328 27.07 -4.328 QT
26.054 -4.328 25.21 -3.813 QT
24.366 -3.297 23.866 -2.406 QT
23.866 3.578 L
cp
f
GR
GS
[1 0 0 1 919.43231 258.56772] CT
N
40.247 6.281 M
38.731 6.281 37.458 5.484 QT
36.184 4.687 35.458 3.351 QT
34.731 2.016 34.731 0.516 QT
34.731 -0.953 35.395 -2.266 QT
36.059 -3.578 37.247 -4.391 QT
38.434 -5.203 39.903 -5.203 QT
41.044 -5.203 41.895 -4.82 QT
42.747 -4.438 43.294 -3.75 QT
43.84 -3.063 44.122 -2.141 QT
44.403 -1.219 44.403 -0.109 QT
44.403 0.219 44.153 0.219 QT
36.903 0.219 L
36.903 0.5 L
36.903 2.562 37.739 4.055 QT
38.575 5.547 40.481 5.547 QT
41.247 5.547 41.895 5.203 QT
42.544 4.859 43.028 4.25 QT
43.512 3.641 43.684 2.953 QT
43.715 2.859 43.778 2.797 QT
43.84 2.734 43.934 2.734 QT
44.153 2.734 L
44.403 2.734 44.403 3.047 QT
44.044 4.469 42.872 5.375 QT
41.7 6.281 40.247 6.281 QT
cp
36.934 -0.391 M
42.637 -0.391 L
42.637 -1.344 42.372 -2.305 QT
42.106 -3.266 41.497 -3.906 QT
40.887 -4.547 39.903 -4.547 QT
38.481 -4.547 37.708 -3.219 QT
36.934 -1.891 36.934 -0.391 QT
cp
f
GR
GS
[1 0 0 1 919.43231 258.56772] CT
N
45.889 6 M
45.889 5.125 L
46.733 5.125 47.287 4.992 QT
47.842 4.859 47.842 4.328 QT
47.842 -2.5 L
47.842 -3.172 47.639 -3.469 QT
47.436 -3.766 47.053 -3.836 QT
46.67 -3.906 45.889 -3.906 QT
45.889 -4.781 L
49.514 -5.047 L
49.514 -2.609 L
50.014 -3.688 50.998 -4.367 QT
51.983 -5.047 53.139 -5.047 QT
54.873 -5.047 55.741 -4.219 QT
56.608 -3.391 56.608 -1.672 QT
56.608 4.328 L
56.608 4.859 57.162 4.992 QT
57.717 5.125 58.561 5.125 QT
58.561 6 L
52.842 6 L
52.842 5.125 L
53.702 5.125 54.248 4.992 QT
54.795 4.859 54.795 4.328 QT
54.795 -1.609 L
54.795 -2.828 54.444 -3.617 QT
54.092 -4.406 52.983 -4.406 QT
51.53 -4.406 50.6 -3.242 QT
49.67 -2.078 49.67 -0.609 QT
49.67 4.328 L
49.67 4.859 50.217 4.992 QT
50.764 5.125 51.608 5.125 QT
51.608 6 L
45.889 6 L
cp
f
GR
GS
[1 0 0 1 919.43231 258.56772] CT
N
68.236 6 M
68.236 5.125 L
70.814 5.125 70.814 3.641 QT
70.814 -9.406 L
70.814 -10.203 68.236 -10.203 QT
68.236 -11.078 L
72.971 -11.078 L
73.268 -11.078 73.361 -10.797 QT
78.814 3.344 L
84.252 -10.797 L
84.361 -11.078 84.658 -11.078 QT
89.377 -11.078 L
89.377 -10.203 L
86.814 -10.203 86.814 -9.406 QT
86.814 4.328 L
86.814 5.125 89.377 5.125 QT
89.377 6 L
82.111 6 L
82.111 5.125 L
84.689 5.125 84.689 4.328 QT
84.689 -10.219 L
78.533 5.719 L
78.424 6 78.111 6 QT
77.799 6 77.689 5.719 QT
71.611 -10.031 L
71.611 3.641 L
71.611 5.125 74.189 5.125 QT
74.189 6 L
68.236 6 L
cp
f
GR
GS
[1 0 0 1 919.43231 258.56772] CT
N
91.106 6 M
91.106 5.125 L
93.684 5.125 93.684 4.328 QT
93.684 -9.406 L
93.684 -10.203 91.106 -10.203 QT
91.106 -11.078 L
100.012 -11.078 L
101.372 -11.078 102.739 -10.516 QT
104.106 -9.953 104.989 -8.883 QT
105.872 -7.813 105.872 -6.375 QT
105.872 -4.984 104.981 -3.938 QT
104.09 -2.891 102.739 -2.344 QT
101.387 -1.797 100.012 -1.797 QT
95.997 -1.797 L
95.997 4.328 L
95.997 5.125 98.575 5.125 QT
98.575 6 L
91.106 6 L
cp
95.934 -2.547 M
99.325 -2.547 L
100.7 -2.547 101.559 -2.945 QT
102.419 -3.344 102.809 -4.18 QT
103.2 -5.016 103.2 -6.375 QT
103.2 -8.422 102.309 -9.313 QT
101.419 -10.203 99.325 -10.203 QT
97.2 -10.203 L
96.747 -10.203 96.497 -10.164 QT
96.247 -10.125 96.09 -9.945 QT
95.934 -9.766 95.934 -9.406 QT
95.934 -2.547 L
cp
f
GR
GS
0 0.447 0.741 RC
1 LJ
1.2 LW
N
886.493 258.568 M
916.438 258.568 L
S
GR
GS
[1 0 0 1 901.46527 258.56772] CT
0 0.447 0.741 RC
N
f227889816
f
GR
GS
[1 0 0 1 901.46527 258.56772] CT
0 0.447 0.741 RC
10.0 ML
1.2 LW
N
-3 -3 M
-3 3 L
3 3 L
3 -3 L
cp
S
GR
GS
[1 0 0 1 919.43231 289.18924] CT
N
0.859 6 M
0.859 5.125 L
3.438 5.125 3.438 4.328 QT
3.438 -9.406 L
3.438 -10.203 0.859 -10.203 QT
0.859 -11.078 L
10.047 -11.078 L
11.313 -11.078 12.609 -10.586 QT
13.906 -10.094 14.75 -9.117 QT
15.594 -8.141 15.594 -6.828 QT
15.594 -5.297 14.344 -4.266 QT
13.094 -3.234 11.422 -2.922 QT
12.516 -2.922 13.664 -2.328 QT
14.813 -1.734 15.539 -0.727 QT
16.266 0.281 16.266 1.391 QT
16.266 2.766 15.461 3.812 QT
14.656 4.859 13.359 5.43 QT
12.063 6 10.75 6 QT
0.859 6 L
cp
5.609 4.328 M
5.609 4.859 5.914 4.992 QT
6.219 5.125 6.875 5.125 QT
10.047 5.125 L
11.016 5.125 11.859 4.609 QT
12.703 4.094 13.188 3.234 QT
13.672 2.375 13.672 1.391 QT
13.672 0.453 13.266 -0.461 QT
12.859 -1.375 12.109 -1.961 QT
11.359 -2.547 10.406 -2.547 QT
5.609 -2.547 L
5.609 4.328 L
cp
5.609 -3.203 M
9.344 -3.203 L
10.109 -3.203 10.773 -3.477 QT
11.438 -3.75 11.969 -4.274 QT
12.5 -4.797 12.789 -5.445 QT
13.078 -6.094 13.078 -6.828 QT
13.078 -7.484 12.859 -8.078 QT
12.641 -8.672 12.227 -9.164 QT
11.813 -9.656 11.25 -9.93 QT
10.688 -10.203 10.047 -10.203 QT
6.875 -10.203 L
6.422 -10.203 6.172 -10.164 QT
5.922 -10.125 5.766 -9.945 QT
5.609 -9.766 5.609 -9.406 QT
5.609 -3.203 L
cp
f
GR
GS
[1 0 0 1 919.43231 289.18924] CT
N
18.474 6 M
18.474 5.125 L
19.333 5.125 19.88 4.992 QT
20.427 4.859 20.427 4.328 QT
20.427 -8.797 L
20.427 -9.469 20.224 -9.766 QT
20.021 -10.063 19.646 -10.133 QT
19.271 -10.203 18.474 -10.203 QT
18.474 -11.078 L
22.193 -11.344 L
22.193 4.328 L
22.193 4.859 22.74 4.992 QT
23.287 5.125 24.13 5.125 QT
24.13 6 L
18.474 6 L
cp
f
GR
GS
[1 0 0 1 919.43231 289.18924] CT
N
30.903 6.281 M
29.403 6.281 28.122 5.516 QT
26.84 4.75 26.098 3.469 QT
25.356 2.187 25.356 0.672 QT
25.356 -0.469 25.762 -1.531 QT
26.168 -2.594 26.934 -3.43 QT
27.7 -4.266 28.708 -4.734 QT
29.715 -5.203 30.903 -5.203 QT
32.434 -5.203 33.7 -4.391 QT
34.965 -3.578 35.7 -2.219 QT
36.434 -0.859 36.434 0.672 QT
36.434 2.172 35.692 3.461 QT
34.95 4.75 33.668 5.516 QT
32.387 6.281 30.903 6.281 QT
cp
30.903 5.547 M
32.903 5.547 33.575 4.094 QT
34.247 2.641 34.247 0.391 QT
34.247 -0.859 34.114 -1.688 QT
33.981 -2.516 33.528 -3.188 QT
33.247 -3.594 32.817 -3.906 QT
32.387 -4.219 31.903 -4.383 QT
31.418 -4.547 30.903 -4.547 QT
30.122 -4.547 29.418 -4.195 QT
28.715 -3.844 28.247 -3.188 QT
27.793 -2.469 27.661 -1.625 QT
27.528 -0.781 27.528 0.391 QT
27.528 1.797 27.778 2.914 QT
28.028 4.031 28.762 4.789 QT
29.497 5.547 30.903 5.547 QT
cp
f
GR
GS
[1 0 0 1 919.43231 289.18924] CT
N
44.066 6.281 M
42.566 6.281 41.332 5.492 QT
40.097 4.703 39.386 3.391 QT
38.675 2.078 38.675 0.609 QT
38.675 -0.875 39.379 -2.227 QT
40.082 -3.578 41.324 -4.391 QT
42.566 -5.203 44.066 -5.203 QT
45.535 -5.203 46.738 -4.633 QT
47.941 -4.063 47.941 -2.75 QT
47.941 -2.266 47.597 -1.906 QT
47.254 -1.547 46.754 -1.547 QT
46.254 -1.547 45.902 -1.906 QT
45.55 -2.266 45.55 -2.75 QT
45.55 -3.188 45.832 -3.516 QT
46.113 -3.844 46.519 -3.922 QT
45.66 -4.469 44.097 -4.469 QT
42.894 -4.469 42.168 -3.68 QT
41.441 -2.891 41.144 -1.719 QT
40.847 -0.547 40.847 0.609 QT
40.847 1.812 41.207 2.945 QT
41.566 4.078 42.371 4.812 QT
43.175 5.547 44.379 5.547 QT
45.566 5.547 46.394 4.82 QT
47.222 4.094 47.535 2.922 QT
47.535 2.781 47.722 2.781 QT
48.035 2.781 L
48.097 2.781 48.16 2.844 QT
48.222 2.906 48.222 3 QT
48.222 3.062 L
47.847 4.547 46.722 5.414 QT
45.597 6.281 44.066 6.281 QT
cp
f
GR
GS
[1 0 0 1 919.43231 289.18924] CT
N
48.905 6 M
48.905 5.125 L
49.764 5.125 50.311 4.992 QT
50.858 4.859 50.858 4.328 QT
50.858 -8.797 L
50.858 -9.469 50.662 -9.766 QT
50.467 -10.063 50.084 -10.133 QT
49.702 -10.203 48.905 -10.203 QT
48.905 -11.078 L
52.608 -11.344 L
52.608 0.516 L
55.967 -2.422 L
56.467 -2.906 56.467 -3.297 QT
56.467 -3.594 56.256 -3.75 QT
56.045 -3.906 55.764 -3.906 QT
55.764 -4.781 L
60.452 -4.781 L
60.452 -3.906 L
58.764 -3.906 57.061 -2.422 QT
55.28 -0.875 L
58.467 3.641 L
59.123 4.578 59.569 4.851 QT
60.014 5.125 61.045 5.125 QT
61.045 6 L
56.061 6 L
56.061 5.125 L
56.92 5.125 56.92 4.594 QT
56.92 4.219 56.467 3.641 QT
54.061 0.219 L
52.53 1.547 L
52.53 4.328 L
52.53 4.859 53.092 4.992 QT
53.655 5.125 54.483 5.125 QT
54.483 6 L
48.905 6 L
cp
f
GR
GS
[1 0 0 1 919.43231 289.18924] CT
N
62.287 6.078 M
62.287 2 L
62.287 1.797 62.505 1.797 QT
62.818 1.797 L
62.959 1.797 63.005 2 QT
63.709 5.625 66.38 5.625 QT
67.568 5.625 68.365 5.086 QT
69.162 4.547 69.162 3.422 QT
69.162 2.625 68.537 2.055 QT
67.912 1.484 67.068 1.281 QT
65.396 0.953 L
64.552 0.766 63.857 0.383 QT
63.162 0 62.724 -0.625 QT
62.287 -1.25 62.287 -2.078 QT
62.287 -3.188 62.865 -3.883 QT
63.443 -4.578 64.373 -4.891 QT
65.302 -5.203 66.38 -5.203 QT
67.662 -5.203 68.615 -4.516 QT
69.334 -5.141 L
69.334 -5.203 69.459 -5.203 QT
69.63 -5.203 L
69.709 -5.203 69.771 -5.141 QT
69.834 -5.078 69.834 -5 QT
69.834 -1.734 L
69.834 -1.5 69.63 -1.5 QT
69.334 -1.5 L
69.115 -1.5 69.115 -1.734 QT
69.115 -3.031 68.388 -3.828 QT
67.662 -4.625 66.349 -4.625 QT
65.224 -4.625 64.404 -4.211 QT
63.584 -3.797 63.584 -2.781 QT
63.584 -2.078 64.177 -1.633 QT
64.771 -1.188 65.568 -1 QT
67.255 -0.672 L
68.115 -0.484 68.849 -0.016 QT
69.584 0.453 70.021 1.156 QT
70.459 1.859 70.459 2.75 QT
70.459 3.656 70.146 4.32 QT
69.834 4.984 69.279 5.422 QT
68.724 5.859 67.966 6.07 QT
67.209 6.281 66.38 6.281 QT
64.818 6.281 63.709 5.234 QT
62.787 6.219 L
62.787 6.281 62.662 6.281 QT
62.505 6.281 L
62.287 6.281 62.287 6.078 QT
cp
f
GR
GS
[1 0 0 1 919.43231 289.18924] CT
N
72.085 6 M
72.085 5.125 L
72.945 5.125 73.491 4.992 QT
74.038 4.859 74.038 4.328 QT
74.038 -2.5 L
74.038 -3.453 73.671 -3.68 QT
73.304 -3.906 72.195 -3.906 QT
72.195 -4.781 L
75.804 -5.047 L
75.804 4.328 L
75.804 4.859 76.281 4.992 QT
76.757 5.125 77.538 5.125 QT
77.538 6 L
72.085 6 L
cp
73.148 -9.344 M
73.148 -9.891 73.562 -10.305 QT
73.976 -10.719 74.523 -10.719 QT
74.866 -10.719 75.202 -10.539 QT
75.538 -10.359 75.718 -10.031 QT
75.898 -9.703 75.898 -9.344 QT
75.898 -8.813 75.484 -8.399 QT
75.07 -7.984 74.523 -7.984 QT
73.976 -7.984 73.562 -8.399 QT
73.148 -8.813 73.148 -9.344 QT
cp
f
GR
GS
[1 0 0 1 919.43231 289.18924] CT
N
79.248 6 M
78.967 6 78.967 5.719 QT
78.967 5.531 L
78.967 5.422 79.03 5.359 QT
86.014 -4.125 L
83.764 -4.125 L
82.702 -4.125 82.014 -3.984 QT
81.327 -3.844 80.881 -3.477 QT
80.436 -3.109 80.233 -2.453 QT
80.03 -1.797 80.03 -0.656 QT
79.311 -0.656 L
79.592 -4.781 L
87.967 -4.781 L
88.077 -4.781 88.155 -4.703 QT
88.233 -4.625 88.233 -4.5 QT
88.233 -4.359 L
88.233 -4.281 88.186 -4.188 QT
81.202 5.281 L
83.592 5.281 L
84.67 5.281 85.397 5.148 QT
86.123 5.016 86.639 4.5 QT
87.108 4.016 87.288 3.211 QT
87.467 2.406 87.561 1.234 QT
88.28 1.234 L
87.858 6 L
79.248 6 L
cp
f
GR
GS
[1 0 0 1 919.43231 289.18924] CT
N
95.594 6.281 M
94.078 6.281 92.805 5.484 QT
91.531 4.687 90.805 3.351 QT
90.078 2.016 90.078 0.516 QT
90.078 -0.953 90.742 -2.266 QT
91.406 -3.578 92.594 -4.391 QT
93.781 -5.203 95.25 -5.203 QT
96.391 -5.203 97.242 -4.82 QT
98.094 -4.438 98.641 -3.75 QT
99.188 -3.063 99.469 -2.141 QT
99.75 -1.219 99.75 -0.109 QT
99.75 0.219 99.5 0.219 QT
92.25 0.219 L
92.25 0.5 L
92.25 2.562 93.086 4.055 QT
93.922 5.547 95.828 5.547 QT
96.594 5.547 97.242 5.203 QT
97.891 4.859 98.375 4.25 QT
98.86 3.641 99.031 2.953 QT
99.063 2.859 99.125 2.797 QT
99.188 2.734 99.281 2.734 QT
99.5 2.734 L
99.75 2.734 99.75 3.047 QT
99.391 4.469 98.219 5.375 QT
97.047 6.281 95.594 6.281 QT
cp
92.281 -0.391 M
97.985 -0.391 L
97.985 -1.344 97.719 -2.305 QT
97.453 -3.266 96.844 -3.906 QT
96.235 -4.547 95.25 -4.547 QT
93.828 -4.547 93.055 -3.219 QT
92.281 -1.891 92.281 -0.391 QT
cp
f
GR
GS
[1 0 0 1 919.43231 289.18924] CT
N
109.866 2.203 M
109.866 0.703 110.859 -0.453 QT
111.851 -1.609 113.398 -2.375 QT
112.476 -2.969 L
111.616 -3.531 111.077 -4.469 QT
110.538 -5.406 110.538 -6.422 QT
110.538 -7.625 111.171 -8.586 QT
111.804 -9.547 112.843 -10.102 QT
113.882 -10.656 115.07 -10.656 QT
116.179 -10.656 117.21 -10.203 QT
118.241 -9.75 118.906 -8.906 QT
119.57 -8.063 119.57 -6.906 QT
119.57 -6.063 119.179 -5.344 QT
118.788 -4.625 118.093 -4.047 QT
117.398 -3.469 116.616 -3.063 QT
118.054 -2.156 L
119.038 -1.5 119.64 -0.453 QT
120.241 0.594 120.241 1.75 QT
120.241 3.109 119.515 4.219 QT
118.788 5.328 117.593 5.937 QT
116.398 6.547 115.07 6.547 QT
113.773 6.547 112.57 6.023 QT
111.366 5.5 110.616 4.508 QT
109.866 3.516 109.866 2.203 QT
cp
111.226 2.203 M
111.226 3.187 111.765 4.008 QT
112.304 4.828 113.202 5.289 QT
114.101 5.75 115.07 5.75 QT
116.523 5.75 117.71 4.906 QT
118.898 4.062 118.898 2.656 QT
118.898 2.172 118.702 1.703 QT
118.507 1.234 118.171 0.851 QT
117.835 0.469 117.429 0.219 QT
114.07 -1.953 L
113.288 -1.531 112.632 -0.899 QT
111.976 -0.266 111.601 0.531 QT
111.226 1.328 111.226 2.203 QT
cp
112.945 -5.422 M
115.976 -3.469 L
117.023 -4.078 117.695 -4.945 QT
118.366 -5.813 118.366 -6.906 QT
118.366 -7.75 117.898 -8.453 QT
117.429 -9.156 116.671 -9.547 QT
115.913 -9.938 115.038 -9.938 QT
114.288 -9.938 113.523 -9.641 QT
112.757 -9.344 112.257 -8.766 QT
111.757 -8.188 111.757 -7.406 QT
111.757 -6.234 112.945 -5.422 QT
cp
f
GR
GS
0.851 0.325 0.098 RC
1 LJ
1.2 LW
N
886.493 289.189 M
916.438 289.189 L
S
GR
GS
[1 0 0 1 901.46527 289.18924] CT
0.851 0.325 0.098 RC
N
f227889816
f
GR
GS
[1 0 0 1 901.46527 289.18924] CT
0.851 0.325 0.098 RC
10.0 ML
1.2 LW
N
-3 -3 M
-3 3 L
3 3 L
3 -3 L
cp
S
GR
GS
[1 0 0 1 919.43231 319.81076] CT
N
/f1532383821{0.859 6 M
0.859 5.125 L
3.438 5.125 3.438 4.328 QT
3.438 -9.406 L
3.438 -10.203 0.859 -10.203 QT
0.859 -11.078 L
10.047 -11.078 L
11.313 -11.078 12.609 -10.586 QT
13.906 -10.094 14.75 -9.117 QT
15.594 -8.141 15.594 -6.828 QT
15.594 -5.297 14.344 -4.266 QT
13.094 -3.234 11.422 -2.922 QT
12.516 -2.922 13.664 -2.328 QT
14.813 -1.734 15.539 -0.727 QT
16.266 0.281 16.266 1.391 QT
16.266 2.766 15.461 3.812 QT
14.656 4.859 13.359 5.43 QT
12.063 6 10.75 6 QT
0.859 6 L
cp
5.609 4.328 M
5.609 4.859 5.914 4.992 QT
6.219 5.125 6.875 5.125 QT
10.047 5.125 L
11.016 5.125 11.859 4.609 QT
12.703 4.094 13.188 3.234 QT
13.672 2.375 13.672 1.391 QT
13.672 0.453 13.266 -0.461 QT
12.859 -1.375 12.109 -1.961 QT
11.359 -2.547 10.406 -2.547 QT
5.609 -2.547 L
5.609 4.328 L
cp
5.609 -3.203 M
9.344 -3.203 L
10.109 -3.203 10.773 -3.477 QT
11.438 -3.75 11.969 -4.274 QT
12.5 -4.797 12.789 -5.445 QT
13.078 -6.094 13.078 -6.828 QT
13.078 -7.484 12.859 -8.078 QT
12.641 -8.672 12.227 -9.164 QT
11.813 -9.656 11.25 -9.93 QT
10.688 -10.203 10.047 -10.203 QT
6.875 -10.203 L
6.422 -10.203 6.172 -10.164 QT
5.922 -10.125 5.766 -9.945 QT
5.609 -9.766 5.609 -9.406 QT
5.609 -3.203 L
cp}def
f1532383821
f
GR
GS
[1 0 0 1 919.43231 319.81076] CT
N
/f1790679491{18.474 6 M
18.474 5.125 L
19.333 5.125 19.88 4.992 QT
20.427 4.859 20.427 4.328 QT
20.427 -8.797 L
20.427 -9.469 20.224 -9.766 QT
20.021 -10.063 19.646 -10.133 QT
19.271 -10.203 18.474 -10.203 QT
18.474 -11.078 L
22.193 -11.344 L
22.193 4.328 L
22.193 4.859 22.74 4.992 QT
23.287 5.125 24.13 5.125 QT
24.13 6 L
18.474 6 L
cp}def
f1790679491
f
GR
GS
[1 0 0 1 919.43231 319.81076] CT
N
/f1291015099{30.903 6.281 M
29.403 6.281 28.122 5.516 QT
26.84 4.75 26.098 3.469 QT
25.356 2.187 25.356 0.672 QT
25.356 -0.469 25.762 -1.531 QT
26.168 -2.594 26.934 -3.43 QT
27.7 -4.266 28.708 -4.734 QT
29.715 -5.203 30.903 -5.203 QT
32.434 -5.203 33.7 -4.391 QT
34.965 -3.578 35.7 -2.219 QT
36.434 -0.859 36.434 0.672 QT
36.434 2.172 35.692 3.461 QT
34.95 4.75 33.668 5.516 QT
32.387 6.281 30.903 6.281 QT
cp
30.903 5.547 M
32.903 5.547 33.575 4.094 QT
34.247 2.641 34.247 0.391 QT
34.247 -0.859 34.114 -1.688 QT
33.981 -2.516 33.528 -3.188 QT
33.247 -3.594 32.817 -3.906 QT
32.387 -4.219 31.903 -4.383 QT
31.418 -4.547 30.903 -4.547 QT
30.122 -4.547 29.418 -4.195 QT
28.715 -3.844 28.247 -3.188 QT
27.793 -2.469 27.661 -1.625 QT
27.528 -0.781 27.528 0.391 QT
27.528 1.797 27.778 2.914 QT
28.028 4.031 28.762 4.789 QT
29.497 5.547 30.903 5.547 QT
cp}def
f1291015099
f
GR
GS
[1 0 0 1 919.43231 319.81076] CT
N
/f1051699895{44.066 6.281 M
42.566 6.281 41.332 5.492 QT
40.097 4.703 39.386 3.391 QT
38.675 2.078 38.675 0.609 QT
38.675 -0.875 39.379 -2.227 QT
40.082 -3.578 41.324 -4.391 QT
42.566 -5.203 44.066 -5.203 QT
45.535 -5.203 46.738 -4.633 QT
47.941 -4.063 47.941 -2.75 QT
47.941 -2.266 47.597 -1.906 QT
47.254 -1.547 46.754 -1.547 QT
46.254 -1.547 45.902 -1.906 QT
45.55 -2.266 45.55 -2.75 QT
45.55 -3.188 45.832 -3.516 QT
46.113 -3.844 46.519 -3.922 QT
45.66 -4.469 44.097 -4.469 QT
42.894 -4.469 42.168 -3.68 QT
41.441 -2.891 41.144 -1.719 QT
40.847 -0.547 40.847 0.609 QT
40.847 1.812 41.207 2.945 QT
41.566 4.078 42.371 4.812 QT
43.175 5.547 44.379 5.547 QT
45.566 5.547 46.394 4.82 QT
47.222 4.094 47.535 2.922 QT
47.535 2.781 47.722 2.781 QT
48.035 2.781 L
48.097 2.781 48.16 2.844 QT
48.222 2.906 48.222 3 QT
48.222 3.062 L
47.847 4.547 46.722 5.414 QT
45.597 6.281 44.066 6.281 QT
cp}def
f1051699895
f
GR
GS
[1 0 0 1 919.43231 319.81076] CT
N
/f1271157933{48.905 6 M
48.905 5.125 L
49.764 5.125 50.311 4.992 QT
50.858 4.859 50.858 4.328 QT
50.858 -8.797 L
50.858 -9.469 50.662 -9.766 QT
50.467 -10.063 50.084 -10.133 QT
49.702 -10.203 48.905 -10.203 QT
48.905 -11.078 L
52.608 -11.344 L
52.608 0.516 L
55.967 -2.422 L
56.467 -2.906 56.467 -3.297 QT
56.467 -3.594 56.256 -3.75 QT
56.045 -3.906 55.764 -3.906 QT
55.764 -4.781 L
60.452 -4.781 L
60.452 -3.906 L
58.764 -3.906 57.061 -2.422 QT
55.28 -0.875 L
58.467 3.641 L
59.123 4.578 59.569 4.851 QT
60.014 5.125 61.045 5.125 QT
61.045 6 L
56.061 6 L
56.061 5.125 L
56.92 5.125 56.92 4.594 QT
56.92 4.219 56.467 3.641 QT
54.061 0.219 L
52.53 1.547 L
52.53 4.328 L
52.53 4.859 53.092 4.992 QT
53.655 5.125 54.483 5.125 QT
54.483 6 L
48.905 6 L
cp}def
f1271157933
f
GR
GS
[1 0 0 1 919.43231 319.81076] CT
N
/f-1123791965{62.287 6.078 M
62.287 2 L
62.287 1.797 62.505 1.797 QT
62.818 1.797 L
62.959 1.797 63.005 2 QT
63.709 5.625 66.38 5.625 QT
67.568 5.625 68.365 5.086 QT
69.162 4.547 69.162 3.422 QT
69.162 2.625 68.537 2.055 QT
67.912 1.484 67.068 1.281 QT
65.396 0.953 L
64.552 0.766 63.857 0.383 QT
63.162 0 62.724 -0.625 QT
62.287 -1.25 62.287 -2.078 QT
62.287 -3.188 62.865 -3.883 QT
63.443 -4.578 64.373 -4.891 QT
65.302 -5.203 66.38 -5.203 QT
67.662 -5.203 68.615 -4.516 QT
69.334 -5.141 L
69.334 -5.203 69.459 -5.203 QT
69.63 -5.203 L
69.709 -5.203 69.771 -5.141 QT
69.834 -5.078 69.834 -5 QT
69.834 -1.734 L
69.834 -1.5 69.63 -1.5 QT
69.334 -1.5 L
69.115 -1.5 69.115 -1.734 QT
69.115 -3.031 68.388 -3.828 QT
67.662 -4.625 66.349 -4.625 QT
65.224 -4.625 64.404 -4.211 QT
63.584 -3.797 63.584 -2.781 QT
63.584 -2.078 64.177 -1.633 QT
64.771 -1.188 65.568 -1 QT
67.255 -0.672 L
68.115 -0.484 68.849 -0.016 QT
69.584 0.453 70.021 1.156 QT
70.459 1.859 70.459 2.75 QT
70.459 3.656 70.146 4.32 QT
69.834 4.984 69.279 5.422 QT
68.724 5.859 67.966 6.07 QT
67.209 6.281 66.38 6.281 QT
64.818 6.281 63.709 5.234 QT
62.787 6.219 L
62.787 6.281 62.662 6.281 QT
62.505 6.281 L
62.287 6.281 62.287 6.078 QT
cp}def
f-1123791965
f
GR
GS
[1 0 0 1 919.43231 319.81076] CT
N
/f2056637847{72.085 6 M
72.085 5.125 L
72.945 5.125 73.491 4.992 QT
74.038 4.859 74.038 4.328 QT
74.038 -2.5 L
74.038 -3.453 73.671 -3.68 QT
73.304 -3.906 72.195 -3.906 QT
72.195 -4.781 L
75.804 -5.047 L
75.804 4.328 L
75.804 4.859 76.281 4.992 QT
76.757 5.125 77.538 5.125 QT
77.538 6 L
72.085 6 L
cp
73.148 -9.344 M
73.148 -9.891 73.562 -10.305 QT
73.976 -10.719 74.523 -10.719 QT
74.866 -10.719 75.202 -10.539 QT
75.538 -10.359 75.718 -10.031 QT
75.898 -9.703 75.898 -9.344 QT
75.898 -8.813 75.484 -8.399 QT
75.07 -7.984 74.523 -7.984 QT
73.976 -7.984 73.562 -8.399 QT
73.148 -8.813 73.148 -9.344 QT
cp}def
f2056637847
f
GR
GS
[1 0 0 1 919.43231 319.81076] CT
N
/f-1815123443{79.248 6 M
78.967 6 78.967 5.719 QT
78.967 5.531 L
78.967 5.422 79.03 5.359 QT
86.014 -4.125 L
83.764 -4.125 L
82.702 -4.125 82.014 -3.984 QT
81.327 -3.844 80.881 -3.477 QT
80.436 -3.109 80.233 -2.453 QT
80.03 -1.797 80.03 -0.656 QT
79.311 -0.656 L
79.592 -4.781 L
87.967 -4.781 L
88.077 -4.781 88.155 -4.703 QT
88.233 -4.625 88.233 -4.5 QT
88.233 -4.359 L
88.233 -4.281 88.186 -4.188 QT
81.202 5.281 L
83.592 5.281 L
84.67 5.281 85.397 5.148 QT
86.123 5.016 86.639 4.5 QT
87.108 4.016 87.288 3.211 QT
87.467 2.406 87.561 1.234 QT
88.28 1.234 L
87.858 6 L
79.248 6 L
cp}def
f-1815123443
f
GR
GS
[1 0 0 1 919.43231 319.81076] CT
N
/f-1845925654{95.594 6.281 M
94.078 6.281 92.805 5.484 QT
91.531 4.687 90.805 3.351 QT
90.078 2.016 90.078 0.516 QT
90.078 -0.953 90.742 -2.266 QT
91.406 -3.578 92.594 -4.391 QT
93.781 -5.203 95.25 -5.203 QT
96.391 -5.203 97.242 -4.82 QT
98.094 -4.438 98.641 -3.75 QT
99.188 -3.063 99.469 -2.141 QT
99.75 -1.219 99.75 -0.109 QT
99.75 0.219 99.5 0.219 QT
92.25 0.219 L
92.25 0.5 L
92.25 2.562 93.086 4.055 QT
93.922 5.547 95.828 5.547 QT
96.594 5.547 97.242 5.203 QT
97.891 4.859 98.375 4.25 QT
98.86 3.641 99.031 2.953 QT
99.063 2.859 99.125 2.797 QT
99.188 2.734 99.281 2.734 QT
99.5 2.734 L
99.75 2.734 99.75 3.047 QT
99.391 4.469 98.219 5.375 QT
97.047 6.281 95.594 6.281 QT
cp
92.281 -0.391 M
97.985 -0.391 L
97.985 -1.344 97.719 -2.305 QT
97.453 -3.266 96.844 -3.906 QT
96.235 -4.547 95.25 -4.547 QT
93.828 -4.547 93.055 -3.219 QT
92.281 -1.891 92.281 -0.391 QT
cp}def
f-1845925654
f
GR
GS
[1 0 0 1 919.43231 319.81076] CT
N
/f632968179{111.132 6 M
111.132 5.125 L
114.257 5.125 114.257 4.328 QT
114.257 -8.797 L
112.976 -8.172 110.991 -8.172 QT
110.991 -9.047 L
114.054 -9.047 115.616 -10.656 QT
115.976 -10.656 L
116.054 -10.656 116.132 -10.586 QT
116.21 -10.516 116.21 -10.438 QT
116.21 4.328 L
116.21 5.125 119.335 5.125 QT
119.335 6 L
111.132 6 L
cp}def
f632968179
f
GR
GS
[1 0 0 1 919.43231 319.81076] CT
N
/f-1568071889{127.57 6.547 M
126.023 6.547 124.984 5.726 QT
123.945 4.906 123.374 3.594 QT
122.804 2.281 122.585 0.836 QT
122.367 -0.609 122.367 -2.078 QT
122.367 -4.063 123.14 -6.047 QT
123.913 -8.031 125.406 -9.344 QT
126.898 -10.656 128.945 -10.656 QT
129.804 -10.656 130.546 -10.328 QT
131.288 -10 131.702 -9.375 QT
132.117 -8.75 132.117 -7.859 QT
132.117 -7.344 131.773 -6.992 QT
131.429 -6.641 130.913 -6.641 QT
130.429 -6.641 130.077 -7 QT
129.726 -7.359 129.726 -7.859 QT
129.726 -8.344 130.077 -8.695 QT
130.429 -9.047 130.913 -9.047 QT
131.054 -9.047 L
130.726 -9.5 130.148 -9.719 QT
129.57 -9.938 128.945 -9.938 QT
128.195 -9.938 127.554 -9.602 QT
126.913 -9.266 126.398 -8.703 QT
125.882 -8.141 125.538 -7.469 QT
125.195 -6.797 125.007 -5.93 QT
124.82 -5.063 124.773 -4.305 QT
124.726 -3.547 124.726 -2.406 QT
125.163 -3.422 125.968 -4.078 QT
126.773 -4.734 127.788 -4.734 QT
128.898 -4.734 129.812 -4.281 QT
130.726 -3.828 131.39 -3.031 QT
132.054 -2.234 132.398 -1.203 QT
132.742 -0.172 132.742 0.875 QT
132.742 2.344 132.093 3.664 QT
131.445 4.984 130.257 5.766 QT
129.07 6.547 127.57 6.547 QT
cp
127.57 5.75 M
128.538 5.75 129.124 5.312 QT
129.71 4.875 129.984 4.148 QT
130.257 3.422 130.32 2.687 QT
130.382 1.953 130.382 0.875 QT
130.382 -0.547 130.249 -1.547 QT
130.117 -2.547 129.523 -3.313 QT
128.929 -4.078 127.695 -4.078 QT
126.679 -4.078 126.023 -3.391 QT
125.367 -2.703 125.07 -1.656 QT
124.773 -0.609 124.773 0.344 QT
124.773 0.672 124.804 0.844 QT
124.804 0.891 124.796 0.914 QT
124.788 0.937 124.773 0.969 QT
124.773 2.047 124.992 3.141 QT
125.21 4.234 125.835 4.992 QT
126.46 5.75 127.57 5.75 QT
cp}def
f-1568071889
f
GR
GS
0.929 0.694 0.125 RC
1 LJ
1.2 LW
N
886.493 319.811 M
916.438 319.811 L
S
GR
GS
[1 0 0 1 901.46527 319.81076] CT
0.929 0.694 0.125 RC
N
f227889816
f
GR
GS
[1 0 0 1 901.46527 319.81076] CT
0.929 0.694 0.125 RC
10.0 ML
1.2 LW
N
-3 -3 M
-3 3 L
3 3 L
3 -3 L
cp
S
GR
GS
[1 0 0 1 919.43231 350.43228] CT
N
f1532383821
f
GR
GS
[1 0 0 1 919.43231 350.43228] CT
N
f1790679491
f
GR
GS
[1 0 0 1 919.43231 350.43228] CT
N
f1291015099
f
GR
GS
[1 0 0 1 919.43231 350.43228] CT
N
f1051699895
f
GR
GS
[1 0 0 1 919.43231 350.43228] CT
N
f1271157933
f
GR
GS
[1 0 0 1 919.43231 350.43228] CT
N
f-1123791965
f
GR
GS
[1 0 0 1 919.43231 350.43228] CT
N
f2056637847
f
GR
GS
[1 0 0 1 919.43231 350.43228] CT
N
f-1815123443
f
GR
GS
[1 0 0 1 919.43231 350.43228] CT
N
f-1845925654
f
GR
GS
[1 0 0 1 919.43231 350.43228] CT
N
/f-38062295{111.195 4.078 M
111.788 4.922 112.773 5.336 QT
113.757 5.75 114.898 5.75 QT
116.351 5.75 116.96 4.516 QT
117.57 3.281 117.57 1.703 QT
117.57 1 117.445 0.289 QT
117.32 -0.422 117.015 -1.031 QT
116.71 -1.641 116.179 -2.008 QT
115.648 -2.375 114.882 -2.375 QT
113.21 -2.375 L
112.991 -2.375 112.991 -2.609 QT
112.991 -2.828 L
112.991 -3.016 113.21 -3.016 QT
114.601 -3.125 L
115.476 -3.125 116.054 -3.789 QT
116.632 -4.453 116.898 -5.399 QT
117.163 -6.344 117.163 -7.203 QT
117.163 -8.391 116.609 -9.164 QT
116.054 -9.938 114.898 -9.938 QT
113.945 -9.938 113.077 -9.57 QT
112.21 -9.203 111.695 -8.484 QT
111.757 -8.484 111.788 -8.492 QT
111.82 -8.5 111.866 -8.5 QT
112.429 -8.5 112.812 -8.109 QT
113.195 -7.719 113.195 -7.172 QT
113.195 -6.641 112.812 -6.25 QT
112.429 -5.859 111.866 -5.859 QT
111.32 -5.859 110.929 -6.25 QT
110.538 -6.641 110.538 -7.172 QT
110.538 -8.25 111.187 -9.039 QT
111.835 -9.828 112.851 -10.242 QT
113.866 -10.656 114.898 -10.656 QT
115.663 -10.656 116.499 -10.43 QT
117.335 -10.203 118.023 -9.781 QT
118.71 -9.359 119.14 -8.695 QT
119.57 -8.031 119.57 -7.203 QT
119.57 -6.141 119.101 -5.25 QT
118.632 -4.359 117.812 -3.711 QT
116.991 -3.063 116.023 -2.75 QT
117.101 -2.547 118.077 -1.938 QT
119.054 -1.328 119.648 -0.375 QT
120.241 0.578 120.241 1.672 QT
120.241 3.062 119.484 4.18 QT
118.726 5.297 117.499 5.922 QT
116.273 6.547 114.898 6.547 QT
113.726 6.547 112.546 6.101 QT
111.366 5.656 110.616 4.766 QT
109.866 3.875 109.866 2.625 QT
109.866 2.016 110.281 1.594 QT
110.695 1.172 111.32 1.172 QT
111.726 1.172 112.062 1.367 QT
112.398 1.562 112.585 1.898 QT
112.773 2.234 112.773 2.625 QT
112.773 3.234 112.343 3.656 QT
111.913 4.078 111.32 4.078 QT
111.195 4.078 L
cp}def
f-38062295
f
GR
GS
[1 0 0 1 919.43231 350.43228] CT
N
/f1349161638{122.57 6 M
122.57 5.328 L
122.57 5.266 122.617 5.187 QT
126.492 0.891 L
127.382 -0.063 127.929 -0.703 QT
128.476 -1.344 129.015 -2.188 QT
129.554 -3.031 129.859 -3.906 QT
130.163 -4.781 130.163 -5.75 QT
130.163 -6.781 129.788 -7.719 QT
129.413 -8.656 128.663 -9.211 QT
127.913 -9.766 126.851 -9.766 QT
125.757 -9.766 124.89 -9.117 QT
124.023 -8.469 123.679 -7.422 QT
123.773 -7.453 123.945 -7.453 QT
124.507 -7.453 124.906 -7.078 QT
125.304 -6.703 125.304 -6.094 QT
125.304 -5.531 124.906 -5.133 QT
124.507 -4.734 123.945 -4.734 QT
123.351 -4.734 122.96 -5.141 QT
122.57 -5.547 122.57 -6.094 QT
122.57 -7.031 122.921 -7.859 QT
123.273 -8.688 123.937 -9.328 QT
124.601 -9.969 125.437 -10.313 QT
126.273 -10.656 127.21 -10.656 QT
128.648 -10.656 129.882 -10.047 QT
131.117 -9.438 131.835 -8.336 QT
132.554 -7.234 132.554 -5.75 QT
132.554 -4.672 132.077 -3.695 QT
131.601 -2.719 130.859 -1.914 QT
130.117 -1.109 128.952 -0.102 QT
127.788 0.906 127.429 1.25 QT
124.585 3.969 L
126.992 3.969 L
128.773 3.969 129.96 3.937 QT
131.148 3.906 131.226 3.844 QT
131.507 3.531 131.82 1.547 QT
132.554 1.547 L
131.835 6 L
122.57 6 L
cp}def
f1349161638
f
GR
GS
0.467 0.675 0.188 RC
1 LJ
1.2 LW
N
886.493 350.432 M
916.438 350.432 L
S
GR
GS
[1 0 0 1 901.46527 350.43228] CT
0.467 0.675 0.188 RC
N
f227889816
f
GR
GS
[1 0 0 1 901.46527 350.43228] CT
0.467 0.675 0.188 RC
10.0 ML
1.2 LW
N
-3 -3 M
-3 3 L
3 3 L
3 -3 L
cp
S
GR
GS
0.149 GC
10.0 ML
0.5 LW
N
882.5 367.5 M
882.5 241.5 L
1057 241.5 L
1057 367.5 L
cp
S
GR
%%Trailer
%%Pages: 1
%%EOF
